%!PS-Adobe-3.0 EPSF-3.0
%%Creator: (MATLAB, The Mathworks, Inc. Version 8.5.0.197613 \(R2015a\). Operating System: Windows 8)
%%Title: (C:/Users/aleja/Desktop/TFG/Documentaci\363n/Obtenci\363n de datos/matlab_plot/stems/alvaro12-14.eps)
%%CreationDate: 2019-05-22T11:01:16
%%Pages: (atend)
%%BoundingBox: 0 0 420 315
%%LanguageLevel: 2
%%EndComments
%%BeginProlog
%%BeginResource: procset (Apache XML Graphics Std ProcSet) 1.2 0
%%Version: 1.2 0
%%Copyright: (Copyright 2001-2003,2010 The Apache Software Foundation. License terms: http://www.apache.org/licenses/LICENSE-2.0)
/bd{bind def}bind def
/ld{load def}bd
/GR/grestore ld
/M/moveto ld
/LJ/setlinejoin ld
/C/curveto ld
/f/fill ld
/LW/setlinewidth ld
/GC/setgray ld
/t/show ld
/N/newpath ld
/CT/concat ld
/cp/closepath ld
/S/stroke ld
/L/lineto ld
/CC/setcmykcolor ld
/A/ashow ld
/GS/gsave ld
/RC/setrgbcolor ld
/RM/rmoveto ld
/ML/setmiterlimit ld
/re {4 2 roll M
1 index 0 rlineto
0 exch rlineto
neg 0 rlineto
cp } bd
/_ctm matrix def
/_tm matrix def
/BT { _ctm currentmatrix pop matrix _tm copy pop 0 0 moveto } bd
/ET { _ctm setmatrix } bd
/iTm { _ctm setmatrix _tm concat } bd
/Tm { _tm astore pop iTm 0 0 moveto } bd
/ux 0.0 def
/uy 0.0 def
/F {
  /Tp exch def
  /Tf exch def
  Tf findfont Tp scalefont setfont
  /cf Tf def  /cs Tp def
} bd
/ULS {currentpoint /uy exch def /ux exch def} bd
/ULE {
  /Tcx currentpoint pop def
  gsave
  newpath
  cf findfont cs scalefont dup
  /FontMatrix get 0 get /Ts exch def /FontInfo get dup
  /UnderlinePosition get Ts mul /To exch def
  /UnderlineThickness get Ts mul /Tt exch def
  ux uy To add moveto  Tcx uy To add lineto
  Tt setlinewidth stroke
  grestore
} bd
/OLE {
  /Tcx currentpoint pop def
  gsave
  newpath
  cf findfont cs scalefont dup
  /FontMatrix get 0 get /Ts exch def /FontInfo get dup
  /UnderlinePosition get Ts mul /To exch def
  /UnderlineThickness get Ts mul /Tt exch def
  ux uy To add cs add moveto Tcx uy To add cs add lineto
  Tt setlinewidth stroke
  grestore
} bd
/SOE {
  /Tcx currentpoint pop def
  gsave
  newpath
  cf findfont cs scalefont dup
  /FontMatrix get 0 get /Ts exch def /FontInfo get dup
  /UnderlinePosition get Ts mul /To exch def
  /UnderlineThickness get Ts mul /Tt exch def
  ux uy To add cs 10 mul 26 idiv add moveto Tcx uy To add cs 10 mul 26 idiv add lineto
  Tt setlinewidth stroke
  grestore
} bd
/QT {
/Y22 exch store
/X22 exch store
/Y21 exch store
/X21 exch store
currentpoint
/Y21 load 2 mul add 3 div exch
/X21 load 2 mul add 3 div exch
/X21 load 2 mul /X22 load add 3 div
/Y21 load 2 mul /Y22 load add 3 div
/X22 load /Y22 load curveto
} bd
/SSPD {
dup length /d exch dict def
{
/v exch def
/k exch def
currentpagedevice k known {
/cpdv currentpagedevice k get def
v cpdv ne {
/upd false def
/nullv v type /nulltype eq def
/nullcpdv cpdv type /nulltype eq def
nullv nullcpdv or
{
/upd true def
} {
/sametype v type cpdv type eq def
sametype {
v type /arraytype eq {
/vlen v length def
/cpdvlen cpdv length def
vlen cpdvlen eq {
0 1 vlen 1 sub {
/i exch def
/obj v i get def
/cpdobj cpdv i get def
obj cpdobj ne {
/upd true def
exit
} if
} for
} {
/upd true def
} ifelse
} {
v type /dicttype eq {
v {
/dv exch def
/dk exch def
/cpddv cpdv dk get def
dv cpddv ne {
/upd true def
exit
} if
} forall
} {
/upd true def
} ifelse
} ifelse
} if
} ifelse
upd true eq {
d k v put
} if
} if
} if
} forall
d length 0 gt {
d setpagedevice
} if
} bd
%%EndResource
%%BeginResource: procset (Apache XML Graphics EPS ProcSet) 1.0 0
%%Version: 1.0 0
%%Copyright: (Copyright 2002-2003 The Apache Software Foundation. License terms: http://www.apache.org/licenses/LICENSE-2.0)
/BeginEPSF { %def
/b4_Inc_state save def         % Save state for cleanup
/dict_count countdictstack def % Count objects on dict stack
/op_count count 1 sub def      % Count objects on operand stack
userdict begin                 % Push userdict on dict stack
/showpage { } def              % Redefine showpage, { } = null proc
0 setgray 0 setlinecap         % Prepare graphics state
1 setlinewidth 0 setlinejoin
10 setmiterlimit [ ] 0 setdash newpath
/languagelevel where           % If level not equal to 1 then
{pop languagelevel             % set strokeadjust and
1 ne                           % overprint to their defaults.
{false setstrokeadjust false setoverprint
} if
} if
} bd
/EndEPSF { %def
count op_count sub {pop} repeat            % Clean up stacks
countdictstack dict_count sub {end} repeat
b4_Inc_state restore
} bd
%%EndResource
%FOPBeginFontDict
%%IncludeResource: font Courier-Bold
%%IncludeResource: font Helvetica
%%IncludeResource: font Courier-BoldOblique
%%IncludeResource: font Courier-Oblique
%%IncludeResource: font Times-Roman
%%IncludeResource: font Helvetica-BoldOblique
%%IncludeResource: font Helvetica-Bold
%%IncludeResource: font Helvetica-Oblique
%%IncludeResource: font Times-BoldItalic
%%IncludeResource: font Courier
%%IncludeResource: font Times-Italic
%%IncludeResource: font Times-Bold
%%IncludeResource: font Symbol
%%IncludeResource: font ZapfDingbats
%FOPEndFontDict
%%BeginResource: encoding WinAnsiEncoding
/WinAnsiEncoding [
/.notdef /.notdef /.notdef /.notdef /.notdef
/.notdef /.notdef /.notdef /.notdef /.notdef
/.notdef /.notdef /.notdef /.notdef /.notdef
/.notdef /.notdef /.notdef /.notdef /.notdef
/.notdef /.notdef /.notdef /.notdef /.notdef
/.notdef /.notdef /.notdef /.notdef /.notdef
/.notdef /.notdef /space /exclam /quotedbl
/numbersign /dollar /percent /ampersand /quotesingle
/parenleft /parenright /asterisk /plus /comma
/hyphen /period /slash /zero /one
/two /three /four /five /six
/seven /eight /nine /colon /semicolon
/less /equal /greater /question /at
/A /B /C /D /E
/F /G /H /I /J
/K /L /M /N /O
/P /Q /R /S /T
/U /V /W /X /Y
/Z /bracketleft /backslash /bracketright /asciicircum
/underscore /quoteleft /a /b /c
/d /e /f /g /h
/i /j /k /l /m
/n /o /p /q /r
/s /t /u /v /w
/x /y /z /braceleft /bar
/braceright /asciitilde /bullet /Euro /bullet
/quotesinglbase /florin /quotedblbase /ellipsis /dagger
/daggerdbl /circumflex /perthousand /Scaron /guilsinglleft
/OE /bullet /Zcaron /bullet /bullet
/quoteleft /quoteright /quotedblleft /quotedblright /bullet
/endash /emdash /asciitilde /trademark /scaron
/guilsinglright /oe /bullet /zcaron /Ydieresis
/space /exclamdown /cent /sterling /currency
/yen /brokenbar /section /dieresis /copyright
/ordfeminine /guillemotleft /logicalnot /sfthyphen /registered
/macron /degree /plusminus /twosuperior /threesuperior
/acute /mu /paragraph /middot /cedilla
/onesuperior /ordmasculine /guillemotright /onequarter /onehalf
/threequarters /questiondown /Agrave /Aacute /Acircumflex
/Atilde /Adieresis /Aring /AE /Ccedilla
/Egrave /Eacute /Ecircumflex /Edieresis /Igrave
/Iacute /Icircumflex /Idieresis /Eth /Ntilde
/Ograve /Oacute /Ocircumflex /Otilde /Odieresis
/multiply /Oslash /Ugrave /Uacute /Ucircumflex
/Udieresis /Yacute /Thorn /germandbls /agrave
/aacute /acircumflex /atilde /adieresis /aring
/ae /ccedilla /egrave /eacute /ecircumflex
/edieresis /igrave /iacute /icircumflex /idieresis
/eth /ntilde /ograve /oacute /ocircumflex
/otilde /odieresis /divide /oslash /ugrave
/uacute /ucircumflex /udieresis /yacute /thorn
/ydieresis
] def
%%EndResource
%FOPBeginFontReencode
/Courier-Bold findfont
dup length dict begin
  {1 index /FID ne {def} {pop pop} ifelse} forall
  /Encoding WinAnsiEncoding def
  currentdict
end
/Courier-Bold exch definefont pop
/Helvetica findfont
dup length dict begin
  {1 index /FID ne {def} {pop pop} ifelse} forall
  /Encoding WinAnsiEncoding def
  currentdict
end
/Helvetica exch definefont pop
/Courier-BoldOblique findfont
dup length dict begin
  {1 index /FID ne {def} {pop pop} ifelse} forall
  /Encoding WinAnsiEncoding def
  currentdict
end
/Courier-BoldOblique exch definefont pop
/Courier-Oblique findfont
dup length dict begin
  {1 index /FID ne {def} {pop pop} ifelse} forall
  /Encoding WinAnsiEncoding def
  currentdict
end
/Courier-Oblique exch definefont pop
/Times-Roman findfont
dup length dict begin
  {1 index /FID ne {def} {pop pop} ifelse} forall
  /Encoding WinAnsiEncoding def
  currentdict
end
/Times-Roman exch definefont pop
/Helvetica-BoldOblique findfont
dup length dict begin
  {1 index /FID ne {def} {pop pop} ifelse} forall
  /Encoding WinAnsiEncoding def
  currentdict
end
/Helvetica-BoldOblique exch definefont pop
/Helvetica-Bold findfont
dup length dict begin
  {1 index /FID ne {def} {pop pop} ifelse} forall
  /Encoding WinAnsiEncoding def
  currentdict
end
/Helvetica-Bold exch definefont pop
/Helvetica-Oblique findfont
dup length dict begin
  {1 index /FID ne {def} {pop pop} ifelse} forall
  /Encoding WinAnsiEncoding def
  currentdict
end
/Helvetica-Oblique exch definefont pop
/Times-BoldItalic findfont
dup length dict begin
  {1 index /FID ne {def} {pop pop} ifelse} forall
  /Encoding WinAnsiEncoding def
  currentdict
end
/Times-BoldItalic exch definefont pop
/Courier findfont
dup length dict begin
  {1 index /FID ne {def} {pop pop} ifelse} forall
  /Encoding WinAnsiEncoding def
  currentdict
end
/Courier exch definefont pop
/Times-Italic findfont
dup length dict begin
  {1 index /FID ne {def} {pop pop} ifelse} forall
  /Encoding WinAnsiEncoding def
  currentdict
end
/Times-Italic exch definefont pop
/Times-Bold findfont
dup length dict begin
  {1 index /FID ne {def} {pop pop} ifelse} forall
  /Encoding WinAnsiEncoding def
  currentdict
end
/Times-Bold exch definefont pop
%FOPEndFontReencode
%%EndProlog
%%Page: 1 1
%%PageBoundingBox: 0 0 420 315
%%BeginPageSetup
[1 0 0 -1 0 315] CT
%%EndPageSetup
GS
[0.75 0 0 0.75 0 0] CT
1 GC
N
0 0 560 420 re
f
GR
GS
[0.75 0 0 0.75 0 0] CT
1 GC
N
0 0 560 420 re
f
GR
GS
[0.75 0 0 0.75 0 0] CT
1 GC
N
73 374 M
507 374 L
507 31 L
73 31 L
cp
f
GR
GS
[0.75 0 0 0.75 217.50016 298.24999] CT
0.149 GC
/Helvetica 15 F
GS
[1 0 0 1 0 0] CT
-52 16 moveto 
1 -1 scale
(Frequency \(Hz\)) t 
GR
GR
GS
[0.75 0 0 0.75 0 0] CT
0.149 GC
2 setlinecap
10.0 ML
N
73 374 M
507 374 L
S
GR
GS
[0.75 0 0 0.75 0 0] CT
0.149 GC
2 setlinecap
10.0 ML
N
73 31 M
507 31 L
S
GR
GS
[0.75 0 0 0.75 0 0] CT
0.149 GC
2 setlinecap
10.0 ML
N
73 374 M
73 369.66 L
S
GR
GS
[0.75 0 0 0.75 0 0] CT
0.149 GC
2 setlinecap
10.0 ML
N
116.4 374 M
116.4 369.66 L
S
GR
GS
[0.75 0 0 0.75 0 0] CT
0.149 GC
2 setlinecap
10.0 ML
N
159.8 374 M
159.8 369.66 L
S
GR
GS
[0.75 0 0 0.75 0 0] CT
0.149 GC
2 setlinecap
10.0 ML
N
203.2 374 M
203.2 369.66 L
S
GR
GS
[0.75 0 0 0.75 0 0] CT
0.149 GC
2 setlinecap
10.0 ML
N
246.6 374 M
246.6 369.66 L
S
GR
GS
[0.75 0 0 0.75 0 0] CT
0.149 GC
2 setlinecap
10.0 ML
N
290 374 M
290 369.66 L
S
GR
GS
[0.75 0 0 0.75 0 0] CT
0.149 GC
2 setlinecap
10.0 ML
N
333.4 374 M
333.4 369.66 L
S
GR
GS
[0.75 0 0 0.75 0 0] CT
0.149 GC
2 setlinecap
10.0 ML
N
376.8 374 M
376.8 369.66 L
S
GR
GS
[0.75 0 0 0.75 0 0] CT
0.149 GC
2 setlinecap
10.0 ML
N
420.2 374 M
420.2 369.66 L
S
GR
GS
[0.75 0 0 0.75 0 0] CT
0.149 GC
2 setlinecap
10.0 ML
N
463.6 374 M
463.6 369.66 L
S
GR
GS
[0.75 0 0 0.75 0 0] CT
0.149 GC
2 setlinecap
10.0 ML
N
507 374 M
507 369.66 L
S
GR
GS
[0.75 0 0 0.75 0 0] CT
0.149 GC
2 setlinecap
10.0 ML
N
73 31 M
73 35.34 L
S
GR
GS
[0.75 0 0 0.75 0 0] CT
0.149 GC
2 setlinecap
10.0 ML
N
116.4 31 M
116.4 35.34 L
S
GR
GS
[0.75 0 0 0.75 0 0] CT
0.149 GC
2 setlinecap
10.0 ML
N
159.8 31 M
159.8 35.34 L
S
GR
GS
[0.75 0 0 0.75 0 0] CT
0.149 GC
2 setlinecap
10.0 ML
N
203.2 31 M
203.2 35.34 L
S
GR
GS
[0.75 0 0 0.75 0 0] CT
0.149 GC
2 setlinecap
10.0 ML
N
246.6 31 M
246.6 35.34 L
S
GR
GS
[0.75 0 0 0.75 0 0] CT
0.149 GC
2 setlinecap
10.0 ML
N
290 31 M
290 35.34 L
S
GR
GS
[0.75 0 0 0.75 0 0] CT
0.149 GC
2 setlinecap
10.0 ML
N
333.4 31 M
333.4 35.34 L
S
GR
GS
[0.75 0 0 0.75 0 0] CT
0.149 GC
2 setlinecap
10.0 ML
N
376.8 31 M
376.8 35.34 L
S
GR
GS
[0.75 0 0 0.75 0 0] CT
0.149 GC
2 setlinecap
10.0 ML
N
420.2 31 M
420.2 35.34 L
S
GR
GS
[0.75 0 0 0.75 0 0] CT
0.149 GC
2 setlinecap
10.0 ML
N
463.6 31 M
463.6 35.34 L
S
GR
GS
[0.75 0 0 0.75 0 0] CT
0.149 GC
2 setlinecap
10.0 ML
N
507 31 M
507 35.34 L
S
GR
GS
[0.75 0 0 0.75 54.75 284.50001] CT
0.149 GC
/Helvetica 13 F
GS
[1 0 0 1 0 0] CT
-4 14 moveto 
1 -1 scale
(0) t 
GR
GR
GS
[0.75 0 0 0.75 87.3 284.50001] CT
0.149 GC
/Helvetica 13 F
GS
[1 0 0 1 0 0] CT
-7.5 14 moveto 
1 -1 scale
(10) t 
GR
GR
GS
[0.75 0 0 0.75 119.85 284.50001] CT
0.149 GC
/Helvetica 13 F
GS
[1 0 0 1 0 0] CT
-7.5 14 moveto 
1 -1 scale
(20) t 
GR
GR
GS
[0.75 0 0 0.75 152.4 284.50001] CT
0.149 GC
/Helvetica 13 F
GS
[1 0 0 1 0 0] CT
-7.5 14 moveto 
1 -1 scale
(30) t 
GR
GR
GS
[0.75 0 0 0.75 184.95 284.50001] CT
0.149 GC
/Helvetica 13 F
GS
[1 0 0 1 0 0] CT
-7.5 14 moveto 
1 -1 scale
(40) t 
GR
GR
GS
[0.75 0 0 0.75 217.5 284.50001] CT
0.149 GC
/Helvetica 13 F
GS
[1 0 0 1 0 0] CT
-7.5 14 moveto 
1 -1 scale
(50) t 
GR
GR
GS
[0.75 0 0 0.75 250.05 284.50001] CT
0.149 GC
/Helvetica 13 F
GS
[1 0 0 1 0 0] CT
-7.5 14 moveto 
1 -1 scale
(60) t 
GR
GR
GS
[0.75 0 0 0.75 282.59999 284.50001] CT
0.149 GC
/Helvetica 13 F
GS
[1 0 0 1 0 0] CT
-7.5 14 moveto 
1 -1 scale
(70) t 
GR
GR
GS
[0.75 0 0 0.75 315.15001 284.50001] CT
0.149 GC
/Helvetica 13 F
GS
[1 0 0 1 0 0] CT
-7.5 14 moveto 
1 -1 scale
(80) t 
GR
GR
GS
[0.75 0 0 0.75 347.7 284.50001] CT
0.149 GC
/Helvetica 13 F
GS
[1 0 0 1 0 0] CT
-7.5 14 moveto 
1 -1 scale
(90) t 
GR
GR
GS
[0.75 0 0 0.75 380.25 284.50001] CT
0.149 GC
/Helvetica 13 F
GS
[1 0 0 1 0 0] CT
-11 14 moveto 
1 -1 scale
(100) t 
GR
GR
GS
[0 -0.75 0.75 0 36.5 151.87487] CT
0.149 GC
/Helvetica 15 F
GS
[1 0 0 1 0 0] CT
-61.5 -4 moveto 
1 -1 scale
(|P\(f\)| MAgnitud dB) t 
GR
GR
GS
[0.75 0 0 0.75 0 0] CT
0.149 GC
2 setlinecap
10.0 ML
N
73 374 M
73 31 L
S
GR
GS
[0.75 0 0 0.75 0 0] CT
0.149 GC
2 setlinecap
10.0 ML
N
507 374 M
507 31 L
S
GR
GS
[0.75 0 0 0.75 0 0] CT
0.149 GC
2 setlinecap
10.0 ML
N
73 374 M
77.34 374 L
S
GR
GS
[0.75 0 0 0.75 0 0] CT
0.149 GC
2 setlinecap
10.0 ML
N
73 316.833 M
77.34 316.833 L
S
GR
GS
[0.75 0 0 0.75 0 0] CT
0.149 GC
2 setlinecap
10.0 ML
N
73 259.667 M
77.34 259.667 L
S
GR
GS
[0.75 0 0 0.75 0 0] CT
0.149 GC
2 setlinecap
10.0 ML
N
73 202.5 M
77.34 202.5 L
S
GR
GS
[0.75 0 0 0.75 0 0] CT
0.149 GC
2 setlinecap
10.0 ML
N
73 145.333 M
77.34 145.333 L
S
GR
GS
[0.75 0 0 0.75 0 0] CT
0.149 GC
2 setlinecap
10.0 ML
N
73 88.167 M
77.34 88.167 L
S
GR
GS
[0.75 0 0 0.75 0 0] CT
0.149 GC
2 setlinecap
10.0 ML
N
73 31 M
77.34 31 L
S
GR
GS
[0.75 0 0 0.75 0 0] CT
0.149 GC
2 setlinecap
10.0 ML
N
507 374 M
502.66 374 L
S
GR
GS
[0.75 0 0 0.75 0 0] CT
0.149 GC
2 setlinecap
10.0 ML
N
507 316.833 M
502.66 316.833 L
S
GR
GS
[0.75 0 0 0.75 0 0] CT
0.149 GC
2 setlinecap
10.0 ML
N
507 259.667 M
502.66 259.667 L
S
GR
GS
[0.75 0 0 0.75 0 0] CT
0.149 GC
2 setlinecap
10.0 ML
N
507 202.5 M
502.66 202.5 L
S
GR
GS
[0.75 0 0 0.75 0 0] CT
0.149 GC
2 setlinecap
10.0 ML
N
507 145.333 M
502.66 145.333 L
S
GR
GS
[0.75 0 0 0.75 0 0] CT
0.149 GC
2 setlinecap
10.0 ML
N
507 88.167 M
502.66 88.167 L
S
GR
GS
[0.75 0 0 0.75 0 0] CT
0.149 GC
2 setlinecap
10.0 ML
N
507 31 M
502.66 31 L
S
GR
GS
[0.75 0 0 0.75 50.75 280.5] CT
0.149 GC
/Helvetica 13 F
GS
[1 0 0 1 0 0] CT
-8 5.5 moveto 
1 -1 scale
(0) t 
GR
GR
GS
[0.75 0 0 0.75 50.75 237.62501] CT
0.149 GC
/Helvetica 13 F
GS
[1 0 0 1 0 0] CT
-8 5.5 moveto 
1 -1 scale
(2) t 
GR
GR
GS
[0.75 0 0 0.75 50.75 194.74999] CT
0.149 GC
/Helvetica 13 F
GS
[1 0 0 1 0 0] CT
-8 5.5 moveto 
1 -1 scale
(4) t 
GR
GR
GS
[0.75 0 0 0.75 50.75 151.875] CT
0.149 GC
/Helvetica 13 F
GS
[1 0 0 1 0 0] CT
-8 5.5 moveto 
1 -1 scale
(6) t 
GR
GR
GS
[0.75 0 0 0.75 50.75 109] CT
0.149 GC
/Helvetica 13 F
GS
[1 0 0 1 0 0] CT
-8 5.5 moveto 
1 -1 scale
(8) t 
GR
GR
GS
[0.75 0 0 0.75 50.75 66.125] CT
0.149 GC
/Helvetica 13 F
GS
[1 0 0 1 0 0] CT
-15 5.5 moveto 
1 -1 scale
(10) t 
GR
GR
GS
[0.75 0 0 0.75 50.75 23.25] CT
0.149 GC
/Helvetica 13 F
GS
[1 0 0 1 0 0] CT
-15 5.5 moveto 
1 -1 scale
(12) t 
GR
GR
GS
[0.75 0 0 0.75 0 0] CT
0 0.447 0.741 RC
2 setlinecap
10.0 ML
N
80.5 59.5 M
79.736 57.149 L
77.736 55.696 L
75.264 55.696 L
73.264 57.149 L
72.5 59.5 L
73.264 61.851 L
75.264 63.304 L
77.736 63.304 L
79.736 61.851 L
80.5 59.5 L
S
GR
GS
[0.75 0 0 0.75 0 0] CT
0 0.447 0.741 RC
2 setlinecap
10.0 ML
N
85.5 63.5 M
84.736 61.149 L
82.736 59.696 L
80.264 59.696 L
78.264 61.149 L
77.5 63.5 L
78.264 65.851 L
80.264 67.304 L
82.736 67.304 L
84.736 65.851 L
85.5 63.5 L
S
GR
GS
[0.75 0 0 0.75 0 0] CT
0 0.447 0.741 RC
2 setlinecap
10.0 ML
N
90.5 171.5 M
89.736 169.149 L
87.736 167.696 L
85.264 167.696 L
83.264 169.149 L
82.5 171.5 L
83.264 173.851 L
85.264 175.304 L
87.736 175.304 L
89.736 173.851 L
90.5 171.5 L
S
GR
GS
[0.75 0 0 0.75 0 0] CT
0 0.447 0.741 RC
2 setlinecap
10.0 ML
N
95.5 332.5 M
94.736 330.149 L
92.736 328.696 L
90.264 328.696 L
88.264 330.149 L
87.5 332.5 L
88.264 334.851 L
90.264 336.304 L
92.736 336.304 L
94.736 334.851 L
95.5 332.5 L
S
GR
GS
[0.75 0 0 0.75 0 0] CT
0 0.447 0.741 RC
2 setlinecap
10.0 ML
N
99.5 278.5 M
98.736 276.149 L
96.736 274.696 L
94.264 274.696 L
92.264 276.149 L
91.5 278.5 L
92.264 280.851 L
94.264 282.304 L
96.736 282.304 L
98.736 280.851 L
99.5 278.5 L
S
GR
GS
[0.75 0 0 0.75 0 0] CT
0 0.447 0.741 RC
2 setlinecap
10.0 ML
N
104.5 274.5 M
103.736 272.149 L
101.736 270.696 L
99.264 270.696 L
97.264 272.149 L
96.5 274.5 L
97.264 276.851 L
99.264 278.304 L
101.736 278.304 L
103.736 276.851 L
104.5 274.5 L
S
GR
GS
[0.75 0 0 0.75 0 0] CT
0 0.447 0.741 RC
2 setlinecap
10.0 ML
N
109.5 303.5 M
108.736 301.149 L
106.736 299.696 L
104.264 299.696 L
102.264 301.149 L
101.5 303.5 L
102.264 305.851 L
104.264 307.304 L
106.736 307.304 L
108.736 305.851 L
109.5 303.5 L
S
GR
GS
[0.75 0 0 0.75 0 0] CT
0 0.447 0.741 RC
2 setlinecap
10.0 ML
N
114.5 229.5 M
113.736 227.149 L
111.736 225.696 L
109.264 225.696 L
107.264 227.149 L
106.5 229.5 L
107.264 231.851 L
109.264 233.304 L
111.736 233.304 L
113.736 231.851 L
114.5 229.5 L
S
GR
GS
[0.75 0 0 0.75 0 0] CT
0 0.447 0.741 RC
2 setlinecap
10.0 ML
N
119.5 331.5 M
118.736 329.149 L
116.736 327.696 L
114.264 327.696 L
112.264 329.149 L
111.5 331.5 L
112.264 333.851 L
114.264 335.304 L
116.736 335.304 L
118.736 333.851 L
119.5 331.5 L
S
GR
GS
[0.75 0 0 0.75 0 0] CT
0 0.447 0.741 RC
2 setlinecap
10.0 ML
N
123.5 265.5 M
122.736 263.149 L
120.736 261.696 L
118.264 261.696 L
116.264 263.149 L
115.5 265.5 L
116.264 267.851 L
118.264 269.304 L
120.736 269.304 L
122.736 267.851 L
123.5 265.5 L
S
GR
GS
[0.75 0 0 0.75 0 0] CT
0 0.447 0.741 RC
2 setlinecap
10.0 ML
N
128.5 308.5 M
127.736 306.149 L
125.736 304.696 L
123.264 304.696 L
121.264 306.149 L
120.5 308.5 L
121.264 310.851 L
123.264 312.304 L
125.736 312.304 L
127.736 310.851 L
128.5 308.5 L
S
GR
GS
[0.75 0 0 0.75 0 0] CT
0 0.447 0.741 RC
2 setlinecap
10.0 ML
N
133.5 328.5 M
132.736 326.149 L
130.736 324.696 L
128.264 324.696 L
126.264 326.149 L
125.5 328.5 L
126.264 330.851 L
128.264 332.304 L
130.736 332.304 L
132.736 330.851 L
133.5 328.5 L
S
GR
GS
[0.75 0 0 0.75 0 0] CT
0 0.447 0.741 RC
2 setlinecap
10.0 ML
N
138.5 301.5 M
137.736 299.149 L
135.736 297.696 L
133.264 297.696 L
131.264 299.149 L
130.5 301.5 L
131.264 303.851 L
133.264 305.304 L
135.736 305.304 L
137.736 303.851 L
138.5 301.5 L
S
GR
GS
[0.75 0 0 0.75 0 0] CT
0 0.447 0.741 RC
2 setlinecap
10.0 ML
N
143.5 316.5 M
142.736 314.149 L
140.736 312.696 L
138.264 312.696 L
136.264 314.149 L
135.5 316.5 L
136.264 318.851 L
138.264 320.304 L
140.736 320.304 L
142.736 318.851 L
143.5 316.5 L
S
GR
GS
[0.75 0 0 0.75 0 0] CT
0 0.447 0.741 RC
2 setlinecap
10.0 ML
N
147.5 322.5 M
146.736 320.149 L
144.736 318.696 L
142.264 318.696 L
140.264 320.149 L
139.5 322.5 L
140.264 324.851 L
142.264 326.304 L
144.736 326.304 L
146.736 324.851 L
147.5 322.5 L
S
GR
GS
[0.75 0 0 0.75 0 0] CT
0 0.447 0.741 RC
2 setlinecap
10.0 ML
N
152.5 361.5 M
151.736 359.149 L
149.736 357.696 L
147.264 357.696 L
145.264 359.149 L
144.5 361.5 L
145.264 363.851 L
147.264 365.304 L
149.736 365.304 L
151.736 363.851 L
152.5 361.5 L
S
GR
GS
[0.75 0 0 0.75 0 0] CT
0 0.447 0.741 RC
2 setlinecap
10.0 ML
N
157.5 341.5 M
156.736 339.149 L
154.736 337.696 L
152.264 337.696 L
150.264 339.149 L
149.5 341.5 L
150.264 343.851 L
152.264 345.304 L
154.736 345.304 L
156.736 343.851 L
157.5 341.5 L
S
GR
GS
[0.75 0 0 0.75 0 0] CT
0 0.447 0.741 RC
2 setlinecap
10.0 ML
N
162.5 291.5 M
161.736 289.149 L
159.736 287.696 L
157.264 287.696 L
155.264 289.149 L
154.5 291.5 L
155.264 293.851 L
157.264 295.304 L
159.736 295.304 L
161.736 293.851 L
162.5 291.5 L
S
GR
GS
[0.75 0 0 0.75 0 0] CT
0 0.447 0.741 RC
2 setlinecap
10.0 ML
N
167.5 366.5 M
166.736 364.149 L
164.736 362.696 L
162.264 362.696 L
160.264 364.149 L
159.5 366.5 L
160.264 368.851 L
162.264 370.304 L
164.736 370.304 L
166.736 368.851 L
167.5 366.5 L
S
GR
GS
[0.75 0 0 0.75 0 0] CT
0 0.447 0.741 RC
2 setlinecap
10.0 ML
N
171.5 319.5 M
170.736 317.149 L
168.736 315.696 L
166.264 315.696 L
164.264 317.149 L
163.5 319.5 L
164.264 321.851 L
166.264 323.304 L
168.736 323.304 L
170.736 321.851 L
171.5 319.5 L
S
GR
GS
[0.75 0 0 0.75 0 0] CT
0 0.447 0.741 RC
2 setlinecap
10.0 ML
N
176.5 345.5 M
175.736 343.149 L
173.736 341.696 L
171.264 341.696 L
169.264 343.149 L
168.5 345.5 L
169.264 347.851 L
171.264 349.304 L
173.736 349.304 L
175.736 347.851 L
176.5 345.5 L
S
GR
GS
[0.75 0 0 0.75 0 0] CT
0 0.447 0.741 RC
2 setlinecap
10.0 ML
N
181.5 357.5 M
180.736 355.149 L
178.736 353.696 L
176.264 353.696 L
174.264 355.149 L
173.5 357.5 L
174.264 359.851 L
176.264 361.304 L
178.736 361.304 L
180.736 359.851 L
181.5 357.5 L
S
GR
GS
[0.75 0 0 0.75 0 0] CT
0 0.447 0.741 RC
2 setlinecap
10.0 ML
N
186.5 355.5 M
185.736 353.149 L
183.736 351.696 L
181.264 351.696 L
179.264 353.149 L
178.5 355.5 L
179.264 357.851 L
181.264 359.304 L
183.736 359.304 L
185.736 357.851 L
186.5 355.5 L
S
GR
GS
[0.75 0 0 0.75 0 0] CT
0 0.447 0.741 RC
2 setlinecap
10.0 ML
N
191.5 343.5 M
190.736 341.149 L
188.736 339.696 L
186.264 339.696 L
184.264 341.149 L
183.5 343.5 L
184.264 345.851 L
186.264 347.304 L
188.736 347.304 L
190.736 345.851 L
191.5 343.5 L
S
GR
GS
[0.75 0 0 0.75 0 0] CT
0 0.447 0.741 RC
2 setlinecap
10.0 ML
N
195.5 349.5 M
194.736 347.149 L
192.736 345.696 L
190.264 345.696 L
188.264 347.149 L
187.5 349.5 L
188.264 351.851 L
190.264 353.304 L
192.736 353.304 L
194.736 351.851 L
195.5 349.5 L
S
GR
GS
[0.75 0 0 0.75 0 0] CT
0 0.447 0.741 RC
2 setlinecap
10.0 ML
N
200.5 345.5 M
199.736 343.149 L
197.736 341.696 L
195.264 341.696 L
193.264 343.149 L
192.5 345.5 L
193.264 347.851 L
195.264 349.304 L
197.736 349.304 L
199.736 347.851 L
200.5 345.5 L
S
GR
GS
[0.75 0 0 0.75 0 0] CT
0 0.447 0.741 RC
2 setlinecap
10.0 ML
N
205.5 372.5 M
204.736 370.149 L
202.736 368.696 L
200.264 368.696 L
198.264 370.149 L
197.5 372.5 L
198.264 374.851 L
200.264 376.304 L
202.736 376.304 L
204.736 374.851 L
205.5 372.5 L
S
GR
GS
[0.75 0 0 0.75 0 0] CT
0 0.447 0.741 RC
2 setlinecap
10.0 ML
N
210.5 357.5 M
209.736 355.149 L
207.736 353.696 L
205.264 353.696 L
203.264 355.149 L
202.5 357.5 L
203.264 359.851 L
205.264 361.304 L
207.736 361.304 L
209.736 359.851 L
210.5 357.5 L
S
GR
GS
[0.75 0 0 0.75 0 0] CT
0 0.447 0.741 RC
2 setlinecap
10.0 ML
N
215.5 367.5 M
214.736 365.149 L
212.736 363.696 L
210.264 363.696 L
208.264 365.149 L
207.5 367.5 L
208.264 369.851 L
210.264 371.304 L
212.736 371.304 L
214.736 369.851 L
215.5 367.5 L
S
GR
GS
[0.75 0 0 0.75 0 0] CT
0 0.447 0.741 RC
2 setlinecap
10.0 ML
N
219.5 359.5 M
218.736 357.149 L
216.736 355.696 L
214.264 355.696 L
212.264 357.149 L
211.5 359.5 L
212.264 361.851 L
214.264 363.304 L
216.736 363.304 L
218.736 361.851 L
219.5 359.5 L
S
GR
GS
[0.75 0 0 0.75 0 0] CT
0 0.447 0.741 RC
2 setlinecap
10.0 ML
N
224.5 348.5 M
223.736 346.149 L
221.736 344.696 L
219.264 344.696 L
217.264 346.149 L
216.5 348.5 L
217.264 350.851 L
219.264 352.304 L
221.736 352.304 L
223.736 350.851 L
224.5 348.5 L
S
GR
GS
[0.75 0 0 0.75 0 0] CT
0 0.447 0.741 RC
2 setlinecap
10.0 ML
N
229.5 362.5 M
228.736 360.149 L
226.736 358.696 L
224.264 358.696 L
222.264 360.149 L
221.5 362.5 L
222.264 364.851 L
224.264 366.304 L
226.736 366.304 L
228.736 364.851 L
229.5 362.5 L
S
GR
GS
[0.75 0 0 0.75 0 0] CT
0 0.447 0.741 RC
2 setlinecap
10.0 ML
N
234.5 359.5 M
233.736 357.149 L
231.736 355.696 L
229.264 355.696 L
227.264 357.149 L
226.5 359.5 L
227.264 361.851 L
229.264 363.304 L
231.736 363.304 L
233.736 361.851 L
234.5 359.5 L
S
GR
GS
[0.75 0 0 0.75 0 0] CT
0 0.447 0.741 RC
2 setlinecap
10.0 ML
N
239.5 348.5 M
238.736 346.149 L
236.736 344.696 L
234.264 344.696 L
232.264 346.149 L
231.5 348.5 L
232.264 350.851 L
234.264 352.304 L
236.736 352.304 L
238.736 350.851 L
239.5 348.5 L
S
GR
GS
[0.75 0 0 0.75 0 0] CT
0 0.447 0.741 RC
2 setlinecap
10.0 ML
N
243.5 364.5 M
242.736 362.149 L
240.736 360.696 L
238.264 360.696 L
236.264 362.149 L
235.5 364.5 L
236.264 366.851 L
238.264 368.304 L
240.736 368.304 L
242.736 366.851 L
243.5 364.5 L
S
GR
GS
[0.75 0 0 0.75 0 0] CT
0 0.447 0.741 RC
2 setlinecap
10.0 ML
N
248.5 365.5 M
247.736 363.149 L
245.736 361.696 L
243.264 361.696 L
241.264 363.149 L
240.5 365.5 L
241.264 367.851 L
243.264 369.304 L
245.736 369.304 L
247.736 367.851 L
248.5 365.5 L
S
GR
GS
[0.75 0 0 0.75 0 0] CT
0 0.447 0.741 RC
2 setlinecap
10.0 ML
N
253.5 355.5 M
252.736 353.149 L
250.736 351.696 L
248.264 351.696 L
246.264 353.149 L
245.5 355.5 L
246.264 357.851 L
248.264 359.304 L
250.736 359.304 L
252.736 357.851 L
253.5 355.5 L
S
GR
GS
[0.75 0 0 0.75 0 0] CT
0 0.447 0.741 RC
2 setlinecap
10.0 ML
N
258.5 357.5 M
257.736 355.149 L
255.736 353.696 L
253.264 353.696 L
251.264 355.149 L
250.5 357.5 L
251.264 359.851 L
253.264 361.304 L
255.736 361.304 L
257.736 359.851 L
258.5 357.5 L
S
GR
GS
[0.75 0 0 0.75 0 0] CT
0 0.447 0.741 RC
2 setlinecap
10.0 ML
N
263.5 361.5 M
262.736 359.149 L
260.736 357.696 L
258.264 357.696 L
256.264 359.149 L
255.5 361.5 L
256.264 363.851 L
258.264 365.304 L
260.736 365.304 L
262.736 363.851 L
263.5 361.5 L
S
GR
GS
[0.75 0 0 0.75 0 0] CT
0 0.447 0.741 RC
2 setlinecap
10.0 ML
N
267.5 361.5 M
266.736 359.149 L
264.736 357.696 L
262.264 357.696 L
260.264 359.149 L
259.5 361.5 L
260.264 363.851 L
262.264 365.304 L
264.736 365.304 L
266.736 363.851 L
267.5 361.5 L
S
GR
GS
[0.75 0 0 0.75 0 0] CT
0 0.447 0.741 RC
2 setlinecap
10.0 ML
N
272.5 357.5 M
271.736 355.149 L
269.736 353.696 L
267.264 353.696 L
265.264 355.149 L
264.5 357.5 L
265.264 359.851 L
267.264 361.304 L
269.736 361.304 L
271.736 359.851 L
272.5 357.5 L
S
GR
GS
[0.75 0 0 0.75 0 0] CT
0 0.447 0.741 RC
2 setlinecap
10.0 ML
N
277.5 359.5 M
276.736 357.149 L
274.736 355.696 L
272.264 355.696 L
270.264 357.149 L
269.5 359.5 L
270.264 361.851 L
272.264 363.304 L
274.736 363.304 L
276.736 361.851 L
277.5 359.5 L
S
GR
GS
[0.75 0 0 0.75 0 0] CT
0 0.447 0.741 RC
2 setlinecap
10.0 ML
N
282.5 370.5 M
281.736 368.149 L
279.736 366.696 L
277.264 366.696 L
275.264 368.149 L
274.5 370.5 L
275.264 372.851 L
277.264 374.304 L
279.736 374.304 L
281.736 372.851 L
282.5 370.5 L
S
GR
GS
[0.75 0 0 0.75 0 0] CT
0 0.447 0.741 RC
2 setlinecap
10.0 ML
N
287.5 354.5 M
286.736 352.149 L
284.736 350.696 L
282.264 350.696 L
280.264 352.149 L
279.5 354.5 L
280.264 356.851 L
282.264 358.304 L
284.736 358.304 L
286.736 356.851 L
287.5 354.5 L
S
GR
GS
[0.75 0 0 0.75 0 0] CT
0 0.447 0.741 RC
2 setlinecap
10.0 ML
N
291.5 363.5 M
290.736 361.149 L
288.736 359.696 L
286.264 359.696 L
284.264 361.149 L
283.5 363.5 L
284.264 365.851 L
286.264 367.304 L
288.736 367.304 L
290.736 365.851 L
291.5 363.5 L
S
GR
GS
[0.75 0 0 0.75 0 0] CT
0 0.447 0.741 RC
2 setlinecap
10.0 ML
N
296.5 362.5 M
295.736 360.149 L
293.736 358.696 L
291.264 358.696 L
289.264 360.149 L
288.5 362.5 L
289.264 364.851 L
291.264 366.304 L
293.736 366.304 L
295.736 364.851 L
296.5 362.5 L
S
GR
GS
[0.75 0 0 0.75 0 0] CT
0 0.447 0.741 RC
2 setlinecap
10.0 ML
N
301.5 356.5 M
300.736 354.149 L
298.736 352.696 L
296.264 352.696 L
294.264 354.149 L
293.5 356.5 L
294.264 358.851 L
296.264 360.304 L
298.736 360.304 L
300.736 358.851 L
301.5 356.5 L
S
GR
GS
[0.75 0 0 0.75 0 0] CT
0 0.447 0.741 RC
2 setlinecap
10.0 ML
N
306.5 359.5 M
305.736 357.149 L
303.736 355.696 L
301.264 355.696 L
299.264 357.149 L
298.5 359.5 L
299.264 361.851 L
301.264 363.304 L
303.736 363.304 L
305.736 361.851 L
306.5 359.5 L
S
GR
GS
[0.75 0 0 0.75 0 0] CT
0 0.447 0.741 RC
2 setlinecap
10.0 ML
N
311.5 362.5 M
310.736 360.149 L
308.736 358.696 L
306.264 358.696 L
304.264 360.149 L
303.5 362.5 L
304.264 364.851 L
306.264 366.304 L
308.736 366.304 L
310.736 364.851 L
311.5 362.5 L
S
GR
GS
[0.75 0 0 0.75 0 0] CT
0 0.447 0.741 RC
2 setlinecap
10.0 ML
N
315.5 365.5 M
314.736 363.149 L
312.736 361.696 L
310.264 361.696 L
308.264 363.149 L
307.5 365.5 L
308.264 367.851 L
310.264 369.304 L
312.736 369.304 L
314.736 367.851 L
315.5 365.5 L
S
GR
GS
[0.75 0 0 0.75 0 0] CT
0 0.447 0.741 RC
2 setlinecap
10.0 ML
N
320.5 364.5 M
319.736 362.149 L
317.736 360.696 L
315.264 360.696 L
313.264 362.149 L
312.5 364.5 L
313.264 366.851 L
315.264 368.304 L
317.736 368.304 L
319.736 366.851 L
320.5 364.5 L
S
GR
GS
[0.75 0 0 0.75 0 0] CT
0 0.447 0.741 RC
2 setlinecap
10.0 ML
N
325.5 359.5 M
324.736 357.149 L
322.736 355.696 L
320.264 355.696 L
318.264 357.149 L
317.5 359.5 L
318.264 361.851 L
320.264 363.304 L
322.736 363.304 L
324.736 361.851 L
325.5 359.5 L
S
GR
GS
[0.75 0 0 0.75 0 0] CT
0 0.447 0.741 RC
2 setlinecap
10.0 ML
N
330.5 363.5 M
329.736 361.149 L
327.736 359.696 L
325.264 359.696 L
323.264 361.149 L
322.5 363.5 L
323.264 365.851 L
325.264 367.304 L
327.736 367.304 L
329.736 365.851 L
330.5 363.5 L
S
GR
GS
[0.75 0 0 0.75 0 0] CT
0 0.447 0.741 RC
2 setlinecap
10.0 ML
N
335.5 345.5 M
334.736 343.149 L
332.736 341.696 L
330.264 341.696 L
328.264 343.149 L
327.5 345.5 L
328.264 347.851 L
330.264 349.304 L
332.736 349.304 L
334.736 347.851 L
335.5 345.5 L
S
GR
GS
[0.75 0 0 0.75 0 0] CT
0 0.447 0.741 RC
2 setlinecap
10.0 ML
N
339.5 346.5 M
338.736 344.149 L
336.736 342.696 L
334.264 342.696 L
332.264 344.149 L
331.5 346.5 L
332.264 348.851 L
334.264 350.304 L
336.736 350.304 L
338.736 348.851 L
339.5 346.5 L
S
GR
GS
[0.75 0 0 0.75 0 0] CT
0 0.447 0.741 RC
2 setlinecap
10.0 ML
N
344.5 359.5 M
343.736 357.149 L
341.736 355.696 L
339.264 355.696 L
337.264 357.149 L
336.5 359.5 L
337.264 361.851 L
339.264 363.304 L
341.736 363.304 L
343.736 361.851 L
344.5 359.5 L
S
GR
GS
[0.75 0 0 0.75 0 0] CT
0 0.447 0.741 RC
2 setlinecap
10.0 ML
N
349.5 357.5 M
348.736 355.149 L
346.736 353.696 L
344.264 353.696 L
342.264 355.149 L
341.5 357.5 L
342.264 359.851 L
344.264 361.304 L
346.736 361.304 L
348.736 359.851 L
349.5 357.5 L
S
GR
GS
[0.75 0 0 0.75 0 0] CT
0 0.447 0.741 RC
2 setlinecap
10.0 ML
N
354.5 366.5 M
353.736 364.149 L
351.736 362.696 L
349.264 362.696 L
347.264 364.149 L
346.5 366.5 L
347.264 368.851 L
349.264 370.304 L
351.736 370.304 L
353.736 368.851 L
354.5 366.5 L
S
GR
GS
[0.75 0 0 0.75 0 0] CT
0 0.447 0.741 RC
2 setlinecap
10.0 ML
N
359.5 367.5 M
358.736 365.149 L
356.736 363.696 L
354.264 363.696 L
352.264 365.149 L
351.5 367.5 L
352.264 369.851 L
354.264 371.304 L
356.736 371.304 L
358.736 369.851 L
359.5 367.5 L
S
GR
GS
[0.75 0 0 0.75 0 0] CT
0 0.447 0.741 RC
2 setlinecap
10.0 ML
N
363.5 353.5 M
362.736 351.149 L
360.736 349.696 L
358.264 349.696 L
356.264 351.149 L
355.5 353.5 L
356.264 355.851 L
358.264 357.304 L
360.736 357.304 L
362.736 355.851 L
363.5 353.5 L
S
GR
GS
[0.75 0 0 0.75 0 0] CT
0 0.447 0.741 RC
2 setlinecap
10.0 ML
N
368.5 366.5 M
367.736 364.149 L
365.736 362.696 L
363.264 362.696 L
361.264 364.149 L
360.5 366.5 L
361.264 368.851 L
363.264 370.304 L
365.736 370.304 L
367.736 368.851 L
368.5 366.5 L
S
GR
GS
[0.75 0 0 0.75 0 0] CT
0 0.447 0.741 RC
2 setlinecap
10.0 ML
N
373.5 368.5 M
372.736 366.149 L
370.736 364.696 L
368.264 364.696 L
366.264 366.149 L
365.5 368.5 L
366.264 370.851 L
368.264 372.304 L
370.736 372.304 L
372.736 370.851 L
373.5 368.5 L
S
GR
GS
[0.75 0 0 0.75 0 0] CT
0 0.447 0.741 RC
2 setlinecap
10.0 ML
N
378.5 361.5 M
377.736 359.149 L
375.736 357.696 L
373.264 357.696 L
371.264 359.149 L
370.5 361.5 L
371.264 363.851 L
373.264 365.304 L
375.736 365.304 L
377.736 363.851 L
378.5 361.5 L
S
GR
GS
[0.75 0 0 0.75 0 0] CT
0 0.447 0.741 RC
2 setlinecap
10.0 ML
N
383.5 359.5 M
382.736 357.149 L
380.736 355.696 L
378.264 355.696 L
376.264 357.149 L
375.5 359.5 L
376.264 361.851 L
378.264 363.304 L
380.736 363.304 L
382.736 361.851 L
383.5 359.5 L
S
GR
GS
[0.75 0 0 0.75 0 0] CT
0 0.447 0.741 RC
2 setlinecap
10.0 ML
N
387.5 373.5 M
386.736 371.149 L
384.736 369.696 L
382.264 369.696 L
380.264 371.149 L
379.5 373.5 L
380.264 375.851 L
382.264 377.304 L
384.736 377.304 L
386.736 375.851 L
387.5 373.5 L
S
GR
GS
[0.75 0 0 0.75 0 0] CT
0 0.447 0.741 RC
2 setlinecap
10.0 ML
N
392.5 366.5 M
391.736 364.149 L
389.736 362.696 L
387.264 362.696 L
385.264 364.149 L
384.5 366.5 L
385.264 368.851 L
387.264 370.304 L
389.736 370.304 L
391.736 368.851 L
392.5 366.5 L
S
GR
GS
[0.75 0 0 0.75 0 0] CT
0 0.447 0.741 RC
2 setlinecap
10.0 ML
N
397.5 363.5 M
396.736 361.149 L
394.736 359.696 L
392.264 359.696 L
390.264 361.149 L
389.5 363.5 L
390.264 365.851 L
392.264 367.304 L
394.736 367.304 L
396.736 365.851 L
397.5 363.5 L
S
GR
GS
[0.75 0 0 0.75 0 0] CT
0 0.447 0.741 RC
2 setlinecap
10.0 ML
N
402.5 368.5 M
401.736 366.149 L
399.736 364.696 L
397.264 364.696 L
395.264 366.149 L
394.5 368.5 L
395.264 370.851 L
397.264 372.304 L
399.736 372.304 L
401.736 370.851 L
402.5 368.5 L
S
GR
GS
[0.75 0 0 0.75 0 0] CT
0 0.447 0.741 RC
2 setlinecap
10.0 ML
N
407.5 371.5 M
406.736 369.149 L
404.736 367.696 L
402.264 367.696 L
400.264 369.149 L
399.5 371.5 L
400.264 373.851 L
402.264 375.304 L
404.736 375.304 L
406.736 373.851 L
407.5 371.5 L
S
GR
GS
[0.75 0 0 0.75 0 0] CT
0 0.447 0.741 RC
2 setlinecap
10.0 ML
N
411.5 358.5 M
410.736 356.149 L
408.736 354.696 L
406.264 354.696 L
404.264 356.149 L
403.5 358.5 L
404.264 360.851 L
406.264 362.304 L
408.736 362.304 L
410.736 360.851 L
411.5 358.5 L
S
GR
GS
[0.75 0 0 0.75 0 0] CT
0 0.447 0.741 RC
2 setlinecap
10.0 ML
N
416.5 370.5 M
415.736 368.149 L
413.736 366.696 L
411.264 366.696 L
409.264 368.149 L
408.5 370.5 L
409.264 372.851 L
411.264 374.304 L
413.736 374.304 L
415.736 372.851 L
416.5 370.5 L
S
GR
GS
[0.75 0 0 0.75 0 0] CT
0 0.447 0.741 RC
2 setlinecap
10.0 ML
N
421.5 366.5 M
420.736 364.149 L
418.736 362.696 L
416.264 362.696 L
414.264 364.149 L
413.5 366.5 L
414.264 368.851 L
416.264 370.304 L
418.736 370.304 L
420.736 368.851 L
421.5 366.5 L
S
GR
GS
[0.75 0 0 0.75 0 0] CT
0 0.447 0.741 RC
2 setlinecap
10.0 ML
N
426.5 363.5 M
425.736 361.149 L
423.736 359.696 L
421.264 359.696 L
419.264 361.149 L
418.5 363.5 L
419.264 365.851 L
421.264 367.304 L
423.736 367.304 L
425.736 365.851 L
426.5 363.5 L
S
GR
GS
[0.75 0 0 0.75 0 0] CT
0 0.447 0.741 RC
2 setlinecap
10.0 ML
N
431.5 371.5 M
430.736 369.149 L
428.736 367.696 L
426.264 367.696 L
424.264 369.149 L
423.5 371.5 L
424.264 373.851 L
426.264 375.304 L
428.736 375.304 L
430.736 373.851 L
431.5 371.5 L
S
GR
GS
[0.75 0 0 0.75 0 0] CT
0 0.447 0.741 RC
2 setlinecap
10.0 ML
N
435.5 368.5 M
434.736 366.149 L
432.736 364.696 L
430.264 364.696 L
428.264 366.149 L
427.5 368.5 L
428.264 370.851 L
430.264 372.304 L
432.736 372.304 L
434.736 370.851 L
435.5 368.5 L
S
GR
GS
[0.75 0 0 0.75 0 0] CT
0 0.447 0.741 RC
2 setlinecap
10.0 ML
N
440.5 359.5 M
439.736 357.149 L
437.736 355.696 L
435.264 355.696 L
433.264 357.149 L
432.5 359.5 L
433.264 361.851 L
435.264 363.304 L
437.736 363.304 L
439.736 361.851 L
440.5 359.5 L
S
GR
GS
[0.75 0 0 0.75 0 0] CT
0 0.447 0.741 RC
2 setlinecap
10.0 ML
N
445.5 372.5 M
444.736 370.149 L
442.736 368.696 L
440.264 368.696 L
438.264 370.149 L
437.5 372.5 L
438.264 374.851 L
440.264 376.304 L
442.736 376.304 L
444.736 374.851 L
445.5 372.5 L
S
GR
GS
[0.75 0 0 0.75 0 0] CT
0 0.447 0.741 RC
2 setlinecap
10.0 ML
N
450.5 364.5 M
449.736 362.149 L
447.736 360.696 L
445.264 360.696 L
443.264 362.149 L
442.5 364.5 L
443.264 366.851 L
445.264 368.304 L
447.736 368.304 L
449.736 366.851 L
450.5 364.5 L
S
GR
GS
[0.75 0 0 0.75 0 0] CT
0 0.447 0.741 RC
2 setlinecap
10.0 ML
N
455.5 365.5 M
454.736 363.149 L
452.736 361.696 L
450.264 361.696 L
448.264 363.149 L
447.5 365.5 L
448.264 367.851 L
450.264 369.304 L
452.736 369.304 L
454.736 367.851 L
455.5 365.5 L
S
GR
GS
[0.75 0 0 0.75 0 0] CT
0 0.447 0.741 RC
2 setlinecap
10.0 ML
N
459.5 366.5 M
458.736 364.149 L
456.736 362.696 L
454.264 362.696 L
452.264 364.149 L
451.5 366.5 L
452.264 368.851 L
454.264 370.304 L
456.736 370.304 L
458.736 368.851 L
459.5 366.5 L
S
GR
GS
[0.75 0 0 0.75 0 0] CT
0 0.447 0.741 RC
2 setlinecap
10.0 ML
N
464.5 370.5 M
463.736 368.149 L
461.736 366.696 L
459.264 366.696 L
457.264 368.149 L
456.5 370.5 L
457.264 372.851 L
459.264 374.304 L
461.736 374.304 L
463.736 372.851 L
464.5 370.5 L
S
GR
GS
[0.75 0 0 0.75 0 0] CT
0 0.447 0.741 RC
2 setlinecap
10.0 ML
N
469.5 369.5 M
468.736 367.149 L
466.736 365.696 L
464.264 365.696 L
462.264 367.149 L
461.5 369.5 L
462.264 371.851 L
464.264 373.304 L
466.736 373.304 L
468.736 371.851 L
469.5 369.5 L
S
GR
GS
[0.75 0 0 0.75 0 0] CT
0 0.447 0.741 RC
2 setlinecap
10.0 ML
N
474.5 366.5 M
473.736 364.149 L
471.736 362.696 L
469.264 362.696 L
467.264 364.149 L
466.5 366.5 L
467.264 368.851 L
469.264 370.304 L
471.736 370.304 L
473.736 368.851 L
474.5 366.5 L
S
GR
GS
[0.75 0 0 0.75 0 0] CT
0 0.447 0.741 RC
2 setlinecap
10.0 ML
N
479.5 368.5 M
478.736 366.149 L
476.736 364.696 L
474.264 364.696 L
472.264 366.149 L
471.5 368.5 L
472.264 370.851 L
474.264 372.304 L
476.736 372.304 L
478.736 370.851 L
479.5 368.5 L
S
GR
GS
[0.75 0 0 0.75 0 0] CT
0 0.447 0.741 RC
2 setlinecap
10.0 ML
N
483.5 372.5 M
482.736 370.149 L
480.736 368.696 L
478.264 368.696 L
476.264 370.149 L
475.5 372.5 L
476.264 374.851 L
478.264 376.304 L
480.736 376.304 L
482.736 374.851 L
483.5 372.5 L
S
GR
GS
[0.75 0 0 0.75 0 0] CT
0 0.447 0.741 RC
2 setlinecap
10.0 ML
N
488.5 364.5 M
487.736 362.149 L
485.736 360.696 L
483.264 360.696 L
481.264 362.149 L
480.5 364.5 L
481.264 366.851 L
483.264 368.304 L
485.736 368.304 L
487.736 366.851 L
488.5 364.5 L
S
GR
GS
[0.75 0 0 0.75 0 0] CT
0 0.447 0.741 RC
2 setlinecap
10.0 ML
N
493.5 368.5 M
492.736 366.149 L
490.736 364.696 L
488.264 364.696 L
486.264 366.149 L
485.5 368.5 L
486.264 370.851 L
488.264 372.304 L
490.736 372.304 L
492.736 370.851 L
493.5 368.5 L
S
GR
GS
[0.75 0 0 0.75 0 0] CT
0 0.447 0.741 RC
2 setlinecap
10.0 ML
N
498.5 364.5 M
497.736 362.149 L
495.736 360.696 L
493.264 360.696 L
491.264 362.149 L
490.5 364.5 L
491.264 366.851 L
493.264 368.304 L
495.736 368.304 L
497.736 366.851 L
498.5 364.5 L
S
GR
GS
[0.75 0 0 0.75 0 0] CT
0 0.447 0.741 RC
2 setlinecap
10.0 ML
N
503.5 364.5 M
502.736 362.149 L
500.736 360.696 L
498.264 360.696 L
496.264 362.149 L
495.5 364.5 L
496.264 366.851 L
498.264 368.304 L
500.736 368.304 L
502.736 366.851 L
503.5 364.5 L
S
GR
GS
[0.75 0 0 0.75 0 0] CT
0 0.447 0.741 RC
2 setlinecap
10.0 ML
N
507.5 367.5 M
506.736 365.149 L
504.736 363.696 L
502.264 363.696 L
500.264 365.149 L
499.5 367.5 L
500.264 369.851 L
502.264 371.304 L
504.736 371.304 L
506.736 369.851 L
507.5 367.5 L
S
GR
GS
[0.75 0 0 0.75 0 0] CT
0 0.447 0.741 RC
2 setlinecap
10.0 ML
N
76.602 374 M
76.602 59.938 L
S
GR
GS
[0.75 0 0 0.75 0 0] CT
0 0.447 0.741 RC
2 setlinecap
10.0 ML
N
81.404 374 M
81.404 63.908 L
S
GR
GS
[0.75 0 0 0.75 0 0] CT
0 0.447 0.741 RC
2 setlinecap
10.0 ML
N
86.206 374 M
86.206 171.831 L
S
GR
GS
[0.75 0 0 0.75 0 0] CT
0 0.447 0.741 RC
2 setlinecap
10.0 ML
N
91.008 374 M
91.008 332.12 L
S
GR
GS
[0.75 0 0 0.75 0 0] CT
0 0.447 0.741 RC
2 setlinecap
10.0 ML
N
95.811 374 M
95.811 278.863 L
S
GR
GS
[0.75 0 0 0.75 0 0] CT
0 0.447 0.741 RC
2 setlinecap
10.0 ML
N
100.613 374 M
100.613 274.289 L
S
GR
GS
[0.75 0 0 0.75 0 0] CT
0 0.447 0.741 RC
2 setlinecap
10.0 ML
N
105.415 374 M
105.415 303.892 L
S
GR
GS
[0.75 0 0 0.75 0 0] CT
0 0.447 0.741 RC
2 setlinecap
10.0 ML
N
110.217 374 M
110.217 229.135 L
S
GR
GS
[0.75 0 0 0.75 0 0] CT
0 0.447 0.741 RC
2 setlinecap
10.0 ML
N
115.019 374 M
115.019 331.728 L
S
GR
GS
[0.75 0 0 0.75 0 0] CT
0 0.447 0.741 RC
2 setlinecap
10.0 ML
N
119.822 374 M
119.822 265.078 L
S
GR
GS
[0.75 0 0 0.75 0 0] CT
0 0.447 0.741 RC
2 setlinecap
10.0 ML
N
124.624 374 M
124.624 308.999 L
S
GR
GS
[0.75 0 0 0.75 0 0] CT
0 0.447 0.741 RC
2 setlinecap
10.0 ML
N
129.426 374 M
129.426 328.667 L
S
GR
GS
[0.75 0 0 0.75 0 0] CT
0 0.447 0.741 RC
2 setlinecap
10.0 ML
N
134.228 374 M
134.228 301.628 L
S
GR
GS
[0.75 0 0 0.75 0 0] CT
0 0.447 0.741 RC
2 setlinecap
10.0 ML
N
139.03 374 M
139.03 316.667 L
S
GR
GS
[0.75 0 0 0.75 0 0] CT
0 0.447 0.741 RC
2 setlinecap
10.0 ML
N
143.833 374 M
143.833 322.929 L
S
GR
GS
[0.75 0 0 0.75 0 0] CT
0 0.447 0.741 RC
2 setlinecap
10.0 ML
N
148.635 374 M
148.635 361.593 L
S
GR
GS
[0.75 0 0 0.75 0 0] CT
0 0.447 0.741 RC
2 setlinecap
10.0 ML
N
153.437 374 M
153.437 341.766 L
S
GR
GS
[0.75 0 0 0.75 0 0] CT
0 0.447 0.741 RC
2 setlinecap
10.0 ML
N
158.239 374 M
158.239 291.745 L
S
GR
GS
[0.75 0 0 0.75 0 0] CT
0 0.447 0.741 RC
2 setlinecap
10.0 ML
N
163.041 374 M
163.041 366.306 L
S
GR
GS
[0.75 0 0 0.75 0 0] CT
0 0.447 0.741 RC
2 setlinecap
10.0 ML
N
167.844 374 M
167.844 319.123 L
S
GR
GS
[0.75 0 0 0.75 0 0] CT
0 0.447 0.741 RC
2 setlinecap
10.0 ML
N
172.646 374 M
172.646 345.764 L
S
GR
GS
[0.75 0 0 0.75 0 0] CT
0 0.447 0.741 RC
2 setlinecap
10.0 ML
N
177.448 374 M
177.448 357.706 L
S
GR
GS
[0.75 0 0 0.75 0 0] CT
0 0.447 0.741 RC
2 setlinecap
10.0 ML
N
182.25 374 M
182.25 355.793 L
S
GR
GS
[0.75 0 0 0.75 0 0] CT
0 0.447 0.741 RC
2 setlinecap
10.0 ML
N
187.053 374 M
187.053 343.789 L
S
GR
GS
[0.75 0 0 0.75 0 0] CT
0 0.447 0.741 RC
2 setlinecap
10.0 ML
N
191.855 374 M
191.855 349.857 L
S
GR
GS
[0.75 0 0 0.75 0 0] CT
0 0.447 0.741 RC
2 setlinecap
10.0 ML
N
196.657 374 M
196.657 345.011 L
S
GR
GS
[0.75 0 0 0.75 0 0] CT
0 0.447 0.741 RC
2 setlinecap
10.0 ML
N
201.459 374 M
201.459 372.137 L
S
GR
GS
[0.75 0 0 0.75 0 0] CT
0 0.447 0.741 RC
2 setlinecap
10.0 ML
N
206.261 374 M
206.261 357.974 L
S
GR
GS
[0.75 0 0 0.75 0 0] CT
0 0.447 0.741 RC
2 setlinecap
10.0 ML
N
211.064 374 M
211.064 367.989 L
S
GR
GS
[0.75 0 0 0.75 0 0] CT
0 0.447 0.741 RC
2 setlinecap
10.0 ML
N
215.866 374 M
215.866 359.982 L
S
GR
GS
[0.75 0 0 0.75 0 0] CT
0 0.447 0.741 RC
2 setlinecap
10.0 ML
N
220.668 374 M
220.668 348.985 L
S
GR
GS
[0.75 0 0 0.75 0 0] CT
0 0.447 0.741 RC
2 setlinecap
10.0 ML
N
225.47 374 M
225.47 362.789 L
S
GR
GS
[0.75 0 0 0.75 0 0] CT
0 0.447 0.741 RC
2 setlinecap
10.0 ML
N
230.272 374 M
230.272 359.938 L
S
GR
GS
[0.75 0 0 0.75 0 0] CT
0 0.447 0.741 RC
2 setlinecap
10.0 ML
N
235.075 374 M
235.075 348.838 L
S
GR
GS
[0.75 0 0 0.75 0 0] CT
0 0.447 0.741 RC
2 setlinecap
10.0 ML
N
239.877 374 M
239.877 364.636 L
S
GR
GS
[0.75 0 0 0.75 0 0] CT
0 0.447 0.741 RC
2 setlinecap
10.0 ML
N
244.679 374 M
244.679 365.827 L
S
GR
GS
[0.75 0 0 0.75 0 0] CT
0 0.447 0.741 RC
2 setlinecap
10.0 ML
N
249.481 374 M
249.481 355.372 L
S
GR
GS
[0.75 0 0 0.75 0 0] CT
0 0.447 0.741 RC
2 setlinecap
10.0 ML
N
254.284 374 M
254.284 357.922 L
S
GR
GS
[0.75 0 0 0.75 0 0] CT
0 0.447 0.741 RC
2 setlinecap
10.0 ML
N
259.086 374 M
259.086 361.695 L
S
GR
GS
[0.75 0 0 0.75 0 0] CT
0 0.447 0.741 RC
2 setlinecap
10.0 ML
N
263.888 374 M
263.888 361.943 L
S
GR
GS
[0.75 0 0 0.75 0 0] CT
0 0.447 0.741 RC
2 setlinecap
10.0 ML
N
268.69 374 M
268.69 357.542 L
S
GR
GS
[0.75 0 0 0.75 0 0] CT
0 0.447 0.741 RC
2 setlinecap
10.0 ML
N
273.492 374 M
273.492 359.101 L
S
GR
GS
[0.75 0 0 0.75 0 0] CT
0 0.447 0.741 RC
2 setlinecap
10.0 ML
N
278.295 374 M
278.295 370.236 L
S
GR
GS
[0.75 0 0 0.75 0 0] CT
0 0.447 0.741 RC
2 setlinecap
10.0 ML
N
283.097 374 M
283.097 354.308 L
S
GR
GS
[0.75 0 0 0.75 0 0] CT
0 0.447 0.741 RC
2 setlinecap
10.0 ML
N
287.899 374 M
287.899 363.634 L
S
GR
GS
[0.75 0 0 0.75 0 0] CT
0 0.447 0.741 RC
2 setlinecap
10.0 ML
N
292.701 374 M
292.701 362.006 L
S
GR
GS
[0.75 0 0 0.75 0 0] CT
0 0.447 0.741 RC
2 setlinecap
10.0 ML
N
297.503 374 M
297.503 356.705 L
S
GR
GS
[0.75 0 0 0.75 0 0] CT
0 0.447 0.741 RC
2 setlinecap
10.0 ML
N
302.306 374 M
302.306 359.261 L
S
GR
GS
[0.75 0 0 0.75 0 0] CT
0 0.447 0.741 RC
2 setlinecap
10.0 ML
N
307.108 374 M
307.108 362.074 L
S
GR
GS
[0.75 0 0 0.75 0 0] CT
0 0.447 0.741 RC
2 setlinecap
10.0 ML
N
311.91 374 M
311.91 365.777 L
S
GR
GS
[0.75 0 0 0.75 0 0] CT
0 0.447 0.741 RC
2 setlinecap
10.0 ML
N
316.712 374 M
316.712 364.29 L
S
GR
GS
[0.75 0 0 0.75 0 0] CT
0 0.447 0.741 RC
2 setlinecap
10.0 ML
N
321.515 374 M
321.515 359.179 L
S
GR
GS
[0.75 0 0 0.75 0 0] CT
0 0.447 0.741 RC
2 setlinecap
10.0 ML
N
326.317 374 M
326.317 363.531 L
S
GR
GS
[0.75 0 0 0.75 0 0] CT
0 0.447 0.741 RC
2 setlinecap
10.0 ML
N
331.119 374 M
331.119 345.596 L
S
GR
GS
[0.75 0 0 0.75 0 0] CT
0 0.447 0.741 RC
2 setlinecap
10.0 ML
N
335.921 374 M
335.921 346.977 L
S
GR
GS
[0.75 0 0 0.75 0 0] CT
0 0.447 0.741 RC
2 setlinecap
10.0 ML
N
340.723 374 M
340.723 359.25 L
S
GR
GS
[0.75 0 0 0.75 0 0] CT
0 0.447 0.741 RC
2 setlinecap
10.0 ML
N
345.526 374 M
345.526 357.671 L
S
GR
GS
[0.75 0 0 0.75 0 0] CT
0 0.447 0.741 RC
2 setlinecap
10.0 ML
N
350.328 374 M
350.328 366.588 L
S
GR
GS
[0.75 0 0 0.75 0 0] CT
0 0.447 0.741 RC
2 setlinecap
10.0 ML
N
355.13 374 M
355.13 367.638 L
S
GR
GS
[0.75 0 0 0.75 0 0] CT
0 0.447 0.741 RC
2 setlinecap
10.0 ML
N
359.932 374 M
359.932 353.112 L
S
GR
GS
[0.75 0 0 0.75 0 0] CT
0 0.447 0.741 RC
2 setlinecap
10.0 ML
N
364.734 374 M
364.734 366.476 L
S
GR
GS
[0.75 0 0 0.75 0 0] CT
0 0.447 0.741 RC
2 setlinecap
10.0 ML
N
369.537 374 M
369.537 368.503 L
S
GR
GS
[0.75 0 0 0.75 0 0] CT
0 0.447 0.741 RC
2 setlinecap
10.0 ML
N
374.339 374 M
374.339 361.765 L
S
GR
GS
[0.75 0 0 0.75 0 0] CT
0 0.447 0.741 RC
2 setlinecap
10.0 ML
N
379.141 374 M
379.141 359.969 L
S
GR
GS
[0.75 0 0 0.75 0 0] CT
0 0.447 0.741 RC
2 setlinecap
10.0 ML
N
383.943 374 M
383.943 373.45 L
S
GR
GS
[0.75 0 0 0.75 0 0] CT
0 0.447 0.741 RC
2 setlinecap
10.0 ML
N
388.745 374 M
388.745 366.82 L
S
GR
GS
[0.75 0 0 0.75 0 0] CT
0 0.447 0.741 RC
2 setlinecap
10.0 ML
N
393.548 374 M
393.548 363.171 L
S
GR
GS
[0.75 0 0 0.75 0 0] CT
0 0.447 0.741 RC
2 setlinecap
10.0 ML
N
398.35 374 M
398.35 368.397 L
S
GR
GS
[0.75 0 0 0.75 0 0] CT
0 0.447 0.741 RC
2 setlinecap
10.0 ML
N
403.152 374 M
403.152 371.442 L
S
GR
GS
[0.75 0 0 0.75 0 0] CT
0 0.447 0.741 RC
2 setlinecap
10.0 ML
N
407.954 374 M
407.954 358.44 L
S
GR
GS
[0.75 0 0 0.75 0 0] CT
0 0.447 0.741 RC
2 setlinecap
10.0 ML
N
412.757 374 M
412.757 370.924 L
S
GR
GS
[0.75 0 0 0.75 0 0] CT
0 0.447 0.741 RC
2 setlinecap
10.0 ML
N
417.559 374 M
417.559 366.194 L
S
GR
GS
[0.75 0 0 0.75 0 0] CT
0 0.447 0.741 RC
2 setlinecap
10.0 ML
N
422.361 374 M
422.361 363.174 L
S
GR
GS
[0.75 0 0 0.75 0 0] CT
0 0.447 0.741 RC
2 setlinecap
10.0 ML
N
427.163 374 M
427.163 371.455 L
S
GR
GS
[0.75 0 0 0.75 0 0] CT
0 0.447 0.741 RC
2 setlinecap
10.0 ML
N
431.965 374 M
431.965 368.455 L
S
GR
GS
[0.75 0 0 0.75 0 0] CT
0 0.447 0.741 RC
2 setlinecap
10.0 ML
N
436.768 374 M
436.768 359.465 L
S
GR
GS
[0.75 0 0 0.75 0 0] CT
0 0.447 0.741 RC
2 setlinecap
10.0 ML
N
441.57 374 M
441.57 372.912 L
S
GR
GS
[0.75 0 0 0.75 0 0] CT
0 0.447 0.741 RC
2 setlinecap
10.0 ML
N
446.372 374 M
446.372 364.245 L
S
GR
GS
[0.75 0 0 0.75 0 0] CT
0 0.447 0.741 RC
2 setlinecap
10.0 ML
N
451.174 374 M
451.174 365.68 L
S
GR
GS
[0.75 0 0 0.75 0 0] CT
0 0.447 0.741 RC
2 setlinecap
10.0 ML
N
455.977 374 M
455.977 366.053 L
S
GR
GS
[0.75 0 0 0.75 0 0] CT
0 0.447 0.741 RC
2 setlinecap
10.0 ML
N
460.779 374 M
460.779 370.288 L
S
GR
GS
[0.75 0 0 0.75 0 0] CT
0 0.447 0.741 RC
2 setlinecap
10.0 ML
N
465.581 374 M
465.581 369.984 L
S
GR
GS
[0.75 0 0 0.75 0 0] CT
0 0.447 0.741 RC
2 setlinecap
10.0 ML
N
470.383 374 M
470.383 366.088 L
S
GR
GS
[0.75 0 0 0.75 0 0] CT
0 0.447 0.741 RC
2 setlinecap
10.0 ML
N
475.185 374 M
475.185 368.156 L
S
GR
GS
[0.75 0 0 0.75 0 0] CT
0 0.447 0.741 RC
2 setlinecap
10.0 ML
N
479.988 374 M
479.988 372.078 L
S
GR
GS
[0.75 0 0 0.75 0 0] CT
0 0.447 0.741 RC
2 setlinecap
10.0 ML
N
484.79 374 M
484.79 364.322 L
S
GR
GS
[0.75 0 0 0.75 0 0] CT
0 0.447 0.741 RC
2 setlinecap
10.0 ML
N
489.592 374 M
489.592 368.513 L
S
GR
GS
[0.75 0 0 0.75 0 0] CT
0 0.447 0.741 RC
2 setlinecap
10.0 ML
N
494.394 374 M
494.394 364.115 L
S
GR
GS
[0.75 0 0 0.75 0 0] CT
0 0.447 0.741 RC
2 setlinecap
10.0 ML
N
499.196 374 M
499.196 364.527 L
S
GR
GS
[0.75 0 0 0.75 0 0] CT
0 0.447 0.741 RC
2 setlinecap
10.0 ML
N
503.999 374 M
503.999 367.231 L
S
GR
GS
[0.75 0 0 0.75 217.50021 21.18751] CT
/Helvetica-Bold 15 F
GS
[1 0 0 1 0 0] CT
-144 -4 moveto 
1 -1 scale
(Single-Sided Amplitude Spectrum of y\(t\)) t 
GR
GR
GS
[0.75 0 0 0.75 0 0] CT
0.149 GC
2 setlinecap
10.0 ML
N
73 374 M
507 374 L
S
GR
%%Trailer
%%Pages: 1
%%EOF
