%!PS-Adobe-3.0 EPSF-3.0
%%Creator: (MATLAB, The Mathworks, Inc. Version 8.5.0.197613 \(R2015a\). Operating System: Windows 8)
%%Title: (C:/Users/aleja/Desktop/TFG/Documentaci\363n/Obtenci\363n de datos/matlab_plot/stems/alvaro12-10.eps)
%%CreationDate: 2019-05-22T00:05:36
%%Pages: (atend)
%%BoundingBox: 0 0 420 315
%%LanguageLevel: 2
%%EndComments
%%BeginProlog
%%BeginResource: procset (Apache XML Graphics Std ProcSet) 1.2 0
%%Version: 1.2 0
%%Copyright: (Copyright 2001-2003,2010 The Apache Software Foundation. License terms: http://www.apache.org/licenses/LICENSE-2.0)
/bd{bind def}bind def
/ld{load def}bd
/GR/grestore ld
/M/moveto ld
/LJ/setlinejoin ld
/C/curveto ld
/f/fill ld
/LW/setlinewidth ld
/GC/setgray ld
/t/show ld
/N/newpath ld
/CT/concat ld
/cp/closepath ld
/S/stroke ld
/L/lineto ld
/CC/setcmykcolor ld
/A/ashow ld
/GS/gsave ld
/RC/setrgbcolor ld
/RM/rmoveto ld
/ML/setmiterlimit ld
/re {4 2 roll M
1 index 0 rlineto
0 exch rlineto
neg 0 rlineto
cp } bd
/_ctm matrix def
/_tm matrix def
/BT { _ctm currentmatrix pop matrix _tm copy pop 0 0 moveto } bd
/ET { _ctm setmatrix } bd
/iTm { _ctm setmatrix _tm concat } bd
/Tm { _tm astore pop iTm 0 0 moveto } bd
/ux 0.0 def
/uy 0.0 def
/F {
  /Tp exch def
  /Tf exch def
  Tf findfont Tp scalefont setfont
  /cf Tf def  /cs Tp def
} bd
/ULS {currentpoint /uy exch def /ux exch def} bd
/ULE {
  /Tcx currentpoint pop def
  gsave
  newpath
  cf findfont cs scalefont dup
  /FontMatrix get 0 get /Ts exch def /FontInfo get dup
  /UnderlinePosition get Ts mul /To exch def
  /UnderlineThickness get Ts mul /Tt exch def
  ux uy To add moveto  Tcx uy To add lineto
  Tt setlinewidth stroke
  grestore
} bd
/OLE {
  /Tcx currentpoint pop def
  gsave
  newpath
  cf findfont cs scalefont dup
  /FontMatrix get 0 get /Ts exch def /FontInfo get dup
  /UnderlinePosition get Ts mul /To exch def
  /UnderlineThickness get Ts mul /Tt exch def
  ux uy To add cs add moveto Tcx uy To add cs add lineto
  Tt setlinewidth stroke
  grestore
} bd
/SOE {
  /Tcx currentpoint pop def
  gsave
  newpath
  cf findfont cs scalefont dup
  /FontMatrix get 0 get /Ts exch def /FontInfo get dup
  /UnderlinePosition get Ts mul /To exch def
  /UnderlineThickness get Ts mul /Tt exch def
  ux uy To add cs 10 mul 26 idiv add moveto Tcx uy To add cs 10 mul 26 idiv add lineto
  Tt setlinewidth stroke
  grestore
} bd
/QT {
/Y22 exch store
/X22 exch store
/Y21 exch store
/X21 exch store
currentpoint
/Y21 load 2 mul add 3 div exch
/X21 load 2 mul add 3 div exch
/X21 load 2 mul /X22 load add 3 div
/Y21 load 2 mul /Y22 load add 3 div
/X22 load /Y22 load curveto
} bd
/SSPD {
dup length /d exch dict def
{
/v exch def
/k exch def
currentpagedevice k known {
/cpdv currentpagedevice k get def
v cpdv ne {
/upd false def
/nullv v type /nulltype eq def
/nullcpdv cpdv type /nulltype eq def
nullv nullcpdv or
{
/upd true def
} {
/sametype v type cpdv type eq def
sametype {
v type /arraytype eq {
/vlen v length def
/cpdvlen cpdv length def
vlen cpdvlen eq {
0 1 vlen 1 sub {
/i exch def
/obj v i get def
/cpdobj cpdv i get def
obj cpdobj ne {
/upd true def
exit
} if
} for
} {
/upd true def
} ifelse
} {
v type /dicttype eq {
v {
/dv exch def
/dk exch def
/cpddv cpdv dk get def
dv cpddv ne {
/upd true def
exit
} if
} forall
} {
/upd true def
} ifelse
} ifelse
} if
} ifelse
upd true eq {
d k v put
} if
} if
} if
} forall
d length 0 gt {
d setpagedevice
} if
} bd
%%EndResource
%%BeginResource: procset (Apache XML Graphics EPS ProcSet) 1.0 0
%%Version: 1.0 0
%%Copyright: (Copyright 2002-2003 The Apache Software Foundation. License terms: http://www.apache.org/licenses/LICENSE-2.0)
/BeginEPSF { %def
/b4_Inc_state save def         % Save state for cleanup
/dict_count countdictstack def % Count objects on dict stack
/op_count count 1 sub def      % Count objects on operand stack
userdict begin                 % Push userdict on dict stack
/showpage { } def              % Redefine showpage, { } = null proc
0 setgray 0 setlinecap         % Prepare graphics state
1 setlinewidth 0 setlinejoin
10 setmiterlimit [ ] 0 setdash newpath
/languagelevel where           % If level not equal to 1 then
{pop languagelevel             % set strokeadjust and
1 ne                           % overprint to their defaults.
{false setstrokeadjust false setoverprint
} if
} if
} bd
/EndEPSF { %def
count op_count sub {pop} repeat            % Clean up stacks
countdictstack dict_count sub {end} repeat
b4_Inc_state restore
} bd
%%EndResource
%FOPBeginFontDict
%%IncludeResource: font Courier-Bold
%%IncludeResource: font Helvetica
%%IncludeResource: font Courier-BoldOblique
%%IncludeResource: font Courier-Oblique
%%IncludeResource: font Times-Roman
%%IncludeResource: font Helvetica-BoldOblique
%%IncludeResource: font Helvetica-Bold
%%IncludeResource: font Helvetica-Oblique
%%IncludeResource: font Times-BoldItalic
%%IncludeResource: font Courier
%%IncludeResource: font Times-Italic
%%IncludeResource: font Times-Bold
%%IncludeResource: font Symbol
%%IncludeResource: font ZapfDingbats
%FOPEndFontDict
%%BeginResource: encoding WinAnsiEncoding
/WinAnsiEncoding [
/.notdef /.notdef /.notdef /.notdef /.notdef
/.notdef /.notdef /.notdef /.notdef /.notdef
/.notdef /.notdef /.notdef /.notdef /.notdef
/.notdef /.notdef /.notdef /.notdef /.notdef
/.notdef /.notdef /.notdef /.notdef /.notdef
/.notdef /.notdef /.notdef /.notdef /.notdef
/.notdef /.notdef /space /exclam /quotedbl
/numbersign /dollar /percent /ampersand /quotesingle
/parenleft /parenright /asterisk /plus /comma
/hyphen /period /slash /zero /one
/two /three /four /five /six
/seven /eight /nine /colon /semicolon
/less /equal /greater /question /at
/A /B /C /D /E
/F /G /H /I /J
/K /L /M /N /O
/P /Q /R /S /T
/U /V /W /X /Y
/Z /bracketleft /backslash /bracketright /asciicircum
/underscore /quoteleft /a /b /c
/d /e /f /g /h
/i /j /k /l /m
/n /o /p /q /r
/s /t /u /v /w
/x /y /z /braceleft /bar
/braceright /asciitilde /bullet /Euro /bullet
/quotesinglbase /florin /quotedblbase /ellipsis /dagger
/daggerdbl /circumflex /perthousand /Scaron /guilsinglleft
/OE /bullet /Zcaron /bullet /bullet
/quoteleft /quoteright /quotedblleft /quotedblright /bullet
/endash /emdash /asciitilde /trademark /scaron
/guilsinglright /oe /bullet /zcaron /Ydieresis
/space /exclamdown /cent /sterling /currency
/yen /brokenbar /section /dieresis /copyright
/ordfeminine /guillemotleft /logicalnot /sfthyphen /registered
/macron /degree /plusminus /twosuperior /threesuperior
/acute /mu /paragraph /middot /cedilla
/onesuperior /ordmasculine /guillemotright /onequarter /onehalf
/threequarters /questiondown /Agrave /Aacute /Acircumflex
/Atilde /Adieresis /Aring /AE /Ccedilla
/Egrave /Eacute /Ecircumflex /Edieresis /Igrave
/Iacute /Icircumflex /Idieresis /Eth /Ntilde
/Ograve /Oacute /Ocircumflex /Otilde /Odieresis
/multiply /Oslash /Ugrave /Uacute /Ucircumflex
/Udieresis /Yacute /Thorn /germandbls /agrave
/aacute /acircumflex /atilde /adieresis /aring
/ae /ccedilla /egrave /eacute /ecircumflex
/edieresis /igrave /iacute /icircumflex /idieresis
/eth /ntilde /ograve /oacute /ocircumflex
/otilde /odieresis /divide /oslash /ugrave
/uacute /ucircumflex /udieresis /yacute /thorn
/ydieresis
] def
%%EndResource
%FOPBeginFontReencode
/Courier-Bold findfont
dup length dict begin
  {1 index /FID ne {def} {pop pop} ifelse} forall
  /Encoding WinAnsiEncoding def
  currentdict
end
/Courier-Bold exch definefont pop
/Helvetica findfont
dup length dict begin
  {1 index /FID ne {def} {pop pop} ifelse} forall
  /Encoding WinAnsiEncoding def
  currentdict
end
/Helvetica exch definefont pop
/Courier-BoldOblique findfont
dup length dict begin
  {1 index /FID ne {def} {pop pop} ifelse} forall
  /Encoding WinAnsiEncoding def
  currentdict
end
/Courier-BoldOblique exch definefont pop
/Courier-Oblique findfont
dup length dict begin
  {1 index /FID ne {def} {pop pop} ifelse} forall
  /Encoding WinAnsiEncoding def
  currentdict
end
/Courier-Oblique exch definefont pop
/Times-Roman findfont
dup length dict begin
  {1 index /FID ne {def} {pop pop} ifelse} forall
  /Encoding WinAnsiEncoding def
  currentdict
end
/Times-Roman exch definefont pop
/Helvetica-BoldOblique findfont
dup length dict begin
  {1 index /FID ne {def} {pop pop} ifelse} forall
  /Encoding WinAnsiEncoding def
  currentdict
end
/Helvetica-BoldOblique exch definefont pop
/Helvetica-Bold findfont
dup length dict begin
  {1 index /FID ne {def} {pop pop} ifelse} forall
  /Encoding WinAnsiEncoding def
  currentdict
end
/Helvetica-Bold exch definefont pop
/Helvetica-Oblique findfont
dup length dict begin
  {1 index /FID ne {def} {pop pop} ifelse} forall
  /Encoding WinAnsiEncoding def
  currentdict
end
/Helvetica-Oblique exch definefont pop
/Times-BoldItalic findfont
dup length dict begin
  {1 index /FID ne {def} {pop pop} ifelse} forall
  /Encoding WinAnsiEncoding def
  currentdict
end
/Times-BoldItalic exch definefont pop
/Courier findfont
dup length dict begin
  {1 index /FID ne {def} {pop pop} ifelse} forall
  /Encoding WinAnsiEncoding def
  currentdict
end
/Courier exch definefont pop
/Times-Italic findfont
dup length dict begin
  {1 index /FID ne {def} {pop pop} ifelse} forall
  /Encoding WinAnsiEncoding def
  currentdict
end
/Times-Italic exch definefont pop
/Times-Bold findfont
dup length dict begin
  {1 index /FID ne {def} {pop pop} ifelse} forall
  /Encoding WinAnsiEncoding def
  currentdict
end
/Times-Bold exch definefont pop
%FOPEndFontReencode
%%EndProlog
%%Page: 1 1
%%PageBoundingBox: 0 0 420 315
%%BeginPageSetup
[1 0 0 -1 0 315] CT
%%EndPageSetup
GS
[0.75 0 0 0.75 0 0] CT
1 GC
N
0 0 560 420 re
f
GR
GS
[0.75 0 0 0.75 0 0] CT
1 GC
N
0 0 560 420 re
f
GR
GS
[0.75 0 0 0.75 0 0] CT
1 GC
N
73 374 M
507 374 L
507 31 L
73 31 L
cp
f
GR
GS
[0.75 0 0 0.75 217.50016 298.24999] CT
0.149 GC
/Helvetica 15 F
GS
[1 0 0 1 0 0] CT
-52 16 moveto 
1 -1 scale
(Frequency \(Hz\)) t 
GR
GR
GS
[0.75 0 0 0.75 0 0] CT
0.149 GC
2 setlinecap
10.0 ML
N
73 374 M
507 374 L
S
GR
GS
[0.75 0 0 0.75 0 0] CT
0.149 GC
2 setlinecap
10.0 ML
N
73 31 M
507 31 L
S
GR
GS
[0.75 0 0 0.75 0 0] CT
0.149 GC
2 setlinecap
10.0 ML
N
73 374 M
73 369.66 L
S
GR
GS
[0.75 0 0 0.75 0 0] CT
0.149 GC
2 setlinecap
10.0 ML
N
116.4 374 M
116.4 369.66 L
S
GR
GS
[0.75 0 0 0.75 0 0] CT
0.149 GC
2 setlinecap
10.0 ML
N
159.8 374 M
159.8 369.66 L
S
GR
GS
[0.75 0 0 0.75 0 0] CT
0.149 GC
2 setlinecap
10.0 ML
N
203.2 374 M
203.2 369.66 L
S
GR
GS
[0.75 0 0 0.75 0 0] CT
0.149 GC
2 setlinecap
10.0 ML
N
246.6 374 M
246.6 369.66 L
S
GR
GS
[0.75 0 0 0.75 0 0] CT
0.149 GC
2 setlinecap
10.0 ML
N
290 374 M
290 369.66 L
S
GR
GS
[0.75 0 0 0.75 0 0] CT
0.149 GC
2 setlinecap
10.0 ML
N
333.4 374 M
333.4 369.66 L
S
GR
GS
[0.75 0 0 0.75 0 0] CT
0.149 GC
2 setlinecap
10.0 ML
N
376.8 374 M
376.8 369.66 L
S
GR
GS
[0.75 0 0 0.75 0 0] CT
0.149 GC
2 setlinecap
10.0 ML
N
420.2 374 M
420.2 369.66 L
S
GR
GS
[0.75 0 0 0.75 0 0] CT
0.149 GC
2 setlinecap
10.0 ML
N
463.6 374 M
463.6 369.66 L
S
GR
GS
[0.75 0 0 0.75 0 0] CT
0.149 GC
2 setlinecap
10.0 ML
N
507 374 M
507 369.66 L
S
GR
GS
[0.75 0 0 0.75 0 0] CT
0.149 GC
2 setlinecap
10.0 ML
N
73 31 M
73 35.34 L
S
GR
GS
[0.75 0 0 0.75 0 0] CT
0.149 GC
2 setlinecap
10.0 ML
N
116.4 31 M
116.4 35.34 L
S
GR
GS
[0.75 0 0 0.75 0 0] CT
0.149 GC
2 setlinecap
10.0 ML
N
159.8 31 M
159.8 35.34 L
S
GR
GS
[0.75 0 0 0.75 0 0] CT
0.149 GC
2 setlinecap
10.0 ML
N
203.2 31 M
203.2 35.34 L
S
GR
GS
[0.75 0 0 0.75 0 0] CT
0.149 GC
2 setlinecap
10.0 ML
N
246.6 31 M
246.6 35.34 L
S
GR
GS
[0.75 0 0 0.75 0 0] CT
0.149 GC
2 setlinecap
10.0 ML
N
290 31 M
290 35.34 L
S
GR
GS
[0.75 0 0 0.75 0 0] CT
0.149 GC
2 setlinecap
10.0 ML
N
333.4 31 M
333.4 35.34 L
S
GR
GS
[0.75 0 0 0.75 0 0] CT
0.149 GC
2 setlinecap
10.0 ML
N
376.8 31 M
376.8 35.34 L
S
GR
GS
[0.75 0 0 0.75 0 0] CT
0.149 GC
2 setlinecap
10.0 ML
N
420.2 31 M
420.2 35.34 L
S
GR
GS
[0.75 0 0 0.75 0 0] CT
0.149 GC
2 setlinecap
10.0 ML
N
463.6 31 M
463.6 35.34 L
S
GR
GS
[0.75 0 0 0.75 0 0] CT
0.149 GC
2 setlinecap
10.0 ML
N
507 31 M
507 35.34 L
S
GR
GS
[0.75 0 0 0.75 54.75 284.50001] CT
0.149 GC
/Helvetica 13 F
GS
[1 0 0 1 0 0] CT
-4 14 moveto 
1 -1 scale
(0) t 
GR
GR
GS
[0.75 0 0 0.75 87.3 284.50001] CT
0.149 GC
/Helvetica 13 F
GS
[1 0 0 1 0 0] CT
-7.5 14 moveto 
1 -1 scale
(10) t 
GR
GR
GS
[0.75 0 0 0.75 119.85 284.50001] CT
0.149 GC
/Helvetica 13 F
GS
[1 0 0 1 0 0] CT
-7.5 14 moveto 
1 -1 scale
(20) t 
GR
GR
GS
[0.75 0 0 0.75 152.4 284.50001] CT
0.149 GC
/Helvetica 13 F
GS
[1 0 0 1 0 0] CT
-7.5 14 moveto 
1 -1 scale
(30) t 
GR
GR
GS
[0.75 0 0 0.75 184.95 284.50001] CT
0.149 GC
/Helvetica 13 F
GS
[1 0 0 1 0 0] CT
-7.5 14 moveto 
1 -1 scale
(40) t 
GR
GR
GS
[0.75 0 0 0.75 217.5 284.50001] CT
0.149 GC
/Helvetica 13 F
GS
[1 0 0 1 0 0] CT
-7.5 14 moveto 
1 -1 scale
(50) t 
GR
GR
GS
[0.75 0 0 0.75 250.05 284.50001] CT
0.149 GC
/Helvetica 13 F
GS
[1 0 0 1 0 0] CT
-7.5 14 moveto 
1 -1 scale
(60) t 
GR
GR
GS
[0.75 0 0 0.75 282.59999 284.50001] CT
0.149 GC
/Helvetica 13 F
GS
[1 0 0 1 0 0] CT
-7.5 14 moveto 
1 -1 scale
(70) t 
GR
GR
GS
[0.75 0 0 0.75 315.15001 284.50001] CT
0.149 GC
/Helvetica 13 F
GS
[1 0 0 1 0 0] CT
-7.5 14 moveto 
1 -1 scale
(80) t 
GR
GR
GS
[0.75 0 0 0.75 347.7 284.50001] CT
0.149 GC
/Helvetica 13 F
GS
[1 0 0 1 0 0] CT
-7.5 14 moveto 
1 -1 scale
(90) t 
GR
GR
GS
[0.75 0 0 0.75 380.25 284.50001] CT
0.149 GC
/Helvetica 13 F
GS
[1 0 0 1 0 0] CT
-11 14 moveto 
1 -1 scale
(100) t 
GR
GR
GS
[0 -0.75 0.75 0 33.5 151.87487] CT
0.149 GC
/Helvetica 15 F
GS
[1 0 0 1 0 0] CT
-61.5 -4 moveto 
1 -1 scale
(|P\(f\)| MAgnitud dB) t 
GR
GR
GS
[0.75 0 0 0.75 0 0] CT
0.149 GC
2 setlinecap
10.0 ML
N
73 374 M
73 31 L
S
GR
GS
[0.75 0 0 0.75 0 0] CT
0.149 GC
2 setlinecap
10.0 ML
N
507 374 M
507 31 L
S
GR
GS
[0.75 0 0 0.75 0 0] CT
0.149 GC
2 setlinecap
10.0 ML
N
73 374 M
77.34 374 L
S
GR
GS
[0.75 0 0 0.75 0 0] CT
0.149 GC
2 setlinecap
10.0 ML
N
73 316.833 M
77.34 316.833 L
S
GR
GS
[0.75 0 0 0.75 0 0] CT
0.149 GC
2 setlinecap
10.0 ML
N
73 259.667 M
77.34 259.667 L
S
GR
GS
[0.75 0 0 0.75 0 0] CT
0.149 GC
2 setlinecap
10.0 ML
N
73 202.5 M
77.34 202.5 L
S
GR
GS
[0.75 0 0 0.75 0 0] CT
0.149 GC
2 setlinecap
10.0 ML
N
73 145.333 M
77.34 145.333 L
S
GR
GS
[0.75 0 0 0.75 0 0] CT
0.149 GC
2 setlinecap
10.0 ML
N
73 88.167 M
77.34 88.167 L
S
GR
GS
[0.75 0 0 0.75 0 0] CT
0.149 GC
2 setlinecap
10.0 ML
N
73 31 M
77.34 31 L
S
GR
GS
[0.75 0 0 0.75 0 0] CT
0.149 GC
2 setlinecap
10.0 ML
N
507 374 M
502.66 374 L
S
GR
GS
[0.75 0 0 0.75 0 0] CT
0.149 GC
2 setlinecap
10.0 ML
N
507 316.833 M
502.66 316.833 L
S
GR
GS
[0.75 0 0 0.75 0 0] CT
0.149 GC
2 setlinecap
10.0 ML
N
507 259.667 M
502.66 259.667 L
S
GR
GS
[0.75 0 0 0.75 0 0] CT
0.149 GC
2 setlinecap
10.0 ML
N
507 202.5 M
502.66 202.5 L
S
GR
GS
[0.75 0 0 0.75 0 0] CT
0.149 GC
2 setlinecap
10.0 ML
N
507 145.333 M
502.66 145.333 L
S
GR
GS
[0.75 0 0 0.75 0 0] CT
0.149 GC
2 setlinecap
10.0 ML
N
507 88.167 M
502.66 88.167 L
S
GR
GS
[0.75 0 0 0.75 0 0] CT
0.149 GC
2 setlinecap
10.0 ML
N
507 31 M
502.66 31 L
S
GR
GS
[0.75 0 0 0.75 50.75 280.5] CT
0.149 GC
/Helvetica 13 F
GS
[1 0 0 1 0 0] CT
-8 5.5 moveto 
1 -1 scale
(0) t 
GR
GR
GS
[0.75 0 0 0.75 50.75 237.62501] CT
0.149 GC
/Helvetica 13 F
GS
[1 0 0 1 0 0] CT
-19 5.5 moveto 
1 -1 scale
(0.5) t 
GR
GR
GS
[0.75 0 0 0.75 50.75 194.74999] CT
0.149 GC
/Helvetica 13 F
GS
[1 0 0 1 0 0] CT
-8 5.5 moveto 
1 -1 scale
(1) t 
GR
GR
GS
[0.75 0 0 0.75 50.75 151.875] CT
0.149 GC
/Helvetica 13 F
GS
[1 0 0 1 0 0] CT
-19 5.5 moveto 
1 -1 scale
(1.5) t 
GR
GR
GS
[0.75 0 0 0.75 50.75 109] CT
0.149 GC
/Helvetica 13 F
GS
[1 0 0 1 0 0] CT
-8 5.5 moveto 
1 -1 scale
(2) t 
GR
GR
GS
[0.75 0 0 0.75 50.75 66.125] CT
0.149 GC
/Helvetica 13 F
GS
[1 0 0 1 0 0] CT
-19 5.5 moveto 
1 -1 scale
(2.5) t 
GR
GR
GS
[0.75 0 0 0.75 50.75 23.25] CT
0.149 GC
/Helvetica 13 F
GS
[1 0 0 1 0 0] CT
-8 5.5 moveto 
1 -1 scale
(3) t 
GR
GR
GS
[0.75 0 0 0.75 0 0] CT
0 0.447 0.741 RC
2 setlinecap
10.0 ML
N
79.5 75.5 M
78.736 73.149 L
76.736 71.696 L
74.264 71.696 L
72.264 73.149 L
71.5 75.5 L
72.264 77.851 L
74.264 79.304 L
76.736 79.304 L
78.736 77.851 L
79.5 75.5 L
S
GR
GS
[0.75 0 0 0.75 0 0] CT
0 0.447 0.741 RC
2 setlinecap
10.0 ML
N
82.5 328.5 M
81.736 326.149 L
79.736 324.696 L
77.264 324.696 L
75.264 326.149 L
74.5 328.5 L
75.264 330.851 L
77.264 332.304 L
79.736 332.304 L
81.736 330.851 L
82.5 328.5 L
S
GR
GS
[0.75 0 0 0.75 0 0] CT
0 0.447 0.741 RC
2 setlinecap
10.0 ML
N
85.5 260.5 M
84.736 258.149 L
82.736 256.696 L
80.264 256.696 L
78.264 258.149 L
77.5 260.5 L
78.264 262.851 L
80.264 264.304 L
82.736 264.304 L
84.736 262.851 L
85.5 260.5 L
S
GR
GS
[0.75 0 0 0.75 0 0] CT
0 0.447 0.741 RC
2 setlinecap
10.0 ML
N
88.5 272.5 M
87.736 270.149 L
85.736 268.696 L
83.264 268.696 L
81.264 270.149 L
80.5 272.5 L
81.264 274.851 L
83.264 276.304 L
85.736 276.304 L
87.736 274.851 L
88.5 272.5 L
S
GR
GS
[0.75 0 0 0.75 0 0] CT
0 0.447 0.741 RC
2 setlinecap
10.0 ML
N
91.5 207.5 M
90.736 205.149 L
88.736 203.696 L
86.264 203.696 L
84.264 205.149 L
83.5 207.5 L
84.264 209.851 L
86.264 211.304 L
88.736 211.304 L
90.736 209.851 L
91.5 207.5 L
S
GR
GS
[0.75 0 0 0.75 0 0] CT
0 0.447 0.741 RC
2 setlinecap
10.0 ML
N
94.5 273.5 M
93.736 271.149 L
91.736 269.696 L
89.264 269.696 L
87.264 271.149 L
86.5 273.5 L
87.264 275.851 L
89.264 277.304 L
91.736 277.304 L
93.736 275.851 L
94.5 273.5 L
S
GR
GS
[0.75 0 0 0.75 0 0] CT
0 0.447 0.741 RC
2 setlinecap
10.0 ML
N
97.5 194.5 M
96.736 192.149 L
94.736 190.696 L
92.264 190.696 L
90.264 192.149 L
89.5 194.5 L
90.264 196.851 L
92.264 198.304 L
94.736 198.304 L
96.736 196.851 L
97.5 194.5 L
S
GR
GS
[0.75 0 0 0.75 0 0] CT
0 0.447 0.741 RC
2 setlinecap
10.0 ML
N
100.5 291.5 M
99.736 289.149 L
97.736 287.696 L
95.264 287.696 L
93.264 289.149 L
92.5 291.5 L
93.264 293.851 L
95.264 295.304 L
97.736 295.304 L
99.736 293.851 L
100.5 291.5 L
S
GR
GS
[0.75 0 0 0.75 0 0] CT
0 0.447 0.741 RC
2 setlinecap
10.0 ML
N
103.5 193.5 M
102.736 191.149 L
100.736 189.696 L
98.264 189.696 L
96.264 191.149 L
95.5 193.5 L
96.264 195.851 L
98.264 197.304 L
100.736 197.304 L
102.736 195.851 L
103.5 193.5 L
S
GR
GS
[0.75 0 0 0.75 0 0] CT
0 0.447 0.741 RC
2 setlinecap
10.0 ML
N
107.5 208.5 M
106.736 206.149 L
104.736 204.696 L
102.264 204.696 L
100.264 206.149 L
99.5 208.5 L
100.264 210.851 L
102.264 212.304 L
104.736 212.304 L
106.736 210.851 L
107.5 208.5 L
S
GR
GS
[0.75 0 0 0.75 0 0] CT
0 0.447 0.741 RC
2 setlinecap
10.0 ML
N
110.5 310.5 M
109.736 308.149 L
107.736 306.696 L
105.264 306.696 L
103.264 308.149 L
102.5 310.5 L
103.264 312.851 L
105.264 314.304 L
107.736 314.304 L
109.736 312.851 L
110.5 310.5 L
S
GR
GS
[0.75 0 0 0.75 0 0] CT
0 0.447 0.741 RC
2 setlinecap
10.0 ML
N
113.5 278.5 M
112.736 276.149 L
110.736 274.696 L
108.264 274.696 L
106.264 276.149 L
105.5 278.5 L
106.264 280.851 L
108.264 282.304 L
110.736 282.304 L
112.736 280.851 L
113.5 278.5 L
S
GR
GS
[0.75 0 0 0.75 0 0] CT
0 0.447 0.741 RC
2 setlinecap
10.0 ML
N
116.5 257.5 M
115.736 255.149 L
113.736 253.696 L
111.264 253.696 L
109.264 255.149 L
108.5 257.5 L
109.264 259.851 L
111.264 261.304 L
113.736 261.304 L
115.736 259.851 L
116.5 257.5 L
S
GR
GS
[0.75 0 0 0.75 0 0] CT
0 0.447 0.741 RC
2 setlinecap
10.0 ML
N
119.5 253.5 M
118.736 251.149 L
116.736 249.696 L
114.264 249.696 L
112.264 251.149 L
111.5 253.5 L
112.264 255.851 L
114.264 257.304 L
116.736 257.304 L
118.736 255.851 L
119.5 253.5 L
S
GR
GS
[0.75 0 0 0.75 0 0] CT
0 0.447 0.741 RC
2 setlinecap
10.0 ML
N
122.5 244.5 M
121.736 242.149 L
119.736 240.696 L
117.264 240.696 L
115.264 242.149 L
114.5 244.5 L
115.264 246.851 L
117.264 248.304 L
119.736 248.304 L
121.736 246.851 L
122.5 244.5 L
S
GR
GS
[0.75 0 0 0.75 0 0] CT
0 0.447 0.741 RC
2 setlinecap
10.0 ML
N
125.5 331.5 M
124.736 329.149 L
122.736 327.696 L
120.264 327.696 L
118.264 329.149 L
117.5 331.5 L
118.264 333.851 L
120.264 335.304 L
122.736 335.304 L
124.736 333.851 L
125.5 331.5 L
S
GR
GS
[0.75 0 0 0.75 0 0] CT
0 0.447 0.741 RC
2 setlinecap
10.0 ML
N
128.5 269.5 M
127.736 267.149 L
125.736 265.696 L
123.264 265.696 L
121.264 267.149 L
120.5 269.5 L
121.264 271.851 L
123.264 273.304 L
125.736 273.304 L
127.736 271.851 L
128.5 269.5 L
S
GR
GS
[0.75 0 0 0.75 0 0] CT
0 0.447 0.741 RC
2 setlinecap
10.0 ML
N
131.5 313.5 M
130.736 311.149 L
128.736 309.696 L
126.264 309.696 L
124.264 311.149 L
123.5 313.5 L
124.264 315.851 L
126.264 317.304 L
128.736 317.304 L
130.736 315.851 L
131.5 313.5 L
S
GR
GS
[0.75 0 0 0.75 0 0] CT
0 0.447 0.741 RC
2 setlinecap
10.0 ML
N
134.5 289.5 M
133.736 287.149 L
131.736 285.696 L
129.264 285.696 L
127.264 287.149 L
126.5 289.5 L
127.264 291.851 L
129.264 293.304 L
131.736 293.304 L
133.736 291.851 L
134.5 289.5 L
S
GR
GS
[0.75 0 0 0.75 0 0] CT
0 0.447 0.741 RC
2 setlinecap
10.0 ML
N
137.5 271.5 M
136.736 269.149 L
134.736 267.696 L
132.264 267.696 L
130.264 269.149 L
129.5 271.5 L
130.264 273.851 L
132.264 275.304 L
134.736 275.304 L
136.736 273.851 L
137.5 271.5 L
S
GR
GS
[0.75 0 0 0.75 0 0] CT
0 0.447 0.741 RC
2 setlinecap
10.0 ML
N
140.5 257.5 M
139.736 255.149 L
137.736 253.696 L
135.264 253.696 L
133.264 255.149 L
132.5 257.5 L
133.264 259.851 L
135.264 261.304 L
137.736 261.304 L
139.736 259.851 L
140.5 257.5 L
S
GR
GS
[0.75 0 0 0.75 0 0] CT
0 0.447 0.741 RC
2 setlinecap
10.0 ML
N
144.5 340.5 M
143.736 338.149 L
141.736 336.696 L
139.264 336.696 L
137.264 338.149 L
136.5 340.5 L
137.264 342.851 L
139.264 344.304 L
141.736 344.304 L
143.736 342.851 L
144.5 340.5 L
S
GR
GS
[0.75 0 0 0.75 0 0] CT
0 0.447 0.741 RC
2 setlinecap
10.0 ML
N
147.5 309.5 M
146.736 307.149 L
144.736 305.696 L
142.264 305.696 L
140.264 307.149 L
139.5 309.5 L
140.264 311.851 L
142.264 313.304 L
144.736 313.304 L
146.736 311.851 L
147.5 309.5 L
S
GR
GS
[0.75 0 0 0.75 0 0] CT
0 0.447 0.741 RC
2 setlinecap
10.0 ML
N
150.5 327.5 M
149.736 325.149 L
147.736 323.696 L
145.264 323.696 L
143.264 325.149 L
142.5 327.5 L
143.264 329.851 L
145.264 331.304 L
147.736 331.304 L
149.736 329.851 L
150.5 327.5 L
S
GR
GS
[0.75 0 0 0.75 0 0] CT
0 0.447 0.741 RC
2 setlinecap
10.0 ML
N
153.5 288.5 M
152.736 286.149 L
150.736 284.696 L
148.264 284.696 L
146.264 286.149 L
145.5 288.5 L
146.264 290.851 L
148.264 292.304 L
150.736 292.304 L
152.736 290.851 L
153.5 288.5 L
S
GR
GS
[0.75 0 0 0.75 0 0] CT
0 0.447 0.741 RC
2 setlinecap
10.0 ML
N
156.5 320.5 M
155.736 318.149 L
153.736 316.696 L
151.264 316.696 L
149.264 318.149 L
148.5 320.5 L
149.264 322.851 L
151.264 324.304 L
153.736 324.304 L
155.736 322.851 L
156.5 320.5 L
S
GR
GS
[0.75 0 0 0.75 0 0] CT
0 0.447 0.741 RC
2 setlinecap
10.0 ML
N
159.5 269.5 M
158.736 267.149 L
156.736 265.696 L
154.264 265.696 L
152.264 267.149 L
151.5 269.5 L
152.264 271.851 L
154.264 273.304 L
156.736 273.304 L
158.736 271.851 L
159.5 269.5 L
S
GR
GS
[0.75 0 0 0.75 0 0] CT
0 0.447 0.741 RC
2 setlinecap
10.0 ML
N
162.5 238.5 M
161.736 236.149 L
159.736 234.696 L
157.264 234.696 L
155.264 236.149 L
154.5 238.5 L
155.264 240.851 L
157.264 242.304 L
159.736 242.304 L
161.736 240.851 L
162.5 238.5 L
S
GR
GS
[0.75 0 0 0.75 0 0] CT
0 0.447 0.741 RC
2 setlinecap
10.0 ML
N
165.5 310.5 M
164.736 308.149 L
162.736 306.696 L
160.264 306.696 L
158.264 308.149 L
157.5 310.5 L
158.264 312.851 L
160.264 314.304 L
162.736 314.304 L
164.736 312.851 L
165.5 310.5 L
S
GR
GS
[0.75 0 0 0.75 0 0] CT
0 0.447 0.741 RC
2 setlinecap
10.0 ML
N
168.5 284.5 M
167.736 282.149 L
165.736 280.696 L
163.264 280.696 L
161.264 282.149 L
160.5 284.5 L
161.264 286.851 L
163.264 288.304 L
165.736 288.304 L
167.736 286.851 L
168.5 284.5 L
S
GR
GS
[0.75 0 0 0.75 0 0] CT
0 0.447 0.741 RC
2 setlinecap
10.0 ML
N
171.5 244.5 M
170.736 242.149 L
168.736 240.696 L
166.264 240.696 L
164.264 242.149 L
163.5 244.5 L
164.264 246.851 L
166.264 248.304 L
168.736 248.304 L
170.736 246.851 L
171.5 244.5 L
S
GR
GS
[0.75 0 0 0.75 0 0] CT
0 0.447 0.741 RC
2 setlinecap
10.0 ML
N
174.5 333.5 M
173.736 331.149 L
171.736 329.696 L
169.264 329.696 L
167.264 331.149 L
166.5 333.5 L
167.264 335.851 L
169.264 337.304 L
171.736 337.304 L
173.736 335.851 L
174.5 333.5 L
S
GR
GS
[0.75 0 0 0.75 0 0] CT
0 0.447 0.741 RC
2 setlinecap
10.0 ML
N
177.5 324.5 M
176.736 322.149 L
174.736 320.696 L
172.264 320.696 L
170.264 322.149 L
169.5 324.5 L
170.264 326.851 L
172.264 328.304 L
174.736 328.304 L
176.736 326.851 L
177.5 324.5 L
S
GR
GS
[0.75 0 0 0.75 0 0] CT
0 0.447 0.741 RC
2 setlinecap
10.0 ML
N
181.5 301.5 M
180.736 299.149 L
178.736 297.696 L
176.264 297.696 L
174.264 299.149 L
173.5 301.5 L
174.264 303.851 L
176.264 305.304 L
178.736 305.304 L
180.736 303.851 L
181.5 301.5 L
S
GR
GS
[0.75 0 0 0.75 0 0] CT
0 0.447 0.741 RC
2 setlinecap
10.0 ML
N
184.5 367.5 M
183.736 365.149 L
181.736 363.696 L
179.264 363.696 L
177.264 365.149 L
176.5 367.5 L
177.264 369.851 L
179.264 371.304 L
181.736 371.304 L
183.736 369.851 L
184.5 367.5 L
S
GR
GS
[0.75 0 0 0.75 0 0] CT
0 0.447 0.741 RC
2 setlinecap
10.0 ML
N
187.5 353.5 M
186.736 351.149 L
184.736 349.696 L
182.264 349.696 L
180.264 351.149 L
179.5 353.5 L
180.264 355.851 L
182.264 357.304 L
184.736 357.304 L
186.736 355.851 L
187.5 353.5 L
S
GR
GS
[0.75 0 0 0.75 0 0] CT
0 0.447 0.741 RC
2 setlinecap
10.0 ML
N
190.5 322.5 M
189.736 320.149 L
187.736 318.696 L
185.264 318.696 L
183.264 320.149 L
182.5 322.5 L
183.264 324.851 L
185.264 326.304 L
187.736 326.304 L
189.736 324.851 L
190.5 322.5 L
S
GR
GS
[0.75 0 0 0.75 0 0] CT
0 0.447 0.741 RC
2 setlinecap
10.0 ML
N
193.5 298.5 M
192.736 296.149 L
190.736 294.696 L
188.264 294.696 L
186.264 296.149 L
185.5 298.5 L
186.264 300.851 L
188.264 302.304 L
190.736 302.304 L
192.736 300.851 L
193.5 298.5 L
S
GR
GS
[0.75 0 0 0.75 0 0] CT
0 0.447 0.741 RC
2 setlinecap
10.0 ML
N
196.5 286.5 M
195.736 284.149 L
193.736 282.696 L
191.264 282.696 L
189.264 284.149 L
188.5 286.5 L
189.264 288.851 L
191.264 290.304 L
193.736 290.304 L
195.736 288.851 L
196.5 286.5 L
S
GR
GS
[0.75 0 0 0.75 0 0] CT
0 0.447 0.741 RC
2 setlinecap
10.0 ML
N
199.5 342.5 M
198.736 340.149 L
196.736 338.696 L
194.264 338.696 L
192.264 340.149 L
191.5 342.5 L
192.264 344.851 L
194.264 346.304 L
196.736 346.304 L
198.736 344.851 L
199.5 342.5 L
S
GR
GS
[0.75 0 0 0.75 0 0] CT
0 0.447 0.741 RC
2 setlinecap
10.0 ML
N
202.5 325.5 M
201.736 323.149 L
199.736 321.696 L
197.264 321.696 L
195.264 323.149 L
194.5 325.5 L
195.264 327.851 L
197.264 329.304 L
199.736 329.304 L
201.736 327.851 L
202.5 325.5 L
S
GR
GS
[0.75 0 0 0.75 0 0] CT
0 0.447 0.741 RC
2 setlinecap
10.0 ML
N
205.5 310.5 M
204.736 308.149 L
202.736 306.696 L
200.264 306.696 L
198.264 308.149 L
197.5 310.5 L
198.264 312.851 L
200.264 314.304 L
202.736 314.304 L
204.736 312.851 L
205.5 310.5 L
S
GR
GS
[0.75 0 0 0.75 0 0] CT
0 0.447 0.741 RC
2 setlinecap
10.0 ML
N
208.5 323.5 M
207.736 321.149 L
205.736 319.696 L
203.264 319.696 L
201.264 321.149 L
200.5 323.5 L
201.264 325.851 L
203.264 327.304 L
205.736 327.304 L
207.736 325.851 L
208.5 323.5 L
S
GR
GS
[0.75 0 0 0.75 0 0] CT
0 0.447 0.741 RC
2 setlinecap
10.0 ML
N
211.5 325.5 M
210.736 323.149 L
208.736 321.696 L
206.264 321.696 L
204.264 323.149 L
203.5 325.5 L
204.264 327.851 L
206.264 329.304 L
208.736 329.304 L
210.736 327.851 L
211.5 325.5 L
S
GR
GS
[0.75 0 0 0.75 0 0] CT
0 0.447 0.741 RC
2 setlinecap
10.0 ML
N
214.5 271.5 M
213.736 269.149 L
211.736 267.696 L
209.264 267.696 L
207.264 269.149 L
206.5 271.5 L
207.264 273.851 L
209.264 275.304 L
211.736 275.304 L
213.736 273.851 L
214.5 271.5 L
S
GR
GS
[0.75 0 0 0.75 0 0] CT
0 0.447 0.741 RC
2 setlinecap
10.0 ML
N
218.5 319.5 M
217.736 317.149 L
215.736 315.696 L
213.264 315.696 L
211.264 317.149 L
210.5 319.5 L
211.264 321.851 L
213.264 323.304 L
215.736 323.304 L
217.736 321.851 L
218.5 319.5 L
S
GR
GS
[0.75 0 0 0.75 0 0] CT
0 0.447 0.741 RC
2 setlinecap
10.0 ML
N
221.5 307.5 M
220.736 305.149 L
218.736 303.696 L
216.264 303.696 L
214.264 305.149 L
213.5 307.5 L
214.264 309.851 L
216.264 311.304 L
218.736 311.304 L
220.736 309.851 L
221.5 307.5 L
S
GR
GS
[0.75 0 0 0.75 0 0] CT
0 0.447 0.741 RC
2 setlinecap
10.0 ML
N
224.5 343.5 M
223.736 341.149 L
221.736 339.696 L
219.264 339.696 L
217.264 341.149 L
216.5 343.5 L
217.264 345.851 L
219.264 347.304 L
221.736 347.304 L
223.736 345.851 L
224.5 343.5 L
S
GR
GS
[0.75 0 0 0.75 0 0] CT
0 0.447 0.741 RC
2 setlinecap
10.0 ML
N
227.5 309.5 M
226.736 307.149 L
224.736 305.696 L
222.264 305.696 L
220.264 307.149 L
219.5 309.5 L
220.264 311.851 L
222.264 313.304 L
224.736 313.304 L
226.736 311.851 L
227.5 309.5 L
S
GR
GS
[0.75 0 0 0.75 0 0] CT
0 0.447 0.741 RC
2 setlinecap
10.0 ML
N
230.5 313.5 M
229.736 311.149 L
227.736 309.696 L
225.264 309.696 L
223.264 311.149 L
222.5 313.5 L
223.264 315.851 L
225.264 317.304 L
227.736 317.304 L
229.736 315.851 L
230.5 313.5 L
S
GR
GS
[0.75 0 0 0.75 0 0] CT
0 0.447 0.741 RC
2 setlinecap
10.0 ML
N
233.5 334.5 M
232.736 332.149 L
230.736 330.696 L
228.264 330.696 L
226.264 332.149 L
225.5 334.5 L
226.264 336.851 L
228.264 338.304 L
230.736 338.304 L
232.736 336.851 L
233.5 334.5 L
S
GR
GS
[0.75 0 0 0.75 0 0] CT
0 0.447 0.741 RC
2 setlinecap
10.0 ML
N
236.5 341.5 M
235.736 339.149 L
233.736 337.696 L
231.264 337.696 L
229.264 339.149 L
228.5 341.5 L
229.264 343.851 L
231.264 345.304 L
233.736 345.304 L
235.736 343.851 L
236.5 341.5 L
S
GR
GS
[0.75 0 0 0.75 0 0] CT
0 0.447 0.741 RC
2 setlinecap
10.0 ML
N
239.5 309.5 M
238.736 307.149 L
236.736 305.696 L
234.264 305.696 L
232.264 307.149 L
231.5 309.5 L
232.264 311.851 L
234.264 313.304 L
236.736 313.304 L
238.736 311.851 L
239.5 309.5 L
S
GR
GS
[0.75 0 0 0.75 0 0] CT
0 0.447 0.741 RC
2 setlinecap
10.0 ML
N
242.5 367.5 M
241.736 365.149 L
239.736 363.696 L
237.264 363.696 L
235.264 365.149 L
234.5 367.5 L
235.264 369.851 L
237.264 371.304 L
239.736 371.304 L
241.736 369.851 L
242.5 367.5 L
S
GR
GS
[0.75 0 0 0.75 0 0] CT
0 0.447 0.741 RC
2 setlinecap
10.0 ML
N
245.5 313.5 M
244.736 311.149 L
242.736 309.696 L
240.264 309.696 L
238.264 311.149 L
237.5 313.5 L
238.264 315.851 L
240.264 317.304 L
242.736 317.304 L
244.736 315.851 L
245.5 313.5 L
S
GR
GS
[0.75 0 0 0.75 0 0] CT
0 0.447 0.741 RC
2 setlinecap
10.0 ML
N
248.5 314.5 M
247.736 312.149 L
245.736 310.696 L
243.264 310.696 L
241.264 312.149 L
240.5 314.5 L
241.264 316.851 L
243.264 318.304 L
245.736 318.304 L
247.736 316.851 L
248.5 314.5 L
S
GR
GS
[0.75 0 0 0.75 0 0] CT
0 0.447 0.741 RC
2 setlinecap
10.0 ML
N
251.5 361.5 M
250.736 359.149 L
248.736 357.696 L
246.264 357.696 L
244.264 359.149 L
243.5 361.5 L
244.264 363.851 L
246.264 365.304 L
248.736 365.304 L
250.736 363.851 L
251.5 361.5 L
S
GR
GS
[0.75 0 0 0.75 0 0] CT
0 0.447 0.741 RC
2 setlinecap
10.0 ML
N
255.5 346.5 M
254.736 344.149 L
252.736 342.696 L
250.264 342.696 L
248.264 344.149 L
247.5 346.5 L
248.264 348.851 L
250.264 350.304 L
252.736 350.304 L
254.736 348.851 L
255.5 346.5 L
S
GR
GS
[0.75 0 0 0.75 0 0] CT
0 0.447 0.741 RC
2 setlinecap
10.0 ML
N
258.5 316.5 M
257.736 314.149 L
255.736 312.696 L
253.264 312.696 L
251.264 314.149 L
250.5 316.5 L
251.264 318.851 L
253.264 320.304 L
255.736 320.304 L
257.736 318.851 L
258.5 316.5 L
S
GR
GS
[0.75 0 0 0.75 0 0] CT
0 0.447 0.741 RC
2 setlinecap
10.0 ML
N
261.5 339.5 M
260.736 337.149 L
258.736 335.696 L
256.264 335.696 L
254.264 337.149 L
253.5 339.5 L
254.264 341.851 L
256.264 343.304 L
258.736 343.304 L
260.736 341.851 L
261.5 339.5 L
S
GR
GS
[0.75 0 0 0.75 0 0] CT
0 0.447 0.741 RC
2 setlinecap
10.0 ML
N
264.5 349.5 M
263.736 347.149 L
261.736 345.696 L
259.264 345.696 L
257.264 347.149 L
256.5 349.5 L
257.264 351.851 L
259.264 353.304 L
261.736 353.304 L
263.736 351.851 L
264.5 349.5 L
S
GR
GS
[0.75 0 0 0.75 0 0] CT
0 0.447 0.741 RC
2 setlinecap
10.0 ML
N
267.5 321.5 M
266.736 319.149 L
264.736 317.696 L
262.264 317.696 L
260.264 319.149 L
259.5 321.5 L
260.264 323.851 L
262.264 325.304 L
264.736 325.304 L
266.736 323.851 L
267.5 321.5 L
S
GR
GS
[0.75 0 0 0.75 0 0] CT
0 0.447 0.741 RC
2 setlinecap
10.0 ML
N
270.5 271.5 M
269.736 269.149 L
267.736 267.696 L
265.264 267.696 L
263.264 269.149 L
262.5 271.5 L
263.264 273.851 L
265.264 275.304 L
267.736 275.304 L
269.736 273.851 L
270.5 271.5 L
S
GR
GS
[0.75 0 0 0.75 0 0] CT
0 0.447 0.741 RC
2 setlinecap
10.0 ML
N
273.5 300.5 M
272.736 298.149 L
270.736 296.696 L
268.264 296.696 L
266.264 298.149 L
265.5 300.5 L
266.264 302.851 L
268.264 304.304 L
270.736 304.304 L
272.736 302.851 L
273.5 300.5 L
S
GR
GS
[0.75 0 0 0.75 0 0] CT
0 0.447 0.741 RC
2 setlinecap
10.0 ML
N
276.5 338.5 M
275.736 336.149 L
273.736 334.696 L
271.264 334.696 L
269.264 336.149 L
268.5 338.5 L
269.264 340.851 L
271.264 342.304 L
273.736 342.304 L
275.736 340.851 L
276.5 338.5 L
S
GR
GS
[0.75 0 0 0.75 0 0] CT
0 0.447 0.741 RC
2 setlinecap
10.0 ML
N
279.5 346.5 M
278.736 344.149 L
276.736 342.696 L
274.264 342.696 L
272.264 344.149 L
271.5 346.5 L
272.264 348.851 L
274.264 350.304 L
276.736 350.304 L
278.736 348.851 L
279.5 346.5 L
S
GR
GS
[0.75 0 0 0.75 0 0] CT
0 0.447 0.741 RC
2 setlinecap
10.0 ML
N
282.5 353.5 M
281.736 351.149 L
279.736 349.696 L
277.264 349.696 L
275.264 351.149 L
274.5 353.5 L
275.264 355.851 L
277.264 357.304 L
279.736 357.304 L
281.736 355.851 L
282.5 353.5 L
S
GR
GS
[0.75 0 0 0.75 0 0] CT
0 0.447 0.741 RC
2 setlinecap
10.0 ML
N
285.5 340.5 M
284.736 338.149 L
282.736 336.696 L
280.264 336.696 L
278.264 338.149 L
277.5 340.5 L
278.264 342.851 L
280.264 344.304 L
282.736 344.304 L
284.736 342.851 L
285.5 340.5 L
S
GR
GS
[0.75 0 0 0.75 0 0] CT
0 0.447 0.741 RC
2 setlinecap
10.0 ML
N
288.5 334.5 M
287.736 332.149 L
285.736 330.696 L
283.264 330.696 L
281.264 332.149 L
280.5 334.5 L
281.264 336.851 L
283.264 338.304 L
285.736 338.304 L
287.736 336.851 L
288.5 334.5 L
S
GR
GS
[0.75 0 0 0.75 0 0] CT
0 0.447 0.741 RC
2 setlinecap
10.0 ML
N
292.5 334.5 M
291.736 332.149 L
289.736 330.696 L
287.264 330.696 L
285.264 332.149 L
284.5 334.5 L
285.264 336.851 L
287.264 338.304 L
289.736 338.304 L
291.736 336.851 L
292.5 334.5 L
S
GR
GS
[0.75 0 0 0.75 0 0] CT
0 0.447 0.741 RC
2 setlinecap
10.0 ML
N
295.5 360.5 M
294.736 358.149 L
292.736 356.696 L
290.264 356.696 L
288.264 358.149 L
287.5 360.5 L
288.264 362.851 L
290.264 364.304 L
292.736 364.304 L
294.736 362.851 L
295.5 360.5 L
S
GR
GS
[0.75 0 0 0.75 0 0] CT
0 0.447 0.741 RC
2 setlinecap
10.0 ML
N
298.5 364.5 M
297.736 362.149 L
295.736 360.696 L
293.264 360.696 L
291.264 362.149 L
290.5 364.5 L
291.264 366.851 L
293.264 368.304 L
295.736 368.304 L
297.736 366.851 L
298.5 364.5 L
S
GR
GS
[0.75 0 0 0.75 0 0] CT
0 0.447 0.741 RC
2 setlinecap
10.0 ML
N
301.5 350.5 M
300.736 348.149 L
298.736 346.696 L
296.264 346.696 L
294.264 348.149 L
293.5 350.5 L
294.264 352.851 L
296.264 354.304 L
298.736 354.304 L
300.736 352.851 L
301.5 350.5 L
S
GR
GS
[0.75 0 0 0.75 0 0] CT
0 0.447 0.741 RC
2 setlinecap
10.0 ML
N
304.5 341.5 M
303.736 339.149 L
301.736 337.696 L
299.264 337.696 L
297.264 339.149 L
296.5 341.5 L
297.264 343.851 L
299.264 345.304 L
301.736 345.304 L
303.736 343.851 L
304.5 341.5 L
S
GR
GS
[0.75 0 0 0.75 0 0] CT
0 0.447 0.741 RC
2 setlinecap
10.0 ML
N
307.5 345.5 M
306.736 343.149 L
304.736 341.696 L
302.264 341.696 L
300.264 343.149 L
299.5 345.5 L
300.264 347.851 L
302.264 349.304 L
304.736 349.304 L
306.736 347.851 L
307.5 345.5 L
S
GR
GS
[0.75 0 0 0.75 0 0] CT
0 0.447 0.741 RC
2 setlinecap
10.0 ML
N
310.5 323.5 M
309.736 321.149 L
307.736 319.696 L
305.264 319.696 L
303.264 321.149 L
302.5 323.5 L
303.264 325.851 L
305.264 327.304 L
307.736 327.304 L
309.736 325.851 L
310.5 323.5 L
S
GR
GS
[0.75 0 0 0.75 0 0] CT
0 0.447 0.741 RC
2 setlinecap
10.0 ML
N
313.5 295.5 M
312.736 293.149 L
310.736 291.696 L
308.264 291.696 L
306.264 293.149 L
305.5 295.5 L
306.264 297.851 L
308.264 299.304 L
310.736 299.304 L
312.736 297.851 L
313.5 295.5 L
S
GR
GS
[0.75 0 0 0.75 0 0] CT
0 0.447 0.741 RC
2 setlinecap
10.0 ML
N
316.5 305.5 M
315.736 303.149 L
313.736 301.696 L
311.264 301.696 L
309.264 303.149 L
308.5 305.5 L
309.264 307.851 L
311.264 309.304 L
313.736 309.304 L
315.736 307.851 L
316.5 305.5 L
S
GR
GS
[0.75 0 0 0.75 0 0] CT
0 0.447 0.741 RC
2 setlinecap
10.0 ML
N
319.5 345.5 M
318.736 343.149 L
316.736 341.696 L
314.264 341.696 L
312.264 343.149 L
311.5 345.5 L
312.264 347.851 L
314.264 349.304 L
316.736 349.304 L
318.736 347.851 L
319.5 345.5 L
S
GR
GS
[0.75 0 0 0.75 0 0] CT
0 0.447 0.741 RC
2 setlinecap
10.0 ML
N
322.5 323.5 M
321.736 321.149 L
319.736 319.696 L
317.264 319.696 L
315.264 321.149 L
314.5 323.5 L
315.264 325.851 L
317.264 327.304 L
319.736 327.304 L
321.736 325.851 L
322.5 323.5 L
S
GR
GS
[0.75 0 0 0.75 0 0] CT
0 0.447 0.741 RC
2 setlinecap
10.0 ML
N
325.5 364.5 M
324.736 362.149 L
322.736 360.696 L
320.264 360.696 L
318.264 362.149 L
317.5 364.5 L
318.264 366.851 L
320.264 368.304 L
322.736 368.304 L
324.736 366.851 L
325.5 364.5 L
S
GR
GS
[0.75 0 0 0.75 0 0] CT
0 0.447 0.741 RC
2 setlinecap
10.0 ML
N
329.5 363.5 M
328.736 361.149 L
326.736 359.696 L
324.264 359.696 L
322.264 361.149 L
321.5 363.5 L
322.264 365.851 L
324.264 367.304 L
326.736 367.304 L
328.736 365.851 L
329.5 363.5 L
S
GR
GS
[0.75 0 0 0.75 0 0] CT
0 0.447 0.741 RC
2 setlinecap
10.0 ML
N
332.5 316.5 M
331.736 314.149 L
329.736 312.696 L
327.264 312.696 L
325.264 314.149 L
324.5 316.5 L
325.264 318.851 L
327.264 320.304 L
329.736 320.304 L
331.736 318.851 L
332.5 316.5 L
S
GR
GS
[0.75 0 0 0.75 0 0] CT
0 0.447 0.741 RC
2 setlinecap
10.0 ML
N
335.5 315.5 M
334.736 313.149 L
332.736 311.696 L
330.264 311.696 L
328.264 313.149 L
327.5 315.5 L
328.264 317.851 L
330.264 319.304 L
332.736 319.304 L
334.736 317.851 L
335.5 315.5 L
S
GR
GS
[0.75 0 0 0.75 0 0] CT
0 0.447 0.741 RC
2 setlinecap
10.0 ML
N
338.5 304.5 M
337.736 302.149 L
335.736 300.696 L
333.264 300.696 L
331.264 302.149 L
330.5 304.5 L
331.264 306.851 L
333.264 308.304 L
335.736 308.304 L
337.736 306.851 L
338.5 304.5 L
S
GR
GS
[0.75 0 0 0.75 0 0] CT
0 0.447 0.741 RC
2 setlinecap
10.0 ML
N
341.5 338.5 M
340.736 336.149 L
338.736 334.696 L
336.264 334.696 L
334.264 336.149 L
333.5 338.5 L
334.264 340.851 L
336.264 342.304 L
338.736 342.304 L
340.736 340.851 L
341.5 338.5 L
S
GR
GS
[0.75 0 0 0.75 0 0] CT
0 0.447 0.741 RC
2 setlinecap
10.0 ML
N
344.5 327.5 M
343.736 325.149 L
341.736 323.696 L
339.264 323.696 L
337.264 325.149 L
336.5 327.5 L
337.264 329.851 L
339.264 331.304 L
341.736 331.304 L
343.736 329.851 L
344.5 327.5 L
S
GR
GS
[0.75 0 0 0.75 0 0] CT
0 0.447 0.741 RC
2 setlinecap
10.0 ML
N
347.5 341.5 M
346.736 339.149 L
344.736 337.696 L
342.264 337.696 L
340.264 339.149 L
339.5 341.5 L
340.264 343.851 L
342.264 345.304 L
344.736 345.304 L
346.736 343.851 L
347.5 341.5 L
S
GR
GS
[0.75 0 0 0.75 0 0] CT
0 0.447 0.741 RC
2 setlinecap
10.0 ML
N
350.5 359.5 M
349.736 357.149 L
347.736 355.696 L
345.264 355.696 L
343.264 357.149 L
342.5 359.5 L
343.264 361.851 L
345.264 363.304 L
347.736 363.304 L
349.736 361.851 L
350.5 359.5 L
S
GR
GS
[0.75 0 0 0.75 0 0] CT
0 0.447 0.741 RC
2 setlinecap
10.0 ML
N
353.5 358.5 M
352.736 356.149 L
350.736 354.696 L
348.264 354.696 L
346.264 356.149 L
345.5 358.5 L
346.264 360.851 L
348.264 362.304 L
350.736 362.304 L
352.736 360.851 L
353.5 358.5 L
S
GR
GS
[0.75 0 0 0.75 0 0] CT
0 0.447 0.741 RC
2 setlinecap
10.0 ML
N
356.5 337.5 M
355.736 335.149 L
353.736 333.696 L
351.264 333.696 L
349.264 335.149 L
348.5 337.5 L
349.264 339.851 L
351.264 341.304 L
353.736 341.304 L
355.736 339.851 L
356.5 337.5 L
S
GR
GS
[0.75 0 0 0.75 0 0] CT
0 0.447 0.741 RC
2 setlinecap
10.0 ML
N
359.5 354.5 M
358.736 352.149 L
356.736 350.696 L
354.264 350.696 L
352.264 352.149 L
351.5 354.5 L
352.264 356.851 L
354.264 358.304 L
356.736 358.304 L
358.736 356.851 L
359.5 354.5 L
S
GR
GS
[0.75 0 0 0.75 0 0] CT
0 0.447 0.741 RC
2 setlinecap
10.0 ML
N
362.5 331.5 M
361.736 329.149 L
359.736 327.696 L
357.264 327.696 L
355.264 329.149 L
354.5 331.5 L
355.264 333.851 L
357.264 335.304 L
359.736 335.304 L
361.736 333.851 L
362.5 331.5 L
S
GR
GS
[0.75 0 0 0.75 0 0] CT
0 0.447 0.741 RC
2 setlinecap
10.0 ML
N
366.5 337.5 M
365.736 335.149 L
363.736 333.696 L
361.264 333.696 L
359.264 335.149 L
358.5 337.5 L
359.264 339.851 L
361.264 341.304 L
363.736 341.304 L
365.736 339.851 L
366.5 337.5 L
S
GR
GS
[0.75 0 0 0.75 0 0] CT
0 0.447 0.741 RC
2 setlinecap
10.0 ML
N
369.5 353.5 M
368.736 351.149 L
366.736 349.696 L
364.264 349.696 L
362.264 351.149 L
361.5 353.5 L
362.264 355.851 L
364.264 357.304 L
366.736 357.304 L
368.736 355.851 L
369.5 353.5 L
S
GR
GS
[0.75 0 0 0.75 0 0] CT
0 0.447 0.741 RC
2 setlinecap
10.0 ML
N
372.5 336.5 M
371.736 334.149 L
369.736 332.696 L
367.264 332.696 L
365.264 334.149 L
364.5 336.5 L
365.264 338.851 L
367.264 340.304 L
369.736 340.304 L
371.736 338.851 L
372.5 336.5 L
S
GR
GS
[0.75 0 0 0.75 0 0] CT
0 0.447 0.741 RC
2 setlinecap
10.0 ML
N
375.5 344.5 M
374.736 342.149 L
372.736 340.696 L
370.264 340.696 L
368.264 342.149 L
367.5 344.5 L
368.264 346.851 L
370.264 348.304 L
372.736 348.304 L
374.736 346.851 L
375.5 344.5 L
S
GR
GS
[0.75 0 0 0.75 0 0] CT
0 0.447 0.741 RC
2 setlinecap
10.0 ML
N
378.5 351.5 M
377.736 349.149 L
375.736 347.696 L
373.264 347.696 L
371.264 349.149 L
370.5 351.5 L
371.264 353.851 L
373.264 355.304 L
375.736 355.304 L
377.736 353.851 L
378.5 351.5 L
S
GR
GS
[0.75 0 0 0.75 0 0] CT
0 0.447 0.741 RC
2 setlinecap
10.0 ML
N
381.5 355.5 M
380.736 353.149 L
378.736 351.696 L
376.264 351.696 L
374.264 353.149 L
373.5 355.5 L
374.264 357.851 L
376.264 359.304 L
378.736 359.304 L
380.736 357.851 L
381.5 355.5 L
S
GR
GS
[0.75 0 0 0.75 0 0] CT
0 0.447 0.741 RC
2 setlinecap
10.0 ML
N
384.5 353.5 M
383.736 351.149 L
381.736 349.696 L
379.264 349.696 L
377.264 351.149 L
376.5 353.5 L
377.264 355.851 L
379.264 357.304 L
381.736 357.304 L
383.736 355.851 L
384.5 353.5 L
S
GR
GS
[0.75 0 0 0.75 0 0] CT
0 0.447 0.741 RC
2 setlinecap
10.0 ML
N
387.5 362.5 M
386.736 360.149 L
384.736 358.696 L
382.264 358.696 L
380.264 360.149 L
379.5 362.5 L
380.264 364.851 L
382.264 366.304 L
384.736 366.304 L
386.736 364.851 L
387.5 362.5 L
S
GR
GS
[0.75 0 0 0.75 0 0] CT
0 0.447 0.741 RC
2 setlinecap
10.0 ML
N
390.5 350.5 M
389.736 348.149 L
387.736 346.696 L
385.264 346.696 L
383.264 348.149 L
382.5 350.5 L
383.264 352.851 L
385.264 354.304 L
387.736 354.304 L
389.736 352.851 L
390.5 350.5 L
S
GR
GS
[0.75 0 0 0.75 0 0] CT
0 0.447 0.741 RC
2 setlinecap
10.0 ML
N
393.5 354.5 M
392.736 352.149 L
390.736 350.696 L
388.264 350.696 L
386.264 352.149 L
385.5 354.5 L
386.264 356.851 L
388.264 358.304 L
390.736 358.304 L
392.736 356.851 L
393.5 354.5 L
S
GR
GS
[0.75 0 0 0.75 0 0] CT
0 0.447 0.741 RC
2 setlinecap
10.0 ML
N
396.5 368.5 M
395.736 366.149 L
393.736 364.696 L
391.264 364.696 L
389.264 366.149 L
388.5 368.5 L
389.264 370.851 L
391.264 372.304 L
393.736 372.304 L
395.736 370.851 L
396.5 368.5 L
S
GR
GS
[0.75 0 0 0.75 0 0] CT
0 0.447 0.741 RC
2 setlinecap
10.0 ML
N
399.5 347.5 M
398.736 345.149 L
396.736 343.696 L
394.264 343.696 L
392.264 345.149 L
391.5 347.5 L
392.264 349.851 L
394.264 351.304 L
396.736 351.304 L
398.736 349.851 L
399.5 347.5 L
S
GR
GS
[0.75 0 0 0.75 0 0] CT
0 0.447 0.741 RC
2 setlinecap
10.0 ML
N
403.5 347.5 M
402.736 345.149 L
400.736 343.696 L
398.264 343.696 L
396.264 345.149 L
395.5 347.5 L
396.264 349.851 L
398.264 351.304 L
400.736 351.304 L
402.736 349.851 L
403.5 347.5 L
S
GR
GS
[0.75 0 0 0.75 0 0] CT
0 0.447 0.741 RC
2 setlinecap
10.0 ML
N
406.5 357.5 M
405.736 355.149 L
403.736 353.696 L
401.264 353.696 L
399.264 355.149 L
398.5 357.5 L
399.264 359.851 L
401.264 361.304 L
403.736 361.304 L
405.736 359.851 L
406.5 357.5 L
S
GR
GS
[0.75 0 0 0.75 0 0] CT
0 0.447 0.741 RC
2 setlinecap
10.0 ML
N
409.5 347.5 M
408.736 345.149 L
406.736 343.696 L
404.264 343.696 L
402.264 345.149 L
401.5 347.5 L
402.264 349.851 L
404.264 351.304 L
406.736 351.304 L
408.736 349.851 L
409.5 347.5 L
S
GR
GS
[0.75 0 0 0.75 0 0] CT
0 0.447 0.741 RC
2 setlinecap
10.0 ML
N
412.5 347.5 M
411.736 345.149 L
409.736 343.696 L
407.264 343.696 L
405.264 345.149 L
404.5 347.5 L
405.264 349.851 L
407.264 351.304 L
409.736 351.304 L
411.736 349.851 L
412.5 347.5 L
S
GR
GS
[0.75 0 0 0.75 0 0] CT
0 0.447 0.741 RC
2 setlinecap
10.0 ML
N
415.5 328.5 M
414.736 326.149 L
412.736 324.696 L
410.264 324.696 L
408.264 326.149 L
407.5 328.5 L
408.264 330.851 L
410.264 332.304 L
412.736 332.304 L
414.736 330.851 L
415.5 328.5 L
S
GR
GS
[0.75 0 0 0.75 0 0] CT
0 0.447 0.741 RC
2 setlinecap
10.0 ML
N
418.5 360.5 M
417.736 358.149 L
415.736 356.696 L
413.264 356.696 L
411.264 358.149 L
410.5 360.5 L
411.264 362.851 L
413.264 364.304 L
415.736 364.304 L
417.736 362.851 L
418.5 360.5 L
S
GR
GS
[0.75 0 0 0.75 0 0] CT
0 0.447 0.741 RC
2 setlinecap
10.0 ML
N
421.5 339.5 M
420.736 337.149 L
418.736 335.696 L
416.264 335.696 L
414.264 337.149 L
413.5 339.5 L
414.264 341.851 L
416.264 343.304 L
418.736 343.304 L
420.736 341.851 L
421.5 339.5 L
S
GR
GS
[0.75 0 0 0.75 0 0] CT
0 0.447 0.741 RC
2 setlinecap
10.0 ML
N
424.5 348.5 M
423.736 346.149 L
421.736 344.696 L
419.264 344.696 L
417.264 346.149 L
416.5 348.5 L
417.264 350.851 L
419.264 352.304 L
421.736 352.304 L
423.736 350.851 L
424.5 348.5 L
S
GR
GS
[0.75 0 0 0.75 0 0] CT
0 0.447 0.741 RC
2 setlinecap
10.0 ML
N
427.5 357.5 M
426.736 355.149 L
424.736 353.696 L
422.264 353.696 L
420.264 355.149 L
419.5 357.5 L
420.264 359.851 L
422.264 361.304 L
424.736 361.304 L
426.736 359.851 L
427.5 357.5 L
S
GR
GS
[0.75 0 0 0.75 0 0] CT
0 0.447 0.741 RC
2 setlinecap
10.0 ML
N
430.5 370.5 M
429.736 368.149 L
427.736 366.696 L
425.264 366.696 L
423.264 368.149 L
422.5 370.5 L
423.264 372.851 L
425.264 374.304 L
427.736 374.304 L
429.736 372.851 L
430.5 370.5 L
S
GR
GS
[0.75 0 0 0.75 0 0] CT
0 0.447 0.741 RC
2 setlinecap
10.0 ML
N
433.5 344.5 M
432.736 342.149 L
430.736 340.696 L
428.264 340.696 L
426.264 342.149 L
425.5 344.5 L
426.264 346.851 L
428.264 348.304 L
430.736 348.304 L
432.736 346.851 L
433.5 344.5 L
S
GR
GS
[0.75 0 0 0.75 0 0] CT
0 0.447 0.741 RC
2 setlinecap
10.0 ML
N
436.5 363.5 M
435.736 361.149 L
433.736 359.696 L
431.264 359.696 L
429.264 361.149 L
428.5 363.5 L
429.264 365.851 L
431.264 367.304 L
433.736 367.304 L
435.736 365.851 L
436.5 363.5 L
S
GR
GS
[0.75 0 0 0.75 0 0] CT
0 0.447 0.741 RC
2 setlinecap
10.0 ML
N
440.5 370.5 M
439.736 368.149 L
437.736 366.696 L
435.264 366.696 L
433.264 368.149 L
432.5 370.5 L
433.264 372.851 L
435.264 374.304 L
437.736 374.304 L
439.736 372.851 L
440.5 370.5 L
S
GR
GS
[0.75 0 0 0.75 0 0] CT
0 0.447 0.741 RC
2 setlinecap
10.0 ML
N
443.5 358.5 M
442.736 356.149 L
440.736 354.696 L
438.264 354.696 L
436.264 356.149 L
435.5 358.5 L
436.264 360.851 L
438.264 362.304 L
440.736 362.304 L
442.736 360.851 L
443.5 358.5 L
S
GR
GS
[0.75 0 0 0.75 0 0] CT
0 0.447 0.741 RC
2 setlinecap
10.0 ML
N
446.5 364.5 M
445.736 362.149 L
443.736 360.696 L
441.264 360.696 L
439.264 362.149 L
438.5 364.5 L
439.264 366.851 L
441.264 368.304 L
443.736 368.304 L
445.736 366.851 L
446.5 364.5 L
S
GR
GS
[0.75 0 0 0.75 0 0] CT
0 0.447 0.741 RC
2 setlinecap
10.0 ML
N
449.5 364.5 M
448.736 362.149 L
446.736 360.696 L
444.264 360.696 L
442.264 362.149 L
441.5 364.5 L
442.264 366.851 L
444.264 368.304 L
446.736 368.304 L
448.736 366.851 L
449.5 364.5 L
S
GR
GS
[0.75 0 0 0.75 0 0] CT
0 0.447 0.741 RC
2 setlinecap
10.0 ML
N
452.5 358.5 M
451.736 356.149 L
449.736 354.696 L
447.264 354.696 L
445.264 356.149 L
444.5 358.5 L
445.264 360.851 L
447.264 362.304 L
449.736 362.304 L
451.736 360.851 L
452.5 358.5 L
S
GR
GS
[0.75 0 0 0.75 0 0] CT
0 0.447 0.741 RC
2 setlinecap
10.0 ML
N
455.5 345.5 M
454.736 343.149 L
452.736 341.696 L
450.264 341.696 L
448.264 343.149 L
447.5 345.5 L
448.264 347.851 L
450.264 349.304 L
452.736 349.304 L
454.736 347.851 L
455.5 345.5 L
S
GR
GS
[0.75 0 0 0.75 0 0] CT
0 0.447 0.741 RC
2 setlinecap
10.0 ML
N
458.5 348.5 M
457.736 346.149 L
455.736 344.696 L
453.264 344.696 L
451.264 346.149 L
450.5 348.5 L
451.264 350.851 L
453.264 352.304 L
455.736 352.304 L
457.736 350.851 L
458.5 348.5 L
S
GR
GS
[0.75 0 0 0.75 0 0] CT
0 0.447 0.741 RC
2 setlinecap
10.0 ML
N
461.5 361.5 M
460.736 359.149 L
458.736 357.696 L
456.264 357.696 L
454.264 359.149 L
453.5 361.5 L
454.264 363.851 L
456.264 365.304 L
458.736 365.304 L
460.736 363.851 L
461.5 361.5 L
S
GR
GS
[0.75 0 0 0.75 0 0] CT
0 0.447 0.741 RC
2 setlinecap
10.0 ML
N
464.5 352.5 M
463.736 350.149 L
461.736 348.696 L
459.264 348.696 L
457.264 350.149 L
456.5 352.5 L
457.264 354.851 L
459.264 356.304 L
461.736 356.304 L
463.736 354.851 L
464.5 352.5 L
S
GR
GS
[0.75 0 0 0.75 0 0] CT
0 0.447 0.741 RC
2 setlinecap
10.0 ML
N
467.5 338.5 M
466.736 336.149 L
464.736 334.696 L
462.264 334.696 L
460.264 336.149 L
459.5 338.5 L
460.264 340.851 L
462.264 342.304 L
464.736 342.304 L
466.736 340.851 L
467.5 338.5 L
S
GR
GS
[0.75 0 0 0.75 0 0] CT
0 0.447 0.741 RC
2 setlinecap
10.0 ML
N
470.5 350.5 M
469.736 348.149 L
467.736 346.696 L
465.264 346.696 L
463.264 348.149 L
462.5 350.5 L
463.264 352.851 L
465.264 354.304 L
467.736 354.304 L
469.736 352.851 L
470.5 350.5 L
S
GR
GS
[0.75 0 0 0.75 0 0] CT
0 0.447 0.741 RC
2 setlinecap
10.0 ML
N
473.5 360.5 M
472.736 358.149 L
470.736 356.696 L
468.264 356.696 L
466.264 358.149 L
465.5 360.5 L
466.264 362.851 L
468.264 364.304 L
470.736 364.304 L
472.736 362.851 L
473.5 360.5 L
S
GR
GS
[0.75 0 0 0.75 0 0] CT
0 0.447 0.741 RC
2 setlinecap
10.0 ML
N
477.5 360.5 M
476.736 358.149 L
474.736 356.696 L
472.264 356.696 L
470.264 358.149 L
469.5 360.5 L
470.264 362.851 L
472.264 364.304 L
474.736 364.304 L
476.736 362.851 L
477.5 360.5 L
S
GR
GS
[0.75 0 0 0.75 0 0] CT
0 0.447 0.741 RC
2 setlinecap
10.0 ML
N
480.5 364.5 M
479.736 362.149 L
477.736 360.696 L
475.264 360.696 L
473.264 362.149 L
472.5 364.5 L
473.264 366.851 L
475.264 368.304 L
477.736 368.304 L
479.736 366.851 L
480.5 364.5 L
S
GR
GS
[0.75 0 0 0.75 0 0] CT
0 0.447 0.741 RC
2 setlinecap
10.0 ML
N
483.5 362.5 M
482.736 360.149 L
480.736 358.696 L
478.264 358.696 L
476.264 360.149 L
475.5 362.5 L
476.264 364.851 L
478.264 366.304 L
480.736 366.304 L
482.736 364.851 L
483.5 362.5 L
S
GR
GS
[0.75 0 0 0.75 0 0] CT
0 0.447 0.741 RC
2 setlinecap
10.0 ML
N
486.5 351.5 M
485.736 349.149 L
483.736 347.696 L
481.264 347.696 L
479.264 349.149 L
478.5 351.5 L
479.264 353.851 L
481.264 355.304 L
483.736 355.304 L
485.736 353.851 L
486.5 351.5 L
S
GR
GS
[0.75 0 0 0.75 0 0] CT
0 0.447 0.741 RC
2 setlinecap
10.0 ML
N
489.5 344.5 M
488.736 342.149 L
486.736 340.696 L
484.264 340.696 L
482.264 342.149 L
481.5 344.5 L
482.264 346.851 L
484.264 348.304 L
486.736 348.304 L
488.736 346.851 L
489.5 344.5 L
S
GR
GS
[0.75 0 0 0.75 0 0] CT
0 0.447 0.741 RC
2 setlinecap
10.0 ML
N
492.5 355.5 M
491.736 353.149 L
489.736 351.696 L
487.264 351.696 L
485.264 353.149 L
484.5 355.5 L
485.264 357.851 L
487.264 359.304 L
489.736 359.304 L
491.736 357.851 L
492.5 355.5 L
S
GR
GS
[0.75 0 0 0.75 0 0] CT
0 0.447 0.741 RC
2 setlinecap
10.0 ML
N
495.5 356.5 M
494.736 354.149 L
492.736 352.696 L
490.264 352.696 L
488.264 354.149 L
487.5 356.5 L
488.264 358.851 L
490.264 360.304 L
492.736 360.304 L
494.736 358.851 L
495.5 356.5 L
S
GR
GS
[0.75 0 0 0.75 0 0] CT
0 0.447 0.741 RC
2 setlinecap
10.0 ML
N
498.5 348.5 M
497.736 346.149 L
495.736 344.696 L
493.264 344.696 L
491.264 346.149 L
490.5 348.5 L
491.264 350.851 L
493.264 352.304 L
495.736 352.304 L
497.736 350.851 L
498.5 348.5 L
S
GR
GS
[0.75 0 0 0.75 0 0] CT
0 0.447 0.741 RC
2 setlinecap
10.0 ML
N
501.5 357.5 M
500.736 355.149 L
498.736 353.696 L
496.264 353.696 L
494.264 355.149 L
493.5 357.5 L
494.264 359.851 L
496.264 361.304 L
498.736 361.304 L
500.736 359.851 L
501.5 357.5 L
S
GR
GS
[0.75 0 0 0.75 0 0] CT
0 0.447 0.741 RC
2 setlinecap
10.0 ML
N
504.5 360.5 M
503.736 358.149 L
501.736 356.696 L
499.264 356.696 L
497.264 358.149 L
496.5 360.5 L
497.264 362.851 L
499.264 364.304 L
501.736 364.304 L
503.736 362.851 L
504.5 360.5 L
S
GR
GS
[0.75 0 0 0.75 0 0] CT
0 0.447 0.741 RC
2 setlinecap
10.0 ML
N
507.5 341.5 M
506.736 339.149 L
504.736 337.696 L
502.264 337.696 L
500.264 339.149 L
499.5 341.5 L
500.264 343.851 L
502.264 345.304 L
504.736 345.304 L
506.736 343.851 L
507.5 341.5 L
S
GR
GS
[0.75 0 0 0.75 0 0] CT
0 0.447 0.741 RC
2 setlinecap
10.0 ML
N
511.5 361.5 M
510.736 359.149 L
508.736 357.696 L
506.264 357.696 L
504.264 359.149 L
503.5 361.5 L
504.264 363.851 L
506.264 365.304 L
508.736 365.304 L
510.736 363.851 L
511.5 361.5 L
S
GR
GS
[0.75 0 0 0.75 0 0] CT
0 0.447 0.741 RC
2 setlinecap
10.0 ML
N
75.313 374 M
75.313 75.621 L
S
GR
GS
[0.75 0 0 0.75 0 0] CT
0 0.447 0.741 RC
2 setlinecap
10.0 ML
N
78.396 374 M
78.396 328.287 L
S
GR
GS
[0.75 0 0 0.75 0 0] CT
0 0.447 0.741 RC
2 setlinecap
10.0 ML
N
81.48 374 M
81.48 260.327 L
S
GR
GS
[0.75 0 0 0.75 0 0] CT
0 0.447 0.741 RC
2 setlinecap
10.0 ML
N
84.563 374 M
84.563 272.76 L
S
GR
GS
[0.75 0 0 0.75 0 0] CT
0 0.447 0.741 RC
2 setlinecap
10.0 ML
N
87.647 374 M
87.647 207.279 L
S
GR
GS
[0.75 0 0 0.75 0 0] CT
0 0.447 0.741 RC
2 setlinecap
10.0 ML
N
90.73 374 M
90.73 273.663 L
S
GR
GS
[0.75 0 0 0.75 0 0] CT
0 0.447 0.741 RC
2 setlinecap
10.0 ML
N
93.813 374 M
93.813 194.808 L
S
GR
GS
[0.75 0 0 0.75 0 0] CT
0 0.447 0.741 RC
2 setlinecap
10.0 ML
N
96.897 374 M
96.897 291.461 L
S
GR
GS
[0.75 0 0 0.75 0 0] CT
0 0.447 0.741 RC
2 setlinecap
10.0 ML
N
99.98 374 M
99.98 193.072 L
S
GR
GS
[0.75 0 0 0.75 0 0] CT
0 0.447 0.741 RC
2 setlinecap
10.0 ML
N
103.064 374 M
103.064 208.64 L
S
GR
GS
[0.75 0 0 0.75 0 0] CT
0 0.447 0.741 RC
2 setlinecap
10.0 ML
N
106.147 374 M
106.147 310.47 L
S
GR
GS
[0.75 0 0 0.75 0 0] CT
0 0.447 0.741 RC
2 setlinecap
10.0 ML
N
109.231 374 M
109.231 278.552 L
S
GR
GS
[0.75 0 0 0.75 0 0] CT
0 0.447 0.741 RC
2 setlinecap
10.0 ML
N
112.314 374 M
112.314 257.822 L
S
GR
GS
[0.75 0 0 0.75 0 0] CT
0 0.447 0.741 RC
2 setlinecap
10.0 ML
N
115.398 374 M
115.398 253.415 L
S
GR
GS
[0.75 0 0 0.75 0 0] CT
0 0.447 0.741 RC
2 setlinecap
10.0 ML
N
118.481 374 M
118.481 244.364 L
S
GR
GS
[0.75 0 0 0.75 0 0] CT
0 0.447 0.741 RC
2 setlinecap
10.0 ML
N
121.565 374 M
121.565 331.45 L
S
GR
GS
[0.75 0 0 0.75 0 0] CT
0 0.447 0.741 RC
2 setlinecap
10.0 ML
N
124.648 374 M
124.648 269.427 L
S
GR
GS
[0.75 0 0 0.75 0 0] CT
0 0.447 0.741 RC
2 setlinecap
10.0 ML
N
127.732 374 M
127.732 313.229 L
S
GR
GS
[0.75 0 0 0.75 0 0] CT
0 0.447 0.741 RC
2 setlinecap
10.0 ML
N
130.815 374 M
130.815 289.879 L
S
GR
GS
[0.75 0 0 0.75 0 0] CT
0 0.447 0.741 RC
2 setlinecap
10.0 ML
N
133.899 374 M
133.899 271.887 L
S
GR
GS
[0.75 0 0 0.75 0 0] CT
0 0.447 0.741 RC
2 setlinecap
10.0 ML
N
136.982 374 M
136.982 257.707 L
S
GR
GS
[0.75 0 0 0.75 0 0] CT
0 0.447 0.741 RC
2 setlinecap
10.0 ML
N
140.066 374 M
140.066 340.225 L
S
GR
GS
[0.75 0 0 0.75 0 0] CT
0 0.447 0.741 RC
2 setlinecap
10.0 ML
N
143.149 374 M
143.149 309.913 L
S
GR
GS
[0.75 0 0 0.75 0 0] CT
0 0.447 0.741 RC
2 setlinecap
10.0 ML
N
146.233 374 M
146.233 327.488 L
S
GR
GS
[0.75 0 0 0.75 0 0] CT
0 0.447 0.741 RC
2 setlinecap
10.0 ML
N
149.316 374 M
149.316 288.761 L
S
GR
GS
[0.75 0 0 0.75 0 0] CT
0 0.447 0.741 RC
2 setlinecap
10.0 ML
N
152.4 374 M
152.4 320.065 L
S
GR
GS
[0.75 0 0 0.75 0 0] CT
0 0.447 0.741 RC
2 setlinecap
10.0 ML
N
155.483 374 M
155.483 269.515 L
S
GR
GS
[0.75 0 0 0.75 0 0] CT
0 0.447 0.741 RC
2 setlinecap
10.0 ML
N
158.567 374 M
158.567 238.766 L
S
GR
GS
[0.75 0 0 0.75 0 0] CT
0 0.447 0.741 RC
2 setlinecap
10.0 ML
N
161.65 374 M
161.65 310.516 L
S
GR
GS
[0.75 0 0 0.75 0 0] CT
0 0.447 0.741 RC
2 setlinecap
10.0 ML
N
164.734 374 M
164.734 284.291 L
S
GR
GS
[0.75 0 0 0.75 0 0] CT
0 0.447 0.741 RC
2 setlinecap
10.0 ML
N
167.817 374 M
167.817 244.021 L
S
GR
GS
[0.75 0 0 0.75 0 0] CT
0 0.447 0.741 RC
2 setlinecap
10.0 ML
N
170.901 374 M
170.901 333.7 L
S
GR
GS
[0.75 0 0 0.75 0 0] CT
0 0.447 0.741 RC
2 setlinecap
10.0 ML
N
173.984 374 M
173.984 324.729 L
S
GR
GS
[0.75 0 0 0.75 0 0] CT
0 0.447 0.741 RC
2 setlinecap
10.0 ML
N
177.067 374 M
177.067 301.585 L
S
GR
GS
[0.75 0 0 0.75 0 0] CT
0 0.447 0.741 RC
2 setlinecap
10.0 ML
N
180.151 374 M
180.151 367.036 L
S
GR
GS
[0.75 0 0 0.75 0 0] CT
0 0.447 0.741 RC
2 setlinecap
10.0 ML
N
183.234 374 M
183.234 353.568 L
S
GR
GS
[0.75 0 0 0.75 0 0] CT
0 0.447 0.741 RC
2 setlinecap
10.0 ML
N
186.318 374 M
186.318 322.163 L
S
GR
GS
[0.75 0 0 0.75 0 0] CT
0 0.447 0.741 RC
2 setlinecap
10.0 ML
N
189.401 374 M
189.401 298.734 L
S
GR
GS
[0.75 0 0 0.75 0 0] CT
0 0.447 0.741 RC
2 setlinecap
10.0 ML
N
192.485 374 M
192.485 286.571 L
S
GR
GS
[0.75 0 0 0.75 0 0] CT
0 0.447 0.741 RC
2 setlinecap
10.0 ML
N
195.568 374 M
195.568 342.359 L
S
GR
GS
[0.75 0 0 0.75 0 0] CT
0 0.447 0.741 RC
2 setlinecap
10.0 ML
N
198.652 374 M
198.652 325.009 L
S
GR
GS
[0.75 0 0 0.75 0 0] CT
0 0.447 0.741 RC
2 setlinecap
10.0 ML
N
201.735 374 M
201.735 310.608 L
S
GR
GS
[0.75 0 0 0.75 0 0] CT
0 0.447 0.741 RC
2 setlinecap
10.0 ML
N
204.819 374 M
204.819 323.64 L
S
GR
GS
[0.75 0 0 0.75 0 0] CT
0 0.447 0.741 RC
2 setlinecap
10.0 ML
N
207.902 374 M
207.902 325.346 L
S
GR
GS
[0.75 0 0 0.75 0 0] CT
0 0.447 0.741 RC
2 setlinecap
10.0 ML
N
210.986 374 M
210.986 271.25 L
S
GR
GS
[0.75 0 0 0.75 0 0] CT
0 0.447 0.741 RC
2 setlinecap
10.0 ML
N
214.069 374 M
214.069 319.203 L
S
GR
GS
[0.75 0 0 0.75 0 0] CT
0 0.447 0.741 RC
2 setlinecap
10.0 ML
N
217.153 374 M
217.153 307.579 L
S
GR
GS
[0.75 0 0 0.75 0 0] CT
0 0.447 0.741 RC
2 setlinecap
10.0 ML
N
220.236 374 M
220.236 343.946 L
S
GR
GS
[0.75 0 0 0.75 0 0] CT
0 0.447 0.741 RC
2 setlinecap
10.0 ML
N
223.32 374 M
223.32 309.383 L
S
GR
GS
[0.75 0 0 0.75 0 0] CT
0 0.447 0.741 RC
2 setlinecap
10.0 ML
N
226.403 374 M
226.403 313.55 L
S
GR
GS
[0.75 0 0 0.75 0 0] CT
0 0.447 0.741 RC
2 setlinecap
10.0 ML
N
229.487 374 M
229.487 334.295 L
S
GR
GS
[0.75 0 0 0.75 0 0] CT
0 0.447 0.741 RC
2 setlinecap
10.0 ML
N
232.57 374 M
232.57 341.286 L
S
GR
GS
[0.75 0 0 0.75 0 0] CT
0 0.447 0.741 RC
2 setlinecap
10.0 ML
N
235.654 374 M
235.654 309.529 L
S
GR
GS
[0.75 0 0 0.75 0 0] CT
0 0.447 0.741 RC
2 setlinecap
10.0 ML
N
238.737 374 M
238.737 367.207 L
S
GR
GS
[0.75 0 0 0.75 0 0] CT
0 0.447 0.741 RC
2 setlinecap
10.0 ML
N
241.821 374 M
241.821 313.442 L
S
GR
GS
[0.75 0 0 0.75 0 0] CT
0 0.447 0.741 RC
2 setlinecap
10.0 ML
N
244.904 374 M
244.904 314.105 L
S
GR
GS
[0.75 0 0 0.75 0 0] CT
0 0.447 0.741 RC
2 setlinecap
10.0 ML
N
247.988 374 M
247.988 361.563 L
S
GR
GS
[0.75 0 0 0.75 0 0] CT
0 0.447 0.741 RC
2 setlinecap
10.0 ML
N
251.071 374 M
251.071 346.211 L
S
GR
GS
[0.75 0 0 0.75 0 0] CT
0 0.447 0.741 RC
2 setlinecap
10.0 ML
N
254.155 374 M
254.155 316.631 L
S
GR
GS
[0.75 0 0 0.75 0 0] CT
0 0.447 0.741 RC
2 setlinecap
10.0 ML
N
257.238 374 M
257.238 339.064 L
S
GR
GS
[0.75 0 0 0.75 0 0] CT
0 0.447 0.741 RC
2 setlinecap
10.0 ML
N
260.321 374 M
260.321 349.367 L
S
GR
GS
[0.75 0 0 0.75 0 0] CT
0 0.447 0.741 RC
2 setlinecap
10.0 ML
N
263.405 374 M
263.405 321.358 L
S
GR
GS
[0.75 0 0 0.75 0 0] CT
0 0.447 0.741 RC
2 setlinecap
10.0 ML
N
266.488 374 M
266.488 271.884 L
S
GR
GS
[0.75 0 0 0.75 0 0] CT
0 0.447 0.741 RC
2 setlinecap
10.0 ML
N
269.572 374 M
269.572 300.22 L
S
GR
GS
[0.75 0 0 0.75 0 0] CT
0 0.447 0.741 RC
2 setlinecap
10.0 ML
N
272.655 374 M
272.655 338.954 L
S
GR
GS
[0.75 0 0 0.75 0 0] CT
0 0.447 0.741 RC
2 setlinecap
10.0 ML
N
275.739 374 M
275.739 346.743 L
S
GR
GS
[0.75 0 0 0.75 0 0] CT
0 0.447 0.741 RC
2 setlinecap
10.0 ML
N
278.822 374 M
278.822 353.413 L
S
GR
GS
[0.75 0 0 0.75 0 0] CT
0 0.447 0.741 RC
2 setlinecap
10.0 ML
N
281.906 374 M
281.906 340.576 L
S
GR
GS
[0.75 0 0 0.75 0 0] CT
0 0.447 0.741 RC
2 setlinecap
10.0 ML
N
284.989 374 M
284.989 334.694 L
S
GR
GS
[0.75 0 0 0.75 0 0] CT
0 0.447 0.741 RC
2 setlinecap
10.0 ML
N
288.073 374 M
288.073 334.29 L
S
GR
GS
[0.75 0 0 0.75 0 0] CT
0 0.447 0.741 RC
2 setlinecap
10.0 ML
N
291.156 374 M
291.156 360.658 L
S
GR
GS
[0.75 0 0 0.75 0 0] CT
0 0.447 0.741 RC
2 setlinecap
10.0 ML
N
294.24 374 M
294.24 364.953 L
S
GR
GS
[0.75 0 0 0.75 0 0] CT
0 0.447 0.741 RC
2 setlinecap
10.0 ML
N
297.323 374 M
297.323 350.982 L
S
GR
GS
[0.75 0 0 0.75 0 0] CT
0 0.447 0.741 RC
2 setlinecap
10.0 ML
N
300.407 374 M
300.407 341.012 L
S
GR
GS
[0.75 0 0 0.75 0 0] CT
0 0.447 0.741 RC
2 setlinecap
10.0 ML
N
303.49 374 M
303.49 345.81 L
S
GR
GS
[0.75 0 0 0.75 0 0] CT
0 0.447 0.741 RC
2 setlinecap
10.0 ML
N
306.574 374 M
306.574 323.747 L
S
GR
GS
[0.75 0 0 0.75 0 0] CT
0 0.447 0.741 RC
2 setlinecap
10.0 ML
N
309.657 374 M
309.657 295.355 L
S
GR
GS
[0.75 0 0 0.75 0 0] CT
0 0.447 0.741 RC
2 setlinecap
10.0 ML
N
312.741 374 M
312.741 305.755 L
S
GR
GS
[0.75 0 0 0.75 0 0] CT
0 0.447 0.741 RC
2 setlinecap
10.0 ML
N
315.824 374 M
315.824 345.841 L
S
GR
GS
[0.75 0 0 0.75 0 0] CT
0 0.447 0.741 RC
2 setlinecap
10.0 ML
N
318.908 374 M
318.908 323.989 L
S
GR
GS
[0.75 0 0 0.75 0 0] CT
0 0.447 0.741 RC
2 setlinecap
10.0 ML
N
321.991 374 M
321.991 364.119 L
S
GR
GS
[0.75 0 0 0.75 0 0] CT
0 0.447 0.741 RC
2 setlinecap
10.0 ML
N
325.075 374 M
325.075 363.754 L
S
GR
GS
[0.75 0 0 0.75 0 0] CT
0 0.447 0.741 RC
2 setlinecap
10.0 ML
N
328.158 374 M
328.158 316.624 L
S
GR
GS
[0.75 0 0 0.75 0 0] CT
0 0.447 0.741 RC
2 setlinecap
10.0 ML
N
331.242 374 M
331.242 315.672 L
S
GR
GS
[0.75 0 0 0.75 0 0] CT
0 0.447 0.741 RC
2 setlinecap
10.0 ML
N
334.325 374 M
334.325 304.087 L
S
GR
GS
[0.75 0 0 0.75 0 0] CT
0 0.447 0.741 RC
2 setlinecap
10.0 ML
N
337.409 374 M
337.409 338.738 L
S
GR
GS
[0.75 0 0 0.75 0 0] CT
0 0.447 0.741 RC
2 setlinecap
10.0 ML
N
340.492 374 M
340.492 327.739 L
S
GR
GS
[0.75 0 0 0.75 0 0] CT
0 0.447 0.741 RC
2 setlinecap
10.0 ML
N
343.575 374 M
343.575 341.041 L
S
GR
GS
[0.75 0 0 0.75 0 0] CT
0 0.447 0.741 RC
2 setlinecap
10.0 ML
N
346.659 374 M
346.659 359.697 L
S
GR
GS
[0.75 0 0 0.75 0 0] CT
0 0.447 0.741 RC
2 setlinecap
10.0 ML
N
349.742 374 M
349.742 358.085 L
S
GR
GS
[0.75 0 0 0.75 0 0] CT
0 0.447 0.741 RC
2 setlinecap
10.0 ML
N
352.826 374 M
352.826 337.05 L
S
GR
GS
[0.75 0 0 0.75 0 0] CT
0 0.447 0.741 RC
2 setlinecap
10.0 ML
N
355.909 374 M
355.909 354.766 L
S
GR
GS
[0.75 0 0 0.75 0 0] CT
0 0.447 0.741 RC
2 setlinecap
10.0 ML
N
358.993 374 M
358.993 331.075 L
S
GR
GS
[0.75 0 0 0.75 0 0] CT
0 0.447 0.741 RC
2 setlinecap
10.0 ML
N
362.076 374 M
362.076 337.272 L
S
GR
GS
[0.75 0 0 0.75 0 0] CT
0 0.447 0.741 RC
2 setlinecap
10.0 ML
N
365.16 374 M
365.16 353.828 L
S
GR
GS
[0.75 0 0 0.75 0 0] CT
0 0.447 0.741 RC
2 setlinecap
10.0 ML
N
368.243 374 M
368.243 336.764 L
S
GR
GS
[0.75 0 0 0.75 0 0] CT
0 0.447 0.741 RC
2 setlinecap
10.0 ML
N
371.327 374 M
371.327 344.91 L
S
GR
GS
[0.75 0 0 0.75 0 0] CT
0 0.447 0.741 RC
2 setlinecap
10.0 ML
N
374.41 374 M
374.41 351.74 L
S
GR
GS
[0.75 0 0 0.75 0 0] CT
0 0.447 0.741 RC
2 setlinecap
10.0 ML
N
377.494 374 M
377.494 355.707 L
S
GR
GS
[0.75 0 0 0.75 0 0] CT
0 0.447 0.741 RC
2 setlinecap
10.0 ML
N
380.577 374 M
380.577 353.191 L
S
GR
GS
[0.75 0 0 0.75 0 0] CT
0 0.447 0.741 RC
2 setlinecap
10.0 ML
N
383.661 374 M
383.661 362.667 L
S
GR
GS
[0.75 0 0 0.75 0 0] CT
0 0.447 0.741 RC
2 setlinecap
10.0 ML
N
386.744 374 M
386.744 350.881 L
S
GR
GS
[0.75 0 0 0.75 0 0] CT
0 0.447 0.741 RC
2 setlinecap
10.0 ML
N
389.828 374 M
389.828 354.78 L
S
GR
GS
[0.75 0 0 0.75 0 0] CT
0 0.447 0.741 RC
2 setlinecap
10.0 ML
N
392.911 374 M
392.911 368.943 L
S
GR
GS
[0.75 0 0 0.75 0 0] CT
0 0.447 0.741 RC
2 setlinecap
10.0 ML
N
395.995 374 M
395.995 347.949 L
S
GR
GS
[0.75 0 0 0.75 0 0] CT
0 0.447 0.741 RC
2 setlinecap
10.0 ML
N
399.078 374 M
399.078 347.129 L
S
GR
GS
[0.75 0 0 0.75 0 0] CT
0 0.447 0.741 RC
2 setlinecap
10.0 ML
N
402.162 374 M
402.162 357.742 L
S
GR
GS
[0.75 0 0 0.75 0 0] CT
0 0.447 0.741 RC
2 setlinecap
10.0 ML
N
405.245 374 M
405.245 347.837 L
S
GR
GS
[0.75 0 0 0.75 0 0] CT
0 0.447 0.741 RC
2 setlinecap
10.0 ML
N
408.329 374 M
408.329 347.754 L
S
GR
GS
[0.75 0 0 0.75 0 0] CT
0 0.447 0.741 RC
2 setlinecap
10.0 ML
N
411.412 374 M
411.412 328.5 L
S
GR
GS
[0.75 0 0 0.75 0 0] CT
0 0.447 0.741 RC
2 setlinecap
10.0 ML
N
414.496 374 M
414.496 360.856 L
S
GR
GS
[0.75 0 0 0.75 0 0] CT
0 0.447 0.741 RC
2 setlinecap
10.0 ML
N
417.579 374 M
417.579 339.333 L
S
GR
GS
[0.75 0 0 0.75 0 0] CT
0 0.447 0.741 RC
2 setlinecap
10.0 ML
N
420.663 374 M
420.663 348.347 L
S
GR
GS
[0.75 0 0 0.75 0 0] CT
0 0.447 0.741 RC
2 setlinecap
10.0 ML
N
423.746 374 M
423.746 357.051 L
S
GR
GS
[0.75 0 0 0.75 0 0] CT
0 0.447 0.741 RC
2 setlinecap
10.0 ML
N
426.829 374 M
426.829 370.963 L
S
GR
GS
[0.75 0 0 0.75 0 0] CT
0 0.447 0.741 RC
2 setlinecap
10.0 ML
N
429.913 374 M
429.913 344.74 L
S
GR
GS
[0.75 0 0 0.75 0 0] CT
0 0.447 0.741 RC
2 setlinecap
10.0 ML
N
432.996 374 M
432.996 363.843 L
S
GR
GS
[0.75 0 0 0.75 0 0] CT
0 0.447 0.741 RC
2 setlinecap
10.0 ML
N
436.08 374 M
436.08 370.271 L
S
GR
GS
[0.75 0 0 0.75 0 0] CT
0 0.447 0.741 RC
2 setlinecap
10.0 ML
N
439.163 374 M
439.163 358.396 L
S
GR
GS
[0.75 0 0 0.75 0 0] CT
0 0.447 0.741 RC
2 setlinecap
10.0 ML
N
442.247 374 M
442.247 364.713 L
S
GR
GS
[0.75 0 0 0.75 0 0] CT
0 0.447 0.741 RC
2 setlinecap
10.0 ML
N
445.33 374 M
445.33 364.924 L
S
GR
GS
[0.75 0 0 0.75 0 0] CT
0 0.447 0.741 RC
2 setlinecap
10.0 ML
N
448.414 374 M
448.414 358.439 L
S
GR
GS
[0.75 0 0 0.75 0 0] CT
0 0.447 0.741 RC
2 setlinecap
10.0 ML
N
451.497 374 M
451.497 345.109 L
S
GR
GS
[0.75 0 0 0.75 0 0] CT
0 0.447 0.741 RC
2 setlinecap
10.0 ML
N
454.581 374 M
454.581 348.338 L
S
GR
GS
[0.75 0 0 0.75 0 0] CT
0 0.447 0.741 RC
2 setlinecap
10.0 ML
N
457.664 374 M
457.664 361.281 L
S
GR
GS
[0.75 0 0 0.75 0 0] CT
0 0.447 0.741 RC
2 setlinecap
10.0 ML
N
460.748 374 M
460.748 352.203 L
S
GR
GS
[0.75 0 0 0.75 0 0] CT
0 0.447 0.741 RC
2 setlinecap
10.0 ML
N
463.831 374 M
463.831 338.833 L
S
GR
GS
[0.75 0 0 0.75 0 0] CT
0 0.447 0.741 RC
2 setlinecap
10.0 ML
N
466.915 374 M
466.915 350.892 L
S
GR
GS
[0.75 0 0 0.75 0 0] CT
0 0.447 0.741 RC
2 setlinecap
10.0 ML
N
469.998 374 M
469.998 360.489 L
S
GR
GS
[0.75 0 0 0.75 0 0] CT
0 0.447 0.741 RC
2 setlinecap
10.0 ML
N
473.082 374 M
473.082 360.682 L
S
GR
GS
[0.75 0 0 0.75 0 0] CT
0 0.447 0.741 RC
2 setlinecap
10.0 ML
N
476.165 374 M
476.165 364.389 L
S
GR
GS
[0.75 0 0 0.75 0 0] CT
0 0.447 0.741 RC
2 setlinecap
10.0 ML
N
479.249 374 M
479.249 362.524 L
S
GR
GS
[0.75 0 0 0.75 0 0] CT
0 0.447 0.741 RC
2 setlinecap
10.0 ML
N
482.332 374 M
482.332 351.278 L
S
GR
GS
[0.75 0 0 0.75 0 0] CT
0 0.447 0.741 RC
2 setlinecap
10.0 ML
N
485.416 374 M
485.416 344.917 L
S
GR
GS
[0.75 0 0 0.75 0 0] CT
0 0.447 0.741 RC
2 setlinecap
10.0 ML
N
488.499 374 M
488.499 355.623 L
S
GR
GS
[0.75 0 0 0.75 0 0] CT
0 0.447 0.741 RC
2 setlinecap
10.0 ML
N
491.583 374 M
491.583 356.147 L
S
GR
GS
[0.75 0 0 0.75 0 0] CT
0 0.447 0.741 RC
2 setlinecap
10.0 ML
N
494.666 374 M
494.666 348.235 L
S
GR
GS
[0.75 0 0 0.75 0 0] CT
0 0.447 0.741 RC
2 setlinecap
10.0 ML
N
497.75 374 M
497.75 357.33 L
S
GR
GS
[0.75 0 0 0.75 0 0] CT
0 0.447 0.741 RC
2 setlinecap
10.0 ML
N
500.833 374 M
500.833 360.572 L
S
GR
GS
[0.75 0 0 0.75 0 0] CT
0 0.447 0.741 RC
2 setlinecap
10.0 ML
N
503.917 374 M
503.917 341.947 L
S
GR
GS
[0.75 0 0 0.75 0 0] CT
0 0.447 0.741 RC
2 setlinecap
10.0 ML
N
507 374 M
507 361.064 L
S
GR
GS
[0.75 0 0 0.75 217.50021 21.18751] CT
/Helvetica-Bold 15 F
GS
[1 0 0 1 0 0] CT
-144 -4 moveto 
1 -1 scale
(Single-Sided Amplitude Spectrum of y\(t\)) t 
GR
GR
GS
[0.75 0 0 0.75 0 0] CT
0.149 GC
2 setlinecap
10.0 ML
N
73 374 M
507 374 L
S
GR
%%Trailer
%%Pages: 1
%%EOF
