%!PS-Adobe-3.0 EPSF-3.0
%%Creator: (MATLAB, The Mathworks, Inc. Version 8.5.0.197613 \(R2015a\). Operating System: Windows 8)
%%Title: (C:/Users/aleja/Desktop/TFG/Documentaci\363n/Obtenci\363n de datos/matlab_plot/stems/alvaro12-08.eps)
%%CreationDate: 2019-05-22T00:02:13
%%Pages: (atend)
%%BoundingBox: 0 0 420 315
%%LanguageLevel: 2
%%EndComments
%%BeginProlog
%%BeginResource: procset (Apache XML Graphics Std ProcSet) 1.2 0
%%Version: 1.2 0
%%Copyright: (Copyright 2001-2003,2010 The Apache Software Foundation. License terms: http://www.apache.org/licenses/LICENSE-2.0)
/bd{bind def}bind def
/ld{load def}bd
/GR/grestore ld
/M/moveto ld
/LJ/setlinejoin ld
/C/curveto ld
/f/fill ld
/LW/setlinewidth ld
/GC/setgray ld
/t/show ld
/N/newpath ld
/CT/concat ld
/cp/closepath ld
/S/stroke ld
/L/lineto ld
/CC/setcmykcolor ld
/A/ashow ld
/GS/gsave ld
/RC/setrgbcolor ld
/RM/rmoveto ld
/ML/setmiterlimit ld
/re {4 2 roll M
1 index 0 rlineto
0 exch rlineto
neg 0 rlineto
cp } bd
/_ctm matrix def
/_tm matrix def
/BT { _ctm currentmatrix pop matrix _tm copy pop 0 0 moveto } bd
/ET { _ctm setmatrix } bd
/iTm { _ctm setmatrix _tm concat } bd
/Tm { _tm astore pop iTm 0 0 moveto } bd
/ux 0.0 def
/uy 0.0 def
/F {
  /Tp exch def
  /Tf exch def
  Tf findfont Tp scalefont setfont
  /cf Tf def  /cs Tp def
} bd
/ULS {currentpoint /uy exch def /ux exch def} bd
/ULE {
  /Tcx currentpoint pop def
  gsave
  newpath
  cf findfont cs scalefont dup
  /FontMatrix get 0 get /Ts exch def /FontInfo get dup
  /UnderlinePosition get Ts mul /To exch def
  /UnderlineThickness get Ts mul /Tt exch def
  ux uy To add moveto  Tcx uy To add lineto
  Tt setlinewidth stroke
  grestore
} bd
/OLE {
  /Tcx currentpoint pop def
  gsave
  newpath
  cf findfont cs scalefont dup
  /FontMatrix get 0 get /Ts exch def /FontInfo get dup
  /UnderlinePosition get Ts mul /To exch def
  /UnderlineThickness get Ts mul /Tt exch def
  ux uy To add cs add moveto Tcx uy To add cs add lineto
  Tt setlinewidth stroke
  grestore
} bd
/SOE {
  /Tcx currentpoint pop def
  gsave
  newpath
  cf findfont cs scalefont dup
  /FontMatrix get 0 get /Ts exch def /FontInfo get dup
  /UnderlinePosition get Ts mul /To exch def
  /UnderlineThickness get Ts mul /Tt exch def
  ux uy To add cs 10 mul 26 idiv add moveto Tcx uy To add cs 10 mul 26 idiv add lineto
  Tt setlinewidth stroke
  grestore
} bd
/QT {
/Y22 exch store
/X22 exch store
/Y21 exch store
/X21 exch store
currentpoint
/Y21 load 2 mul add 3 div exch
/X21 load 2 mul add 3 div exch
/X21 load 2 mul /X22 load add 3 div
/Y21 load 2 mul /Y22 load add 3 div
/X22 load /Y22 load curveto
} bd
/SSPD {
dup length /d exch dict def
{
/v exch def
/k exch def
currentpagedevice k known {
/cpdv currentpagedevice k get def
v cpdv ne {
/upd false def
/nullv v type /nulltype eq def
/nullcpdv cpdv type /nulltype eq def
nullv nullcpdv or
{
/upd true def
} {
/sametype v type cpdv type eq def
sametype {
v type /arraytype eq {
/vlen v length def
/cpdvlen cpdv length def
vlen cpdvlen eq {
0 1 vlen 1 sub {
/i exch def
/obj v i get def
/cpdobj cpdv i get def
obj cpdobj ne {
/upd true def
exit
} if
} for
} {
/upd true def
} ifelse
} {
v type /dicttype eq {
v {
/dv exch def
/dk exch def
/cpddv cpdv dk get def
dv cpddv ne {
/upd true def
exit
} if
} forall
} {
/upd true def
} ifelse
} ifelse
} if
} ifelse
upd true eq {
d k v put
} if
} if
} if
} forall
d length 0 gt {
d setpagedevice
} if
} bd
%%EndResource
%%BeginResource: procset (Apache XML Graphics EPS ProcSet) 1.0 0
%%Version: 1.0 0
%%Copyright: (Copyright 2002-2003 The Apache Software Foundation. License terms: http://www.apache.org/licenses/LICENSE-2.0)
/BeginEPSF { %def
/b4_Inc_state save def         % Save state for cleanup
/dict_count countdictstack def % Count objects on dict stack
/op_count count 1 sub def      % Count objects on operand stack
userdict begin                 % Push userdict on dict stack
/showpage { } def              % Redefine showpage, { } = null proc
0 setgray 0 setlinecap         % Prepare graphics state
1 setlinewidth 0 setlinejoin
10 setmiterlimit [ ] 0 setdash newpath
/languagelevel where           % If level not equal to 1 then
{pop languagelevel             % set strokeadjust and
1 ne                           % overprint to their defaults.
{false setstrokeadjust false setoverprint
} if
} if
} bd
/EndEPSF { %def
count op_count sub {pop} repeat            % Clean up stacks
countdictstack dict_count sub {end} repeat
b4_Inc_state restore
} bd
%%EndResource
%FOPBeginFontDict
%%IncludeResource: font Courier-Bold
%%IncludeResource: font Helvetica
%%IncludeResource: font Courier-BoldOblique
%%IncludeResource: font Courier-Oblique
%%IncludeResource: font Times-Roman
%%IncludeResource: font Helvetica-BoldOblique
%%IncludeResource: font Helvetica-Bold
%%IncludeResource: font Helvetica-Oblique
%%IncludeResource: font Times-BoldItalic
%%IncludeResource: font Courier
%%IncludeResource: font Times-Italic
%%IncludeResource: font Times-Bold
%%IncludeResource: font Symbol
%%IncludeResource: font ZapfDingbats
%FOPEndFontDict
%%BeginResource: encoding WinAnsiEncoding
/WinAnsiEncoding [
/.notdef /.notdef /.notdef /.notdef /.notdef
/.notdef /.notdef /.notdef /.notdef /.notdef
/.notdef /.notdef /.notdef /.notdef /.notdef
/.notdef /.notdef /.notdef /.notdef /.notdef
/.notdef /.notdef /.notdef /.notdef /.notdef
/.notdef /.notdef /.notdef /.notdef /.notdef
/.notdef /.notdef /space /exclam /quotedbl
/numbersign /dollar /percent /ampersand /quotesingle
/parenleft /parenright /asterisk /plus /comma
/hyphen /period /slash /zero /one
/two /three /four /five /six
/seven /eight /nine /colon /semicolon
/less /equal /greater /question /at
/A /B /C /D /E
/F /G /H /I /J
/K /L /M /N /O
/P /Q /R /S /T
/U /V /W /X /Y
/Z /bracketleft /backslash /bracketright /asciicircum
/underscore /quoteleft /a /b /c
/d /e /f /g /h
/i /j /k /l /m
/n /o /p /q /r
/s /t /u /v /w
/x /y /z /braceleft /bar
/braceright /asciitilde /bullet /Euro /bullet
/quotesinglbase /florin /quotedblbase /ellipsis /dagger
/daggerdbl /circumflex /perthousand /Scaron /guilsinglleft
/OE /bullet /Zcaron /bullet /bullet
/quoteleft /quoteright /quotedblleft /quotedblright /bullet
/endash /emdash /asciitilde /trademark /scaron
/guilsinglright /oe /bullet /zcaron /Ydieresis
/space /exclamdown /cent /sterling /currency
/yen /brokenbar /section /dieresis /copyright
/ordfeminine /guillemotleft /logicalnot /sfthyphen /registered
/macron /degree /plusminus /twosuperior /threesuperior
/acute /mu /paragraph /middot /cedilla
/onesuperior /ordmasculine /guillemotright /onequarter /onehalf
/threequarters /questiondown /Agrave /Aacute /Acircumflex
/Atilde /Adieresis /Aring /AE /Ccedilla
/Egrave /Eacute /Ecircumflex /Edieresis /Igrave
/Iacute /Icircumflex /Idieresis /Eth /Ntilde
/Ograve /Oacute /Ocircumflex /Otilde /Odieresis
/multiply /Oslash /Ugrave /Uacute /Ucircumflex
/Udieresis /Yacute /Thorn /germandbls /agrave
/aacute /acircumflex /atilde /adieresis /aring
/ae /ccedilla /egrave /eacute /ecircumflex
/edieresis /igrave /iacute /icircumflex /idieresis
/eth /ntilde /ograve /oacute /ocircumflex
/otilde /odieresis /divide /oslash /ugrave
/uacute /ucircumflex /udieresis /yacute /thorn
/ydieresis
] def
%%EndResource
%FOPBeginFontReencode
/Courier-Bold findfont
dup length dict begin
  {1 index /FID ne {def} {pop pop} ifelse} forall
  /Encoding WinAnsiEncoding def
  currentdict
end
/Courier-Bold exch definefont pop
/Helvetica findfont
dup length dict begin
  {1 index /FID ne {def} {pop pop} ifelse} forall
  /Encoding WinAnsiEncoding def
  currentdict
end
/Helvetica exch definefont pop
/Courier-BoldOblique findfont
dup length dict begin
  {1 index /FID ne {def} {pop pop} ifelse} forall
  /Encoding WinAnsiEncoding def
  currentdict
end
/Courier-BoldOblique exch definefont pop
/Courier-Oblique findfont
dup length dict begin
  {1 index /FID ne {def} {pop pop} ifelse} forall
  /Encoding WinAnsiEncoding def
  currentdict
end
/Courier-Oblique exch definefont pop
/Times-Roman findfont
dup length dict begin
  {1 index /FID ne {def} {pop pop} ifelse} forall
  /Encoding WinAnsiEncoding def
  currentdict
end
/Times-Roman exch definefont pop
/Helvetica-BoldOblique findfont
dup length dict begin
  {1 index /FID ne {def} {pop pop} ifelse} forall
  /Encoding WinAnsiEncoding def
  currentdict
end
/Helvetica-BoldOblique exch definefont pop
/Helvetica-Bold findfont
dup length dict begin
  {1 index /FID ne {def} {pop pop} ifelse} forall
  /Encoding WinAnsiEncoding def
  currentdict
end
/Helvetica-Bold exch definefont pop
/Helvetica-Oblique findfont
dup length dict begin
  {1 index /FID ne {def} {pop pop} ifelse} forall
  /Encoding WinAnsiEncoding def
  currentdict
end
/Helvetica-Oblique exch definefont pop
/Times-BoldItalic findfont
dup length dict begin
  {1 index /FID ne {def} {pop pop} ifelse} forall
  /Encoding WinAnsiEncoding def
  currentdict
end
/Times-BoldItalic exch definefont pop
/Courier findfont
dup length dict begin
  {1 index /FID ne {def} {pop pop} ifelse} forall
  /Encoding WinAnsiEncoding def
  currentdict
end
/Courier exch definefont pop
/Times-Italic findfont
dup length dict begin
  {1 index /FID ne {def} {pop pop} ifelse} forall
  /Encoding WinAnsiEncoding def
  currentdict
end
/Times-Italic exch definefont pop
/Times-Bold findfont
dup length dict begin
  {1 index /FID ne {def} {pop pop} ifelse} forall
  /Encoding WinAnsiEncoding def
  currentdict
end
/Times-Bold exch definefont pop
%FOPEndFontReencode
%%EndProlog
%%Page: 1 1
%%PageBoundingBox: 0 0 420 315
%%BeginPageSetup
[1 0 0 -1 0 315] CT
%%EndPageSetup
GS
[0.75 0 0 0.75 0 0] CT
1 GC
N
0 0 560 420 re
f
GR
GS
[0.75 0 0 0.75 0 0] CT
1 GC
N
0 0 560 420 re
f
GR
GS
[0.75 0 0 0.75 0 0] CT
1 GC
N
73 374 M
507 374 L
507 31 L
73 31 L
cp
f
GR
GS
[0.75 0 0 0.75 217.50016 298.24999] CT
0.149 GC
/Helvetica 15 F
GS
[1 0 0 1 0 0] CT
-52 16 moveto 
1 -1 scale
(Frequency \(Hz\)) t 
GR
GR
GS
[0.75 0 0 0.75 0 0] CT
0.149 GC
2 setlinecap
10.0 ML
N
73 374 M
507 374 L
S
GR
GS
[0.75 0 0 0.75 0 0] CT
0.149 GC
2 setlinecap
10.0 ML
N
73 31 M
507 31 L
S
GR
GS
[0.75 0 0 0.75 0 0] CT
0.149 GC
2 setlinecap
10.0 ML
N
73 374 M
73 369.66 L
S
GR
GS
[0.75 0 0 0.75 0 0] CT
0.149 GC
2 setlinecap
10.0 ML
N
116.4 374 M
116.4 369.66 L
S
GR
GS
[0.75 0 0 0.75 0 0] CT
0.149 GC
2 setlinecap
10.0 ML
N
159.8 374 M
159.8 369.66 L
S
GR
GS
[0.75 0 0 0.75 0 0] CT
0.149 GC
2 setlinecap
10.0 ML
N
203.2 374 M
203.2 369.66 L
S
GR
GS
[0.75 0 0 0.75 0 0] CT
0.149 GC
2 setlinecap
10.0 ML
N
246.6 374 M
246.6 369.66 L
S
GR
GS
[0.75 0 0 0.75 0 0] CT
0.149 GC
2 setlinecap
10.0 ML
N
290 374 M
290 369.66 L
S
GR
GS
[0.75 0 0 0.75 0 0] CT
0.149 GC
2 setlinecap
10.0 ML
N
333.4 374 M
333.4 369.66 L
S
GR
GS
[0.75 0 0 0.75 0 0] CT
0.149 GC
2 setlinecap
10.0 ML
N
376.8 374 M
376.8 369.66 L
S
GR
GS
[0.75 0 0 0.75 0 0] CT
0.149 GC
2 setlinecap
10.0 ML
N
420.2 374 M
420.2 369.66 L
S
GR
GS
[0.75 0 0 0.75 0 0] CT
0.149 GC
2 setlinecap
10.0 ML
N
463.6 374 M
463.6 369.66 L
S
GR
GS
[0.75 0 0 0.75 0 0] CT
0.149 GC
2 setlinecap
10.0 ML
N
507 374 M
507 369.66 L
S
GR
GS
[0.75 0 0 0.75 0 0] CT
0.149 GC
2 setlinecap
10.0 ML
N
73 31 M
73 35.34 L
S
GR
GS
[0.75 0 0 0.75 0 0] CT
0.149 GC
2 setlinecap
10.0 ML
N
116.4 31 M
116.4 35.34 L
S
GR
GS
[0.75 0 0 0.75 0 0] CT
0.149 GC
2 setlinecap
10.0 ML
N
159.8 31 M
159.8 35.34 L
S
GR
GS
[0.75 0 0 0.75 0 0] CT
0.149 GC
2 setlinecap
10.0 ML
N
203.2 31 M
203.2 35.34 L
S
GR
GS
[0.75 0 0 0.75 0 0] CT
0.149 GC
2 setlinecap
10.0 ML
N
246.6 31 M
246.6 35.34 L
S
GR
GS
[0.75 0 0 0.75 0 0] CT
0.149 GC
2 setlinecap
10.0 ML
N
290 31 M
290 35.34 L
S
GR
GS
[0.75 0 0 0.75 0 0] CT
0.149 GC
2 setlinecap
10.0 ML
N
333.4 31 M
333.4 35.34 L
S
GR
GS
[0.75 0 0 0.75 0 0] CT
0.149 GC
2 setlinecap
10.0 ML
N
376.8 31 M
376.8 35.34 L
S
GR
GS
[0.75 0 0 0.75 0 0] CT
0.149 GC
2 setlinecap
10.0 ML
N
420.2 31 M
420.2 35.34 L
S
GR
GS
[0.75 0 0 0.75 0 0] CT
0.149 GC
2 setlinecap
10.0 ML
N
463.6 31 M
463.6 35.34 L
S
GR
GS
[0.75 0 0 0.75 0 0] CT
0.149 GC
2 setlinecap
10.0 ML
N
507 31 M
507 35.34 L
S
GR
GS
[0.75 0 0 0.75 54.75 284.50001] CT
0.149 GC
/Helvetica 13 F
GS
[1 0 0 1 0 0] CT
-4 14 moveto 
1 -1 scale
(0) t 
GR
GR
GS
[0.75 0 0 0.75 87.3 284.50001] CT
0.149 GC
/Helvetica 13 F
GS
[1 0 0 1 0 0] CT
-7.5 14 moveto 
1 -1 scale
(10) t 
GR
GR
GS
[0.75 0 0 0.75 119.85 284.50001] CT
0.149 GC
/Helvetica 13 F
GS
[1 0 0 1 0 0] CT
-7.5 14 moveto 
1 -1 scale
(20) t 
GR
GR
GS
[0.75 0 0 0.75 152.4 284.50001] CT
0.149 GC
/Helvetica 13 F
GS
[1 0 0 1 0 0] CT
-7.5 14 moveto 
1 -1 scale
(30) t 
GR
GR
GS
[0.75 0 0 0.75 184.95 284.50001] CT
0.149 GC
/Helvetica 13 F
GS
[1 0 0 1 0 0] CT
-7.5 14 moveto 
1 -1 scale
(40) t 
GR
GR
GS
[0.75 0 0 0.75 217.5 284.50001] CT
0.149 GC
/Helvetica 13 F
GS
[1 0 0 1 0 0] CT
-7.5 14 moveto 
1 -1 scale
(50) t 
GR
GR
GS
[0.75 0 0 0.75 250.05 284.50001] CT
0.149 GC
/Helvetica 13 F
GS
[1 0 0 1 0 0] CT
-7.5 14 moveto 
1 -1 scale
(60) t 
GR
GR
GS
[0.75 0 0 0.75 282.59999 284.50001] CT
0.149 GC
/Helvetica 13 F
GS
[1 0 0 1 0 0] CT
-7.5 14 moveto 
1 -1 scale
(70) t 
GR
GR
GS
[0.75 0 0 0.75 315.15001 284.50001] CT
0.149 GC
/Helvetica 13 F
GS
[1 0 0 1 0 0] CT
-7.5 14 moveto 
1 -1 scale
(80) t 
GR
GR
GS
[0.75 0 0 0.75 347.7 284.50001] CT
0.149 GC
/Helvetica 13 F
GS
[1 0 0 1 0 0] CT
-7.5 14 moveto 
1 -1 scale
(90) t 
GR
GR
GS
[0.75 0 0 0.75 380.25 284.50001] CT
0.149 GC
/Helvetica 13 F
GS
[1 0 0 1 0 0] CT
-11 14 moveto 
1 -1 scale
(100) t 
GR
GR
GS
[0 -0.75 0.75 0 33.5 151.87487] CT
0.149 GC
/Helvetica 15 F
GS
[1 0 0 1 0 0] CT
-61.5 -4 moveto 
1 -1 scale
(|P\(f\)| MAgnitud dB) t 
GR
GR
GS
[0.75 0 0 0.75 0 0] CT
0.149 GC
2 setlinecap
10.0 ML
N
73 374 M
73 31 L
S
GR
GS
[0.75 0 0 0.75 0 0] CT
0.149 GC
2 setlinecap
10.0 ML
N
507 374 M
507 31 L
S
GR
GS
[0.75 0 0 0.75 0 0] CT
0.149 GC
2 setlinecap
10.0 ML
N
73 374 M
77.34 374 L
S
GR
GS
[0.75 0 0 0.75 0 0] CT
0.149 GC
2 setlinecap
10.0 ML
N
73 325 M
77.34 325 L
S
GR
GS
[0.75 0 0 0.75 0 0] CT
0.149 GC
2 setlinecap
10.0 ML
N
73 276 M
77.34 276 L
S
GR
GS
[0.75 0 0 0.75 0 0] CT
0.149 GC
2 setlinecap
10.0 ML
N
73 227 M
77.34 227 L
S
GR
GS
[0.75 0 0 0.75 0 0] CT
0.149 GC
2 setlinecap
10.0 ML
N
73 178 M
77.34 178 L
S
GR
GS
[0.75 0 0 0.75 0 0] CT
0.149 GC
2 setlinecap
10.0 ML
N
73 129 M
77.34 129 L
S
GR
GS
[0.75 0 0 0.75 0 0] CT
0.149 GC
2 setlinecap
10.0 ML
N
73 80 M
77.34 80 L
S
GR
GS
[0.75 0 0 0.75 0 0] CT
0.149 GC
2 setlinecap
10.0 ML
N
73 31 M
77.34 31 L
S
GR
GS
[0.75 0 0 0.75 0 0] CT
0.149 GC
2 setlinecap
10.0 ML
N
507 374 M
502.66 374 L
S
GR
GS
[0.75 0 0 0.75 0 0] CT
0.149 GC
2 setlinecap
10.0 ML
N
507 325 M
502.66 325 L
S
GR
GS
[0.75 0 0 0.75 0 0] CT
0.149 GC
2 setlinecap
10.0 ML
N
507 276 M
502.66 276 L
S
GR
GS
[0.75 0 0 0.75 0 0] CT
0.149 GC
2 setlinecap
10.0 ML
N
507 227 M
502.66 227 L
S
GR
GS
[0.75 0 0 0.75 0 0] CT
0.149 GC
2 setlinecap
10.0 ML
N
507 178 M
502.66 178 L
S
GR
GS
[0.75 0 0 0.75 0 0] CT
0.149 GC
2 setlinecap
10.0 ML
N
507 129 M
502.66 129 L
S
GR
GS
[0.75 0 0 0.75 0 0] CT
0.149 GC
2 setlinecap
10.0 ML
N
507 80 M
502.66 80 L
S
GR
GS
[0.75 0 0 0.75 0 0] CT
0.149 GC
2 setlinecap
10.0 ML
N
507 31 M
502.66 31 L
S
GR
GS
[0.75 0 0 0.75 50.75 280.5] CT
0.149 GC
/Helvetica 13 F
GS
[1 0 0 1 0 0] CT
-8 5.5 moveto 
1 -1 scale
(0) t 
GR
GR
GS
[0.75 0 0 0.75 50.75 243.75] CT
0.149 GC
/Helvetica 13 F
GS
[1 0 0 1 0 0] CT
-19 5.5 moveto 
1 -1 scale
(0.5) t 
GR
GR
GS
[0.75 0 0 0.75 50.75 207] CT
0.149 GC
/Helvetica 13 F
GS
[1 0 0 1 0 0] CT
-8 5.5 moveto 
1 -1 scale
(1) t 
GR
GR
GS
[0.75 0 0 0.75 50.75 170.25] CT
0.149 GC
/Helvetica 13 F
GS
[1 0 0 1 0 0] CT
-19 5.5 moveto 
1 -1 scale
(1.5) t 
GR
GR
GS
[0.75 0 0 0.75 50.75 133.5] CT
0.149 GC
/Helvetica 13 F
GS
[1 0 0 1 0 0] CT
-8 5.5 moveto 
1 -1 scale
(2) t 
GR
GR
GS
[0.75 0 0 0.75 50.75 96.75] CT
0.149 GC
/Helvetica 13 F
GS
[1 0 0 1 0 0] CT
-19 5.5 moveto 
1 -1 scale
(2.5) t 
GR
GR
GS
[0.75 0 0 0.75 50.75 60] CT
0.149 GC
/Helvetica 13 F
GS
[1 0 0 1 0 0] CT
-8 5.5 moveto 
1 -1 scale
(3) t 
GR
GR
GS
[0.75 0 0 0.75 50.75 23.25] CT
0.149 GC
/Helvetica 13 F
GS
[1 0 0 1 0 0] CT
-19 5.5 moveto 
1 -1 scale
(3.5) t 
GR
GR
GS
[0.75 0 0 0.75 0 0] CT
0 0.447 0.741 RC
2 setlinecap
10.0 ML
N
79.5 41.5 M
78.736 39.149 L
76.736 37.696 L
74.264 37.696 L
72.264 39.149 L
71.5 41.5 L
72.264 43.851 L
74.264 45.304 L
76.736 45.304 L
78.736 43.851 L
79.5 41.5 L
S
GR
GS
[0.75 0 0 0.75 0 0] CT
0 0.447 0.741 RC
2 setlinecap
10.0 ML
N
82.5 224.5 M
81.736 222.149 L
79.736 220.696 L
77.264 220.696 L
75.264 222.149 L
74.5 224.5 L
75.264 226.851 L
77.264 228.304 L
79.736 228.304 L
81.736 226.851 L
82.5 224.5 L
S
GR
GS
[0.75 0 0 0.75 0 0] CT
0 0.447 0.741 RC
2 setlinecap
10.0 ML
N
85.5 337.5 M
84.736 335.149 L
82.736 333.696 L
80.264 333.696 L
78.264 335.149 L
77.5 337.5 L
78.264 339.851 L
80.264 341.304 L
82.736 341.304 L
84.736 339.851 L
85.5 337.5 L
S
GR
GS
[0.75 0 0 0.75 0 0] CT
0 0.447 0.741 RC
2 setlinecap
10.0 ML
N
88.5 337.5 M
87.736 335.149 L
85.736 333.696 L
83.264 333.696 L
81.264 335.149 L
80.5 337.5 L
81.264 339.851 L
83.264 341.304 L
85.736 341.304 L
87.736 339.851 L
88.5 337.5 L
S
GR
GS
[0.75 0 0 0.75 0 0] CT
0 0.447 0.741 RC
2 setlinecap
10.0 ML
N
91.5 318.5 M
90.736 316.149 L
88.736 314.696 L
86.264 314.696 L
84.264 316.149 L
83.5 318.5 L
84.264 320.851 L
86.264 322.304 L
88.736 322.304 L
90.736 320.851 L
91.5 318.5 L
S
GR
GS
[0.75 0 0 0.75 0 0] CT
0 0.447 0.741 RC
2 setlinecap
10.0 ML
N
94.5 288.5 M
93.736 286.149 L
91.736 284.696 L
89.264 284.696 L
87.264 286.149 L
86.5 288.5 L
87.264 290.851 L
89.264 292.304 L
91.736 292.304 L
93.736 290.851 L
94.5 288.5 L
S
GR
GS
[0.75 0 0 0.75 0 0] CT
0 0.447 0.741 RC
2 setlinecap
10.0 ML
N
97.5 326.5 M
96.736 324.149 L
94.736 322.696 L
92.264 322.696 L
90.264 324.149 L
89.5 326.5 L
90.264 328.851 L
92.264 330.304 L
94.736 330.304 L
96.736 328.851 L
97.5 326.5 L
S
GR
GS
[0.75 0 0 0.75 0 0] CT
0 0.447 0.741 RC
2 setlinecap
10.0 ML
N
100.5 342.5 M
99.736 340.149 L
97.736 338.696 L
95.264 338.696 L
93.264 340.149 L
92.5 342.5 L
93.264 344.851 L
95.264 346.304 L
97.736 346.304 L
99.736 344.851 L
100.5 342.5 L
S
GR
GS
[0.75 0 0 0.75 0 0] CT
0 0.447 0.741 RC
2 setlinecap
10.0 ML
N
103.5 325.5 M
102.736 323.149 L
100.736 321.696 L
98.264 321.696 L
96.264 323.149 L
95.5 325.5 L
96.264 327.851 L
98.264 329.304 L
100.736 329.304 L
102.736 327.851 L
103.5 325.5 L
S
GR
GS
[0.75 0 0 0.75 0 0] CT
0 0.447 0.741 RC
2 setlinecap
10.0 ML
N
106.5 327.5 M
105.736 325.149 L
103.736 323.696 L
101.264 323.696 L
99.264 325.149 L
98.5 327.5 L
99.264 329.851 L
101.264 331.304 L
103.736 331.304 L
105.736 329.851 L
106.5 327.5 L
S
GR
GS
[0.75 0 0 0.75 0 0] CT
0 0.447 0.741 RC
2 setlinecap
10.0 ML
N
110.5 358.5 M
109.736 356.149 L
107.736 354.696 L
105.264 354.696 L
103.264 356.149 L
102.5 358.5 L
103.264 360.851 L
105.264 362.304 L
107.736 362.304 L
109.736 360.851 L
110.5 358.5 L
S
GR
GS
[0.75 0 0 0.75 0 0] CT
0 0.447 0.741 RC
2 setlinecap
10.0 ML
N
113.5 347.5 M
112.736 345.149 L
110.736 343.696 L
108.264 343.696 L
106.264 345.149 L
105.5 347.5 L
106.264 349.851 L
108.264 351.304 L
110.736 351.304 L
112.736 349.851 L
113.5 347.5 L
S
GR
GS
[0.75 0 0 0.75 0 0] CT
0 0.447 0.741 RC
2 setlinecap
10.0 ML
N
116.5 371.5 M
115.736 369.149 L
113.736 367.696 L
111.264 367.696 L
109.264 369.149 L
108.5 371.5 L
109.264 373.851 L
111.264 375.304 L
113.736 375.304 L
115.736 373.851 L
116.5 371.5 L
S
GR
GS
[0.75 0 0 0.75 0 0] CT
0 0.447 0.741 RC
2 setlinecap
10.0 ML
N
119.5 354.5 M
118.736 352.149 L
116.736 350.696 L
114.264 350.696 L
112.264 352.149 L
111.5 354.5 L
112.264 356.851 L
114.264 358.304 L
116.736 358.304 L
118.736 356.851 L
119.5 354.5 L
S
GR
GS
[0.75 0 0 0.75 0 0] CT
0 0.447 0.741 RC
2 setlinecap
10.0 ML
N
122.5 327.5 M
121.736 325.149 L
119.736 323.696 L
117.264 323.696 L
115.264 325.149 L
114.5 327.5 L
115.264 329.851 L
117.264 331.304 L
119.736 331.304 L
121.736 329.851 L
122.5 327.5 L
S
GR
GS
[0.75 0 0 0.75 0 0] CT
0 0.447 0.741 RC
2 setlinecap
10.0 ML
N
125.5 318.5 M
124.736 316.149 L
122.736 314.696 L
120.264 314.696 L
118.264 316.149 L
117.5 318.5 L
118.264 320.851 L
120.264 322.304 L
122.736 322.304 L
124.736 320.851 L
125.5 318.5 L
S
GR
GS
[0.75 0 0 0.75 0 0] CT
0 0.447 0.741 RC
2 setlinecap
10.0 ML
N
128.5 357.5 M
127.736 355.149 L
125.736 353.696 L
123.264 353.696 L
121.264 355.149 L
120.5 357.5 L
121.264 359.851 L
123.264 361.304 L
125.736 361.304 L
127.736 359.851 L
128.5 357.5 L
S
GR
GS
[0.75 0 0 0.75 0 0] CT
0 0.447 0.741 RC
2 setlinecap
10.0 ML
N
131.5 349.5 M
130.736 347.149 L
128.736 345.696 L
126.264 345.696 L
124.264 347.149 L
123.5 349.5 L
124.264 351.851 L
126.264 353.304 L
128.736 353.304 L
130.736 351.851 L
131.5 349.5 L
S
GR
GS
[0.75 0 0 0.75 0 0] CT
0 0.447 0.741 RC
2 setlinecap
10.0 ML
N
134.5 353.5 M
133.736 351.149 L
131.736 349.696 L
129.264 349.696 L
127.264 351.149 L
126.5 353.5 L
127.264 355.851 L
129.264 357.304 L
131.736 357.304 L
133.736 355.851 L
134.5 353.5 L
S
GR
GS
[0.75 0 0 0.75 0 0] CT
0 0.447 0.741 RC
2 setlinecap
10.0 ML
N
137.5 358.5 M
136.736 356.149 L
134.736 354.696 L
132.264 354.696 L
130.264 356.149 L
129.5 358.5 L
130.264 360.851 L
132.264 362.304 L
134.736 362.304 L
136.736 360.851 L
137.5 358.5 L
S
GR
GS
[0.75 0 0 0.75 0 0] CT
0 0.447 0.741 RC
2 setlinecap
10.0 ML
N
140.5 361.5 M
139.736 359.149 L
137.736 357.696 L
135.264 357.696 L
133.264 359.149 L
132.5 361.5 L
133.264 363.851 L
135.264 365.304 L
137.736 365.304 L
139.736 363.851 L
140.5 361.5 L
S
GR
GS
[0.75 0 0 0.75 0 0] CT
0 0.447 0.741 RC
2 setlinecap
10.0 ML
N
143.5 331.5 M
142.736 329.149 L
140.736 327.696 L
138.264 327.696 L
136.264 329.149 L
135.5 331.5 L
136.264 333.851 L
138.264 335.304 L
140.736 335.304 L
142.736 333.851 L
143.5 331.5 L
S
GR
GS
[0.75 0 0 0.75 0 0] CT
0 0.447 0.741 RC
2 setlinecap
10.0 ML
N
146.5 352.5 M
145.736 350.149 L
143.736 348.696 L
141.264 348.696 L
139.264 350.149 L
138.5 352.5 L
139.264 354.851 L
141.264 356.304 L
143.736 356.304 L
145.736 354.851 L
146.5 352.5 L
S
GR
GS
[0.75 0 0 0.75 0 0] CT
0 0.447 0.741 RC
2 setlinecap
10.0 ML
N
149.5 358.5 M
148.736 356.149 L
146.736 354.696 L
144.264 354.696 L
142.264 356.149 L
141.5 358.5 L
142.264 360.851 L
144.264 362.304 L
146.736 362.304 L
148.736 360.851 L
149.5 358.5 L
S
GR
GS
[0.75 0 0 0.75 0 0] CT
0 0.447 0.741 RC
2 setlinecap
10.0 ML
N
153.5 339.5 M
152.736 337.149 L
150.736 335.696 L
148.264 335.696 L
146.264 337.149 L
145.5 339.5 L
146.264 341.851 L
148.264 343.304 L
150.736 343.304 L
152.736 341.851 L
153.5 339.5 L
S
GR
GS
[0.75 0 0 0.75 0 0] CT
0 0.447 0.741 RC
2 setlinecap
10.0 ML
N
156.5 360.5 M
155.736 358.149 L
153.736 356.696 L
151.264 356.696 L
149.264 358.149 L
148.5 360.5 L
149.264 362.851 L
151.264 364.304 L
153.736 364.304 L
155.736 362.851 L
156.5 360.5 L
S
GR
GS
[0.75 0 0 0.75 0 0] CT
0 0.447 0.741 RC
2 setlinecap
10.0 ML
N
159.5 355.5 M
158.736 353.149 L
156.736 351.696 L
154.264 351.696 L
152.264 353.149 L
151.5 355.5 L
152.264 357.851 L
154.264 359.304 L
156.736 359.304 L
158.736 357.851 L
159.5 355.5 L
S
GR
GS
[0.75 0 0 0.75 0 0] CT
0 0.447 0.741 RC
2 setlinecap
10.0 ML
N
162.5 356.5 M
161.736 354.149 L
159.736 352.696 L
157.264 352.696 L
155.264 354.149 L
154.5 356.5 L
155.264 358.851 L
157.264 360.304 L
159.736 360.304 L
161.736 358.851 L
162.5 356.5 L
S
GR
GS
[0.75 0 0 0.75 0 0] CT
0 0.447 0.741 RC
2 setlinecap
10.0 ML
N
165.5 367.5 M
164.736 365.149 L
162.736 363.696 L
160.264 363.696 L
158.264 365.149 L
157.5 367.5 L
158.264 369.851 L
160.264 371.304 L
162.736 371.304 L
164.736 369.851 L
165.5 367.5 L
S
GR
GS
[0.75 0 0 0.75 0 0] CT
0 0.447 0.741 RC
2 setlinecap
10.0 ML
N
168.5 340.5 M
167.736 338.149 L
165.736 336.696 L
163.264 336.696 L
161.264 338.149 L
160.5 340.5 L
161.264 342.851 L
163.264 344.304 L
165.736 344.304 L
167.736 342.851 L
168.5 340.5 L
S
GR
GS
[0.75 0 0 0.75 0 0] CT
0 0.447 0.741 RC
2 setlinecap
10.0 ML
N
171.5 345.5 M
170.736 343.149 L
168.736 341.696 L
166.264 341.696 L
164.264 343.149 L
163.5 345.5 L
164.264 347.851 L
166.264 349.304 L
168.736 349.304 L
170.736 347.851 L
171.5 345.5 L
S
GR
GS
[0.75 0 0 0.75 0 0] CT
0 0.447 0.741 RC
2 setlinecap
10.0 ML
N
174.5 352.5 M
173.736 350.149 L
171.736 348.696 L
169.264 348.696 L
167.264 350.149 L
166.5 352.5 L
167.264 354.851 L
169.264 356.304 L
171.736 356.304 L
173.736 354.851 L
174.5 352.5 L
S
GR
GS
[0.75 0 0 0.75 0 0] CT
0 0.447 0.741 RC
2 setlinecap
10.0 ML
N
177.5 339.5 M
176.736 337.149 L
174.736 335.696 L
172.264 335.696 L
170.264 337.149 L
169.5 339.5 L
170.264 341.851 L
172.264 343.304 L
174.736 343.304 L
176.736 341.851 L
177.5 339.5 L
S
GR
GS
[0.75 0 0 0.75 0 0] CT
0 0.447 0.741 RC
2 setlinecap
10.0 ML
N
180.5 349.5 M
179.736 347.149 L
177.736 345.696 L
175.264 345.696 L
173.264 347.149 L
172.5 349.5 L
173.264 351.851 L
175.264 353.304 L
177.736 353.304 L
179.736 351.851 L
180.5 349.5 L
S
GR
GS
[0.75 0 0 0.75 0 0] CT
0 0.447 0.741 RC
2 setlinecap
10.0 ML
N
183.5 344.5 M
182.736 342.149 L
180.736 340.696 L
178.264 340.696 L
176.264 342.149 L
175.5 344.5 L
176.264 346.851 L
178.264 348.304 L
180.736 348.304 L
182.736 346.851 L
183.5 344.5 L
S
GR
GS
[0.75 0 0 0.75 0 0] CT
0 0.447 0.741 RC
2 setlinecap
10.0 ML
N
186.5 369.5 M
185.736 367.149 L
183.736 365.696 L
181.264 365.696 L
179.264 367.149 L
178.5 369.5 L
179.264 371.851 L
181.264 373.304 L
183.736 373.304 L
185.736 371.851 L
186.5 369.5 L
S
GR
GS
[0.75 0 0 0.75 0 0] CT
0 0.447 0.741 RC
2 setlinecap
10.0 ML
N
189.5 358.5 M
188.736 356.149 L
186.736 354.696 L
184.264 354.696 L
182.264 356.149 L
181.5 358.5 L
182.264 360.851 L
184.264 362.304 L
186.736 362.304 L
188.736 360.851 L
189.5 358.5 L
S
GR
GS
[0.75 0 0 0.75 0 0] CT
0 0.447 0.741 RC
2 setlinecap
10.0 ML
N
192.5 356.5 M
191.736 354.149 L
189.736 352.696 L
187.264 352.696 L
185.264 354.149 L
184.5 356.5 L
185.264 358.851 L
187.264 360.304 L
189.736 360.304 L
191.736 358.851 L
192.5 356.5 L
S
GR
GS
[0.75 0 0 0.75 0 0] CT
0 0.447 0.741 RC
2 setlinecap
10.0 ML
N
196.5 354.5 M
195.736 352.149 L
193.736 350.696 L
191.264 350.696 L
189.264 352.149 L
188.5 354.5 L
189.264 356.851 L
191.264 358.304 L
193.736 358.304 L
195.736 356.851 L
196.5 354.5 L
S
GR
GS
[0.75 0 0 0.75 0 0] CT
0 0.447 0.741 RC
2 setlinecap
10.0 ML
N
199.5 356.5 M
198.736 354.149 L
196.736 352.696 L
194.264 352.696 L
192.264 354.149 L
191.5 356.5 L
192.264 358.851 L
194.264 360.304 L
196.736 360.304 L
198.736 358.851 L
199.5 356.5 L
S
GR
GS
[0.75 0 0 0.75 0 0] CT
0 0.447 0.741 RC
2 setlinecap
10.0 ML
N
202.5 361.5 M
201.736 359.149 L
199.736 357.696 L
197.264 357.696 L
195.264 359.149 L
194.5 361.5 L
195.264 363.851 L
197.264 365.304 L
199.736 365.304 L
201.736 363.851 L
202.5 361.5 L
S
GR
GS
[0.75 0 0 0.75 0 0] CT
0 0.447 0.741 RC
2 setlinecap
10.0 ML
N
205.5 345.5 M
204.736 343.149 L
202.736 341.696 L
200.264 341.696 L
198.264 343.149 L
197.5 345.5 L
198.264 347.851 L
200.264 349.304 L
202.736 349.304 L
204.736 347.851 L
205.5 345.5 L
S
GR
GS
[0.75 0 0 0.75 0 0] CT
0 0.447 0.741 RC
2 setlinecap
10.0 ML
N
208.5 349.5 M
207.736 347.149 L
205.736 345.696 L
203.264 345.696 L
201.264 347.149 L
200.5 349.5 L
201.264 351.851 L
203.264 353.304 L
205.736 353.304 L
207.736 351.851 L
208.5 349.5 L
S
GR
GS
[0.75 0 0 0.75 0 0] CT
0 0.447 0.741 RC
2 setlinecap
10.0 ML
N
211.5 364.5 M
210.736 362.149 L
208.736 360.696 L
206.264 360.696 L
204.264 362.149 L
203.5 364.5 L
204.264 366.851 L
206.264 368.304 L
208.736 368.304 L
210.736 366.851 L
211.5 364.5 L
S
GR
GS
[0.75 0 0 0.75 0 0] CT
0 0.447 0.741 RC
2 setlinecap
10.0 ML
N
214.5 358.5 M
213.736 356.149 L
211.736 354.696 L
209.264 354.696 L
207.264 356.149 L
206.5 358.5 L
207.264 360.851 L
209.264 362.304 L
211.736 362.304 L
213.736 360.851 L
214.5 358.5 L
S
GR
GS
[0.75 0 0 0.75 0 0] CT
0 0.447 0.741 RC
2 setlinecap
10.0 ML
N
217.5 338.5 M
216.736 336.149 L
214.736 334.696 L
212.264 334.696 L
210.264 336.149 L
209.5 338.5 L
210.264 340.851 L
212.264 342.304 L
214.736 342.304 L
216.736 340.851 L
217.5 338.5 L
S
GR
GS
[0.75 0 0 0.75 0 0] CT
0 0.447 0.741 RC
2 setlinecap
10.0 ML
N
220.5 357.5 M
219.736 355.149 L
217.736 353.696 L
215.264 353.696 L
213.264 355.149 L
212.5 357.5 L
213.264 359.851 L
215.264 361.304 L
217.736 361.304 L
219.736 359.851 L
220.5 357.5 L
S
GR
GS
[0.75 0 0 0.75 0 0] CT
0 0.447 0.741 RC
2 setlinecap
10.0 ML
N
223.5 354.5 M
222.736 352.149 L
220.736 350.696 L
218.264 350.696 L
216.264 352.149 L
215.5 354.5 L
216.264 356.851 L
218.264 358.304 L
220.736 358.304 L
222.736 356.851 L
223.5 354.5 L
S
GR
GS
[0.75 0 0 0.75 0 0] CT
0 0.447 0.741 RC
2 setlinecap
10.0 ML
N
226.5 348.5 M
225.736 346.149 L
223.736 344.696 L
221.264 344.696 L
219.264 346.149 L
218.5 348.5 L
219.264 350.851 L
221.264 352.304 L
223.736 352.304 L
225.736 350.851 L
226.5 348.5 L
S
GR
GS
[0.75 0 0 0.75 0 0] CT
0 0.447 0.741 RC
2 setlinecap
10.0 ML
N
229.5 360.5 M
228.736 358.149 L
226.736 356.696 L
224.264 356.696 L
222.264 358.149 L
221.5 360.5 L
222.264 362.851 L
224.264 364.304 L
226.736 364.304 L
228.736 362.851 L
229.5 360.5 L
S
GR
GS
[0.75 0 0 0.75 0 0] CT
0 0.447 0.741 RC
2 setlinecap
10.0 ML
N
232.5 353.5 M
231.736 351.149 L
229.736 349.696 L
227.264 349.696 L
225.264 351.149 L
224.5 353.5 L
225.264 355.851 L
227.264 357.304 L
229.736 357.304 L
231.736 355.851 L
232.5 353.5 L
S
GR
GS
[0.75 0 0 0.75 0 0] CT
0 0.447 0.741 RC
2 setlinecap
10.0 ML
N
236.5 361.5 M
235.736 359.149 L
233.736 357.696 L
231.264 357.696 L
229.264 359.149 L
228.5 361.5 L
229.264 363.851 L
231.264 365.304 L
233.736 365.304 L
235.736 363.851 L
236.5 361.5 L
S
GR
GS
[0.75 0 0 0.75 0 0] CT
0 0.447 0.741 RC
2 setlinecap
10.0 ML
N
239.5 351.5 M
238.736 349.149 L
236.736 347.696 L
234.264 347.696 L
232.264 349.149 L
231.5 351.5 L
232.264 353.851 L
234.264 355.304 L
236.736 355.304 L
238.736 353.851 L
239.5 351.5 L
S
GR
GS
[0.75 0 0 0.75 0 0] CT
0 0.447 0.741 RC
2 setlinecap
10.0 ML
N
242.5 368.5 M
241.736 366.149 L
239.736 364.696 L
237.264 364.696 L
235.264 366.149 L
234.5 368.5 L
235.264 370.851 L
237.264 372.304 L
239.736 372.304 L
241.736 370.851 L
242.5 368.5 L
S
GR
GS
[0.75 0 0 0.75 0 0] CT
0 0.447 0.741 RC
2 setlinecap
10.0 ML
N
245.5 369.5 M
244.736 367.149 L
242.736 365.696 L
240.264 365.696 L
238.264 367.149 L
237.5 369.5 L
238.264 371.851 L
240.264 373.304 L
242.736 373.304 L
244.736 371.851 L
245.5 369.5 L
S
GR
GS
[0.75 0 0 0.75 0 0] CT
0 0.447 0.741 RC
2 setlinecap
10.0 ML
N
248.5 358.5 M
247.736 356.149 L
245.736 354.696 L
243.264 354.696 L
241.264 356.149 L
240.5 358.5 L
241.264 360.851 L
243.264 362.304 L
245.736 362.304 L
247.736 360.851 L
248.5 358.5 L
S
GR
GS
[0.75 0 0 0.75 0 0] CT
0 0.447 0.741 RC
2 setlinecap
10.0 ML
N
251.5 343.5 M
250.736 341.149 L
248.736 339.696 L
246.264 339.696 L
244.264 341.149 L
243.5 343.5 L
244.264 345.851 L
246.264 347.304 L
248.736 347.304 L
250.736 345.851 L
251.5 343.5 L
S
GR
GS
[0.75 0 0 0.75 0 0] CT
0 0.447 0.741 RC
2 setlinecap
10.0 ML
N
254.5 361.5 M
253.736 359.149 L
251.736 357.696 L
249.264 357.696 L
247.264 359.149 L
246.5 361.5 L
247.264 363.851 L
249.264 365.304 L
251.736 365.304 L
253.736 363.851 L
254.5 361.5 L
S
GR
GS
[0.75 0 0 0.75 0 0] CT
0 0.447 0.741 RC
2 setlinecap
10.0 ML
N
257.5 366.5 M
256.736 364.149 L
254.736 362.696 L
252.264 362.696 L
250.264 364.149 L
249.5 366.5 L
250.264 368.851 L
252.264 370.304 L
254.736 370.304 L
256.736 368.851 L
257.5 366.5 L
S
GR
GS
[0.75 0 0 0.75 0 0] CT
0 0.447 0.741 RC
2 setlinecap
10.0 ML
N
260.5 355.5 M
259.736 353.149 L
257.736 351.696 L
255.264 351.696 L
253.264 353.149 L
252.5 355.5 L
253.264 357.851 L
255.264 359.304 L
257.736 359.304 L
259.736 357.851 L
260.5 355.5 L
S
GR
GS
[0.75 0 0 0.75 0 0] CT
0 0.447 0.741 RC
2 setlinecap
10.0 ML
N
263.5 352.5 M
262.736 350.149 L
260.736 348.696 L
258.264 348.696 L
256.264 350.149 L
255.5 352.5 L
256.264 354.851 L
258.264 356.304 L
260.736 356.304 L
262.736 354.851 L
263.5 352.5 L
S
GR
GS
[0.75 0 0 0.75 0 0] CT
0 0.447 0.741 RC
2 setlinecap
10.0 ML
N
266.5 356.5 M
265.736 354.149 L
263.736 352.696 L
261.264 352.696 L
259.264 354.149 L
258.5 356.5 L
259.264 358.851 L
261.264 360.304 L
263.736 360.304 L
265.736 358.851 L
266.5 356.5 L
S
GR
GS
[0.75 0 0 0.75 0 0] CT
0 0.447 0.741 RC
2 setlinecap
10.0 ML
N
269.5 363.5 M
268.736 361.149 L
266.736 359.696 L
264.264 359.696 L
262.264 361.149 L
261.5 363.5 L
262.264 365.851 L
264.264 367.304 L
266.736 367.304 L
268.736 365.851 L
269.5 363.5 L
S
GR
GS
[0.75 0 0 0.75 0 0] CT
0 0.447 0.741 RC
2 setlinecap
10.0 ML
N
272.5 363.5 M
271.736 361.149 L
269.736 359.696 L
267.264 359.696 L
265.264 361.149 L
264.5 363.5 L
265.264 365.851 L
267.264 367.304 L
269.736 367.304 L
271.736 365.851 L
272.5 363.5 L
S
GR
GS
[0.75 0 0 0.75 0 0] CT
0 0.447 0.741 RC
2 setlinecap
10.0 ML
N
275.5 363.5 M
274.736 361.149 L
272.736 359.696 L
270.264 359.696 L
268.264 361.149 L
267.5 363.5 L
268.264 365.851 L
270.264 367.304 L
272.736 367.304 L
274.736 365.851 L
275.5 363.5 L
S
GR
GS
[0.75 0 0 0.75 0 0] CT
0 0.447 0.741 RC
2 setlinecap
10.0 ML
N
279.5 360.5 M
278.736 358.149 L
276.736 356.696 L
274.264 356.696 L
272.264 358.149 L
271.5 360.5 L
272.264 362.851 L
274.264 364.304 L
276.736 364.304 L
278.736 362.851 L
279.5 360.5 L
S
GR
GS
[0.75 0 0 0.75 0 0] CT
0 0.447 0.741 RC
2 setlinecap
10.0 ML
N
282.5 357.5 M
281.736 355.149 L
279.736 353.696 L
277.264 353.696 L
275.264 355.149 L
274.5 357.5 L
275.264 359.851 L
277.264 361.304 L
279.736 361.304 L
281.736 359.851 L
282.5 357.5 L
S
GR
GS
[0.75 0 0 0.75 0 0] CT
0 0.447 0.741 RC
2 setlinecap
10.0 ML
N
285.5 343.5 M
284.736 341.149 L
282.736 339.696 L
280.264 339.696 L
278.264 341.149 L
277.5 343.5 L
278.264 345.851 L
280.264 347.304 L
282.736 347.304 L
284.736 345.851 L
285.5 343.5 L
S
GR
GS
[0.75 0 0 0.75 0 0] CT
0 0.447 0.741 RC
2 setlinecap
10.0 ML
N
288.5 344.5 M
287.736 342.149 L
285.736 340.696 L
283.264 340.696 L
281.264 342.149 L
280.5 344.5 L
281.264 346.851 L
283.264 348.304 L
285.736 348.304 L
287.736 346.851 L
288.5 344.5 L
S
GR
GS
[0.75 0 0 0.75 0 0] CT
0 0.447 0.741 RC
2 setlinecap
10.0 ML
N
291.5 369.5 M
290.736 367.149 L
288.736 365.696 L
286.264 365.696 L
284.264 367.149 L
283.5 369.5 L
284.264 371.851 L
286.264 373.304 L
288.736 373.304 L
290.736 371.851 L
291.5 369.5 L
S
GR
GS
[0.75 0 0 0.75 0 0] CT
0 0.447 0.741 RC
2 setlinecap
10.0 ML
N
294.5 366.5 M
293.736 364.149 L
291.736 362.696 L
289.264 362.696 L
287.264 364.149 L
286.5 366.5 L
287.264 368.851 L
289.264 370.304 L
291.736 370.304 L
293.736 368.851 L
294.5 366.5 L
S
GR
GS
[0.75 0 0 0.75 0 0] CT
0 0.447 0.741 RC
2 setlinecap
10.0 ML
N
297.5 355.5 M
296.736 353.149 L
294.736 351.696 L
292.264 351.696 L
290.264 353.149 L
289.5 355.5 L
290.264 357.851 L
292.264 359.304 L
294.736 359.304 L
296.736 357.851 L
297.5 355.5 L
S
GR
GS
[0.75 0 0 0.75 0 0] CT
0 0.447 0.741 RC
2 setlinecap
10.0 ML
N
300.5 368.5 M
299.736 366.149 L
297.736 364.696 L
295.264 364.696 L
293.264 366.149 L
292.5 368.5 L
293.264 370.851 L
295.264 372.304 L
297.736 372.304 L
299.736 370.851 L
300.5 368.5 L
S
GR
GS
[0.75 0 0 0.75 0 0] CT
0 0.447 0.741 RC
2 setlinecap
10.0 ML
N
303.5 353.5 M
302.736 351.149 L
300.736 349.696 L
298.264 349.696 L
296.264 351.149 L
295.5 353.5 L
296.264 355.851 L
298.264 357.304 L
300.736 357.304 L
302.736 355.851 L
303.5 353.5 L
S
GR
GS
[0.75 0 0 0.75 0 0] CT
0 0.447 0.741 RC
2 setlinecap
10.0 ML
N
306.5 352.5 M
305.736 350.149 L
303.736 348.696 L
301.264 348.696 L
299.264 350.149 L
298.5 352.5 L
299.264 354.851 L
301.264 356.304 L
303.736 356.304 L
305.736 354.851 L
306.5 352.5 L
S
GR
GS
[0.75 0 0 0.75 0 0] CT
0 0.447 0.741 RC
2 setlinecap
10.0 ML
N
309.5 355.5 M
308.736 353.149 L
306.736 351.696 L
304.264 351.696 L
302.264 353.149 L
301.5 355.5 L
302.264 357.851 L
304.264 359.304 L
306.736 359.304 L
308.736 357.851 L
309.5 355.5 L
S
GR
GS
[0.75 0 0 0.75 0 0] CT
0 0.447 0.741 RC
2 setlinecap
10.0 ML
N
312.5 350.5 M
311.736 348.149 L
309.736 346.696 L
307.264 346.696 L
305.264 348.149 L
304.5 350.5 L
305.264 352.851 L
307.264 354.304 L
309.736 354.304 L
311.736 352.851 L
312.5 350.5 L
S
GR
GS
[0.75 0 0 0.75 0 0] CT
0 0.447 0.741 RC
2 setlinecap
10.0 ML
N
315.5 351.5 M
314.736 349.149 L
312.736 347.696 L
310.264 347.696 L
308.264 349.149 L
307.5 351.5 L
308.264 353.851 L
310.264 355.304 L
312.736 355.304 L
314.736 353.851 L
315.5 351.5 L
S
GR
GS
[0.75 0 0 0.75 0 0] CT
0 0.447 0.741 RC
2 setlinecap
10.0 ML
N
318.5 360.5 M
317.736 358.149 L
315.736 356.696 L
313.264 356.696 L
311.264 358.149 L
310.5 360.5 L
311.264 362.851 L
313.264 364.304 L
315.736 364.304 L
317.736 362.851 L
318.5 360.5 L
S
GR
GS
[0.75 0 0 0.75 0 0] CT
0 0.447 0.741 RC
2 setlinecap
10.0 ML
N
322.5 354.5 M
321.736 352.149 L
319.736 350.696 L
317.264 350.696 L
315.264 352.149 L
314.5 354.5 L
315.264 356.851 L
317.264 358.304 L
319.736 358.304 L
321.736 356.851 L
322.5 354.5 L
S
GR
GS
[0.75 0 0 0.75 0 0] CT
0 0.447 0.741 RC
2 setlinecap
10.0 ML
N
325.5 359.5 M
324.736 357.149 L
322.736 355.696 L
320.264 355.696 L
318.264 357.149 L
317.5 359.5 L
318.264 361.851 L
320.264 363.304 L
322.736 363.304 L
324.736 361.851 L
325.5 359.5 L
S
GR
GS
[0.75 0 0 0.75 0 0] CT
0 0.447 0.741 RC
2 setlinecap
10.0 ML
N
328.5 342.5 M
327.736 340.149 L
325.736 338.696 L
323.264 338.696 L
321.264 340.149 L
320.5 342.5 L
321.264 344.851 L
323.264 346.304 L
325.736 346.304 L
327.736 344.851 L
328.5 342.5 L
S
GR
GS
[0.75 0 0 0.75 0 0] CT
0 0.447 0.741 RC
2 setlinecap
10.0 ML
N
331.5 329.5 M
330.736 327.149 L
328.736 325.696 L
326.264 325.696 L
324.264 327.149 L
323.5 329.5 L
324.264 331.851 L
326.264 333.304 L
328.736 333.304 L
330.736 331.851 L
331.5 329.5 L
S
GR
GS
[0.75 0 0 0.75 0 0] CT
0 0.447 0.741 RC
2 setlinecap
10.0 ML
N
334.5 328.5 M
333.736 326.149 L
331.736 324.696 L
329.264 324.696 L
327.264 326.149 L
326.5 328.5 L
327.264 330.851 L
329.264 332.304 L
331.736 332.304 L
333.736 330.851 L
334.5 328.5 L
S
GR
GS
[0.75 0 0 0.75 0 0] CT
0 0.447 0.741 RC
2 setlinecap
10.0 ML
N
337.5 313.5 M
336.736 311.149 L
334.736 309.696 L
332.264 309.696 L
330.264 311.149 L
329.5 313.5 L
330.264 315.851 L
332.264 317.304 L
334.736 317.304 L
336.736 315.851 L
337.5 313.5 L
S
GR
GS
[0.75 0 0 0.75 0 0] CT
0 0.447 0.741 RC
2 setlinecap
10.0 ML
N
340.5 333.5 M
339.736 331.149 L
337.736 329.696 L
335.264 329.696 L
333.264 331.149 L
332.5 333.5 L
333.264 335.851 L
335.264 337.304 L
337.736 337.304 L
339.736 335.851 L
340.5 333.5 L
S
GR
GS
[0.75 0 0 0.75 0 0] CT
0 0.447 0.741 RC
2 setlinecap
10.0 ML
N
343.5 338.5 M
342.736 336.149 L
340.736 334.696 L
338.264 334.696 L
336.264 336.149 L
335.5 338.5 L
336.264 340.851 L
338.264 342.304 L
340.736 342.304 L
342.736 340.851 L
343.5 338.5 L
S
GR
GS
[0.75 0 0 0.75 0 0] CT
0 0.447 0.741 RC
2 setlinecap
10.0 ML
N
346.5 349.5 M
345.736 347.149 L
343.736 345.696 L
341.264 345.696 L
339.264 347.149 L
338.5 349.5 L
339.264 351.851 L
341.264 353.304 L
343.736 353.304 L
345.736 351.851 L
346.5 349.5 L
S
GR
GS
[0.75 0 0 0.75 0 0] CT
0 0.447 0.741 RC
2 setlinecap
10.0 ML
N
349.5 359.5 M
348.736 357.149 L
346.736 355.696 L
344.264 355.696 L
342.264 357.149 L
341.5 359.5 L
342.264 361.851 L
344.264 363.304 L
346.736 363.304 L
348.736 361.851 L
349.5 359.5 L
S
GR
GS
[0.75 0 0 0.75 0 0] CT
0 0.447 0.741 RC
2 setlinecap
10.0 ML
N
352.5 348.5 M
351.736 346.149 L
349.736 344.696 L
347.264 344.696 L
345.264 346.149 L
344.5 348.5 L
345.264 350.851 L
347.264 352.304 L
349.736 352.304 L
351.736 350.851 L
352.5 348.5 L
S
GR
GS
[0.75 0 0 0.75 0 0] CT
0 0.447 0.741 RC
2 setlinecap
10.0 ML
N
355.5 349.5 M
354.736 347.149 L
352.736 345.696 L
350.264 345.696 L
348.264 347.149 L
347.5 349.5 L
348.264 351.851 L
350.264 353.304 L
352.736 353.304 L
354.736 351.851 L
355.5 349.5 L
S
GR
GS
[0.75 0 0 0.75 0 0] CT
0 0.447 0.741 RC
2 setlinecap
10.0 ML
N
358.5 355.5 M
357.736 353.149 L
355.736 351.696 L
353.264 351.696 L
351.264 353.149 L
350.5 355.5 L
351.264 357.851 L
353.264 359.304 L
355.736 359.304 L
357.736 357.851 L
358.5 355.5 L
S
GR
GS
[0.75 0 0 0.75 0 0] CT
0 0.447 0.741 RC
2 setlinecap
10.0 ML
N
361.5 359.5 M
360.736 357.149 L
358.736 355.696 L
356.264 355.696 L
354.264 357.149 L
353.5 359.5 L
354.264 361.851 L
356.264 363.304 L
358.736 363.304 L
360.736 361.851 L
361.5 359.5 L
S
GR
GS
[0.75 0 0 0.75 0 0] CT
0 0.447 0.741 RC
2 setlinecap
10.0 ML
N
365.5 354.5 M
364.736 352.149 L
362.736 350.696 L
360.264 350.696 L
358.264 352.149 L
357.5 354.5 L
358.264 356.851 L
360.264 358.304 L
362.736 358.304 L
364.736 356.851 L
365.5 354.5 L
S
GR
GS
[0.75 0 0 0.75 0 0] CT
0 0.447 0.741 RC
2 setlinecap
10.0 ML
N
368.5 358.5 M
367.736 356.149 L
365.736 354.696 L
363.264 354.696 L
361.264 356.149 L
360.5 358.5 L
361.264 360.851 L
363.264 362.304 L
365.736 362.304 L
367.736 360.851 L
368.5 358.5 L
S
GR
GS
[0.75 0 0 0.75 0 0] CT
0 0.447 0.741 RC
2 setlinecap
10.0 ML
N
371.5 368.5 M
370.736 366.149 L
368.736 364.696 L
366.264 364.696 L
364.264 366.149 L
363.5 368.5 L
364.264 370.851 L
366.264 372.304 L
368.736 372.304 L
370.736 370.851 L
371.5 368.5 L
S
GR
GS
[0.75 0 0 0.75 0 0] CT
0 0.447 0.741 RC
2 setlinecap
10.0 ML
N
374.5 360.5 M
373.736 358.149 L
371.736 356.696 L
369.264 356.696 L
367.264 358.149 L
366.5 360.5 L
367.264 362.851 L
369.264 364.304 L
371.736 364.304 L
373.736 362.851 L
374.5 360.5 L
S
GR
GS
[0.75 0 0 0.75 0 0] CT
0 0.447 0.741 RC
2 setlinecap
10.0 ML
N
377.5 358.5 M
376.736 356.149 L
374.736 354.696 L
372.264 354.696 L
370.264 356.149 L
369.5 358.5 L
370.264 360.851 L
372.264 362.304 L
374.736 362.304 L
376.736 360.851 L
377.5 358.5 L
S
GR
GS
[0.75 0 0 0.75 0 0] CT
0 0.447 0.741 RC
2 setlinecap
10.0 ML
N
380.5 349.5 M
379.736 347.149 L
377.736 345.696 L
375.264 345.696 L
373.264 347.149 L
372.5 349.5 L
373.264 351.851 L
375.264 353.304 L
377.736 353.304 L
379.736 351.851 L
380.5 349.5 L
S
GR
GS
[0.75 0 0 0.75 0 0] CT
0 0.447 0.741 RC
2 setlinecap
10.0 ML
N
383.5 364.5 M
382.736 362.149 L
380.736 360.696 L
378.264 360.696 L
376.264 362.149 L
375.5 364.5 L
376.264 366.851 L
378.264 368.304 L
380.736 368.304 L
382.736 366.851 L
383.5 364.5 L
S
GR
GS
[0.75 0 0 0.75 0 0] CT
0 0.447 0.741 RC
2 setlinecap
10.0 ML
N
386.5 368.5 M
385.736 366.149 L
383.736 364.696 L
381.264 364.696 L
379.264 366.149 L
378.5 368.5 L
379.264 370.851 L
381.264 372.304 L
383.736 372.304 L
385.736 370.851 L
386.5 368.5 L
S
GR
GS
[0.75 0 0 0.75 0 0] CT
0 0.447 0.741 RC
2 setlinecap
10.0 ML
N
389.5 369.5 M
388.736 367.149 L
386.736 365.696 L
384.264 365.696 L
382.264 367.149 L
381.5 369.5 L
382.264 371.851 L
384.264 373.304 L
386.736 373.304 L
388.736 371.851 L
389.5 369.5 L
S
GR
GS
[0.75 0 0 0.75 0 0] CT
0 0.447 0.741 RC
2 setlinecap
10.0 ML
N
392.5 362.5 M
391.736 360.149 L
389.736 358.696 L
387.264 358.696 L
385.264 360.149 L
384.5 362.5 L
385.264 364.851 L
387.264 366.304 L
389.736 366.304 L
391.736 364.851 L
392.5 362.5 L
S
GR
GS
[0.75 0 0 0.75 0 0] CT
0 0.447 0.741 RC
2 setlinecap
10.0 ML
N
395.5 363.5 M
394.736 361.149 L
392.736 359.696 L
390.264 359.696 L
388.264 361.149 L
387.5 363.5 L
388.264 365.851 L
390.264 367.304 L
392.736 367.304 L
394.736 365.851 L
395.5 363.5 L
S
GR
GS
[0.75 0 0 0.75 0 0] CT
0 0.447 0.741 RC
2 setlinecap
10.0 ML
N
398.5 356.5 M
397.736 354.149 L
395.736 352.696 L
393.264 352.696 L
391.264 354.149 L
390.5 356.5 L
391.264 358.851 L
393.264 360.304 L
395.736 360.304 L
397.736 358.851 L
398.5 356.5 L
S
GR
GS
[0.75 0 0 0.75 0 0] CT
0 0.447 0.741 RC
2 setlinecap
10.0 ML
N
401.5 353.5 M
400.736 351.149 L
398.736 349.696 L
396.264 349.696 L
394.264 351.149 L
393.5 353.5 L
394.264 355.851 L
396.264 357.304 L
398.736 357.304 L
400.736 355.851 L
401.5 353.5 L
S
GR
GS
[0.75 0 0 0.75 0 0] CT
0 0.447 0.741 RC
2 setlinecap
10.0 ML
N
404.5 363.5 M
403.736 361.149 L
401.736 359.696 L
399.264 359.696 L
397.264 361.149 L
396.5 363.5 L
397.264 365.851 L
399.264 367.304 L
401.736 367.304 L
403.736 365.851 L
404.5 363.5 L
S
GR
GS
[0.75 0 0 0.75 0 0] CT
0 0.447 0.741 RC
2 setlinecap
10.0 ML
N
408.5 368.5 M
407.736 366.149 L
405.736 364.696 L
403.264 364.696 L
401.264 366.149 L
400.5 368.5 L
401.264 370.851 L
403.264 372.304 L
405.736 372.304 L
407.736 370.851 L
408.5 368.5 L
S
GR
GS
[0.75 0 0 0.75 0 0] CT
0 0.447 0.741 RC
2 setlinecap
10.0 ML
N
411.5 364.5 M
410.736 362.149 L
408.736 360.696 L
406.264 360.696 L
404.264 362.149 L
403.5 364.5 L
404.264 366.851 L
406.264 368.304 L
408.736 368.304 L
410.736 366.851 L
411.5 364.5 L
S
GR
GS
[0.75 0 0 0.75 0 0] CT
0 0.447 0.741 RC
2 setlinecap
10.0 ML
N
414.5 359.5 M
413.736 357.149 L
411.736 355.696 L
409.264 355.696 L
407.264 357.149 L
406.5 359.5 L
407.264 361.851 L
409.264 363.304 L
411.736 363.304 L
413.736 361.851 L
414.5 359.5 L
S
GR
GS
[0.75 0 0 0.75 0 0] CT
0 0.447 0.741 RC
2 setlinecap
10.0 ML
N
417.5 367.5 M
416.736 365.149 L
414.736 363.696 L
412.264 363.696 L
410.264 365.149 L
409.5 367.5 L
410.264 369.851 L
412.264 371.304 L
414.736 371.304 L
416.736 369.851 L
417.5 367.5 L
S
GR
GS
[0.75 0 0 0.75 0 0] CT
0 0.447 0.741 RC
2 setlinecap
10.0 ML
N
420.5 370.5 M
419.736 368.149 L
417.736 366.696 L
415.264 366.696 L
413.264 368.149 L
412.5 370.5 L
413.264 372.851 L
415.264 374.304 L
417.736 374.304 L
419.736 372.851 L
420.5 370.5 L
S
GR
GS
[0.75 0 0 0.75 0 0] CT
0 0.447 0.741 RC
2 setlinecap
10.0 ML
N
423.5 368.5 M
422.736 366.149 L
420.736 364.696 L
418.264 364.696 L
416.264 366.149 L
415.5 368.5 L
416.264 370.851 L
418.264 372.304 L
420.736 372.304 L
422.736 370.851 L
423.5 368.5 L
S
GR
GS
[0.75 0 0 0.75 0 0] CT
0 0.447 0.741 RC
2 setlinecap
10.0 ML
N
426.5 357.5 M
425.736 355.149 L
423.736 353.696 L
421.264 353.696 L
419.264 355.149 L
418.5 357.5 L
419.264 359.851 L
421.264 361.304 L
423.736 361.304 L
425.736 359.851 L
426.5 357.5 L
S
GR
GS
[0.75 0 0 0.75 0 0] CT
0 0.447 0.741 RC
2 setlinecap
10.0 ML
N
429.5 359.5 M
428.736 357.149 L
426.736 355.696 L
424.264 355.696 L
422.264 357.149 L
421.5 359.5 L
422.264 361.851 L
424.264 363.304 L
426.736 363.304 L
428.736 361.851 L
429.5 359.5 L
S
GR
GS
[0.75 0 0 0.75 0 0] CT
0 0.447 0.741 RC
2 setlinecap
10.0 ML
N
432.5 362.5 M
431.736 360.149 L
429.736 358.696 L
427.264 358.696 L
425.264 360.149 L
424.5 362.5 L
425.264 364.851 L
427.264 366.304 L
429.736 366.304 L
431.736 364.851 L
432.5 362.5 L
S
GR
GS
[0.75 0 0 0.75 0 0] CT
0 0.447 0.741 RC
2 setlinecap
10.0 ML
N
435.5 354.5 M
434.736 352.149 L
432.736 350.696 L
430.264 350.696 L
428.264 352.149 L
427.5 354.5 L
428.264 356.851 L
430.264 358.304 L
432.736 358.304 L
434.736 356.851 L
435.5 354.5 L
S
GR
GS
[0.75 0 0 0.75 0 0] CT
0 0.447 0.741 RC
2 setlinecap
10.0 ML
N
438.5 364.5 M
437.736 362.149 L
435.736 360.696 L
433.264 360.696 L
431.264 362.149 L
430.5 364.5 L
431.264 366.851 L
433.264 368.304 L
435.736 368.304 L
437.736 366.851 L
438.5 364.5 L
S
GR
GS
[0.75 0 0 0.75 0 0] CT
0 0.447 0.741 RC
2 setlinecap
10.0 ML
N
441.5 364.5 M
440.736 362.149 L
438.736 360.696 L
436.264 360.696 L
434.264 362.149 L
433.5 364.5 L
434.264 366.851 L
436.264 368.304 L
438.736 368.304 L
440.736 366.851 L
441.5 364.5 L
S
GR
GS
[0.75 0 0 0.75 0 0] CT
0 0.447 0.741 RC
2 setlinecap
10.0 ML
N
444.5 360.5 M
443.736 358.149 L
441.736 356.696 L
439.264 356.696 L
437.264 358.149 L
436.5 360.5 L
437.264 362.851 L
439.264 364.304 L
441.736 364.304 L
443.736 362.851 L
444.5 360.5 L
S
GR
GS
[0.75 0 0 0.75 0 0] CT
0 0.447 0.741 RC
2 setlinecap
10.0 ML
N
448.5 358.5 M
447.736 356.149 L
445.736 354.696 L
443.264 354.696 L
441.264 356.149 L
440.5 358.5 L
441.264 360.851 L
443.264 362.304 L
445.736 362.304 L
447.736 360.851 L
448.5 358.5 L
S
GR
GS
[0.75 0 0 0.75 0 0] CT
0 0.447 0.741 RC
2 setlinecap
10.0 ML
N
451.5 367.5 M
450.736 365.149 L
448.736 363.696 L
446.264 363.696 L
444.264 365.149 L
443.5 367.5 L
444.264 369.851 L
446.264 371.304 L
448.736 371.304 L
450.736 369.851 L
451.5 367.5 L
S
GR
GS
[0.75 0 0 0.75 0 0] CT
0 0.447 0.741 RC
2 setlinecap
10.0 ML
N
454.5 371.5 M
453.736 369.149 L
451.736 367.696 L
449.264 367.696 L
447.264 369.149 L
446.5 371.5 L
447.264 373.851 L
449.264 375.304 L
451.736 375.304 L
453.736 373.851 L
454.5 371.5 L
S
GR
GS
[0.75 0 0 0.75 0 0] CT
0 0.447 0.741 RC
2 setlinecap
10.0 ML
N
457.5 370.5 M
456.736 368.149 L
454.736 366.696 L
452.264 366.696 L
450.264 368.149 L
449.5 370.5 L
450.264 372.851 L
452.264 374.304 L
454.736 374.304 L
456.736 372.851 L
457.5 370.5 L
S
GR
GS
[0.75 0 0 0.75 0 0] CT
0 0.447 0.741 RC
2 setlinecap
10.0 ML
N
460.5 359.5 M
459.736 357.149 L
457.736 355.696 L
455.264 355.696 L
453.264 357.149 L
452.5 359.5 L
453.264 361.851 L
455.264 363.304 L
457.736 363.304 L
459.736 361.851 L
460.5 359.5 L
S
GR
GS
[0.75 0 0 0.75 0 0] CT
0 0.447 0.741 RC
2 setlinecap
10.0 ML
N
463.5 352.5 M
462.736 350.149 L
460.736 348.696 L
458.264 348.696 L
456.264 350.149 L
455.5 352.5 L
456.264 354.851 L
458.264 356.304 L
460.736 356.304 L
462.736 354.851 L
463.5 352.5 L
S
GR
GS
[0.75 0 0 0.75 0 0] CT
0 0.447 0.741 RC
2 setlinecap
10.0 ML
N
466.5 366.5 M
465.736 364.149 L
463.736 362.696 L
461.264 362.696 L
459.264 364.149 L
458.5 366.5 L
459.264 368.851 L
461.264 370.304 L
463.736 370.304 L
465.736 368.851 L
466.5 366.5 L
S
GR
GS
[0.75 0 0 0.75 0 0] CT
0 0.447 0.741 RC
2 setlinecap
10.0 ML
N
469.5 361.5 M
468.736 359.149 L
466.736 357.696 L
464.264 357.696 L
462.264 359.149 L
461.5 361.5 L
462.264 363.851 L
464.264 365.304 L
466.736 365.304 L
468.736 363.851 L
469.5 361.5 L
S
GR
GS
[0.75 0 0 0.75 0 0] CT
0 0.447 0.741 RC
2 setlinecap
10.0 ML
N
472.5 364.5 M
471.736 362.149 L
469.736 360.696 L
467.264 360.696 L
465.264 362.149 L
464.5 364.5 L
465.264 366.851 L
467.264 368.304 L
469.736 368.304 L
471.736 366.851 L
472.5 364.5 L
S
GR
GS
[0.75 0 0 0.75 0 0] CT
0 0.447 0.741 RC
2 setlinecap
10.0 ML
N
475.5 362.5 M
474.736 360.149 L
472.736 358.696 L
470.264 358.696 L
468.264 360.149 L
467.5 362.5 L
468.264 364.851 L
470.264 366.304 L
472.736 366.304 L
474.736 364.851 L
475.5 362.5 L
S
GR
GS
[0.75 0 0 0.75 0 0] CT
0 0.447 0.741 RC
2 setlinecap
10.0 ML
N
478.5 356.5 M
477.736 354.149 L
475.736 352.696 L
473.264 352.696 L
471.264 354.149 L
470.5 356.5 L
471.264 358.851 L
473.264 360.304 L
475.736 360.304 L
477.736 358.851 L
478.5 356.5 L
S
GR
GS
[0.75 0 0 0.75 0 0] CT
0 0.447 0.741 RC
2 setlinecap
10.0 ML
N
481.5 352.5 M
480.736 350.149 L
478.736 348.696 L
476.264 348.696 L
474.264 350.149 L
473.5 352.5 L
474.264 354.851 L
476.264 356.304 L
478.736 356.304 L
480.736 354.851 L
481.5 352.5 L
S
GR
GS
[0.75 0 0 0.75 0 0] CT
0 0.447 0.741 RC
2 setlinecap
10.0 ML
N
484.5 368.5 M
483.736 366.149 L
481.736 364.696 L
479.264 364.696 L
477.264 366.149 L
476.5 368.5 L
477.264 370.851 L
479.264 372.304 L
481.736 372.304 L
483.736 370.851 L
484.5 368.5 L
S
GR
GS
[0.75 0 0 0.75 0 0] CT
0 0.447 0.741 RC
2 setlinecap
10.0 ML
N
487.5 372.5 M
486.736 370.149 L
484.736 368.696 L
482.264 368.696 L
480.264 370.149 L
479.5 372.5 L
480.264 374.851 L
482.264 376.304 L
484.736 376.304 L
486.736 374.851 L
487.5 372.5 L
S
GR
GS
[0.75 0 0 0.75 0 0] CT
0 0.447 0.741 RC
2 setlinecap
10.0 ML
N
491.5 372.5 M
490.736 370.149 L
488.736 368.696 L
486.264 368.696 L
484.264 370.149 L
483.5 372.5 L
484.264 374.851 L
486.264 376.304 L
488.736 376.304 L
490.736 374.851 L
491.5 372.5 L
S
GR
GS
[0.75 0 0 0.75 0 0] CT
0 0.447 0.741 RC
2 setlinecap
10.0 ML
N
494.5 361.5 M
493.736 359.149 L
491.736 357.696 L
489.264 357.696 L
487.264 359.149 L
486.5 361.5 L
487.264 363.851 L
489.264 365.304 L
491.736 365.304 L
493.736 363.851 L
494.5 361.5 L
S
GR
GS
[0.75 0 0 0.75 0 0] CT
0 0.447 0.741 RC
2 setlinecap
10.0 ML
N
497.5 363.5 M
496.736 361.149 L
494.736 359.696 L
492.264 359.696 L
490.264 361.149 L
489.5 363.5 L
490.264 365.851 L
492.264 367.304 L
494.736 367.304 L
496.736 365.851 L
497.5 363.5 L
S
GR
GS
[0.75 0 0 0.75 0 0] CT
0 0.447 0.741 RC
2 setlinecap
10.0 ML
N
500.5 370.5 M
499.736 368.149 L
497.736 366.696 L
495.264 366.696 L
493.264 368.149 L
492.5 370.5 L
493.264 372.851 L
495.264 374.304 L
497.736 374.304 L
499.736 372.851 L
500.5 370.5 L
S
GR
GS
[0.75 0 0 0.75 0 0] CT
0 0.447 0.741 RC
2 setlinecap
10.0 ML
N
503.5 360.5 M
502.736 358.149 L
500.736 356.696 L
498.264 356.696 L
496.264 358.149 L
495.5 360.5 L
496.264 362.851 L
498.264 364.304 L
500.736 364.304 L
502.736 362.851 L
503.5 360.5 L
S
GR
GS
[0.75 0 0 0.75 0 0] CT
0 0.447 0.741 RC
2 setlinecap
10.0 ML
N
506.5 356.5 M
505.736 354.149 L
503.736 352.696 L
501.264 352.696 L
499.264 354.149 L
498.5 356.5 L
499.264 358.851 L
501.264 360.304 L
503.736 360.304 L
505.736 358.851 L
506.5 356.5 L
S
GR
GS
[0.75 0 0 0.75 0 0] CT
0 0.447 0.741 RC
2 setlinecap
10.0 ML
N
509.5 359.5 M
508.736 357.149 L
506.736 355.696 L
504.264 355.696 L
502.264 357.149 L
501.5 359.5 L
502.264 361.851 L
504.264 363.304 L
506.736 363.304 L
508.736 361.851 L
509.5 359.5 L
S
GR
GS
[0.75 0 0 0.75 0 0] CT
0 0.447 0.741 RC
2 setlinecap
10.0 ML
N
75.304 374 M
75.304 41.945 L
S
GR
GS
[0.75 0 0 0.75 0 0] CT
0 0.447 0.741 RC
2 setlinecap
10.0 ML
N
78.377 374 M
78.377 224.516 L
S
GR
GS
[0.75 0 0 0.75 0 0] CT
0 0.447 0.741 RC
2 setlinecap
10.0 ML
N
81.45 374 M
81.45 337.523 L
S
GR
GS
[0.75 0 0 0.75 0 0] CT
0 0.447 0.741 RC
2 setlinecap
10.0 ML
N
84.522 374 M
84.522 337.722 L
S
GR
GS
[0.75 0 0 0.75 0 0] CT
0 0.447 0.741 RC
2 setlinecap
10.0 ML
N
87.595 374 M
87.595 318.615 L
S
GR
GS
[0.75 0 0 0.75 0 0] CT
0 0.447 0.741 RC
2 setlinecap
10.0 ML
N
90.667 374 M
90.667 288.904 L
S
GR
GS
[0.75 0 0 0.75 0 0] CT
0 0.447 0.741 RC
2 setlinecap
10.0 ML
N
93.74 374 M
93.74 326.031 L
S
GR
GS
[0.75 0 0 0.75 0 0] CT
0 0.447 0.741 RC
2 setlinecap
10.0 ML
N
96.812 374 M
96.812 342.605 L
S
GR
GS
[0.75 0 0 0.75 0 0] CT
0 0.447 0.741 RC
2 setlinecap
10.0 ML
N
99.885 374 M
99.885 325.799 L
S
GR
GS
[0.75 0 0 0.75 0 0] CT
0 0.447 0.741 RC
2 setlinecap
10.0 ML
N
102.958 374 M
102.958 327.792 L
S
GR
GS
[0.75 0 0 0.75 0 0] CT
0 0.447 0.741 RC
2 setlinecap
10.0 ML
N
106.03 374 M
106.03 358.247 L
S
GR
GS
[0.75 0 0 0.75 0 0] CT
0 0.447 0.741 RC
2 setlinecap
10.0 ML
N
109.103 374 M
109.103 347.615 L
S
GR
GS
[0.75 0 0 0.75 0 0] CT
0 0.447 0.741 RC
2 setlinecap
10.0 ML
N
112.175 374 M
112.175 371.321 L
S
GR
GS
[0.75 0 0 0.75 0 0] CT
0 0.447 0.741 RC
2 setlinecap
10.0 ML
N
115.248 374 M
115.248 354.879 L
S
GR
GS
[0.75 0 0 0.75 0 0] CT
0 0.447 0.741 RC
2 setlinecap
10.0 ML
N
118.32 374 M
118.32 327.764 L
S
GR
GS
[0.75 0 0 0.75 0 0] CT
0 0.447 0.741 RC
2 setlinecap
10.0 ML
N
121.393 374 M
121.393 318.362 L
S
GR
GS
[0.75 0 0 0.75 0 0] CT
0 0.447 0.741 RC
2 setlinecap
10.0 ML
N
124.465 374 M
124.465 357.961 L
S
GR
GS
[0.75 0 0 0.75 0 0] CT
0 0.447 0.741 RC
2 setlinecap
10.0 ML
N
127.538 374 M
127.538 349.723 L
S
GR
GS
[0.75 0 0 0.75 0 0] CT
0 0.447 0.741 RC
2 setlinecap
10.0 ML
N
130.611 374 M
130.611 353.259 L
S
GR
GS
[0.75 0 0 0.75 0 0] CT
0 0.447 0.741 RC
2 setlinecap
10.0 ML
N
133.683 374 M
133.683 358.059 L
S
GR
GS
[0.75 0 0 0.75 0 0] CT
0 0.447 0.741 RC
2 setlinecap
10.0 ML
N
136.756 374 M
136.756 361.407 L
S
GR
GS
[0.75 0 0 0.75 0 0] CT
0 0.447 0.741 RC
2 setlinecap
10.0 ML
N
139.828 374 M
139.828 331.404 L
S
GR
GS
[0.75 0 0 0.75 0 0] CT
0 0.447 0.741 RC
2 setlinecap
10.0 ML
N
142.901 374 M
142.901 352.869 L
S
GR
GS
[0.75 0 0 0.75 0 0] CT
0 0.447 0.741 RC
2 setlinecap
10.0 ML
N
145.973 374 M
145.973 358.239 L
S
GR
GS
[0.75 0 0 0.75 0 0] CT
0 0.447 0.741 RC
2 setlinecap
10.0 ML
N
149.046 374 M
149.046 339.609 L
S
GR
GS
[0.75 0 0 0.75 0 0] CT
0 0.447 0.741 RC
2 setlinecap
10.0 ML
N
152.119 374 M
152.119 360.282 L
S
GR
GS
[0.75 0 0 0.75 0 0] CT
0 0.447 0.741 RC
2 setlinecap
10.0 ML
N
155.191 374 M
155.191 355.134 L
S
GR
GS
[0.75 0 0 0.75 0 0] CT
0 0.447 0.741 RC
2 setlinecap
10.0 ML
N
158.264 374 M
158.264 356.304 L
S
GR
GS
[0.75 0 0 0.75 0 0] CT
0 0.447 0.741 RC
2 setlinecap
10.0 ML
N
161.336 374 M
161.336 367.266 L
S
GR
GS
[0.75 0 0 0.75 0 0] CT
0 0.447 0.741 RC
2 setlinecap
10.0 ML
N
164.409 374 M
164.409 340.761 L
S
GR
GS
[0.75 0 0 0.75 0 0] CT
0 0.447 0.741 RC
2 setlinecap
10.0 ML
N
167.481 374 M
167.481 345.609 L
S
GR
GS
[0.75 0 0 0.75 0 0] CT
0 0.447 0.741 RC
2 setlinecap
10.0 ML
N
170.554 374 M
170.554 352.862 L
S
GR
GS
[0.75 0 0 0.75 0 0] CT
0 0.447 0.741 RC
2 setlinecap
10.0 ML
N
173.627 374 M
173.627 339.246 L
S
GR
GS
[0.75 0 0 0.75 0 0] CT
0 0.447 0.741 RC
2 setlinecap
10.0 ML
N
176.699 374 M
176.699 349.46 L
S
GR
GS
[0.75 0 0 0.75 0 0] CT
0 0.447 0.741 RC
2 setlinecap
10.0 ML
N
179.772 374 M
179.772 344.725 L
S
GR
GS
[0.75 0 0 0.75 0 0] CT
0 0.447 0.741 RC
2 setlinecap
10.0 ML
N
182.844 374 M
182.844 369.044 L
S
GR
GS
[0.75 0 0 0.75 0 0] CT
0 0.447 0.741 RC
2 setlinecap
10.0 ML
N
185.917 374 M
185.917 358.696 L
S
GR
GS
[0.75 0 0 0.75 0 0] CT
0 0.447 0.741 RC
2 setlinecap
10.0 ML
N
188.989 374 M
188.989 356.999 L
S
GR
GS
[0.75 0 0 0.75 0 0] CT
0 0.447 0.741 RC
2 setlinecap
10.0 ML
N
192.062 374 M
192.062 354.572 L
S
GR
GS
[0.75 0 0 0.75 0 0] CT
0 0.447 0.741 RC
2 setlinecap
10.0 ML
N
195.135 374 M
195.135 356.982 L
S
GR
GS
[0.75 0 0 0.75 0 0] CT
0 0.447 0.741 RC
2 setlinecap
10.0 ML
N
198.207 374 M
198.207 361.948 L
S
GR
GS
[0.75 0 0 0.75 0 0] CT
0 0.447 0.741 RC
2 setlinecap
10.0 ML
N
201.28 374 M
201.28 345.893 L
S
GR
GS
[0.75 0 0 0.75 0 0] CT
0 0.447 0.741 RC
2 setlinecap
10.0 ML
N
204.352 374 M
204.352 349.671 L
S
GR
GS
[0.75 0 0 0.75 0 0] CT
0 0.447 0.741 RC
2 setlinecap
10.0 ML
N
207.425 374 M
207.425 364.93 L
S
GR
GS
[0.75 0 0 0.75 0 0] CT
0 0.447 0.741 RC
2 setlinecap
10.0 ML
N
210.497 374 M
210.497 358.008 L
S
GR
GS
[0.75 0 0 0.75 0 0] CT
0 0.447 0.741 RC
2 setlinecap
10.0 ML
N
213.57 374 M
213.57 338.053 L
S
GR
GS
[0.75 0 0 0.75 0 0] CT
0 0.447 0.741 RC
2 setlinecap
10.0 ML
N
216.642 374 M
216.642 357.763 L
S
GR
GS
[0.75 0 0 0.75 0 0] CT
0 0.447 0.741 RC
2 setlinecap
10.0 ML
N
219.715 374 M
219.715 354.23 L
S
GR
GS
[0.75 0 0 0.75 0 0] CT
0 0.447 0.741 RC
2 setlinecap
10.0 ML
N
222.788 374 M
222.788 348.472 L
S
GR
GS
[0.75 0 0 0.75 0 0] CT
0 0.447 0.741 RC
2 setlinecap
10.0 ML
N
225.86 374 M
225.86 360.427 L
S
GR
GS
[0.75 0 0 0.75 0 0] CT
0 0.447 0.741 RC
2 setlinecap
10.0 ML
N
228.933 374 M
228.933 353.913 L
S
GR
GS
[0.75 0 0 0.75 0 0] CT
0 0.447 0.741 RC
2 setlinecap
10.0 ML
N
232.005 374 M
232.005 361.011 L
S
GR
GS
[0.75 0 0 0.75 0 0] CT
0 0.447 0.741 RC
2 setlinecap
10.0 ML
N
235.078 374 M
235.078 351.477 L
S
GR
GS
[0.75 0 0 0.75 0 0] CT
0 0.447 0.741 RC
2 setlinecap
10.0 ML
N
238.15 374 M
238.15 368.095 L
S
GR
GS
[0.75 0 0 0.75 0 0] CT
0 0.447 0.741 RC
2 setlinecap
10.0 ML
N
241.223 374 M
241.223 369.526 L
S
GR
GS
[0.75 0 0 0.75 0 0] CT
0 0.447 0.741 RC
2 setlinecap
10.0 ML
N
244.296 374 M
244.296 358.178 L
S
GR
GS
[0.75 0 0 0.75 0 0] CT
0 0.447 0.741 RC
2 setlinecap
10.0 ML
N
247.368 374 M
247.368 343.545 L
S
GR
GS
[0.75 0 0 0.75 0 0] CT
0 0.447 0.741 RC
2 setlinecap
10.0 ML
N
250.441 374 M
250.441 361.929 L
S
GR
GS
[0.75 0 0 0.75 0 0] CT
0 0.447 0.741 RC
2 setlinecap
10.0 ML
N
253.513 374 M
253.513 366.146 L
S
GR
GS
[0.75 0 0 0.75 0 0] CT
0 0.447 0.741 RC
2 setlinecap
10.0 ML
N
256.586 374 M
256.586 355.488 L
S
GR
GS
[0.75 0 0 0.75 0 0] CT
0 0.447 0.741 RC
2 setlinecap
10.0 ML
N
259.658 374 M
259.658 352.141 L
S
GR
GS
[0.75 0 0 0.75 0 0] CT
0 0.447 0.741 RC
2 setlinecap
10.0 ML
N
262.731 374 M
262.731 356.369 L
S
GR
GS
[0.75 0 0 0.75 0 0] CT
0 0.447 0.741 RC
2 setlinecap
10.0 ML
N
265.804 374 M
265.804 363.131 L
S
GR
GS
[0.75 0 0 0.75 0 0] CT
0 0.447 0.741 RC
2 setlinecap
10.0 ML
N
268.876 374 M
268.876 363.375 L
S
GR
GS
[0.75 0 0 0.75 0 0] CT
0 0.447 0.741 RC
2 setlinecap
10.0 ML
N
271.949 374 M
271.949 363.313 L
S
GR
GS
[0.75 0 0 0.75 0 0] CT
0 0.447 0.741 RC
2 setlinecap
10.0 ML
N
275.021 374 M
275.021 360.162 L
S
GR
GS
[0.75 0 0 0.75 0 0] CT
0 0.447 0.741 RC
2 setlinecap
10.0 ML
N
278.094 374 M
278.094 357.795 L
S
GR
GS
[0.75 0 0 0.75 0 0] CT
0 0.447 0.741 RC
2 setlinecap
10.0 ML
N
281.166 374 M
281.166 343.78 L
S
GR
GS
[0.75 0 0 0.75 0 0] CT
0 0.447 0.741 RC
2 setlinecap
10.0 ML
N
284.239 374 M
284.239 344.711 L
S
GR
GS
[0.75 0 0 0.75 0 0] CT
0 0.447 0.741 RC
2 setlinecap
10.0 ML
N
287.311 374 M
287.311 369.193 L
S
GR
GS
[0.75 0 0 0.75 0 0] CT
0 0.447 0.741 RC
2 setlinecap
10.0 ML
N
290.384 374 M
290.384 366.297 L
S
GR
GS
[0.75 0 0 0.75 0 0] CT
0 0.447 0.741 RC
2 setlinecap
10.0 ML
N
293.457 374 M
293.457 355.62 L
S
GR
GS
[0.75 0 0 0.75 0 0] CT
0 0.447 0.741 RC
2 setlinecap
10.0 ML
N
296.529 374 M
296.529 368.555 L
S
GR
GS
[0.75 0 0 0.75 0 0] CT
0 0.447 0.741 RC
2 setlinecap
10.0 ML
N
299.602 374 M
299.602 353.063 L
S
GR
GS
[0.75 0 0 0.75 0 0] CT
0 0.447 0.741 RC
2 setlinecap
10.0 ML
N
302.674 374 M
302.674 352.506 L
S
GR
GS
[0.75 0 0 0.75 0 0] CT
0 0.447 0.741 RC
2 setlinecap
10.0 ML
N
305.747 374 M
305.747 355.906 L
S
GR
GS
[0.75 0 0 0.75 0 0] CT
0 0.447 0.741 RC
2 setlinecap
10.0 ML
N
308.819 374 M
308.819 350.668 L
S
GR
GS
[0.75 0 0 0.75 0 0] CT
0 0.447 0.741 RC
2 setlinecap
10.0 ML
N
311.892 374 M
311.892 351.555 L
S
GR
GS
[0.75 0 0 0.75 0 0] CT
0 0.447 0.741 RC
2 setlinecap
10.0 ML
N
314.965 374 M
314.965 360.069 L
S
GR
GS
[0.75 0 0 0.75 0 0] CT
0 0.447 0.741 RC
2 setlinecap
10.0 ML
N
318.037 374 M
318.037 354.655 L
S
GR
GS
[0.75 0 0 0.75 0 0] CT
0 0.447 0.741 RC
2 setlinecap
10.0 ML
N
321.11 374 M
321.11 359.997 L
S
GR
GS
[0.75 0 0 0.75 0 0] CT
0 0.447 0.741 RC
2 setlinecap
10.0 ML
N
324.182 374 M
324.182 342.672 L
S
GR
GS
[0.75 0 0 0.75 0 0] CT
0 0.447 0.741 RC
2 setlinecap
10.0 ML
N
327.255 374 M
327.255 329.832 L
S
GR
GS
[0.75 0 0 0.75 0 0] CT
0 0.447 0.741 RC
2 setlinecap
10.0 ML
N
330.327 374 M
330.327 328.646 L
S
GR
GS
[0.75 0 0 0.75 0 0] CT
0 0.447 0.741 RC
2 setlinecap
10.0 ML
N
333.4 374 M
333.4 313.69 L
S
GR
GS
[0.75 0 0 0.75 0 0] CT
0 0.447 0.741 RC
2 setlinecap
10.0 ML
N
336.473 374 M
336.473 333.705 L
S
GR
GS
[0.75 0 0 0.75 0 0] CT
0 0.447 0.741 RC
2 setlinecap
10.0 ML
N
339.545 374 M
339.545 338.884 L
S
GR
GS
[0.75 0 0 0.75 0 0] CT
0 0.447 0.741 RC
2 setlinecap
10.0 ML
N
342.618 374 M
342.618 349.7 L
S
GR
GS
[0.75 0 0 0.75 0 0] CT
0 0.447 0.741 RC
2 setlinecap
10.0 ML
N
345.69 374 M
345.69 359.897 L
S
GR
GS
[0.75 0 0 0.75 0 0] CT
0 0.447 0.741 RC
2 setlinecap
10.0 ML
N
348.763 374 M
348.763 348.809 L
S
GR
GS
[0.75 0 0 0.75 0 0] CT
0 0.447 0.741 RC
2 setlinecap
10.0 ML
N
351.835 374 M
351.835 349.151 L
S
GR
GS
[0.75 0 0 0.75 0 0] CT
0 0.447 0.741 RC
2 setlinecap
10.0 ML
N
354.908 374 M
354.908 355.87 L
S
GR
GS
[0.75 0 0 0.75 0 0] CT
0 0.447 0.741 RC
2 setlinecap
10.0 ML
N
357.981 374 M
357.981 359.85 L
S
GR
GS
[0.75 0 0 0.75 0 0] CT
0 0.447 0.741 RC
2 setlinecap
10.0 ML
N
361.053 374 M
361.053 354.867 L
S
GR
GS
[0.75 0 0 0.75 0 0] CT
0 0.447 0.741 RC
2 setlinecap
10.0 ML
N
364.126 374 M
364.126 358.949 L
S
GR
GS
[0.75 0 0 0.75 0 0] CT
0 0.447 0.741 RC
2 setlinecap
10.0 ML
N
367.198 374 M
367.198 368.449 L
S
GR
GS
[0.75 0 0 0.75 0 0] CT
0 0.447 0.741 RC
2 setlinecap
10.0 ML
N
370.271 374 M
370.271 360.029 L
S
GR
GS
[0.75 0 0 0.75 0 0] CT
0 0.447 0.741 RC
2 setlinecap
10.0 ML
N
373.343 374 M
373.343 358.535 L
S
GR
GS
[0.75 0 0 0.75 0 0] CT
0 0.447 0.741 RC
2 setlinecap
10.0 ML
N
376.416 374 M
376.416 349.145 L
S
GR
GS
[0.75 0 0 0.75 0 0] CT
0 0.447 0.741 RC
2 setlinecap
10.0 ML
N
379.488 374 M
379.488 364.453 L
S
GR
GS
[0.75 0 0 0.75 0 0] CT
0 0.447 0.741 RC
2 setlinecap
10.0 ML
N
382.561 374 M
382.561 368.485 L
S
GR
GS
[0.75 0 0 0.75 0 0] CT
0 0.447 0.741 RC
2 setlinecap
10.0 ML
N
385.634 374 M
385.634 369.292 L
S
GR
GS
[0.75 0 0 0.75 0 0] CT
0 0.447 0.741 RC
2 setlinecap
10.0 ML
N
388.706 374 M
388.706 362 L
S
GR
GS
[0.75 0 0 0.75 0 0] CT
0 0.447 0.741 RC
2 setlinecap
10.0 ML
N
391.779 374 M
391.779 363.704 L
S
GR
GS
[0.75 0 0 0.75 0 0] CT
0 0.447 0.741 RC
2 setlinecap
10.0 ML
N
394.851 374 M
394.851 356.595 L
S
GR
GS
[0.75 0 0 0.75 0 0] CT
0 0.447 0.741 RC
2 setlinecap
10.0 ML
N
397.924 374 M
397.924 353.456 L
S
GR
GS
[0.75 0 0 0.75 0 0] CT
0 0.447 0.741 RC
2 setlinecap
10.0 ML
N
400.996 374 M
400.996 363.089 L
S
GR
GS
[0.75 0 0 0.75 0 0] CT
0 0.447 0.741 RC
2 setlinecap
10.0 ML
N
404.069 374 M
404.069 368.461 L
S
GR
GS
[0.75 0 0 0.75 0 0] CT
0 0.447 0.741 RC
2 setlinecap
10.0 ML
N
407.142 374 M
407.142 364.691 L
S
GR
GS
[0.75 0 0 0.75 0 0] CT
0 0.447 0.741 RC
2 setlinecap
10.0 ML
N
410.214 374 M
410.214 359.268 L
S
GR
GS
[0.75 0 0 0.75 0 0] CT
0 0.447 0.741 RC
2 setlinecap
10.0 ML
N
413.287 374 M
413.287 367.871 L
S
GR
GS
[0.75 0 0 0.75 0 0] CT
0 0.447 0.741 RC
2 setlinecap
10.0 ML
N
416.359 374 M
416.359 370.501 L
S
GR
GS
[0.75 0 0 0.75 0 0] CT
0 0.447 0.741 RC
2 setlinecap
10.0 ML
N
419.432 374 M
419.432 368.41 L
S
GR
GS
[0.75 0 0 0.75 0 0] CT
0 0.447 0.741 RC
2 setlinecap
10.0 ML
N
422.504 374 M
422.504 357.379 L
S
GR
GS
[0.75 0 0 0.75 0 0] CT
0 0.447 0.741 RC
2 setlinecap
10.0 ML
N
425.577 374 M
425.577 359.5 L
S
GR
GS
[0.75 0 0 0.75 0 0] CT
0 0.447 0.741 RC
2 setlinecap
10.0 ML
N
428.65 374 M
428.65 362.248 L
S
GR
GS
[0.75 0 0 0.75 0 0] CT
0 0.447 0.741 RC
2 setlinecap
10.0 ML
N
431.722 374 M
431.722 354.495 L
S
GR
GS
[0.75 0 0 0.75 0 0] CT
0 0.447 0.741 RC
2 setlinecap
10.0 ML
N
434.795 374 M
434.795 364.986 L
S
GR
GS
[0.75 0 0 0.75 0 0] CT
0 0.447 0.741 RC
2 setlinecap
10.0 ML
N
437.867 374 M
437.867 364.272 L
S
GR
GS
[0.75 0 0 0.75 0 0] CT
0 0.447 0.741 RC
2 setlinecap
10.0 ML
N
440.94 374 M
440.94 360.557 L
S
GR
GS
[0.75 0 0 0.75 0 0] CT
0 0.447 0.741 RC
2 setlinecap
10.0 ML
N
444.012 374 M
444.012 358.568 L
S
GR
GS
[0.75 0 0 0.75 0 0] CT
0 0.447 0.741 RC
2 setlinecap
10.0 ML
N
447.085 374 M
447.085 367.621 L
S
GR
GS
[0.75 0 0 0.75 0 0] CT
0 0.447 0.741 RC
2 setlinecap
10.0 ML
N
450.158 374 M
450.158 371.271 L
S
GR
GS
[0.75 0 0 0.75 0 0] CT
0 0.447 0.741 RC
2 setlinecap
10.0 ML
N
453.23 374 M
453.23 370.579 L
S
GR
GS
[0.75 0 0 0.75 0 0] CT
0 0.447 0.741 RC
2 setlinecap
10.0 ML
N
456.303 374 M
456.303 359.023 L
S
GR
GS
[0.75 0 0 0.75 0 0] CT
0 0.447 0.741 RC
2 setlinecap
10.0 ML
N
459.375 374 M
459.375 352.877 L
S
GR
GS
[0.75 0 0 0.75 0 0] CT
0 0.447 0.741 RC
2 setlinecap
10.0 ML
N
462.448 374 M
462.448 366.425 L
S
GR
GS
[0.75 0 0 0.75 0 0] CT
0 0.447 0.741 RC
2 setlinecap
10.0 ML
N
465.52 374 M
465.52 361.218 L
S
GR
GS
[0.75 0 0 0.75 0 0] CT
0 0.447 0.741 RC
2 setlinecap
10.0 ML
N
468.593 374 M
468.593 364.066 L
S
GR
GS
[0.75 0 0 0.75 0 0] CT
0 0.447 0.741 RC
2 setlinecap
10.0 ML
N
471.665 374 M
471.665 362.577 L
S
GR
GS
[0.75 0 0 0.75 0 0] CT
0 0.447 0.741 RC
2 setlinecap
10.0 ML
N
474.738 374 M
474.738 356.407 L
S
GR
GS
[0.75 0 0 0.75 0 0] CT
0 0.447 0.741 RC
2 setlinecap
10.0 ML
N
477.811 374 M
477.811 352.577 L
S
GR
GS
[0.75 0 0 0.75 0 0] CT
0 0.447 0.741 RC
2 setlinecap
10.0 ML
N
480.883 374 M
480.883 368.768 L
S
GR
GS
[0.75 0 0 0.75 0 0] CT
0 0.447 0.741 RC
2 setlinecap
10.0 ML
N
483.956 374 M
483.956 372.116 L
S
GR
GS
[0.75 0 0 0.75 0 0] CT
0 0.447 0.741 RC
2 setlinecap
10.0 ML
N
487.028 374 M
487.028 372.016 L
S
GR
GS
[0.75 0 0 0.75 0 0] CT
0 0.447 0.741 RC
2 setlinecap
10.0 ML
N
490.101 374 M
490.101 361.756 L
S
GR
GS
[0.75 0 0 0.75 0 0] CT
0 0.447 0.741 RC
2 setlinecap
10.0 ML
N
493.173 374 M
493.173 363.474 L
S
GR
GS
[0.75 0 0 0.75 0 0] CT
0 0.447 0.741 RC
2 setlinecap
10.0 ML
N
496.246 374 M
496.246 370.108 L
S
GR
GS
[0.75 0 0 0.75 0 0] CT
0 0.447 0.741 RC
2 setlinecap
10.0 ML
N
499.319 374 M
499.319 360.298 L
S
GR
GS
[0.75 0 0 0.75 0 0] CT
0 0.447 0.741 RC
2 setlinecap
10.0 ML
N
502.391 374 M
502.391 356.243 L
S
GR
GS
[0.75 0 0 0.75 0 0] CT
0 0.447 0.741 RC
2 setlinecap
10.0 ML
N
505.464 374 M
505.464 359.064 L
S
GR
GS
[0.75 0 0 0.75 217.50021 21.18751] CT
/Helvetica-Bold 15 F
GS
[1 0 0 1 0 0] CT
-144 -4 moveto 
1 -1 scale
(Single-Sided Amplitude Spectrum of y\(t\)) t 
GR
GR
GS
[0.75 0 0 0.75 0 0] CT
0.149 GC
2 setlinecap
10.0 ML
N
73 374 M
507 374 L
S
GR
%%Trailer
%%Pages: 1
%%EOF
