%!PS-Adobe-3.0 EPSF-3.0
%%Creator: (MATLAB, The Mathworks, Inc. Version 8.5.0.197613 \(R2015a\). Operating System: Windows 8)
%%Title: (C:/Users/aleja/Desktop/TFG/Documentaci\363n/Obtenci\363n de datos/matlab_plot/stems/jota11-53.eps)
%%CreationDate: 2019-05-22T00:22:49
%%Pages: (atend)
%%BoundingBox: 0 0 420 315
%%LanguageLevel: 2
%%EndComments
%%BeginProlog
%%BeginResource: procset (Apache XML Graphics Std ProcSet) 1.2 0
%%Version: 1.2 0
%%Copyright: (Copyright 2001-2003,2010 The Apache Software Foundation. License terms: http://www.apache.org/licenses/LICENSE-2.0)
/bd{bind def}bind def
/ld{load def}bd
/GR/grestore ld
/M/moveto ld
/LJ/setlinejoin ld
/C/curveto ld
/f/fill ld
/LW/setlinewidth ld
/GC/setgray ld
/t/show ld
/N/newpath ld
/CT/concat ld
/cp/closepath ld
/S/stroke ld
/L/lineto ld
/CC/setcmykcolor ld
/A/ashow ld
/GS/gsave ld
/RC/setrgbcolor ld
/RM/rmoveto ld
/ML/setmiterlimit ld
/re {4 2 roll M
1 index 0 rlineto
0 exch rlineto
neg 0 rlineto
cp } bd
/_ctm matrix def
/_tm matrix def
/BT { _ctm currentmatrix pop matrix _tm copy pop 0 0 moveto } bd
/ET { _ctm setmatrix } bd
/iTm { _ctm setmatrix _tm concat } bd
/Tm { _tm astore pop iTm 0 0 moveto } bd
/ux 0.0 def
/uy 0.0 def
/F {
  /Tp exch def
  /Tf exch def
  Tf findfont Tp scalefont setfont
  /cf Tf def  /cs Tp def
} bd
/ULS {currentpoint /uy exch def /ux exch def} bd
/ULE {
  /Tcx currentpoint pop def
  gsave
  newpath
  cf findfont cs scalefont dup
  /FontMatrix get 0 get /Ts exch def /FontInfo get dup
  /UnderlinePosition get Ts mul /To exch def
  /UnderlineThickness get Ts mul /Tt exch def
  ux uy To add moveto  Tcx uy To add lineto
  Tt setlinewidth stroke
  grestore
} bd
/OLE {
  /Tcx currentpoint pop def
  gsave
  newpath
  cf findfont cs scalefont dup
  /FontMatrix get 0 get /Ts exch def /FontInfo get dup
  /UnderlinePosition get Ts mul /To exch def
  /UnderlineThickness get Ts mul /Tt exch def
  ux uy To add cs add moveto Tcx uy To add cs add lineto
  Tt setlinewidth stroke
  grestore
} bd
/SOE {
  /Tcx currentpoint pop def
  gsave
  newpath
  cf findfont cs scalefont dup
  /FontMatrix get 0 get /Ts exch def /FontInfo get dup
  /UnderlinePosition get Ts mul /To exch def
  /UnderlineThickness get Ts mul /Tt exch def
  ux uy To add cs 10 mul 26 idiv add moveto Tcx uy To add cs 10 mul 26 idiv add lineto
  Tt setlinewidth stroke
  grestore
} bd
/QT {
/Y22 exch store
/X22 exch store
/Y21 exch store
/X21 exch store
currentpoint
/Y21 load 2 mul add 3 div exch
/X21 load 2 mul add 3 div exch
/X21 load 2 mul /X22 load add 3 div
/Y21 load 2 mul /Y22 load add 3 div
/X22 load /Y22 load curveto
} bd
/SSPD {
dup length /d exch dict def
{
/v exch def
/k exch def
currentpagedevice k known {
/cpdv currentpagedevice k get def
v cpdv ne {
/upd false def
/nullv v type /nulltype eq def
/nullcpdv cpdv type /nulltype eq def
nullv nullcpdv or
{
/upd true def
} {
/sametype v type cpdv type eq def
sametype {
v type /arraytype eq {
/vlen v length def
/cpdvlen cpdv length def
vlen cpdvlen eq {
0 1 vlen 1 sub {
/i exch def
/obj v i get def
/cpdobj cpdv i get def
obj cpdobj ne {
/upd true def
exit
} if
} for
} {
/upd true def
} ifelse
} {
v type /dicttype eq {
v {
/dv exch def
/dk exch def
/cpddv cpdv dk get def
dv cpddv ne {
/upd true def
exit
} if
} forall
} {
/upd true def
} ifelse
} ifelse
} if
} ifelse
upd true eq {
d k v put
} if
} if
} if
} forall
d length 0 gt {
d setpagedevice
} if
} bd
%%EndResource
%%BeginResource: procset (Apache XML Graphics EPS ProcSet) 1.0 0
%%Version: 1.0 0
%%Copyright: (Copyright 2002-2003 The Apache Software Foundation. License terms: http://www.apache.org/licenses/LICENSE-2.0)
/BeginEPSF { %def
/b4_Inc_state save def         % Save state for cleanup
/dict_count countdictstack def % Count objects on dict stack
/op_count count 1 sub def      % Count objects on operand stack
userdict begin                 % Push userdict on dict stack
/showpage { } def              % Redefine showpage, { } = null proc
0 setgray 0 setlinecap         % Prepare graphics state
1 setlinewidth 0 setlinejoin
10 setmiterlimit [ ] 0 setdash newpath
/languagelevel where           % If level not equal to 1 then
{pop languagelevel             % set strokeadjust and
1 ne                           % overprint to their defaults.
{false setstrokeadjust false setoverprint
} if
} if
} bd
/EndEPSF { %def
count op_count sub {pop} repeat            % Clean up stacks
countdictstack dict_count sub {end} repeat
b4_Inc_state restore
} bd
%%EndResource
%FOPBeginFontDict
%%IncludeResource: font Courier-Bold
%%IncludeResource: font Helvetica
%%IncludeResource: font Courier-BoldOblique
%%IncludeResource: font Courier-Oblique
%%IncludeResource: font Times-Roman
%%IncludeResource: font Helvetica-BoldOblique
%%IncludeResource: font Helvetica-Bold
%%IncludeResource: font Helvetica-Oblique
%%IncludeResource: font Times-BoldItalic
%%IncludeResource: font Courier
%%IncludeResource: font Times-Italic
%%IncludeResource: font Times-Bold
%%IncludeResource: font Symbol
%%IncludeResource: font ZapfDingbats
%FOPEndFontDict
%%BeginResource: encoding WinAnsiEncoding
/WinAnsiEncoding [
/.notdef /.notdef /.notdef /.notdef /.notdef
/.notdef /.notdef /.notdef /.notdef /.notdef
/.notdef /.notdef /.notdef /.notdef /.notdef
/.notdef /.notdef /.notdef /.notdef /.notdef
/.notdef /.notdef /.notdef /.notdef /.notdef
/.notdef /.notdef /.notdef /.notdef /.notdef
/.notdef /.notdef /space /exclam /quotedbl
/numbersign /dollar /percent /ampersand /quotesingle
/parenleft /parenright /asterisk /plus /comma
/hyphen /period /slash /zero /one
/two /three /four /five /six
/seven /eight /nine /colon /semicolon
/less /equal /greater /question /at
/A /B /C /D /E
/F /G /H /I /J
/K /L /M /N /O
/P /Q /R /S /T
/U /V /W /X /Y
/Z /bracketleft /backslash /bracketright /asciicircum
/underscore /quoteleft /a /b /c
/d /e /f /g /h
/i /j /k /l /m
/n /o /p /q /r
/s /t /u /v /w
/x /y /z /braceleft /bar
/braceright /asciitilde /bullet /Euro /bullet
/quotesinglbase /florin /quotedblbase /ellipsis /dagger
/daggerdbl /circumflex /perthousand /Scaron /guilsinglleft
/OE /bullet /Zcaron /bullet /bullet
/quoteleft /quoteright /quotedblleft /quotedblright /bullet
/endash /emdash /asciitilde /trademark /scaron
/guilsinglright /oe /bullet /zcaron /Ydieresis
/space /exclamdown /cent /sterling /currency
/yen /brokenbar /section /dieresis /copyright
/ordfeminine /guillemotleft /logicalnot /sfthyphen /registered
/macron /degree /plusminus /twosuperior /threesuperior
/acute /mu /paragraph /middot /cedilla
/onesuperior /ordmasculine /guillemotright /onequarter /onehalf
/threequarters /questiondown /Agrave /Aacute /Acircumflex
/Atilde /Adieresis /Aring /AE /Ccedilla
/Egrave /Eacute /Ecircumflex /Edieresis /Igrave
/Iacute /Icircumflex /Idieresis /Eth /Ntilde
/Ograve /Oacute /Ocircumflex /Otilde /Odieresis
/multiply /Oslash /Ugrave /Uacute /Ucircumflex
/Udieresis /Yacute /Thorn /germandbls /agrave
/aacute /acircumflex /atilde /adieresis /aring
/ae /ccedilla /egrave /eacute /ecircumflex
/edieresis /igrave /iacute /icircumflex /idieresis
/eth /ntilde /ograve /oacute /ocircumflex
/otilde /odieresis /divide /oslash /ugrave
/uacute /ucircumflex /udieresis /yacute /thorn
/ydieresis
] def
%%EndResource
%FOPBeginFontReencode
/Courier-Bold findfont
dup length dict begin
  {1 index /FID ne {def} {pop pop} ifelse} forall
  /Encoding WinAnsiEncoding def
  currentdict
end
/Courier-Bold exch definefont pop
/Helvetica findfont
dup length dict begin
  {1 index /FID ne {def} {pop pop} ifelse} forall
  /Encoding WinAnsiEncoding def
  currentdict
end
/Helvetica exch definefont pop
/Courier-BoldOblique findfont
dup length dict begin
  {1 index /FID ne {def} {pop pop} ifelse} forall
  /Encoding WinAnsiEncoding def
  currentdict
end
/Courier-BoldOblique exch definefont pop
/Courier-Oblique findfont
dup length dict begin
  {1 index /FID ne {def} {pop pop} ifelse} forall
  /Encoding WinAnsiEncoding def
  currentdict
end
/Courier-Oblique exch definefont pop
/Times-Roman findfont
dup length dict begin
  {1 index /FID ne {def} {pop pop} ifelse} forall
  /Encoding WinAnsiEncoding def
  currentdict
end
/Times-Roman exch definefont pop
/Helvetica-BoldOblique findfont
dup length dict begin
  {1 index /FID ne {def} {pop pop} ifelse} forall
  /Encoding WinAnsiEncoding def
  currentdict
end
/Helvetica-BoldOblique exch definefont pop
/Helvetica-Bold findfont
dup length dict begin
  {1 index /FID ne {def} {pop pop} ifelse} forall
  /Encoding WinAnsiEncoding def
  currentdict
end
/Helvetica-Bold exch definefont pop
/Helvetica-Oblique findfont
dup length dict begin
  {1 index /FID ne {def} {pop pop} ifelse} forall
  /Encoding WinAnsiEncoding def
  currentdict
end
/Helvetica-Oblique exch definefont pop
/Times-BoldItalic findfont
dup length dict begin
  {1 index /FID ne {def} {pop pop} ifelse} forall
  /Encoding WinAnsiEncoding def
  currentdict
end
/Times-BoldItalic exch definefont pop
/Courier findfont
dup length dict begin
  {1 index /FID ne {def} {pop pop} ifelse} forall
  /Encoding WinAnsiEncoding def
  currentdict
end
/Courier exch definefont pop
/Times-Italic findfont
dup length dict begin
  {1 index /FID ne {def} {pop pop} ifelse} forall
  /Encoding WinAnsiEncoding def
  currentdict
end
/Times-Italic exch definefont pop
/Times-Bold findfont
dup length dict begin
  {1 index /FID ne {def} {pop pop} ifelse} forall
  /Encoding WinAnsiEncoding def
  currentdict
end
/Times-Bold exch definefont pop
%FOPEndFontReencode
%%EndProlog
%%Page: 1 1
%%PageBoundingBox: 0 0 420 315
%%BeginPageSetup
[1 0 0 -1 0 315] CT
%%EndPageSetup
GS
[0.75 0 0 0.75 0 0] CT
1 GC
N
0 0 560 420 re
f
GR
GS
[0.75 0 0 0.75 0 0] CT
1 GC
N
0 0 560 420 re
f
GR
GS
[0.75 0 0 0.75 0 0] CT
1 GC
N
73 374 M
507 374 L
507 31 L
73 31 L
cp
f
GR
GS
[0.75 0 0 0.75 217.50016 298.24999] CT
0.149 GC
/Helvetica 15 F
GS
[1 0 0 1 0 0] CT
-52 16 moveto 
1 -1 scale
(Frequency \(Hz\)) t 
GR
GR
GS
[0.75 0 0 0.75 0 0] CT
0.149 GC
2 setlinecap
10.0 ML
N
73 374 M
507 374 L
S
GR
GS
[0.75 0 0 0.75 0 0] CT
0.149 GC
2 setlinecap
10.0 ML
N
73 31 M
507 31 L
S
GR
GS
[0.75 0 0 0.75 0 0] CT
0.149 GC
2 setlinecap
10.0 ML
N
73 374 M
73 369.66 L
S
GR
GS
[0.75 0 0 0.75 0 0] CT
0.149 GC
2 setlinecap
10.0 ML
N
116.4 374 M
116.4 369.66 L
S
GR
GS
[0.75 0 0 0.75 0 0] CT
0.149 GC
2 setlinecap
10.0 ML
N
159.8 374 M
159.8 369.66 L
S
GR
GS
[0.75 0 0 0.75 0 0] CT
0.149 GC
2 setlinecap
10.0 ML
N
203.2 374 M
203.2 369.66 L
S
GR
GS
[0.75 0 0 0.75 0 0] CT
0.149 GC
2 setlinecap
10.0 ML
N
246.6 374 M
246.6 369.66 L
S
GR
GS
[0.75 0 0 0.75 0 0] CT
0.149 GC
2 setlinecap
10.0 ML
N
290 374 M
290 369.66 L
S
GR
GS
[0.75 0 0 0.75 0 0] CT
0.149 GC
2 setlinecap
10.0 ML
N
333.4 374 M
333.4 369.66 L
S
GR
GS
[0.75 0 0 0.75 0 0] CT
0.149 GC
2 setlinecap
10.0 ML
N
376.8 374 M
376.8 369.66 L
S
GR
GS
[0.75 0 0 0.75 0 0] CT
0.149 GC
2 setlinecap
10.0 ML
N
420.2 374 M
420.2 369.66 L
S
GR
GS
[0.75 0 0 0.75 0 0] CT
0.149 GC
2 setlinecap
10.0 ML
N
463.6 374 M
463.6 369.66 L
S
GR
GS
[0.75 0 0 0.75 0 0] CT
0.149 GC
2 setlinecap
10.0 ML
N
507 374 M
507 369.66 L
S
GR
GS
[0.75 0 0 0.75 0 0] CT
0.149 GC
2 setlinecap
10.0 ML
N
73 31 M
73 35.34 L
S
GR
GS
[0.75 0 0 0.75 0 0] CT
0.149 GC
2 setlinecap
10.0 ML
N
116.4 31 M
116.4 35.34 L
S
GR
GS
[0.75 0 0 0.75 0 0] CT
0.149 GC
2 setlinecap
10.0 ML
N
159.8 31 M
159.8 35.34 L
S
GR
GS
[0.75 0 0 0.75 0 0] CT
0.149 GC
2 setlinecap
10.0 ML
N
203.2 31 M
203.2 35.34 L
S
GR
GS
[0.75 0 0 0.75 0 0] CT
0.149 GC
2 setlinecap
10.0 ML
N
246.6 31 M
246.6 35.34 L
S
GR
GS
[0.75 0 0 0.75 0 0] CT
0.149 GC
2 setlinecap
10.0 ML
N
290 31 M
290 35.34 L
S
GR
GS
[0.75 0 0 0.75 0 0] CT
0.149 GC
2 setlinecap
10.0 ML
N
333.4 31 M
333.4 35.34 L
S
GR
GS
[0.75 0 0 0.75 0 0] CT
0.149 GC
2 setlinecap
10.0 ML
N
376.8 31 M
376.8 35.34 L
S
GR
GS
[0.75 0 0 0.75 0 0] CT
0.149 GC
2 setlinecap
10.0 ML
N
420.2 31 M
420.2 35.34 L
S
GR
GS
[0.75 0 0 0.75 0 0] CT
0.149 GC
2 setlinecap
10.0 ML
N
463.6 31 M
463.6 35.34 L
S
GR
GS
[0.75 0 0 0.75 0 0] CT
0.149 GC
2 setlinecap
10.0 ML
N
507 31 M
507 35.34 L
S
GR
GS
[0.75 0 0 0.75 54.75 284.50001] CT
0.149 GC
/Helvetica 13 F
GS
[1 0 0 1 0 0] CT
-4 14 moveto 
1 -1 scale
(0) t 
GR
GR
GS
[0.75 0 0 0.75 87.3 284.50001] CT
0.149 GC
/Helvetica 13 F
GS
[1 0 0 1 0 0] CT
-7.5 14 moveto 
1 -1 scale
(10) t 
GR
GR
GS
[0.75 0 0 0.75 119.85 284.50001] CT
0.149 GC
/Helvetica 13 F
GS
[1 0 0 1 0 0] CT
-7.5 14 moveto 
1 -1 scale
(20) t 
GR
GR
GS
[0.75 0 0 0.75 152.4 284.50001] CT
0.149 GC
/Helvetica 13 F
GS
[1 0 0 1 0 0] CT
-7.5 14 moveto 
1 -1 scale
(30) t 
GR
GR
GS
[0.75 0 0 0.75 184.95 284.50001] CT
0.149 GC
/Helvetica 13 F
GS
[1 0 0 1 0 0] CT
-7.5 14 moveto 
1 -1 scale
(40) t 
GR
GR
GS
[0.75 0 0 0.75 217.5 284.50001] CT
0.149 GC
/Helvetica 13 F
GS
[1 0 0 1 0 0] CT
-7.5 14 moveto 
1 -1 scale
(50) t 
GR
GR
GS
[0.75 0 0 0.75 250.05 284.50001] CT
0.149 GC
/Helvetica 13 F
GS
[1 0 0 1 0 0] CT
-7.5 14 moveto 
1 -1 scale
(60) t 
GR
GR
GS
[0.75 0 0 0.75 282.59999 284.50001] CT
0.149 GC
/Helvetica 13 F
GS
[1 0 0 1 0 0] CT
-7.5 14 moveto 
1 -1 scale
(70) t 
GR
GR
GS
[0.75 0 0 0.75 315.15001 284.50001] CT
0.149 GC
/Helvetica 13 F
GS
[1 0 0 1 0 0] CT
-7.5 14 moveto 
1 -1 scale
(80) t 
GR
GR
GS
[0.75 0 0 0.75 347.7 284.50001] CT
0.149 GC
/Helvetica 13 F
GS
[1 0 0 1 0 0] CT
-7.5 14 moveto 
1 -1 scale
(90) t 
GR
GR
GS
[0.75 0 0 0.75 380.25 284.50001] CT
0.149 GC
/Helvetica 13 F
GS
[1 0 0 1 0 0] CT
-11 14 moveto 
1 -1 scale
(100) t 
GR
GR
GS
[0 -0.75 0.75 0 33.5 151.87487] CT
0.149 GC
/Helvetica 15 F
GS
[1 0 0 1 0 0] CT
-61.5 -4 moveto 
1 -1 scale
(|P\(f\)| MAgnitud dB) t 
GR
GR
GS
[0.75 0 0 0.75 0 0] CT
0.149 GC
2 setlinecap
10.0 ML
N
73 374 M
73 31 L
S
GR
GS
[0.75 0 0 0.75 0 0] CT
0.149 GC
2 setlinecap
10.0 ML
N
507 374 M
507 31 L
S
GR
GS
[0.75 0 0 0.75 0 0] CT
0.149 GC
2 setlinecap
10.0 ML
N
73 374 M
77.34 374 L
S
GR
GS
[0.75 0 0 0.75 0 0] CT
0.149 GC
2 setlinecap
10.0 ML
N
73 316.833 M
77.34 316.833 L
S
GR
GS
[0.75 0 0 0.75 0 0] CT
0.149 GC
2 setlinecap
10.0 ML
N
73 259.667 M
77.34 259.667 L
S
GR
GS
[0.75 0 0 0.75 0 0] CT
0.149 GC
2 setlinecap
10.0 ML
N
73 202.5 M
77.34 202.5 L
S
GR
GS
[0.75 0 0 0.75 0 0] CT
0.149 GC
2 setlinecap
10.0 ML
N
73 145.333 M
77.34 145.333 L
S
GR
GS
[0.75 0 0 0.75 0 0] CT
0.149 GC
2 setlinecap
10.0 ML
N
73 88.167 M
77.34 88.167 L
S
GR
GS
[0.75 0 0 0.75 0 0] CT
0.149 GC
2 setlinecap
10.0 ML
N
73 31 M
77.34 31 L
S
GR
GS
[0.75 0 0 0.75 0 0] CT
0.149 GC
2 setlinecap
10.0 ML
N
507 374 M
502.66 374 L
S
GR
GS
[0.75 0 0 0.75 0 0] CT
0.149 GC
2 setlinecap
10.0 ML
N
507 316.833 M
502.66 316.833 L
S
GR
GS
[0.75 0 0 0.75 0 0] CT
0.149 GC
2 setlinecap
10.0 ML
N
507 259.667 M
502.66 259.667 L
S
GR
GS
[0.75 0 0 0.75 0 0] CT
0.149 GC
2 setlinecap
10.0 ML
N
507 202.5 M
502.66 202.5 L
S
GR
GS
[0.75 0 0 0.75 0 0] CT
0.149 GC
2 setlinecap
10.0 ML
N
507 145.333 M
502.66 145.333 L
S
GR
GS
[0.75 0 0 0.75 0 0] CT
0.149 GC
2 setlinecap
10.0 ML
N
507 88.167 M
502.66 88.167 L
S
GR
GS
[0.75 0 0 0.75 0 0] CT
0.149 GC
2 setlinecap
10.0 ML
N
507 31 M
502.66 31 L
S
GR
GS
[0.75 0 0 0.75 50.75 280.5] CT
0.149 GC
/Helvetica 13 F
GS
[1 0 0 1 0 0] CT
-8 5.5 moveto 
1 -1 scale
(0) t 
GR
GR
GS
[0.75 0 0 0.75 50.75 237.62501] CT
0.149 GC
/Helvetica 13 F
GS
[1 0 0 1 0 0] CT
-19 5.5 moveto 
1 -1 scale
(0.5) t 
GR
GR
GS
[0.75 0 0 0.75 50.75 194.74999] CT
0.149 GC
/Helvetica 13 F
GS
[1 0 0 1 0 0] CT
-8 5.5 moveto 
1 -1 scale
(1) t 
GR
GR
GS
[0.75 0 0 0.75 50.75 151.875] CT
0.149 GC
/Helvetica 13 F
GS
[1 0 0 1 0 0] CT
-19 5.5 moveto 
1 -1 scale
(1.5) t 
GR
GR
GS
[0.75 0 0 0.75 50.75 109] CT
0.149 GC
/Helvetica 13 F
GS
[1 0 0 1 0 0] CT
-8 5.5 moveto 
1 -1 scale
(2) t 
GR
GR
GS
[0.75 0 0 0.75 50.75 66.125] CT
0.149 GC
/Helvetica 13 F
GS
[1 0 0 1 0 0] CT
-19 5.5 moveto 
1 -1 scale
(2.5) t 
GR
GR
GS
[0.75 0 0 0.75 50.75 23.25] CT
0.149 GC
/Helvetica 13 F
GS
[1 0 0 1 0 0] CT
-8 5.5 moveto 
1 -1 scale
(3) t 
GR
GR
GS
[0.75 0 0 0.75 0 0] CT
0 0.447 0.741 RC
2 setlinecap
10.0 ML
N
79.5 81.5 M
78.736 79.149 L
76.736 77.696 L
74.264 77.696 L
72.264 79.149 L
71.5 81.5 L
72.264 83.851 L
74.264 85.304 L
76.736 85.304 L
78.736 83.851 L
79.5 81.5 L
S
GR
GS
[0.75 0 0 0.75 0 0] CT
0 0.447 0.741 RC
2 setlinecap
10.0 ML
N
82.5 206.5 M
81.736 204.149 L
79.736 202.696 L
77.264 202.696 L
75.264 204.149 L
74.5 206.5 L
75.264 208.851 L
77.264 210.304 L
79.736 210.304 L
81.736 208.851 L
82.5 206.5 L
S
GR
GS
[0.75 0 0 0.75 0 0] CT
0 0.447 0.741 RC
2 setlinecap
10.0 ML
N
85.5 346.5 M
84.736 344.149 L
82.736 342.696 L
80.264 342.696 L
78.264 344.149 L
77.5 346.5 L
78.264 348.851 L
80.264 350.304 L
82.736 350.304 L
84.736 348.851 L
85.5 346.5 L
S
GR
GS
[0.75 0 0 0.75 0 0] CT
0 0.447 0.741 RC
2 setlinecap
10.0 ML
N
88.5 283.5 M
87.736 281.149 L
85.736 279.696 L
83.264 279.696 L
81.264 281.149 L
80.5 283.5 L
81.264 285.851 L
83.264 287.304 L
85.736 287.304 L
87.736 285.851 L
88.5 283.5 L
S
GR
GS
[0.75 0 0 0.75 0 0] CT
0 0.447 0.741 RC
2 setlinecap
10.0 ML
N
91.5 298.5 M
90.736 296.149 L
88.736 294.696 L
86.264 294.696 L
84.264 296.149 L
83.5 298.5 L
84.264 300.851 L
86.264 302.304 L
88.736 302.304 L
90.736 300.851 L
91.5 298.5 L
S
GR
GS
[0.75 0 0 0.75 0 0] CT
0 0.447 0.741 RC
2 setlinecap
10.0 ML
N
94.5 279.5 M
93.736 277.149 L
91.736 275.696 L
89.264 275.696 L
87.264 277.149 L
86.5 279.5 L
87.264 281.851 L
89.264 283.304 L
91.736 283.304 L
93.736 281.851 L
94.5 279.5 L
S
GR
GS
[0.75 0 0 0.75 0 0] CT
0 0.447 0.741 RC
2 setlinecap
10.0 ML
N
97.5 288.5 M
96.736 286.149 L
94.736 284.696 L
92.264 284.696 L
90.264 286.149 L
89.5 288.5 L
90.264 290.851 L
92.264 292.304 L
94.736 292.304 L
96.736 290.851 L
97.5 288.5 L
S
GR
GS
[0.75 0 0 0.75 0 0] CT
0 0.447 0.741 RC
2 setlinecap
10.0 ML
N
100.5 346.5 M
99.736 344.149 L
97.736 342.696 L
95.264 342.696 L
93.264 344.149 L
92.5 346.5 L
93.264 348.851 L
95.264 350.304 L
97.736 350.304 L
99.736 348.851 L
100.5 346.5 L
S
GR
GS
[0.75 0 0 0.75 0 0] CT
0 0.447 0.741 RC
2 setlinecap
10.0 ML
N
103.5 327.5 M
102.736 325.149 L
100.736 323.696 L
98.264 323.696 L
96.264 325.149 L
95.5 327.5 L
96.264 329.851 L
98.264 331.304 L
100.736 331.304 L
102.736 329.851 L
103.5 327.5 L
S
GR
GS
[0.75 0 0 0.75 0 0] CT
0 0.447 0.741 RC
2 setlinecap
10.0 ML
N
106.5 341.5 M
105.736 339.149 L
103.736 337.696 L
101.264 337.696 L
99.264 339.149 L
98.5 341.5 L
99.264 343.851 L
101.264 345.304 L
103.736 345.304 L
105.736 343.851 L
106.5 341.5 L
S
GR
GS
[0.75 0 0 0.75 0 0] CT
0 0.447 0.741 RC
2 setlinecap
10.0 ML
N
110.5 285.5 M
109.736 283.149 L
107.736 281.696 L
105.264 281.696 L
103.264 283.149 L
102.5 285.5 L
103.264 287.851 L
105.264 289.304 L
107.736 289.304 L
109.736 287.851 L
110.5 285.5 L
S
GR
GS
[0.75 0 0 0.75 0 0] CT
0 0.447 0.741 RC
2 setlinecap
10.0 ML
N
113.5 296.5 M
112.736 294.149 L
110.736 292.696 L
108.264 292.696 L
106.264 294.149 L
105.5 296.5 L
106.264 298.851 L
108.264 300.304 L
110.736 300.304 L
112.736 298.851 L
113.5 296.5 L
S
GR
GS
[0.75 0 0 0.75 0 0] CT
0 0.447 0.741 RC
2 setlinecap
10.0 ML
N
116.5 318.5 M
115.736 316.149 L
113.736 314.696 L
111.264 314.696 L
109.264 316.149 L
108.5 318.5 L
109.264 320.851 L
111.264 322.304 L
113.736 322.304 L
115.736 320.851 L
116.5 318.5 L
S
GR
GS
[0.75 0 0 0.75 0 0] CT
0 0.447 0.741 RC
2 setlinecap
10.0 ML
N
119.5 321.5 M
118.736 319.149 L
116.736 317.696 L
114.264 317.696 L
112.264 319.149 L
111.5 321.5 L
112.264 323.851 L
114.264 325.304 L
116.736 325.304 L
118.736 323.851 L
119.5 321.5 L
S
GR
GS
[0.75 0 0 0.75 0 0] CT
0 0.447 0.741 RC
2 setlinecap
10.0 ML
N
122.5 368.5 M
121.736 366.149 L
119.736 364.696 L
117.264 364.696 L
115.264 366.149 L
114.5 368.5 L
115.264 370.851 L
117.264 372.304 L
119.736 372.304 L
121.736 370.851 L
122.5 368.5 L
S
GR
GS
[0.75 0 0 0.75 0 0] CT
0 0.447 0.741 RC
2 setlinecap
10.0 ML
N
125.5 327.5 M
124.736 325.149 L
122.736 323.696 L
120.264 323.696 L
118.264 325.149 L
117.5 327.5 L
118.264 329.851 L
120.264 331.304 L
122.736 331.304 L
124.736 329.851 L
125.5 327.5 L
S
GR
GS
[0.75 0 0 0.75 0 0] CT
0 0.447 0.741 RC
2 setlinecap
10.0 ML
N
128.5 315.5 M
127.736 313.149 L
125.736 311.696 L
123.264 311.696 L
121.264 313.149 L
120.5 315.5 L
121.264 317.851 L
123.264 319.304 L
125.736 319.304 L
127.736 317.851 L
128.5 315.5 L
S
GR
GS
[0.75 0 0 0.75 0 0] CT
0 0.447 0.741 RC
2 setlinecap
10.0 ML
N
131.5 330.5 M
130.736 328.149 L
128.736 326.696 L
126.264 326.696 L
124.264 328.149 L
123.5 330.5 L
124.264 332.851 L
126.264 334.304 L
128.736 334.304 L
130.736 332.851 L
131.5 330.5 L
S
GR
GS
[0.75 0 0 0.75 0 0] CT
0 0.447 0.741 RC
2 setlinecap
10.0 ML
N
134.5 323.5 M
133.736 321.149 L
131.736 319.696 L
129.264 319.696 L
127.264 321.149 L
126.5 323.5 L
127.264 325.851 L
129.264 327.304 L
131.736 327.304 L
133.736 325.851 L
134.5 323.5 L
S
GR
GS
[0.75 0 0 0.75 0 0] CT
0 0.447 0.741 RC
2 setlinecap
10.0 ML
N
137.5 350.5 M
136.736 348.149 L
134.736 346.696 L
132.264 346.696 L
130.264 348.149 L
129.5 350.5 L
130.264 352.851 L
132.264 354.304 L
134.736 354.304 L
136.736 352.851 L
137.5 350.5 L
S
GR
GS
[0.75 0 0 0.75 0 0] CT
0 0.447 0.741 RC
2 setlinecap
10.0 ML
N
140.5 342.5 M
139.736 340.149 L
137.736 338.696 L
135.264 338.696 L
133.264 340.149 L
132.5 342.5 L
133.264 344.851 L
135.264 346.304 L
137.736 346.304 L
139.736 344.851 L
140.5 342.5 L
S
GR
GS
[0.75 0 0 0.75 0 0] CT
0 0.447 0.741 RC
2 setlinecap
10.0 ML
N
143.5 332.5 M
142.736 330.149 L
140.736 328.696 L
138.264 328.696 L
136.264 330.149 L
135.5 332.5 L
136.264 334.851 L
138.264 336.304 L
140.736 336.304 L
142.736 334.851 L
143.5 332.5 L
S
GR
GS
[0.75 0 0 0.75 0 0] CT
0 0.447 0.741 RC
2 setlinecap
10.0 ML
N
146.5 360.5 M
145.736 358.149 L
143.736 356.696 L
141.264 356.696 L
139.264 358.149 L
138.5 360.5 L
139.264 362.851 L
141.264 364.304 L
143.736 364.304 L
145.736 362.851 L
146.5 360.5 L
S
GR
GS
[0.75 0 0 0.75 0 0] CT
0 0.447 0.741 RC
2 setlinecap
10.0 ML
N
149.5 337.5 M
148.736 335.149 L
146.736 333.696 L
144.264 333.696 L
142.264 335.149 L
141.5 337.5 L
142.264 339.851 L
144.264 341.304 L
146.736 341.304 L
148.736 339.851 L
149.5 337.5 L
S
GR
GS
[0.75 0 0 0.75 0 0] CT
0 0.447 0.741 RC
2 setlinecap
10.0 ML
N
152.5 366.5 M
151.736 364.149 L
149.736 362.696 L
147.264 362.696 L
145.264 364.149 L
144.5 366.5 L
145.264 368.851 L
147.264 370.304 L
149.736 370.304 L
151.736 368.851 L
152.5 366.5 L
S
GR
GS
[0.75 0 0 0.75 0 0] CT
0 0.447 0.741 RC
2 setlinecap
10.0 ML
N
156.5 367.5 M
155.736 365.149 L
153.736 363.696 L
151.264 363.696 L
149.264 365.149 L
148.5 367.5 L
149.264 369.851 L
151.264 371.304 L
153.736 371.304 L
155.736 369.851 L
156.5 367.5 L
S
GR
GS
[0.75 0 0 0.75 0 0] CT
0 0.447 0.741 RC
2 setlinecap
10.0 ML
N
159.5 342.5 M
158.736 340.149 L
156.736 338.696 L
154.264 338.696 L
152.264 340.149 L
151.5 342.5 L
152.264 344.851 L
154.264 346.304 L
156.736 346.304 L
158.736 344.851 L
159.5 342.5 L
S
GR
GS
[0.75 0 0 0.75 0 0] CT
0 0.447 0.741 RC
2 setlinecap
10.0 ML
N
162.5 355.5 M
161.736 353.149 L
159.736 351.696 L
157.264 351.696 L
155.264 353.149 L
154.5 355.5 L
155.264 357.851 L
157.264 359.304 L
159.736 359.304 L
161.736 357.851 L
162.5 355.5 L
S
GR
GS
[0.75 0 0 0.75 0 0] CT
0 0.447 0.741 RC
2 setlinecap
10.0 ML
N
165.5 332.5 M
164.736 330.149 L
162.736 328.696 L
160.264 328.696 L
158.264 330.149 L
157.5 332.5 L
158.264 334.851 L
160.264 336.304 L
162.736 336.304 L
164.736 334.851 L
165.5 332.5 L
S
GR
GS
[0.75 0 0 0.75 0 0] CT
0 0.447 0.741 RC
2 setlinecap
10.0 ML
N
168.5 351.5 M
167.736 349.149 L
165.736 347.696 L
163.264 347.696 L
161.264 349.149 L
160.5 351.5 L
161.264 353.851 L
163.264 355.304 L
165.736 355.304 L
167.736 353.851 L
168.5 351.5 L
S
GR
GS
[0.75 0 0 0.75 0 0] CT
0 0.447 0.741 RC
2 setlinecap
10.0 ML
N
171.5 341.5 M
170.736 339.149 L
168.736 337.696 L
166.264 337.696 L
164.264 339.149 L
163.5 341.5 L
164.264 343.851 L
166.264 345.304 L
168.736 345.304 L
170.736 343.851 L
171.5 341.5 L
S
GR
GS
[0.75 0 0 0.75 0 0] CT
0 0.447 0.741 RC
2 setlinecap
10.0 ML
N
174.5 354.5 M
173.736 352.149 L
171.736 350.696 L
169.264 350.696 L
167.264 352.149 L
166.5 354.5 L
167.264 356.851 L
169.264 358.304 L
171.736 358.304 L
173.736 356.851 L
174.5 354.5 L
S
GR
GS
[0.75 0 0 0.75 0 0] CT
0 0.447 0.741 RC
2 setlinecap
10.0 ML
N
177.5 364.5 M
176.736 362.149 L
174.736 360.696 L
172.264 360.696 L
170.264 362.149 L
169.5 364.5 L
170.264 366.851 L
172.264 368.304 L
174.736 368.304 L
176.736 366.851 L
177.5 364.5 L
S
GR
GS
[0.75 0 0 0.75 0 0] CT
0 0.447 0.741 RC
2 setlinecap
10.0 ML
N
180.5 347.5 M
179.736 345.149 L
177.736 343.696 L
175.264 343.696 L
173.264 345.149 L
172.5 347.5 L
173.264 349.851 L
175.264 351.304 L
177.736 351.304 L
179.736 349.851 L
180.5 347.5 L
S
GR
GS
[0.75 0 0 0.75 0 0] CT
0 0.447 0.741 RC
2 setlinecap
10.0 ML
N
183.5 355.5 M
182.736 353.149 L
180.736 351.696 L
178.264 351.696 L
176.264 353.149 L
175.5 355.5 L
176.264 357.851 L
178.264 359.304 L
180.736 359.304 L
182.736 357.851 L
183.5 355.5 L
S
GR
GS
[0.75 0 0 0.75 0 0] CT
0 0.447 0.741 RC
2 setlinecap
10.0 ML
N
186.5 362.5 M
185.736 360.149 L
183.736 358.696 L
181.264 358.696 L
179.264 360.149 L
178.5 362.5 L
179.264 364.851 L
181.264 366.304 L
183.736 366.304 L
185.736 364.851 L
186.5 362.5 L
S
GR
GS
[0.75 0 0 0.75 0 0] CT
0 0.447 0.741 RC
2 setlinecap
10.0 ML
N
189.5 372.5 M
188.736 370.149 L
186.736 368.696 L
184.264 368.696 L
182.264 370.149 L
181.5 372.5 L
182.264 374.851 L
184.264 376.304 L
186.736 376.304 L
188.736 374.851 L
189.5 372.5 L
S
GR
GS
[0.75 0 0 0.75 0 0] CT
0 0.447 0.741 RC
2 setlinecap
10.0 ML
N
192.5 363.5 M
191.736 361.149 L
189.736 359.696 L
187.264 359.696 L
185.264 361.149 L
184.5 363.5 L
185.264 365.851 L
187.264 367.304 L
189.736 367.304 L
191.736 365.851 L
192.5 363.5 L
S
GR
GS
[0.75 0 0 0.75 0 0] CT
0 0.447 0.741 RC
2 setlinecap
10.0 ML
N
195.5 363.5 M
194.736 361.149 L
192.736 359.696 L
190.264 359.696 L
188.264 361.149 L
187.5 363.5 L
188.264 365.851 L
190.264 367.304 L
192.736 367.304 L
194.736 365.851 L
195.5 363.5 L
S
GR
GS
[0.75 0 0 0.75 0 0] CT
0 0.447 0.741 RC
2 setlinecap
10.0 ML
N
199.5 361.5 M
198.736 359.149 L
196.736 357.696 L
194.264 357.696 L
192.264 359.149 L
191.5 361.5 L
192.264 363.851 L
194.264 365.304 L
196.736 365.304 L
198.736 363.851 L
199.5 361.5 L
S
GR
GS
[0.75 0 0 0.75 0 0] CT
0 0.447 0.741 RC
2 setlinecap
10.0 ML
N
202.5 363.5 M
201.736 361.149 L
199.736 359.696 L
197.264 359.696 L
195.264 361.149 L
194.5 363.5 L
195.264 365.851 L
197.264 367.304 L
199.736 367.304 L
201.736 365.851 L
202.5 363.5 L
S
GR
GS
[0.75 0 0 0.75 0 0] CT
0 0.447 0.741 RC
2 setlinecap
10.0 ML
N
205.5 365.5 M
204.736 363.149 L
202.736 361.696 L
200.264 361.696 L
198.264 363.149 L
197.5 365.5 L
198.264 367.851 L
200.264 369.304 L
202.736 369.304 L
204.736 367.851 L
205.5 365.5 L
S
GR
GS
[0.75 0 0 0.75 0 0] CT
0 0.447 0.741 RC
2 setlinecap
10.0 ML
N
208.5 365.5 M
207.736 363.149 L
205.736 361.696 L
203.264 361.696 L
201.264 363.149 L
200.5 365.5 L
201.264 367.851 L
203.264 369.304 L
205.736 369.304 L
207.736 367.851 L
208.5 365.5 L
S
GR
GS
[0.75 0 0 0.75 0 0] CT
0 0.447 0.741 RC
2 setlinecap
10.0 ML
N
211.5 370.5 M
210.736 368.149 L
208.736 366.696 L
206.264 366.696 L
204.264 368.149 L
203.5 370.5 L
204.264 372.851 L
206.264 374.304 L
208.736 374.304 L
210.736 372.851 L
211.5 370.5 L
S
GR
GS
[0.75 0 0 0.75 0 0] CT
0 0.447 0.741 RC
2 setlinecap
10.0 ML
N
214.5 356.5 M
213.736 354.149 L
211.736 352.696 L
209.264 352.696 L
207.264 354.149 L
206.5 356.5 L
207.264 358.851 L
209.264 360.304 L
211.736 360.304 L
213.736 358.851 L
214.5 356.5 L
S
GR
GS
[0.75 0 0 0.75 0 0] CT
0 0.447 0.741 RC
2 setlinecap
10.0 ML
N
217.5 353.5 M
216.736 351.149 L
214.736 349.696 L
212.264 349.696 L
210.264 351.149 L
209.5 353.5 L
210.264 355.851 L
212.264 357.304 L
214.736 357.304 L
216.736 355.851 L
217.5 353.5 L
S
GR
GS
[0.75 0 0 0.75 0 0] CT
0 0.447 0.741 RC
2 setlinecap
10.0 ML
N
220.5 361.5 M
219.736 359.149 L
217.736 357.696 L
215.264 357.696 L
213.264 359.149 L
212.5 361.5 L
213.264 363.851 L
215.264 365.304 L
217.736 365.304 L
219.736 363.851 L
220.5 361.5 L
S
GR
GS
[0.75 0 0 0.75 0 0] CT
0 0.447 0.741 RC
2 setlinecap
10.0 ML
N
223.5 367.5 M
222.736 365.149 L
220.736 363.696 L
218.264 363.696 L
216.264 365.149 L
215.5 367.5 L
216.264 369.851 L
218.264 371.304 L
220.736 371.304 L
222.736 369.851 L
223.5 367.5 L
S
GR
GS
[0.75 0 0 0.75 0 0] CT
0 0.447 0.741 RC
2 setlinecap
10.0 ML
N
226.5 365.5 M
225.736 363.149 L
223.736 361.696 L
221.264 361.696 L
219.264 363.149 L
218.5 365.5 L
219.264 367.851 L
221.264 369.304 L
223.736 369.304 L
225.736 367.851 L
226.5 365.5 L
S
GR
GS
[0.75 0 0 0.75 0 0] CT
0 0.447 0.741 RC
2 setlinecap
10.0 ML
N
229.5 366.5 M
228.736 364.149 L
226.736 362.696 L
224.264 362.696 L
222.264 364.149 L
221.5 366.5 L
222.264 368.851 L
224.264 370.304 L
226.736 370.304 L
228.736 368.851 L
229.5 366.5 L
S
GR
GS
[0.75 0 0 0.75 0 0] CT
0 0.447 0.741 RC
2 setlinecap
10.0 ML
N
232.5 365.5 M
231.736 363.149 L
229.736 361.696 L
227.264 361.696 L
225.264 363.149 L
224.5 365.5 L
225.264 367.851 L
227.264 369.304 L
229.736 369.304 L
231.736 367.851 L
232.5 365.5 L
S
GR
GS
[0.75 0 0 0.75 0 0] CT
0 0.447 0.741 RC
2 setlinecap
10.0 ML
N
235.5 360.5 M
234.736 358.149 L
232.736 356.696 L
230.264 356.696 L
228.264 358.149 L
227.5 360.5 L
228.264 362.851 L
230.264 364.304 L
232.736 364.304 L
234.736 362.851 L
235.5 360.5 L
S
GR
GS
[0.75 0 0 0.75 0 0] CT
0 0.447 0.741 RC
2 setlinecap
10.0 ML
N
238.5 367.5 M
237.736 365.149 L
235.736 363.696 L
233.264 363.696 L
231.264 365.149 L
230.5 367.5 L
231.264 369.851 L
233.264 371.304 L
235.736 371.304 L
237.736 369.851 L
238.5 367.5 L
S
GR
GS
[0.75 0 0 0.75 0 0] CT
0 0.447 0.741 RC
2 setlinecap
10.0 ML
N
242.5 365.5 M
241.736 363.149 L
239.736 361.696 L
237.264 361.696 L
235.264 363.149 L
234.5 365.5 L
235.264 367.851 L
237.264 369.304 L
239.736 369.304 L
241.736 367.851 L
242.5 365.5 L
S
GR
GS
[0.75 0 0 0.75 0 0] CT
0 0.447 0.741 RC
2 setlinecap
10.0 ML
N
245.5 366.5 M
244.736 364.149 L
242.736 362.696 L
240.264 362.696 L
238.264 364.149 L
237.5 366.5 L
238.264 368.851 L
240.264 370.304 L
242.736 370.304 L
244.736 368.851 L
245.5 366.5 L
S
GR
GS
[0.75 0 0 0.75 0 0] CT
0 0.447 0.741 RC
2 setlinecap
10.0 ML
N
248.5 364.5 M
247.736 362.149 L
245.736 360.696 L
243.264 360.696 L
241.264 362.149 L
240.5 364.5 L
241.264 366.851 L
243.264 368.304 L
245.736 368.304 L
247.736 366.851 L
248.5 364.5 L
S
GR
GS
[0.75 0 0 0.75 0 0] CT
0 0.447 0.741 RC
2 setlinecap
10.0 ML
N
251.5 367.5 M
250.736 365.149 L
248.736 363.696 L
246.264 363.696 L
244.264 365.149 L
243.5 367.5 L
244.264 369.851 L
246.264 371.304 L
248.736 371.304 L
250.736 369.851 L
251.5 367.5 L
S
GR
GS
[0.75 0 0 0.75 0 0] CT
0 0.447 0.741 RC
2 setlinecap
10.0 ML
N
254.5 362.5 M
253.736 360.149 L
251.736 358.696 L
249.264 358.696 L
247.264 360.149 L
246.5 362.5 L
247.264 364.851 L
249.264 366.304 L
251.736 366.304 L
253.736 364.851 L
254.5 362.5 L
S
GR
GS
[0.75 0 0 0.75 0 0] CT
0 0.447 0.741 RC
2 setlinecap
10.0 ML
N
257.5 359.5 M
256.736 357.149 L
254.736 355.696 L
252.264 355.696 L
250.264 357.149 L
249.5 359.5 L
250.264 361.851 L
252.264 363.304 L
254.736 363.304 L
256.736 361.851 L
257.5 359.5 L
S
GR
GS
[0.75 0 0 0.75 0 0] CT
0 0.447 0.741 RC
2 setlinecap
10.0 ML
N
260.5 370.5 M
259.736 368.149 L
257.736 366.696 L
255.264 366.696 L
253.264 368.149 L
252.5 370.5 L
253.264 372.851 L
255.264 374.304 L
257.736 374.304 L
259.736 372.851 L
260.5 370.5 L
S
GR
GS
[0.75 0 0 0.75 0 0] CT
0 0.447 0.741 RC
2 setlinecap
10.0 ML
N
263.5 368.5 M
262.736 366.149 L
260.736 364.696 L
258.264 364.696 L
256.264 366.149 L
255.5 368.5 L
256.264 370.851 L
258.264 372.304 L
260.736 372.304 L
262.736 370.851 L
263.5 368.5 L
S
GR
GS
[0.75 0 0 0.75 0 0] CT
0 0.447 0.741 RC
2 setlinecap
10.0 ML
N
266.5 362.5 M
265.736 360.149 L
263.736 358.696 L
261.264 358.696 L
259.264 360.149 L
258.5 362.5 L
259.264 364.851 L
261.264 366.304 L
263.736 366.304 L
265.736 364.851 L
266.5 362.5 L
S
GR
GS
[0.75 0 0 0.75 0 0] CT
0 0.447 0.741 RC
2 setlinecap
10.0 ML
N
269.5 369.5 M
268.736 367.149 L
266.736 365.696 L
264.264 365.696 L
262.264 367.149 L
261.5 369.5 L
262.264 371.851 L
264.264 373.304 L
266.736 373.304 L
268.736 371.851 L
269.5 369.5 L
S
GR
GS
[0.75 0 0 0.75 0 0] CT
0 0.447 0.741 RC
2 setlinecap
10.0 ML
N
272.5 360.5 M
271.736 358.149 L
269.736 356.696 L
267.264 356.696 L
265.264 358.149 L
264.5 360.5 L
265.264 362.851 L
267.264 364.304 L
269.736 364.304 L
271.736 362.851 L
272.5 360.5 L
S
GR
GS
[0.75 0 0 0.75 0 0] CT
0 0.447 0.741 RC
2 setlinecap
10.0 ML
N
275.5 361.5 M
274.736 359.149 L
272.736 357.696 L
270.264 357.696 L
268.264 359.149 L
267.5 361.5 L
268.264 363.851 L
270.264 365.304 L
272.736 365.304 L
274.736 363.851 L
275.5 361.5 L
S
GR
GS
[0.75 0 0 0.75 0 0] CT
0 0.447 0.741 RC
2 setlinecap
10.0 ML
N
278.5 372.5 M
277.736 370.149 L
275.736 368.696 L
273.264 368.696 L
271.264 370.149 L
270.5 372.5 L
271.264 374.851 L
273.264 376.304 L
275.736 376.304 L
277.736 374.851 L
278.5 372.5 L
S
GR
GS
[0.75 0 0 0.75 0 0] CT
0 0.447 0.741 RC
2 setlinecap
10.0 ML
N
281.5 373.5 M
280.736 371.149 L
278.736 369.696 L
276.264 369.696 L
274.264 371.149 L
273.5 373.5 L
274.264 375.851 L
276.264 377.304 L
278.736 377.304 L
280.736 375.851 L
281.5 373.5 L
S
GR
GS
[0.75 0 0 0.75 0 0] CT
0 0.447 0.741 RC
2 setlinecap
10.0 ML
N
284.5 371.5 M
283.736 369.149 L
281.736 367.696 L
279.264 367.696 L
277.264 369.149 L
276.5 371.5 L
277.264 373.851 L
279.264 375.304 L
281.736 375.304 L
283.736 373.851 L
284.5 371.5 L
S
GR
GS
[0.75 0 0 0.75 0 0] CT
0 0.447 0.741 RC
2 setlinecap
10.0 ML
N
288.5 365.5 M
287.736 363.149 L
285.736 361.696 L
283.264 361.696 L
281.264 363.149 L
280.5 365.5 L
281.264 367.851 L
283.264 369.304 L
285.736 369.304 L
287.736 367.851 L
288.5 365.5 L
S
GR
GS
[0.75 0 0 0.75 0 0] CT
0 0.447 0.741 RC
2 setlinecap
10.0 ML
N
291.5 361.5 M
290.736 359.149 L
288.736 357.696 L
286.264 357.696 L
284.264 359.149 L
283.5 361.5 L
284.264 363.851 L
286.264 365.304 L
288.736 365.304 L
290.736 363.851 L
291.5 361.5 L
S
GR
GS
[0.75 0 0 0.75 0 0] CT
0 0.447 0.741 RC
2 setlinecap
10.0 ML
N
294.5 362.5 M
293.736 360.149 L
291.736 358.696 L
289.264 358.696 L
287.264 360.149 L
286.5 362.5 L
287.264 364.851 L
289.264 366.304 L
291.736 366.304 L
293.736 364.851 L
294.5 362.5 L
S
GR
GS
[0.75 0 0 0.75 0 0] CT
0 0.447 0.741 RC
2 setlinecap
10.0 ML
N
297.5 367.5 M
296.736 365.149 L
294.736 363.696 L
292.264 363.696 L
290.264 365.149 L
289.5 367.5 L
290.264 369.851 L
292.264 371.304 L
294.736 371.304 L
296.736 369.851 L
297.5 367.5 L
S
GR
GS
[0.75 0 0 0.75 0 0] CT
0 0.447 0.741 RC
2 setlinecap
10.0 ML
N
300.5 370.5 M
299.736 368.149 L
297.736 366.696 L
295.264 366.696 L
293.264 368.149 L
292.5 370.5 L
293.264 372.851 L
295.264 374.304 L
297.736 374.304 L
299.736 372.851 L
300.5 370.5 L
S
GR
GS
[0.75 0 0 0.75 0 0] CT
0 0.447 0.741 RC
2 setlinecap
10.0 ML
N
303.5 357.5 M
302.736 355.149 L
300.736 353.696 L
298.264 353.696 L
296.264 355.149 L
295.5 357.5 L
296.264 359.851 L
298.264 361.304 L
300.736 361.304 L
302.736 359.851 L
303.5 357.5 L
S
GR
GS
[0.75 0 0 0.75 0 0] CT
0 0.447 0.741 RC
2 setlinecap
10.0 ML
N
306.5 356.5 M
305.736 354.149 L
303.736 352.696 L
301.264 352.696 L
299.264 354.149 L
298.5 356.5 L
299.264 358.851 L
301.264 360.304 L
303.736 360.304 L
305.736 358.851 L
306.5 356.5 L
S
GR
GS
[0.75 0 0 0.75 0 0] CT
0 0.447 0.741 RC
2 setlinecap
10.0 ML
N
309.5 366.5 M
308.736 364.149 L
306.736 362.696 L
304.264 362.696 L
302.264 364.149 L
301.5 366.5 L
302.264 368.851 L
304.264 370.304 L
306.736 370.304 L
308.736 368.851 L
309.5 366.5 L
S
GR
GS
[0.75 0 0 0.75 0 0] CT
0 0.447 0.741 RC
2 setlinecap
10.0 ML
N
312.5 363.5 M
311.736 361.149 L
309.736 359.696 L
307.264 359.696 L
305.264 361.149 L
304.5 363.5 L
305.264 365.851 L
307.264 367.304 L
309.736 367.304 L
311.736 365.851 L
312.5 363.5 L
S
GR
GS
[0.75 0 0 0.75 0 0] CT
0 0.447 0.741 RC
2 setlinecap
10.0 ML
N
315.5 364.5 M
314.736 362.149 L
312.736 360.696 L
310.264 360.696 L
308.264 362.149 L
307.5 364.5 L
308.264 366.851 L
310.264 368.304 L
312.736 368.304 L
314.736 366.851 L
315.5 364.5 L
S
GR
GS
[0.75 0 0 0.75 0 0] CT
0 0.447 0.741 RC
2 setlinecap
10.0 ML
N
318.5 359.5 M
317.736 357.149 L
315.736 355.696 L
313.264 355.696 L
311.264 357.149 L
310.5 359.5 L
311.264 361.851 L
313.264 363.304 L
315.736 363.304 L
317.736 361.851 L
318.5 359.5 L
S
GR
GS
[0.75 0 0 0.75 0 0] CT
0 0.447 0.741 RC
2 setlinecap
10.0 ML
N
321.5 349.5 M
320.736 347.149 L
318.736 345.696 L
316.264 345.696 L
314.264 347.149 L
313.5 349.5 L
314.264 351.851 L
316.264 353.304 L
318.736 353.304 L
320.736 351.851 L
321.5 349.5 L
S
GR
GS
[0.75 0 0 0.75 0 0] CT
0 0.447 0.741 RC
2 setlinecap
10.0 ML
N
324.5 354.5 M
323.736 352.149 L
321.736 350.696 L
319.264 350.696 L
317.264 352.149 L
316.5 354.5 L
317.264 356.851 L
319.264 358.304 L
321.736 358.304 L
323.736 356.851 L
324.5 354.5 L
S
GR
GS
[0.75 0 0 0.75 0 0] CT
0 0.447 0.741 RC
2 setlinecap
10.0 ML
N
327.5 349.5 M
326.736 347.149 L
324.736 345.696 L
322.264 345.696 L
320.264 347.149 L
319.5 349.5 L
320.264 351.851 L
322.264 353.304 L
324.736 353.304 L
326.736 351.851 L
327.5 349.5 L
S
GR
GS
[0.75 0 0 0.75 0 0] CT
0 0.447 0.741 RC
2 setlinecap
10.0 ML
N
331.5 338.5 M
330.736 336.149 L
328.736 334.696 L
326.264 334.696 L
324.264 336.149 L
323.5 338.5 L
324.264 340.851 L
326.264 342.304 L
328.736 342.304 L
330.736 340.851 L
331.5 338.5 L
S
GR
GS
[0.75 0 0 0.75 0 0] CT
0 0.447 0.741 RC
2 setlinecap
10.0 ML
N
334.5 319.5 M
333.736 317.149 L
331.736 315.696 L
329.264 315.696 L
327.264 317.149 L
326.5 319.5 L
327.264 321.851 L
329.264 323.304 L
331.736 323.304 L
333.736 321.851 L
334.5 319.5 L
S
GR
GS
[0.75 0 0 0.75 0 0] CT
0 0.447 0.741 RC
2 setlinecap
10.0 ML
N
337.5 300.5 M
336.736 298.149 L
334.736 296.696 L
332.264 296.696 L
330.264 298.149 L
329.5 300.5 L
330.264 302.851 L
332.264 304.304 L
334.736 304.304 L
336.736 302.851 L
337.5 300.5 L
S
GR
GS
[0.75 0 0 0.75 0 0] CT
0 0.447 0.741 RC
2 setlinecap
10.0 ML
N
340.5 317.5 M
339.736 315.149 L
337.736 313.696 L
335.264 313.696 L
333.264 315.149 L
332.5 317.5 L
333.264 319.851 L
335.264 321.304 L
337.736 321.304 L
339.736 319.851 L
340.5 317.5 L
S
GR
GS
[0.75 0 0 0.75 0 0] CT
0 0.447 0.741 RC
2 setlinecap
10.0 ML
N
343.5 335.5 M
342.736 333.149 L
340.736 331.696 L
338.264 331.696 L
336.264 333.149 L
335.5 335.5 L
336.264 337.851 L
338.264 339.304 L
340.736 339.304 L
342.736 337.851 L
343.5 335.5 L
S
GR
GS
[0.75 0 0 0.75 0 0] CT
0 0.447 0.741 RC
2 setlinecap
10.0 ML
N
346.5 342.5 M
345.736 340.149 L
343.736 338.696 L
341.264 338.696 L
339.264 340.149 L
338.5 342.5 L
339.264 344.851 L
341.264 346.304 L
343.736 346.304 L
345.736 344.851 L
346.5 342.5 L
S
GR
GS
[0.75 0 0 0.75 0 0] CT
0 0.447 0.741 RC
2 setlinecap
10.0 ML
N
349.5 351.5 M
348.736 349.149 L
346.736 347.696 L
344.264 347.696 L
342.264 349.149 L
341.5 351.5 L
342.264 353.851 L
344.264 355.304 L
346.736 355.304 L
348.736 353.851 L
349.5 351.5 L
S
GR
GS
[0.75 0 0 0.75 0 0] CT
0 0.447 0.741 RC
2 setlinecap
10.0 ML
N
352.5 363.5 M
351.736 361.149 L
349.736 359.696 L
347.264 359.696 L
345.264 361.149 L
344.5 363.5 L
345.264 365.851 L
347.264 367.304 L
349.736 367.304 L
351.736 365.851 L
352.5 363.5 L
S
GR
GS
[0.75 0 0 0.75 0 0] CT
0 0.447 0.741 RC
2 setlinecap
10.0 ML
N
355.5 358.5 M
354.736 356.149 L
352.736 354.696 L
350.264 354.696 L
348.264 356.149 L
347.5 358.5 L
348.264 360.851 L
350.264 362.304 L
352.736 362.304 L
354.736 360.851 L
355.5 358.5 L
S
GR
GS
[0.75 0 0 0.75 0 0] CT
0 0.447 0.741 RC
2 setlinecap
10.0 ML
N
358.5 358.5 M
357.736 356.149 L
355.736 354.696 L
353.264 354.696 L
351.264 356.149 L
350.5 358.5 L
351.264 360.851 L
353.264 362.304 L
355.736 362.304 L
357.736 360.851 L
358.5 358.5 L
S
GR
GS
[0.75 0 0 0.75 0 0] CT
0 0.447 0.741 RC
2 setlinecap
10.0 ML
N
361.5 367.5 M
360.736 365.149 L
358.736 363.696 L
356.264 363.696 L
354.264 365.149 L
353.5 367.5 L
354.264 369.851 L
356.264 371.304 L
358.736 371.304 L
360.736 369.851 L
361.5 367.5 L
S
GR
GS
[0.75 0 0 0.75 0 0] CT
0 0.447 0.741 RC
2 setlinecap
10.0 ML
N
364.5 363.5 M
363.736 361.149 L
361.736 359.696 L
359.264 359.696 L
357.264 361.149 L
356.5 363.5 L
357.264 365.851 L
359.264 367.304 L
361.736 367.304 L
363.736 365.851 L
364.5 363.5 L
S
GR
GS
[0.75 0 0 0.75 0 0] CT
0 0.447 0.741 RC
2 setlinecap
10.0 ML
N
367.5 363.5 M
366.736 361.149 L
364.736 359.696 L
362.264 359.696 L
360.264 361.149 L
359.5 363.5 L
360.264 365.851 L
362.264 367.304 L
364.736 367.304 L
366.736 365.851 L
367.5 363.5 L
S
GR
GS
[0.75 0 0 0.75 0 0] CT
0 0.447 0.741 RC
2 setlinecap
10.0 ML
N
370.5 370.5 M
369.736 368.149 L
367.736 366.696 L
365.264 366.696 L
363.264 368.149 L
362.5 370.5 L
363.264 372.851 L
365.264 374.304 L
367.736 374.304 L
369.736 372.851 L
370.5 370.5 L
S
GR
GS
[0.75 0 0 0.75 0 0] CT
0 0.447 0.741 RC
2 setlinecap
10.0 ML
N
374.5 363.5 M
373.736 361.149 L
371.736 359.696 L
369.264 359.696 L
367.264 361.149 L
366.5 363.5 L
367.264 365.851 L
369.264 367.304 L
371.736 367.304 L
373.736 365.851 L
374.5 363.5 L
S
GR
GS
[0.75 0 0 0.75 0 0] CT
0 0.447 0.741 RC
2 setlinecap
10.0 ML
N
377.5 364.5 M
376.736 362.149 L
374.736 360.696 L
372.264 360.696 L
370.264 362.149 L
369.5 364.5 L
370.264 366.851 L
372.264 368.304 L
374.736 368.304 L
376.736 366.851 L
377.5 364.5 L
S
GR
GS
[0.75 0 0 0.75 0 0] CT
0 0.447 0.741 RC
2 setlinecap
10.0 ML
N
380.5 370.5 M
379.736 368.149 L
377.736 366.696 L
375.264 366.696 L
373.264 368.149 L
372.5 370.5 L
373.264 372.851 L
375.264 374.304 L
377.736 374.304 L
379.736 372.851 L
380.5 370.5 L
S
GR
GS
[0.75 0 0 0.75 0 0] CT
0 0.447 0.741 RC
2 setlinecap
10.0 ML
N
383.5 367.5 M
382.736 365.149 L
380.736 363.696 L
378.264 363.696 L
376.264 365.149 L
375.5 367.5 L
376.264 369.851 L
378.264 371.304 L
380.736 371.304 L
382.736 369.851 L
383.5 367.5 L
S
GR
GS
[0.75 0 0 0.75 0 0] CT
0 0.447 0.741 RC
2 setlinecap
10.0 ML
N
386.5 366.5 M
385.736 364.149 L
383.736 362.696 L
381.264 362.696 L
379.264 364.149 L
378.5 366.5 L
379.264 368.851 L
381.264 370.304 L
383.736 370.304 L
385.736 368.851 L
386.5 366.5 L
S
GR
GS
[0.75 0 0 0.75 0 0] CT
0 0.447 0.741 RC
2 setlinecap
10.0 ML
N
389.5 368.5 M
388.736 366.149 L
386.736 364.696 L
384.264 364.696 L
382.264 366.149 L
381.5 368.5 L
382.264 370.851 L
384.264 372.304 L
386.736 372.304 L
388.736 370.851 L
389.5 368.5 L
S
GR
GS
[0.75 0 0 0.75 0 0] CT
0 0.447 0.741 RC
2 setlinecap
10.0 ML
N
392.5 371.5 M
391.736 369.149 L
389.736 367.696 L
387.264 367.696 L
385.264 369.149 L
384.5 371.5 L
385.264 373.851 L
387.264 375.304 L
389.736 375.304 L
391.736 373.851 L
392.5 371.5 L
S
GR
GS
[0.75 0 0 0.75 0 0] CT
0 0.447 0.741 RC
2 setlinecap
10.0 ML
N
395.5 369.5 M
394.736 367.149 L
392.736 365.696 L
390.264 365.696 L
388.264 367.149 L
387.5 369.5 L
388.264 371.851 L
390.264 373.304 L
392.736 373.304 L
394.736 371.851 L
395.5 369.5 L
S
GR
GS
[0.75 0 0 0.75 0 0] CT
0 0.447 0.741 RC
2 setlinecap
10.0 ML
N
398.5 369.5 M
397.736 367.149 L
395.736 365.696 L
393.264 365.696 L
391.264 367.149 L
390.5 369.5 L
391.264 371.851 L
393.264 373.304 L
395.736 373.304 L
397.736 371.851 L
398.5 369.5 L
S
GR
GS
[0.75 0 0 0.75 0 0] CT
0 0.447 0.741 RC
2 setlinecap
10.0 ML
N
401.5 370.5 M
400.736 368.149 L
398.736 366.696 L
396.264 366.696 L
394.264 368.149 L
393.5 370.5 L
394.264 372.851 L
396.264 374.304 L
398.736 374.304 L
400.736 372.851 L
401.5 370.5 L
S
GR
GS
[0.75 0 0 0.75 0 0] CT
0 0.447 0.741 RC
2 setlinecap
10.0 ML
N
404.5 369.5 M
403.736 367.149 L
401.736 365.696 L
399.264 365.696 L
397.264 367.149 L
396.5 369.5 L
397.264 371.851 L
399.264 373.304 L
401.736 373.304 L
403.736 371.851 L
404.5 369.5 L
S
GR
GS
[0.75 0 0 0.75 0 0] CT
0 0.447 0.741 RC
2 setlinecap
10.0 ML
N
407.5 368.5 M
406.736 366.149 L
404.736 364.696 L
402.264 364.696 L
400.264 366.149 L
399.5 368.5 L
400.264 370.851 L
402.264 372.304 L
404.736 372.304 L
406.736 370.851 L
407.5 368.5 L
S
GR
GS
[0.75 0 0 0.75 0 0] CT
0 0.447 0.741 RC
2 setlinecap
10.0 ML
N
410.5 373.5 M
409.736 371.149 L
407.736 369.696 L
405.264 369.696 L
403.264 371.149 L
402.5 373.5 L
403.264 375.851 L
405.264 377.304 L
407.736 377.304 L
409.736 375.851 L
410.5 373.5 L
S
GR
GS
[0.75 0 0 0.75 0 0] CT
0 0.447 0.741 RC
2 setlinecap
10.0 ML
N
413.5 369.5 M
412.736 367.149 L
410.736 365.696 L
408.264 365.696 L
406.264 367.149 L
405.5 369.5 L
406.264 371.851 L
408.264 373.304 L
410.736 373.304 L
412.736 371.851 L
413.5 369.5 L
S
GR
GS
[0.75 0 0 0.75 0 0] CT
0 0.447 0.741 RC
2 setlinecap
10.0 ML
N
416.5 369.5 M
415.736 367.149 L
413.736 365.696 L
411.264 365.696 L
409.264 367.149 L
408.5 369.5 L
409.264 371.851 L
411.264 373.304 L
413.736 373.304 L
415.736 371.851 L
416.5 369.5 L
S
GR
GS
[0.75 0 0 0.75 0 0] CT
0 0.447 0.741 RC
2 setlinecap
10.0 ML
N
420.5 371.5 M
419.736 369.149 L
417.736 367.696 L
415.264 367.696 L
413.264 369.149 L
412.5 371.5 L
413.264 373.851 L
415.264 375.304 L
417.736 375.304 L
419.736 373.851 L
420.5 371.5 L
S
GR
GS
[0.75 0 0 0.75 0 0] CT
0 0.447 0.741 RC
2 setlinecap
10.0 ML
N
423.5 372.5 M
422.736 370.149 L
420.736 368.696 L
418.264 368.696 L
416.264 370.149 L
415.5 372.5 L
416.264 374.851 L
418.264 376.304 L
420.736 376.304 L
422.736 374.851 L
423.5 372.5 L
S
GR
GS
[0.75 0 0 0.75 0 0] CT
0 0.447 0.741 RC
2 setlinecap
10.0 ML
N
426.5 372.5 M
425.736 370.149 L
423.736 368.696 L
421.264 368.696 L
419.264 370.149 L
418.5 372.5 L
419.264 374.851 L
421.264 376.304 L
423.736 376.304 L
425.736 374.851 L
426.5 372.5 L
S
GR
GS
[0.75 0 0 0.75 0 0] CT
0 0.447 0.741 RC
2 setlinecap
10.0 ML
N
429.5 372.5 M
428.736 370.149 L
426.736 368.696 L
424.264 368.696 L
422.264 370.149 L
421.5 372.5 L
422.264 374.851 L
424.264 376.304 L
426.736 376.304 L
428.736 374.851 L
429.5 372.5 L
S
GR
GS
[0.75 0 0 0.75 0 0] CT
0 0.447 0.741 RC
2 setlinecap
10.0 ML
N
432.5 371.5 M
431.736 369.149 L
429.736 367.696 L
427.264 367.696 L
425.264 369.149 L
424.5 371.5 L
425.264 373.851 L
427.264 375.304 L
429.736 375.304 L
431.736 373.851 L
432.5 371.5 L
S
GR
GS
[0.75 0 0 0.75 0 0] CT
0 0.447 0.741 RC
2 setlinecap
10.0 ML
N
435.5 370.5 M
434.736 368.149 L
432.736 366.696 L
430.264 366.696 L
428.264 368.149 L
427.5 370.5 L
428.264 372.851 L
430.264 374.304 L
432.736 374.304 L
434.736 372.851 L
435.5 370.5 L
S
GR
GS
[0.75 0 0 0.75 0 0] CT
0 0.447 0.741 RC
2 setlinecap
10.0 ML
N
438.5 370.5 M
437.736 368.149 L
435.736 366.696 L
433.264 366.696 L
431.264 368.149 L
430.5 370.5 L
431.264 372.851 L
433.264 374.304 L
435.736 374.304 L
437.736 372.851 L
438.5 370.5 L
S
GR
GS
[0.75 0 0 0.75 0 0] CT
0 0.447 0.741 RC
2 setlinecap
10.0 ML
N
441.5 373.5 M
440.736 371.149 L
438.736 369.696 L
436.264 369.696 L
434.264 371.149 L
433.5 373.5 L
434.264 375.851 L
436.264 377.304 L
438.736 377.304 L
440.736 375.851 L
441.5 373.5 L
S
GR
GS
[0.75 0 0 0.75 0 0] CT
0 0.447 0.741 RC
2 setlinecap
10.0 ML
N
444.5 369.5 M
443.736 367.149 L
441.736 365.696 L
439.264 365.696 L
437.264 367.149 L
436.5 369.5 L
437.264 371.851 L
439.264 373.304 L
441.736 373.304 L
443.736 371.851 L
444.5 369.5 L
S
GR
GS
[0.75 0 0 0.75 0 0] CT
0 0.447 0.741 RC
2 setlinecap
10.0 ML
N
447.5 370.5 M
446.736 368.149 L
444.736 366.696 L
442.264 366.696 L
440.264 368.149 L
439.5 370.5 L
440.264 372.851 L
442.264 374.304 L
444.736 374.304 L
446.736 372.851 L
447.5 370.5 L
S
GR
GS
[0.75 0 0 0.75 0 0] CT
0 0.447 0.741 RC
2 setlinecap
10.0 ML
N
450.5 371.5 M
449.736 369.149 L
447.736 367.696 L
445.264 367.696 L
443.264 369.149 L
442.5 371.5 L
443.264 373.851 L
445.264 375.304 L
447.736 375.304 L
449.736 373.851 L
450.5 371.5 L
S
GR
GS
[0.75 0 0 0.75 0 0] CT
0 0.447 0.741 RC
2 setlinecap
10.0 ML
N
453.5 370.5 M
452.736 368.149 L
450.736 366.696 L
448.264 366.696 L
446.264 368.149 L
445.5 370.5 L
446.264 372.851 L
448.264 374.304 L
450.736 374.304 L
452.736 372.851 L
453.5 370.5 L
S
GR
GS
[0.75 0 0 0.75 0 0] CT
0 0.447 0.741 RC
2 setlinecap
10.0 ML
N
456.5 372.5 M
455.736 370.149 L
453.736 368.696 L
451.264 368.696 L
449.264 370.149 L
448.5 372.5 L
449.264 374.851 L
451.264 376.304 L
453.736 376.304 L
455.736 374.851 L
456.5 372.5 L
S
GR
GS
[0.75 0 0 0.75 0 0] CT
0 0.447 0.741 RC
2 setlinecap
10.0 ML
N
459.5 370.5 M
458.736 368.149 L
456.736 366.696 L
454.264 366.696 L
452.264 368.149 L
451.5 370.5 L
452.264 372.851 L
454.264 374.304 L
456.736 374.304 L
458.736 372.851 L
459.5 370.5 L
S
GR
GS
[0.75 0 0 0.75 0 0] CT
0 0.447 0.741 RC
2 setlinecap
10.0 ML
N
463.5 368.5 M
462.736 366.149 L
460.736 364.696 L
458.264 364.696 L
456.264 366.149 L
455.5 368.5 L
456.264 370.851 L
458.264 372.304 L
460.736 372.304 L
462.736 370.851 L
463.5 368.5 L
S
GR
GS
[0.75 0 0 0.75 0 0] CT
0 0.447 0.741 RC
2 setlinecap
10.0 ML
N
466.5 372.5 M
465.736 370.149 L
463.736 368.696 L
461.264 368.696 L
459.264 370.149 L
458.5 372.5 L
459.264 374.851 L
461.264 376.304 L
463.736 376.304 L
465.736 374.851 L
466.5 372.5 L
S
GR
GS
[0.75 0 0 0.75 0 0] CT
0 0.447 0.741 RC
2 setlinecap
10.0 ML
N
469.5 370.5 M
468.736 368.149 L
466.736 366.696 L
464.264 366.696 L
462.264 368.149 L
461.5 370.5 L
462.264 372.851 L
464.264 374.304 L
466.736 374.304 L
468.736 372.851 L
469.5 370.5 L
S
GR
GS
[0.75 0 0 0.75 0 0] CT
0 0.447 0.741 RC
2 setlinecap
10.0 ML
N
472.5 372.5 M
471.736 370.149 L
469.736 368.696 L
467.264 368.696 L
465.264 370.149 L
464.5 372.5 L
465.264 374.851 L
467.264 376.304 L
469.736 376.304 L
471.736 374.851 L
472.5 372.5 L
S
GR
GS
[0.75 0 0 0.75 0 0] CT
0 0.447 0.741 RC
2 setlinecap
10.0 ML
N
475.5 373.5 M
474.736 371.149 L
472.736 369.696 L
470.264 369.696 L
468.264 371.149 L
467.5 373.5 L
468.264 375.851 L
470.264 377.304 L
472.736 377.304 L
474.736 375.851 L
475.5 373.5 L
S
GR
GS
[0.75 0 0 0.75 0 0] CT
0 0.447 0.741 RC
2 setlinecap
10.0 ML
N
478.5 371.5 M
477.736 369.149 L
475.736 367.696 L
473.264 367.696 L
471.264 369.149 L
470.5 371.5 L
471.264 373.851 L
473.264 375.304 L
475.736 375.304 L
477.736 373.851 L
478.5 371.5 L
S
GR
GS
[0.75 0 0 0.75 0 0] CT
0 0.447 0.741 RC
2 setlinecap
10.0 ML
N
481.5 372.5 M
480.736 370.149 L
478.736 368.696 L
476.264 368.696 L
474.264 370.149 L
473.5 372.5 L
474.264 374.851 L
476.264 376.304 L
478.736 376.304 L
480.736 374.851 L
481.5 372.5 L
S
GR
GS
[0.75 0 0 0.75 0 0] CT
0 0.447 0.741 RC
2 setlinecap
10.0 ML
N
484.5 373.5 M
483.736 371.149 L
481.736 369.696 L
479.264 369.696 L
477.264 371.149 L
476.5 373.5 L
477.264 375.851 L
479.264 377.304 L
481.736 377.304 L
483.736 375.851 L
484.5 373.5 L
S
GR
GS
[0.75 0 0 0.75 0 0] CT
0 0.447 0.741 RC
2 setlinecap
10.0 ML
N
487.5 372.5 M
486.736 370.149 L
484.736 368.696 L
482.264 368.696 L
480.264 370.149 L
479.5 372.5 L
480.264 374.851 L
482.264 376.304 L
484.736 376.304 L
486.736 374.851 L
487.5 372.5 L
S
GR
GS
[0.75 0 0 0.75 0 0] CT
0 0.447 0.741 RC
2 setlinecap
10.0 ML
N
490.5 371.5 M
489.736 369.149 L
487.736 367.696 L
485.264 367.696 L
483.264 369.149 L
482.5 371.5 L
483.264 373.851 L
485.264 375.304 L
487.736 375.304 L
489.736 373.851 L
490.5 371.5 L
S
GR
GS
[0.75 0 0 0.75 0 0] CT
0 0.447 0.741 RC
2 setlinecap
10.0 ML
N
493.5 371.5 M
492.736 369.149 L
490.736 367.696 L
488.264 367.696 L
486.264 369.149 L
485.5 371.5 L
486.264 373.851 L
488.264 375.304 L
490.736 375.304 L
492.736 373.851 L
493.5 371.5 L
S
GR
GS
[0.75 0 0 0.75 0 0] CT
0 0.447 0.741 RC
2 setlinecap
10.0 ML
N
496.5 371.5 M
495.736 369.149 L
493.736 367.696 L
491.264 367.696 L
489.264 369.149 L
488.5 371.5 L
489.264 373.851 L
491.264 375.304 L
493.736 375.304 L
495.736 373.851 L
496.5 371.5 L
S
GR
GS
[0.75 0 0 0.75 0 0] CT
0 0.447 0.741 RC
2 setlinecap
10.0 ML
N
499.5 370.5 M
498.736 368.149 L
496.736 366.696 L
494.264 366.696 L
492.264 368.149 L
491.5 370.5 L
492.264 372.851 L
494.264 374.304 L
496.736 374.304 L
498.736 372.851 L
499.5 370.5 L
S
GR
GS
[0.75 0 0 0.75 0 0] CT
0 0.447 0.741 RC
2 setlinecap
10.0 ML
N
502.5 371.5 M
501.736 369.149 L
499.736 367.696 L
497.264 367.696 L
495.264 369.149 L
494.5 371.5 L
495.264 373.851 L
497.264 375.304 L
499.736 375.304 L
501.736 373.851 L
502.5 371.5 L
S
GR
GS
[0.75 0 0 0.75 0 0] CT
0 0.447 0.741 RC
2 setlinecap
10.0 ML
N
506.5 371.5 M
505.736 369.149 L
503.736 367.696 L
501.264 367.696 L
499.264 369.149 L
498.5 371.5 L
499.264 373.851 L
501.264 375.304 L
503.736 375.304 L
505.736 373.851 L
506.5 371.5 L
S
GR
GS
[0.75 0 0 0.75 0 0] CT
0 0.447 0.741 RC
2 setlinecap
10.0 ML
N
509.5 372.5 M
508.736 370.149 L
506.736 368.696 L
504.264 368.696 L
502.264 370.149 L
501.5 372.5 L
502.264 374.851 L
504.264 376.304 L
506.736 376.304 L
508.736 374.851 L
509.5 372.5 L
S
GR
GS
[0.75 0 0 0.75 0 0] CT
0 0.447 0.741 RC
2 setlinecap
10.0 ML
N
75.302 374 M
75.302 81.093 L
S
GR
GS
[0.75 0 0 0.75 0 0] CT
0 0.447 0.741 RC
2 setlinecap
10.0 ML
N
78.372 374 M
78.372 206.126 L
S
GR
GS
[0.75 0 0 0.75 0 0] CT
0 0.447 0.741 RC
2 setlinecap
10.0 ML
N
81.442 374 M
81.442 346.686 L
S
GR
GS
[0.75 0 0 0.75 0 0] CT
0 0.447 0.741 RC
2 setlinecap
10.0 ML
N
84.512 374 M
84.512 283.157 L
S
GR
GS
[0.75 0 0 0.75 0 0] CT
0 0.447 0.741 RC
2 setlinecap
10.0 ML
N
87.582 374 M
87.582 298.021 L
S
GR
GS
[0.75 0 0 0.75 0 0] CT
0 0.447 0.741 RC
2 setlinecap
10.0 ML
N
90.652 374 M
90.652 279.703 L
S
GR
GS
[0.75 0 0 0.75 0 0] CT
0 0.447 0.741 RC
2 setlinecap
10.0 ML
N
93.721 374 M
93.721 288.354 L
S
GR
GS
[0.75 0 0 0.75 0 0] CT
0 0.447 0.741 RC
2 setlinecap
10.0 ML
N
96.791 374 M
96.791 346.692 L
S
GR
GS
[0.75 0 0 0.75 0 0] CT
0 0.447 0.741 RC
2 setlinecap
10.0 ML
N
99.861 374 M
99.861 327.182 L
S
GR
GS
[0.75 0 0 0.75 0 0] CT
0 0.447 0.741 RC
2 setlinecap
10.0 ML
N
102.931 374 M
102.931 341.891 L
S
GR
GS
[0.75 0 0 0.75 0 0] CT
0 0.447 0.741 RC
2 setlinecap
10.0 ML
N
106.001 374 M
106.001 285.959 L
S
GR
GS
[0.75 0 0 0.75 0 0] CT
0 0.447 0.741 RC
2 setlinecap
10.0 ML
N
109.071 374 M
109.071 296.95 L
S
GR
GS
[0.75 0 0 0.75 0 0] CT
0 0.447 0.741 RC
2 setlinecap
10.0 ML
N
112.141 374 M
112.141 318.564 L
S
GR
GS
[0.75 0 0 0.75 0 0] CT
0 0.447 0.741 RC
2 setlinecap
10.0 ML
N
115.21 374 M
115.21 321.585 L
S
GR
GS
[0.75 0 0 0.75 0 0] CT
0 0.447 0.741 RC
2 setlinecap
10.0 ML
N
118.28 374 M
118.28 368.575 L
S
GR
GS
[0.75 0 0 0.75 0 0] CT
0 0.447 0.741 RC
2 setlinecap
10.0 ML
N
121.35 374 M
121.35 327.752 L
S
GR
GS
[0.75 0 0 0.75 0 0] CT
0 0.447 0.741 RC
2 setlinecap
10.0 ML
N
124.42 374 M
124.42 315.539 L
S
GR
GS
[0.75 0 0 0.75 0 0] CT
0 0.447 0.741 RC
2 setlinecap
10.0 ML
N
127.49 374 M
127.49 330.563 L
S
GR
GS
[0.75 0 0 0.75 0 0] CT
0 0.447 0.741 RC
2 setlinecap
10.0 ML
N
130.56 374 M
130.56 323.493 L
S
GR
GS
[0.75 0 0 0.75 0 0] CT
0 0.447 0.741 RC
2 setlinecap
10.0 ML
N
133.63 374 M
133.63 350.686 L
S
GR
GS
[0.75 0 0 0.75 0 0] CT
0 0.447 0.741 RC
2 setlinecap
10.0 ML
N
136.699 374 M
136.699 342.606 L
S
GR
GS
[0.75 0 0 0.75 0 0] CT
0 0.447 0.741 RC
2 setlinecap
10.0 ML
N
139.769 374 M
139.769 332.909 L
S
GR
GS
[0.75 0 0 0.75 0 0] CT
0 0.447 0.741 RC
2 setlinecap
10.0 ML
N
142.839 374 M
142.839 360.589 L
S
GR
GS
[0.75 0 0 0.75 0 0] CT
0 0.447 0.741 RC
2 setlinecap
10.0 ML
N
145.909 374 M
145.909 337.965 L
S
GR
GS
[0.75 0 0 0.75 0 0] CT
0 0.447 0.741 RC
2 setlinecap
10.0 ML
N
148.979 374 M
148.979 366.436 L
S
GR
GS
[0.75 0 0 0.75 0 0] CT
0 0.447 0.741 RC
2 setlinecap
10.0 ML
N
152.049 374 M
152.049 367.322 L
S
GR
GS
[0.75 0 0 0.75 0 0] CT
0 0.447 0.741 RC
2 setlinecap
10.0 ML
N
155.118 374 M
155.118 342.494 L
S
GR
GS
[0.75 0 0 0.75 0 0] CT
0 0.447 0.741 RC
2 setlinecap
10.0 ML
N
158.188 374 M
158.188 355.365 L
S
GR
GS
[0.75 0 0 0.75 0 0] CT
0 0.447 0.741 RC
2 setlinecap
10.0 ML
N
161.258 374 M
161.258 332.794 L
S
GR
GS
[0.75 0 0 0.75 0 0] CT
0 0.447 0.741 RC
2 setlinecap
10.0 ML
N
164.328 374 M
164.328 351.789 L
S
GR
GS
[0.75 0 0 0.75 0 0] CT
0 0.447 0.741 RC
2 setlinecap
10.0 ML
N
167.398 374 M
167.398 341.634 L
S
GR
GS
[0.75 0 0 0.75 0 0] CT
0 0.447 0.741 RC
2 setlinecap
10.0 ML
N
170.468 374 M
170.468 354.478 L
S
GR
GS
[0.75 0 0 0.75 0 0] CT
0 0.447 0.741 RC
2 setlinecap
10.0 ML
N
173.538 374 M
173.538 364.833 L
S
GR
GS
[0.75 0 0 0.75 0 0] CT
0 0.447 0.741 RC
2 setlinecap
10.0 ML
N
176.607 374 M
176.607 347.481 L
S
GR
GS
[0.75 0 0 0.75 0 0] CT
0 0.447 0.741 RC
2 setlinecap
10.0 ML
N
179.677 374 M
179.677 355.054 L
S
GR
GS
[0.75 0 0 0.75 0 0] CT
0 0.447 0.741 RC
2 setlinecap
10.0 ML
N
182.747 374 M
182.747 362.686 L
S
GR
GS
[0.75 0 0 0.75 0 0] CT
0 0.447 0.741 RC
2 setlinecap
10.0 ML
N
185.817 374 M
185.817 372.381 L
S
GR
GS
[0.75 0 0 0.75 0 0] CT
0 0.447 0.741 RC
2 setlinecap
10.0 ML
N
188.887 374 M
188.887 363.981 L
S
GR
GS
[0.75 0 0 0.75 0 0] CT
0 0.447 0.741 RC
2 setlinecap
10.0 ML
N
191.957 374 M
191.957 363.307 L
S
GR
GS
[0.75 0 0 0.75 0 0] CT
0 0.447 0.741 RC
2 setlinecap
10.0 ML
N
195.027 374 M
195.027 361.103 L
S
GR
GS
[0.75 0 0 0.75 0 0] CT
0 0.447 0.741 RC
2 setlinecap
10.0 ML
N
198.096 374 M
198.096 363.285 L
S
GR
GS
[0.75 0 0 0.75 0 0] CT
0 0.447 0.741 RC
2 setlinecap
10.0 ML
N
201.166 374 M
201.166 365.809 L
S
GR
GS
[0.75 0 0 0.75 0 0] CT
0 0.447 0.741 RC
2 setlinecap
10.0 ML
N
204.236 374 M
204.236 365.718 L
S
GR
GS
[0.75 0 0 0.75 0 0] CT
0 0.447 0.741 RC
2 setlinecap
10.0 ML
N
207.306 374 M
207.306 370.769 L
S
GR
GS
[0.75 0 0 0.75 0 0] CT
0 0.447 0.741 RC
2 setlinecap
10.0 ML
N
210.376 374 M
210.376 356.441 L
S
GR
GS
[0.75 0 0 0.75 0 0] CT
0 0.447 0.741 RC
2 setlinecap
10.0 ML
N
213.446 374 M
213.446 353.308 L
S
GR
GS
[0.75 0 0 0.75 0 0] CT
0 0.447 0.741 RC
2 setlinecap
10.0 ML
N
216.515 374 M
216.515 361.942 L
S
GR
GS
[0.75 0 0 0.75 0 0] CT
0 0.447 0.741 RC
2 setlinecap
10.0 ML
N
219.585 374 M
219.585 367.474 L
S
GR
GS
[0.75 0 0 0.75 0 0] CT
0 0.447 0.741 RC
2 setlinecap
10.0 ML
N
222.655 374 M
222.655 365.527 L
S
GR
GS
[0.75 0 0 0.75 0 0] CT
0 0.447 0.741 RC
2 setlinecap
10.0 ML
N
225.725 374 M
225.725 366.025 L
S
GR
GS
[0.75 0 0 0.75 0 0] CT
0 0.447 0.741 RC
2 setlinecap
10.0 ML
N
228.795 374 M
228.795 365.59 L
S
GR
GS
[0.75 0 0 0.75 0 0] CT
0 0.447 0.741 RC
2 setlinecap
10.0 ML
N
231.865 374 M
231.865 360.477 L
S
GR
GS
[0.75 0 0 0.75 0 0] CT
0 0.447 0.741 RC
2 setlinecap
10.0 ML
N
234.935 374 M
234.935 367.378 L
S
GR
GS
[0.75 0 0 0.75 0 0] CT
0 0.447 0.741 RC
2 setlinecap
10.0 ML
N
238.004 374 M
238.004 365.105 L
S
GR
GS
[0.75 0 0 0.75 0 0] CT
0 0.447 0.741 RC
2 setlinecap
10.0 ML
N
241.074 374 M
241.074 366.344 L
S
GR
GS
[0.75 0 0 0.75 0 0] CT
0 0.447 0.741 RC
2 setlinecap
10.0 ML
N
244.144 374 M
244.144 364.628 L
S
GR
GS
[0.75 0 0 0.75 0 0] CT
0 0.447 0.741 RC
2 setlinecap
10.0 ML
N
247.214 374 M
247.214 367.749 L
S
GR
GS
[0.75 0 0 0.75 0 0] CT
0 0.447 0.741 RC
2 setlinecap
10.0 ML
N
250.284 374 M
250.284 362.265 L
S
GR
GS
[0.75 0 0 0.75 0 0] CT
0 0.447 0.741 RC
2 setlinecap
10.0 ML
N
253.354 374 M
253.354 359.722 L
S
GR
GS
[0.75 0 0 0.75 0 0] CT
0 0.447 0.741 RC
2 setlinecap
10.0 ML
N
256.424 374 M
256.424 370.255 L
S
GR
GS
[0.75 0 0 0.75 0 0] CT
0 0.447 0.741 RC
2 setlinecap
10.0 ML
N
259.493 374 M
259.493 368.005 L
S
GR
GS
[0.75 0 0 0.75 0 0] CT
0 0.447 0.741 RC
2 setlinecap
10.0 ML
N
262.563 374 M
262.563 362.292 L
S
GR
GS
[0.75 0 0 0.75 0 0] CT
0 0.447 0.741 RC
2 setlinecap
10.0 ML
N
265.633 374 M
265.633 369.148 L
S
GR
GS
[0.75 0 0 0.75 0 0] CT
0 0.447 0.741 RC
2 setlinecap
10.0 ML
N
268.703 374 M
268.703 360.39 L
S
GR
GS
[0.75 0 0 0.75 0 0] CT
0 0.447 0.741 RC
2 setlinecap
10.0 ML
N
271.773 374 M
271.773 361.471 L
S
GR
GS
[0.75 0 0 0.75 0 0] CT
0 0.447 0.741 RC
2 setlinecap
10.0 ML
N
274.843 374 M
274.843 372.21 L
S
GR
GS
[0.75 0 0 0.75 0 0] CT
0 0.447 0.741 RC
2 setlinecap
10.0 ML
N
277.912 374 M
277.912 373.291 L
S
GR
GS
[0.75 0 0 0.75 0 0] CT
0 0.447 0.741 RC
2 setlinecap
10.0 ML
N
280.982 374 M
280.982 371.181 L
S
GR
GS
[0.75 0 0 0.75 0 0] CT
0 0.447 0.741 RC
2 setlinecap
10.0 ML
N
284.052 374 M
284.052 365.103 L
S
GR
GS
[0.75 0 0 0.75 0 0] CT
0 0.447 0.741 RC
2 setlinecap
10.0 ML
N
287.122 374 M
287.122 361.982 L
S
GR
GS
[0.75 0 0 0.75 0 0] CT
0 0.447 0.741 RC
2 setlinecap
10.0 ML
N
290.192 374 M
290.192 362.918 L
S
GR
GS
[0.75 0 0 0.75 0 0] CT
0 0.447 0.741 RC
2 setlinecap
10.0 ML
N
293.262 374 M
293.262 367.892 L
S
GR
GS
[0.75 0 0 0.75 0 0] CT
0 0.447 0.741 RC
2 setlinecap
10.0 ML
N
296.332 374 M
296.332 370.617 L
S
GR
GS
[0.75 0 0 0.75 0 0] CT
0 0.447 0.741 RC
2 setlinecap
10.0 ML
N
299.401 374 M
299.401 357.103 L
S
GR
GS
[0.75 0 0 0.75 0 0] CT
0 0.447 0.741 RC
2 setlinecap
10.0 ML
N
302.471 374 M
302.471 356.634 L
S
GR
GS
[0.75 0 0 0.75 0 0] CT
0 0.447 0.741 RC
2 setlinecap
10.0 ML
N
305.541 374 M
305.541 366.853 L
S
GR
GS
[0.75 0 0 0.75 0 0] CT
0 0.447 0.741 RC
2 setlinecap
10.0 ML
N
308.611 374 M
308.611 363.492 L
S
GR
GS
[0.75 0 0 0.75 0 0] CT
0 0.447 0.741 RC
2 setlinecap
10.0 ML
N
311.681 374 M
311.681 364.429 L
S
GR
GS
[0.75 0 0 0.75 0 0] CT
0 0.447 0.741 RC
2 setlinecap
10.0 ML
N
314.751 374 M
314.751 359.076 L
S
GR
GS
[0.75 0 0 0.75 0 0] CT
0 0.447 0.741 RC
2 setlinecap
10.0 ML
N
317.82 374 M
317.82 349.689 L
S
GR
GS
[0.75 0 0 0.75 0 0] CT
0 0.447 0.741 RC
2 setlinecap
10.0 ML
N
320.89 374 M
320.89 354.066 L
S
GR
GS
[0.75 0 0 0.75 0 0] CT
0 0.447 0.741 RC
2 setlinecap
10.0 ML
N
323.96 374 M
323.96 349.867 L
S
GR
GS
[0.75 0 0 0.75 0 0] CT
0 0.447 0.741 RC
2 setlinecap
10.0 ML
N
327.03 374 M
327.03 338.542 L
S
GR
GS
[0.75 0 0 0.75 0 0] CT
0 0.447 0.741 RC
2 setlinecap
10.0 ML
N
330.1 374 M
330.1 319.341 L
S
GR
GS
[0.75 0 0 0.75 0 0] CT
0 0.447 0.741 RC
2 setlinecap
10.0 ML
N
333.17 374 M
333.17 300.924 L
S
GR
GS
[0.75 0 0 0.75 0 0] CT
0 0.447 0.741 RC
2 setlinecap
10.0 ML
N
336.24 374 M
336.24 317.947 L
S
GR
GS
[0.75 0 0 0.75 0 0] CT
0 0.447 0.741 RC
2 setlinecap
10.0 ML
N
339.309 374 M
339.309 335.39 L
S
GR
GS
[0.75 0 0 0.75 0 0] CT
0 0.447 0.741 RC
2 setlinecap
10.0 ML
N
342.379 374 M
342.379 342.376 L
S
GR
GS
[0.75 0 0 0.75 0 0] CT
0 0.447 0.741 RC
2 setlinecap
10.0 ML
N
345.449 374 M
345.449 351.507 L
S
GR
GS
[0.75 0 0 0.75 0 0] CT
0 0.447 0.741 RC
2 setlinecap
10.0 ML
N
348.519 374 M
348.519 363.021 L
S
GR
GS
[0.75 0 0 0.75 0 0] CT
0 0.447 0.741 RC
2 setlinecap
10.0 ML
N
351.589 374 M
351.589 358.195 L
S
GR
GS
[0.75 0 0 0.75 0 0] CT
0 0.447 0.741 RC
2 setlinecap
10.0 ML
N
354.659 374 M
354.659 358.485 L
S
GR
GS
[0.75 0 0 0.75 0 0] CT
0 0.447 0.741 RC
2 setlinecap
10.0 ML
N
357.729 374 M
357.729 367.891 L
S
GR
GS
[0.75 0 0 0.75 0 0] CT
0 0.447 0.741 RC
2 setlinecap
10.0 ML
N
360.798 374 M
360.798 363.579 L
S
GR
GS
[0.75 0 0 0.75 0 0] CT
0 0.447 0.741 RC
2 setlinecap
10.0 ML
N
363.868 374 M
363.868 363.976 L
S
GR
GS
[0.75 0 0 0.75 0 0] CT
0 0.447 0.741 RC
2 setlinecap
10.0 ML
N
366.938 374 M
366.938 370.77 L
S
GR
GS
[0.75 0 0 0.75 0 0] CT
0 0.447 0.741 RC
2 setlinecap
10.0 ML
N
370.008 374 M
370.008 363.833 L
S
GR
GS
[0.75 0 0 0.75 0 0] CT
0 0.447 0.741 RC
2 setlinecap
10.0 ML
N
373.078 374 M
373.078 364.488 L
S
GR
GS
[0.75 0 0 0.75 0 0] CT
0 0.447 0.741 RC
2 setlinecap
10.0 ML
N
376.148 374 M
376.148 370.932 L
S
GR
GS
[0.75 0 0 0.75 0 0] CT
0 0.447 0.741 RC
2 setlinecap
10.0 ML
N
379.217 374 M
379.217 367.712 L
S
GR
GS
[0.75 0 0 0.75 0 0] CT
0 0.447 0.741 RC
2 setlinecap
10.0 ML
N
382.287 374 M
382.287 366.447 L
S
GR
GS
[0.75 0 0 0.75 0 0] CT
0 0.447 0.741 RC
2 setlinecap
10.0 ML
N
385.357 374 M
385.357 368.046 L
S
GR
GS
[0.75 0 0 0.75 0 0] CT
0 0.447 0.741 RC
2 setlinecap
10.0 ML
N
388.427 374 M
388.427 371.183 L
S
GR
GS
[0.75 0 0 0.75 0 0] CT
0 0.447 0.741 RC
2 setlinecap
10.0 ML
N
391.497 374 M
391.497 369.368 L
S
GR
GS
[0.75 0 0 0.75 0 0] CT
0 0.447 0.741 RC
2 setlinecap
10.0 ML
N
394.567 374 M
394.567 369.116 L
S
GR
GS
[0.75 0 0 0.75 0 0] CT
0 0.447 0.741 RC
2 setlinecap
10.0 ML
N
397.637 374 M
397.637 370.628 L
S
GR
GS
[0.75 0 0 0.75 0 0] CT
0 0.447 0.741 RC
2 setlinecap
10.0 ML
N
400.706 374 M
400.706 369.307 L
S
GR
GS
[0.75 0 0 0.75 0 0] CT
0 0.447 0.741 RC
2 setlinecap
10.0 ML
N
403.776 374 M
403.776 368.75 L
S
GR
GS
[0.75 0 0 0.75 0 0] CT
0 0.447 0.741 RC
2 setlinecap
10.0 ML
N
406.846 374 M
406.846 373.497 L
S
GR
GS
[0.75 0 0 0.75 0 0] CT
0 0.447 0.741 RC
2 setlinecap
10.0 ML
N
409.916 374 M
409.916 369.202 L
S
GR
GS
[0.75 0 0 0.75 0 0] CT
0 0.447 0.741 RC
2 setlinecap
10.0 ML
N
412.986 374 M
412.986 369.961 L
S
GR
GS
[0.75 0 0 0.75 0 0] CT
0 0.447 0.741 RC
2 setlinecap
10.0 ML
N
416.056 374 M
416.056 371.211 L
S
GR
GS
[0.75 0 0 0.75 0 0] CT
0 0.447 0.741 RC
2 setlinecap
10.0 ML
N
419.126 374 M
419.126 372.011 L
S
GR
GS
[0.75 0 0 0.75 0 0] CT
0 0.447 0.741 RC
2 setlinecap
10.0 ML
N
422.195 374 M
422.195 372.819 L
S
GR
GS
[0.75 0 0 0.75 0 0] CT
0 0.447 0.741 RC
2 setlinecap
10.0 ML
N
425.265 374 M
425.265 372.755 L
S
GR
GS
[0.75 0 0 0.75 0 0] CT
0 0.447 0.741 RC
2 setlinecap
10.0 ML
N
428.335 374 M
428.335 371.086 L
S
GR
GS
[0.75 0 0 0.75 0 0] CT
0 0.447 0.741 RC
2 setlinecap
10.0 ML
N
431.405 374 M
431.405 370.568 L
S
GR
GS
[0.75 0 0 0.75 0 0] CT
0 0.447 0.741 RC
2 setlinecap
10.0 ML
N
434.475 374 M
434.475 370.227 L
S
GR
GS
[0.75 0 0 0.75 0 0] CT
0 0.447 0.741 RC
2 setlinecap
10.0 ML
N
437.545 374 M
437.545 373.189 L
S
GR
GS
[0.75 0 0 0.75 0 0] CT
0 0.447 0.741 RC
2 setlinecap
10.0 ML
N
440.615 374 M
440.615 369.637 L
S
GR
GS
[0.75 0 0 0.75 0 0] CT
0 0.447 0.741 RC
2 setlinecap
10.0 ML
N
443.684 374 M
443.684 370.272 L
S
GR
GS
[0.75 0 0 0.75 0 0] CT
0 0.447 0.741 RC
2 setlinecap
10.0 ML
N
446.754 374 M
446.754 371.901 L
S
GR
GS
[0.75 0 0 0.75 0 0] CT
0 0.447 0.741 RC
2 setlinecap
10.0 ML
N
449.824 374 M
449.824 370.33 L
S
GR
GS
[0.75 0 0 0.75 0 0] CT
0 0.447 0.741 RC
2 setlinecap
10.0 ML
N
452.894 374 M
452.894 372.036 L
S
GR
GS
[0.75 0 0 0.75 0 0] CT
0 0.447 0.741 RC
2 setlinecap
10.0 ML
N
455.964 374 M
455.964 370.743 L
S
GR
GS
[0.75 0 0 0.75 0 0] CT
0 0.447 0.741 RC
2 setlinecap
10.0 ML
N
459.034 374 M
459.034 368.733 L
S
GR
GS
[0.75 0 0 0.75 0 0] CT
0 0.447 0.741 RC
2 setlinecap
10.0 ML
N
462.103 374 M
462.103 372.547 L
S
GR
GS
[0.75 0 0 0.75 0 0] CT
0 0.447 0.741 RC
2 setlinecap
10.0 ML
N
465.173 374 M
465.173 370.387 L
S
GR
GS
[0.75 0 0 0.75 0 0] CT
0 0.447 0.741 RC
2 setlinecap
10.0 ML
N
468.243 374 M
468.243 372.118 L
S
GR
GS
[0.75 0 0 0.75 0 0] CT
0 0.447 0.741 RC
2 setlinecap
10.0 ML
N
471.313 374 M
471.313 373.097 L
S
GR
GS
[0.75 0 0 0.75 0 0] CT
0 0.447 0.741 RC
2 setlinecap
10.0 ML
N
474.383 374 M
474.383 371.806 L
S
GR
GS
[0.75 0 0 0.75 0 0] CT
0 0.447 0.741 RC
2 setlinecap
10.0 ML
N
477.453 374 M
477.453 372.25 L
S
GR
GS
[0.75 0 0 0.75 0 0] CT
0 0.447 0.741 RC
2 setlinecap
10.0 ML
N
480.523 374 M
480.523 373.266 L
S
GR
GS
[0.75 0 0 0.75 0 0] CT
0 0.447 0.741 RC
2 setlinecap
10.0 ML
N
483.592 374 M
483.592 372.338 L
S
GR
GS
[0.75 0 0 0.75 0 0] CT
0 0.447 0.741 RC
2 setlinecap
10.0 ML
N
486.662 374 M
486.662 371.867 L
S
GR
GS
[0.75 0 0 0.75 0 0] CT
0 0.447 0.741 RC
2 setlinecap
10.0 ML
N
489.732 374 M
489.732 371.444 L
S
GR
GS
[0.75 0 0 0.75 0 0] CT
0 0.447 0.741 RC
2 setlinecap
10.0 ML
N
492.802 374 M
492.802 371.643 L
S
GR
GS
[0.75 0 0 0.75 0 0] CT
0 0.447 0.741 RC
2 setlinecap
10.0 ML
N
495.872 374 M
495.872 370.775 L
S
GR
GS
[0.75 0 0 0.75 0 0] CT
0 0.447 0.741 RC
2 setlinecap
10.0 ML
N
498.942 374 M
498.942 371.661 L
S
GR
GS
[0.75 0 0 0.75 0 0] CT
0 0.447 0.741 RC
2 setlinecap
10.0 ML
N
502.012 374 M
502.012 371.771 L
S
GR
GS
[0.75 0 0 0.75 0 0] CT
0 0.447 0.741 RC
2 setlinecap
10.0 ML
N
505.081 374 M
505.081 372.232 L
S
GR
GS
[0.75 0 0 0.75 217.50021 21.18751] CT
/Helvetica-Bold 15 F
GS
[1 0 0 1 0 0] CT
-144 -4 moveto 
1 -1 scale
(Single-Sided Amplitude Spectrum of y\(t\)) t 
GR
GR
GS
[0.75 0 0 0.75 0 0] CT
0.149 GC
2 setlinecap
10.0 ML
N
73 374 M
507 374 L
S
GR
%%Trailer
%%Pages: 1
%%EOF
