%!PS-Adobe-3.0 EPSF-3.0
%%Creator: (MATLAB, The Mathworks, Inc. Version 8.5.0.197613 \(R2015a\). Operating System: Windows 8)
%%Title: (C:/Users/aleja/Desktop/TFG/Documentaci\363n/Obtenci\363n de datos/matlab_plot/stems/jota11-58.eps)
%%CreationDate: 2019-05-22T11:17:29
%%Pages: (atend)
%%BoundingBox: 0 0 420 315
%%LanguageLevel: 2
%%EndComments
%%BeginProlog
%%BeginResource: procset (Apache XML Graphics Std ProcSet) 1.2 0
%%Version: 1.2 0
%%Copyright: (Copyright 2001-2003,2010 The Apache Software Foundation. License terms: http://www.apache.org/licenses/LICENSE-2.0)
/bd{bind def}bind def
/ld{load def}bd
/GR/grestore ld
/M/moveto ld
/LJ/setlinejoin ld
/C/curveto ld
/f/fill ld
/LW/setlinewidth ld
/GC/setgray ld
/t/show ld
/N/newpath ld
/CT/concat ld
/cp/closepath ld
/S/stroke ld
/L/lineto ld
/CC/setcmykcolor ld
/A/ashow ld
/GS/gsave ld
/RC/setrgbcolor ld
/RM/rmoveto ld
/ML/setmiterlimit ld
/re {4 2 roll M
1 index 0 rlineto
0 exch rlineto
neg 0 rlineto
cp } bd
/_ctm matrix def
/_tm matrix def
/BT { _ctm currentmatrix pop matrix _tm copy pop 0 0 moveto } bd
/ET { _ctm setmatrix } bd
/iTm { _ctm setmatrix _tm concat } bd
/Tm { _tm astore pop iTm 0 0 moveto } bd
/ux 0.0 def
/uy 0.0 def
/F {
  /Tp exch def
  /Tf exch def
  Tf findfont Tp scalefont setfont
  /cf Tf def  /cs Tp def
} bd
/ULS {currentpoint /uy exch def /ux exch def} bd
/ULE {
  /Tcx currentpoint pop def
  gsave
  newpath
  cf findfont cs scalefont dup
  /FontMatrix get 0 get /Ts exch def /FontInfo get dup
  /UnderlinePosition get Ts mul /To exch def
  /UnderlineThickness get Ts mul /Tt exch def
  ux uy To add moveto  Tcx uy To add lineto
  Tt setlinewidth stroke
  grestore
} bd
/OLE {
  /Tcx currentpoint pop def
  gsave
  newpath
  cf findfont cs scalefont dup
  /FontMatrix get 0 get /Ts exch def /FontInfo get dup
  /UnderlinePosition get Ts mul /To exch def
  /UnderlineThickness get Ts mul /Tt exch def
  ux uy To add cs add moveto Tcx uy To add cs add lineto
  Tt setlinewidth stroke
  grestore
} bd
/SOE {
  /Tcx currentpoint pop def
  gsave
  newpath
  cf findfont cs scalefont dup
  /FontMatrix get 0 get /Ts exch def /FontInfo get dup
  /UnderlinePosition get Ts mul /To exch def
  /UnderlineThickness get Ts mul /Tt exch def
  ux uy To add cs 10 mul 26 idiv add moveto Tcx uy To add cs 10 mul 26 idiv add lineto
  Tt setlinewidth stroke
  grestore
} bd
/QT {
/Y22 exch store
/X22 exch store
/Y21 exch store
/X21 exch store
currentpoint
/Y21 load 2 mul add 3 div exch
/X21 load 2 mul add 3 div exch
/X21 load 2 mul /X22 load add 3 div
/Y21 load 2 mul /Y22 load add 3 div
/X22 load /Y22 load curveto
} bd
/SSPD {
dup length /d exch dict def
{
/v exch def
/k exch def
currentpagedevice k known {
/cpdv currentpagedevice k get def
v cpdv ne {
/upd false def
/nullv v type /nulltype eq def
/nullcpdv cpdv type /nulltype eq def
nullv nullcpdv or
{
/upd true def
} {
/sametype v type cpdv type eq def
sametype {
v type /arraytype eq {
/vlen v length def
/cpdvlen cpdv length def
vlen cpdvlen eq {
0 1 vlen 1 sub {
/i exch def
/obj v i get def
/cpdobj cpdv i get def
obj cpdobj ne {
/upd true def
exit
} if
} for
} {
/upd true def
} ifelse
} {
v type /dicttype eq {
v {
/dv exch def
/dk exch def
/cpddv cpdv dk get def
dv cpddv ne {
/upd true def
exit
} if
} forall
} {
/upd true def
} ifelse
} ifelse
} if
} ifelse
upd true eq {
d k v put
} if
} if
} if
} forall
d length 0 gt {
d setpagedevice
} if
} bd
%%EndResource
%%BeginResource: procset (Apache XML Graphics EPS ProcSet) 1.0 0
%%Version: 1.0 0
%%Copyright: (Copyright 2002-2003 The Apache Software Foundation. License terms: http://www.apache.org/licenses/LICENSE-2.0)
/BeginEPSF { %def
/b4_Inc_state save def         % Save state for cleanup
/dict_count countdictstack def % Count objects on dict stack
/op_count count 1 sub def      % Count objects on operand stack
userdict begin                 % Push userdict on dict stack
/showpage { } def              % Redefine showpage, { } = null proc
0 setgray 0 setlinecap         % Prepare graphics state
1 setlinewidth 0 setlinejoin
10 setmiterlimit [ ] 0 setdash newpath
/languagelevel where           % If level not equal to 1 then
{pop languagelevel             % set strokeadjust and
1 ne                           % overprint to their defaults.
{false setstrokeadjust false setoverprint
} if
} if
} bd
/EndEPSF { %def
count op_count sub {pop} repeat            % Clean up stacks
countdictstack dict_count sub {end} repeat
b4_Inc_state restore
} bd
%%EndResource
%FOPBeginFontDict
%%IncludeResource: font Courier-Bold
%%IncludeResource: font Helvetica
%%IncludeResource: font Courier-BoldOblique
%%IncludeResource: font Courier-Oblique
%%IncludeResource: font Times-Roman
%%IncludeResource: font Helvetica-BoldOblique
%%IncludeResource: font Helvetica-Bold
%%IncludeResource: font Helvetica-Oblique
%%IncludeResource: font Times-BoldItalic
%%IncludeResource: font Courier
%%IncludeResource: font Times-Italic
%%IncludeResource: font Times-Bold
%%IncludeResource: font Symbol
%%IncludeResource: font ZapfDingbats
%FOPEndFontDict
%%BeginResource: encoding WinAnsiEncoding
/WinAnsiEncoding [
/.notdef /.notdef /.notdef /.notdef /.notdef
/.notdef /.notdef /.notdef /.notdef /.notdef
/.notdef /.notdef /.notdef /.notdef /.notdef
/.notdef /.notdef /.notdef /.notdef /.notdef
/.notdef /.notdef /.notdef /.notdef /.notdef
/.notdef /.notdef /.notdef /.notdef /.notdef
/.notdef /.notdef /space /exclam /quotedbl
/numbersign /dollar /percent /ampersand /quotesingle
/parenleft /parenright /asterisk /plus /comma
/hyphen /period /slash /zero /one
/two /three /four /five /six
/seven /eight /nine /colon /semicolon
/less /equal /greater /question /at
/A /B /C /D /E
/F /G /H /I /J
/K /L /M /N /O
/P /Q /R /S /T
/U /V /W /X /Y
/Z /bracketleft /backslash /bracketright /asciicircum
/underscore /quoteleft /a /b /c
/d /e /f /g /h
/i /j /k /l /m
/n /o /p /q /r
/s /t /u /v /w
/x /y /z /braceleft /bar
/braceright /asciitilde /bullet /Euro /bullet
/quotesinglbase /florin /quotedblbase /ellipsis /dagger
/daggerdbl /circumflex /perthousand /Scaron /guilsinglleft
/OE /bullet /Zcaron /bullet /bullet
/quoteleft /quoteright /quotedblleft /quotedblright /bullet
/endash /emdash /asciitilde /trademark /scaron
/guilsinglright /oe /bullet /zcaron /Ydieresis
/space /exclamdown /cent /sterling /currency
/yen /brokenbar /section /dieresis /copyright
/ordfeminine /guillemotleft /logicalnot /sfthyphen /registered
/macron /degree /plusminus /twosuperior /threesuperior
/acute /mu /paragraph /middot /cedilla
/onesuperior /ordmasculine /guillemotright /onequarter /onehalf
/threequarters /questiondown /Agrave /Aacute /Acircumflex
/Atilde /Adieresis /Aring /AE /Ccedilla
/Egrave /Eacute /Ecircumflex /Edieresis /Igrave
/Iacute /Icircumflex /Idieresis /Eth /Ntilde
/Ograve /Oacute /Ocircumflex /Otilde /Odieresis
/multiply /Oslash /Ugrave /Uacute /Ucircumflex
/Udieresis /Yacute /Thorn /germandbls /agrave
/aacute /acircumflex /atilde /adieresis /aring
/ae /ccedilla /egrave /eacute /ecircumflex
/edieresis /igrave /iacute /icircumflex /idieresis
/eth /ntilde /ograve /oacute /ocircumflex
/otilde /odieresis /divide /oslash /ugrave
/uacute /ucircumflex /udieresis /yacute /thorn
/ydieresis
] def
%%EndResource
%FOPBeginFontReencode
/Courier-Bold findfont
dup length dict begin
  {1 index /FID ne {def} {pop pop} ifelse} forall
  /Encoding WinAnsiEncoding def
  currentdict
end
/Courier-Bold exch definefont pop
/Helvetica findfont
dup length dict begin
  {1 index /FID ne {def} {pop pop} ifelse} forall
  /Encoding WinAnsiEncoding def
  currentdict
end
/Helvetica exch definefont pop
/Courier-BoldOblique findfont
dup length dict begin
  {1 index /FID ne {def} {pop pop} ifelse} forall
  /Encoding WinAnsiEncoding def
  currentdict
end
/Courier-BoldOblique exch definefont pop
/Courier-Oblique findfont
dup length dict begin
  {1 index /FID ne {def} {pop pop} ifelse} forall
  /Encoding WinAnsiEncoding def
  currentdict
end
/Courier-Oblique exch definefont pop
/Times-Roman findfont
dup length dict begin
  {1 index /FID ne {def} {pop pop} ifelse} forall
  /Encoding WinAnsiEncoding def
  currentdict
end
/Times-Roman exch definefont pop
/Helvetica-BoldOblique findfont
dup length dict begin
  {1 index /FID ne {def} {pop pop} ifelse} forall
  /Encoding WinAnsiEncoding def
  currentdict
end
/Helvetica-BoldOblique exch definefont pop
/Helvetica-Bold findfont
dup length dict begin
  {1 index /FID ne {def} {pop pop} ifelse} forall
  /Encoding WinAnsiEncoding def
  currentdict
end
/Helvetica-Bold exch definefont pop
/Helvetica-Oblique findfont
dup length dict begin
  {1 index /FID ne {def} {pop pop} ifelse} forall
  /Encoding WinAnsiEncoding def
  currentdict
end
/Helvetica-Oblique exch definefont pop
/Times-BoldItalic findfont
dup length dict begin
  {1 index /FID ne {def} {pop pop} ifelse} forall
  /Encoding WinAnsiEncoding def
  currentdict
end
/Times-BoldItalic exch definefont pop
/Courier findfont
dup length dict begin
  {1 index /FID ne {def} {pop pop} ifelse} forall
  /Encoding WinAnsiEncoding def
  currentdict
end
/Courier exch definefont pop
/Times-Italic findfont
dup length dict begin
  {1 index /FID ne {def} {pop pop} ifelse} forall
  /Encoding WinAnsiEncoding def
  currentdict
end
/Times-Italic exch definefont pop
/Times-Bold findfont
dup length dict begin
  {1 index /FID ne {def} {pop pop} ifelse} forall
  /Encoding WinAnsiEncoding def
  currentdict
end
/Times-Bold exch definefont pop
%FOPEndFontReencode
%%EndProlog
%%Page: 1 1
%%PageBoundingBox: 0 0 420 315
%%BeginPageSetup
[1 0 0 -1 0 315] CT
%%EndPageSetup
GS
[0.75 0 0 0.75 0 0] CT
1 GC
N
0 0 560 420 re
f
GR
GS
[0.75 0 0 0.75 0 0] CT
1 GC
N
0 0 560 420 re
f
GR
GS
[0.75 0 0 0.75 0 0] CT
1 GC
N
73 374 M
507 374 L
507 31 L
73 31 L
cp
f
GR
GS
[0.75 0 0 0.75 217.50016 298.24999] CT
0.149 GC
/Helvetica 15 F
GS
[1 0 0 1 0 0] CT
-52 16 moveto 
1 -1 scale
(Frequency \(Hz\)) t 
GR
GR
GS
[0.75 0 0 0.75 0 0] CT
0.149 GC
2 setlinecap
10.0 ML
N
73 374 M
507 374 L
S
GR
GS
[0.75 0 0 0.75 0 0] CT
0.149 GC
2 setlinecap
10.0 ML
N
73 31 M
507 31 L
S
GR
GS
[0.75 0 0 0.75 0 0] CT
0.149 GC
2 setlinecap
10.0 ML
N
73 374 M
73 369.66 L
S
GR
GS
[0.75 0 0 0.75 0 0] CT
0.149 GC
2 setlinecap
10.0 ML
N
116.4 374 M
116.4 369.66 L
S
GR
GS
[0.75 0 0 0.75 0 0] CT
0.149 GC
2 setlinecap
10.0 ML
N
159.8 374 M
159.8 369.66 L
S
GR
GS
[0.75 0 0 0.75 0 0] CT
0.149 GC
2 setlinecap
10.0 ML
N
203.2 374 M
203.2 369.66 L
S
GR
GS
[0.75 0 0 0.75 0 0] CT
0.149 GC
2 setlinecap
10.0 ML
N
246.6 374 M
246.6 369.66 L
S
GR
GS
[0.75 0 0 0.75 0 0] CT
0.149 GC
2 setlinecap
10.0 ML
N
290 374 M
290 369.66 L
S
GR
GS
[0.75 0 0 0.75 0 0] CT
0.149 GC
2 setlinecap
10.0 ML
N
333.4 374 M
333.4 369.66 L
S
GR
GS
[0.75 0 0 0.75 0 0] CT
0.149 GC
2 setlinecap
10.0 ML
N
376.8 374 M
376.8 369.66 L
S
GR
GS
[0.75 0 0 0.75 0 0] CT
0.149 GC
2 setlinecap
10.0 ML
N
420.2 374 M
420.2 369.66 L
S
GR
GS
[0.75 0 0 0.75 0 0] CT
0.149 GC
2 setlinecap
10.0 ML
N
463.6 374 M
463.6 369.66 L
S
GR
GS
[0.75 0 0 0.75 0 0] CT
0.149 GC
2 setlinecap
10.0 ML
N
507 374 M
507 369.66 L
S
GR
GS
[0.75 0 0 0.75 0 0] CT
0.149 GC
2 setlinecap
10.0 ML
N
73 31 M
73 35.34 L
S
GR
GS
[0.75 0 0 0.75 0 0] CT
0.149 GC
2 setlinecap
10.0 ML
N
116.4 31 M
116.4 35.34 L
S
GR
GS
[0.75 0 0 0.75 0 0] CT
0.149 GC
2 setlinecap
10.0 ML
N
159.8 31 M
159.8 35.34 L
S
GR
GS
[0.75 0 0 0.75 0 0] CT
0.149 GC
2 setlinecap
10.0 ML
N
203.2 31 M
203.2 35.34 L
S
GR
GS
[0.75 0 0 0.75 0 0] CT
0.149 GC
2 setlinecap
10.0 ML
N
246.6 31 M
246.6 35.34 L
S
GR
GS
[0.75 0 0 0.75 0 0] CT
0.149 GC
2 setlinecap
10.0 ML
N
290 31 M
290 35.34 L
S
GR
GS
[0.75 0 0 0.75 0 0] CT
0.149 GC
2 setlinecap
10.0 ML
N
333.4 31 M
333.4 35.34 L
S
GR
GS
[0.75 0 0 0.75 0 0] CT
0.149 GC
2 setlinecap
10.0 ML
N
376.8 31 M
376.8 35.34 L
S
GR
GS
[0.75 0 0 0.75 0 0] CT
0.149 GC
2 setlinecap
10.0 ML
N
420.2 31 M
420.2 35.34 L
S
GR
GS
[0.75 0 0 0.75 0 0] CT
0.149 GC
2 setlinecap
10.0 ML
N
463.6 31 M
463.6 35.34 L
S
GR
GS
[0.75 0 0 0.75 0 0] CT
0.149 GC
2 setlinecap
10.0 ML
N
507 31 M
507 35.34 L
S
GR
GS
[0.75 0 0 0.75 54.75 284.50001] CT
0.149 GC
/Helvetica 13 F
GS
[1 0 0 1 0 0] CT
-4 14 moveto 
1 -1 scale
(0) t 
GR
GR
GS
[0.75 0 0 0.75 87.3 284.50001] CT
0.149 GC
/Helvetica 13 F
GS
[1 0 0 1 0 0] CT
-7.5 14 moveto 
1 -1 scale
(10) t 
GR
GR
GS
[0.75 0 0 0.75 119.85 284.50001] CT
0.149 GC
/Helvetica 13 F
GS
[1 0 0 1 0 0] CT
-7.5 14 moveto 
1 -1 scale
(20) t 
GR
GR
GS
[0.75 0 0 0.75 152.4 284.50001] CT
0.149 GC
/Helvetica 13 F
GS
[1 0 0 1 0 0] CT
-7.5 14 moveto 
1 -1 scale
(30) t 
GR
GR
GS
[0.75 0 0 0.75 184.95 284.50001] CT
0.149 GC
/Helvetica 13 F
GS
[1 0 0 1 0 0] CT
-7.5 14 moveto 
1 -1 scale
(40) t 
GR
GR
GS
[0.75 0 0 0.75 217.5 284.50001] CT
0.149 GC
/Helvetica 13 F
GS
[1 0 0 1 0 0] CT
-7.5 14 moveto 
1 -1 scale
(50) t 
GR
GR
GS
[0.75 0 0 0.75 250.05 284.50001] CT
0.149 GC
/Helvetica 13 F
GS
[1 0 0 1 0 0] CT
-7.5 14 moveto 
1 -1 scale
(60) t 
GR
GR
GS
[0.75 0 0 0.75 282.59999 284.50001] CT
0.149 GC
/Helvetica 13 F
GS
[1 0 0 1 0 0] CT
-7.5 14 moveto 
1 -1 scale
(70) t 
GR
GR
GS
[0.75 0 0 0.75 315.15001 284.50001] CT
0.149 GC
/Helvetica 13 F
GS
[1 0 0 1 0 0] CT
-7.5 14 moveto 
1 -1 scale
(80) t 
GR
GR
GS
[0.75 0 0 0.75 347.7 284.50001] CT
0.149 GC
/Helvetica 13 F
GS
[1 0 0 1 0 0] CT
-7.5 14 moveto 
1 -1 scale
(90) t 
GR
GR
GS
[0.75 0 0 0.75 380.25 284.50001] CT
0.149 GC
/Helvetica 13 F
GS
[1 0 0 1 0 0] CT
-11 14 moveto 
1 -1 scale
(100) t 
GR
GR
GS
[0 -0.75 0.75 0 33.5 151.87487] CT
0.149 GC
/Helvetica 15 F
GS
[1 0 0 1 0 0] CT
-61.5 -4 moveto 
1 -1 scale
(|P\(f\)| MAgnitud dB) t 
GR
GR
GS
[0.75 0 0 0.75 0 0] CT
0.149 GC
2 setlinecap
10.0 ML
N
73 374 M
73 31 L
S
GR
GS
[0.75 0 0 0.75 0 0] CT
0.149 GC
2 setlinecap
10.0 ML
N
507 374 M
507 31 L
S
GR
GS
[0.75 0 0 0.75 0 0] CT
0.149 GC
2 setlinecap
10.0 ML
N
73 374 M
77.34 374 L
S
GR
GS
[0.75 0 0 0.75 0 0] CT
0.149 GC
2 setlinecap
10.0 ML
N
73 339.7 M
77.34 339.7 L
S
GR
GS
[0.75 0 0 0.75 0 0] CT
0.149 GC
2 setlinecap
10.0 ML
N
73 305.4 M
77.34 305.4 L
S
GR
GS
[0.75 0 0 0.75 0 0] CT
0.149 GC
2 setlinecap
10.0 ML
N
73 271.1 M
77.34 271.1 L
S
GR
GS
[0.75 0 0 0.75 0 0] CT
0.149 GC
2 setlinecap
10.0 ML
N
73 236.8 M
77.34 236.8 L
S
GR
GS
[0.75 0 0 0.75 0 0] CT
0.149 GC
2 setlinecap
10.0 ML
N
73 202.5 M
77.34 202.5 L
S
GR
GS
[0.75 0 0 0.75 0 0] CT
0.149 GC
2 setlinecap
10.0 ML
N
73 168.2 M
77.34 168.2 L
S
GR
GS
[0.75 0 0 0.75 0 0] CT
0.149 GC
2 setlinecap
10.0 ML
N
73 133.9 M
77.34 133.9 L
S
GR
GS
[0.75 0 0 0.75 0 0] CT
0.149 GC
2 setlinecap
10.0 ML
N
73 99.6 M
77.34 99.6 L
S
GR
GS
[0.75 0 0 0.75 0 0] CT
0.149 GC
2 setlinecap
10.0 ML
N
73 65.3 M
77.34 65.3 L
S
GR
GS
[0.75 0 0 0.75 0 0] CT
0.149 GC
2 setlinecap
10.0 ML
N
73 31 M
77.34 31 L
S
GR
GS
[0.75 0 0 0.75 0 0] CT
0.149 GC
2 setlinecap
10.0 ML
N
507 374 M
502.66 374 L
S
GR
GS
[0.75 0 0 0.75 0 0] CT
0.149 GC
2 setlinecap
10.0 ML
N
507 339.7 M
502.66 339.7 L
S
GR
GS
[0.75 0 0 0.75 0 0] CT
0.149 GC
2 setlinecap
10.0 ML
N
507 305.4 M
502.66 305.4 L
S
GR
GS
[0.75 0 0 0.75 0 0] CT
0.149 GC
2 setlinecap
10.0 ML
N
507 271.1 M
502.66 271.1 L
S
GR
GS
[0.75 0 0 0.75 0 0] CT
0.149 GC
2 setlinecap
10.0 ML
N
507 236.8 M
502.66 236.8 L
S
GR
GS
[0.75 0 0 0.75 0 0] CT
0.149 GC
2 setlinecap
10.0 ML
N
507 202.5 M
502.66 202.5 L
S
GR
GS
[0.75 0 0 0.75 0 0] CT
0.149 GC
2 setlinecap
10.0 ML
N
507 168.2 M
502.66 168.2 L
S
GR
GS
[0.75 0 0 0.75 0 0] CT
0.149 GC
2 setlinecap
10.0 ML
N
507 133.9 M
502.66 133.9 L
S
GR
GS
[0.75 0 0 0.75 0 0] CT
0.149 GC
2 setlinecap
10.0 ML
N
507 99.6 M
502.66 99.6 L
S
GR
GS
[0.75 0 0 0.75 0 0] CT
0.149 GC
2 setlinecap
10.0 ML
N
507 65.3 M
502.66 65.3 L
S
GR
GS
[0.75 0 0 0.75 0 0] CT
0.149 GC
2 setlinecap
10.0 ML
N
507 31 M
502.66 31 L
S
GR
GS
[0.75 0 0 0.75 50.75 280.5] CT
0.149 GC
/Helvetica 13 F
GS
[1 0 0 1 0 0] CT
-8 5.5 moveto 
1 -1 scale
(0) t 
GR
GR
GS
[0.75 0 0 0.75 50.75 254.77501] CT
0.149 GC
/Helvetica 13 F
GS
[1 0 0 1 0 0] CT
-19 5.5 moveto 
1 -1 scale
(0.5) t 
GR
GR
GS
[0.75 0 0 0.75 50.75 229.05] CT
0.149 GC
/Helvetica 13 F
GS
[1 0 0 1 0 0] CT
-8 5.5 moveto 
1 -1 scale
(1) t 
GR
GR
GS
[0.75 0 0 0.75 50.75 203.325] CT
0.149 GC
/Helvetica 13 F
GS
[1 0 0 1 0 0] CT
-19 5.5 moveto 
1 -1 scale
(1.5) t 
GR
GR
GS
[0.75 0 0 0.75 50.75 177.6] CT
0.149 GC
/Helvetica 13 F
GS
[1 0 0 1 0 0] CT
-8 5.5 moveto 
1 -1 scale
(2) t 
GR
GR
GS
[0.75 0 0 0.75 50.75 151.875] CT
0.149 GC
/Helvetica 13 F
GS
[1 0 0 1 0 0] CT
-19 5.5 moveto 
1 -1 scale
(2.5) t 
GR
GR
GS
[0.75 0 0 0.75 50.75 126.15] CT
0.149 GC
/Helvetica 13 F
GS
[1 0 0 1 0 0] CT
-8 5.5 moveto 
1 -1 scale
(3) t 
GR
GR
GS
[0.75 0 0 0.75 50.75 100.425] CT
0.149 GC
/Helvetica 13 F
GS
[1 0 0 1 0 0] CT
-19 5.5 moveto 
1 -1 scale
(3.5) t 
GR
GR
GS
[0.75 0 0 0.75 50.75 74.7] CT
0.149 GC
/Helvetica 13 F
GS
[1 0 0 1 0 0] CT
-8 5.5 moveto 
1 -1 scale
(4) t 
GR
GR
GS
[0.75 0 0 0.75 50.75 48.975] CT
0.149 GC
/Helvetica 13 F
GS
[1 0 0 1 0 0] CT
-19 5.5 moveto 
1 -1 scale
(4.5) t 
GR
GR
GS
[0.75 0 0 0.75 50.75 23.25] CT
0.149 GC
/Helvetica 13 F
GS
[1 0 0 1 0 0] CT
-8 5.5 moveto 
1 -1 scale
(5) t 
GR
GR
GS
[0.75 0 0 0.75 0 0] CT
0 0.447 0.741 RC
2 setlinecap
10.0 ML
N
80.5 40.5 M
79.736 38.149 L
77.736 36.696 L
75.264 36.696 L
73.264 38.149 L
72.5 40.5 L
73.264 42.851 L
75.264 44.304 L
77.736 44.304 L
79.736 42.851 L
80.5 40.5 L
S
GR
GS
[0.75 0 0 0.75 0 0] CT
0 0.447 0.741 RC
2 setlinecap
10.0 ML
N
84.5 65.5 M
83.736 63.149 L
81.736 61.696 L
79.264 61.696 L
77.264 63.149 L
76.5 65.5 L
77.264 67.851 L
79.264 69.304 L
81.736 69.304 L
83.736 67.851 L
84.5 65.5 L
S
GR
GS
[0.75 0 0 0.75 0 0] CT
0 0.447 0.741 RC
2 setlinecap
10.0 ML
N
89.5 91.5 M
88.736 89.149 L
86.736 87.696 L
84.264 87.696 L
82.264 89.149 L
81.5 91.5 L
82.264 93.851 L
84.264 95.304 L
86.736 95.304 L
88.736 93.851 L
89.5 91.5 L
S
GR
GS
[0.75 0 0 0.75 0 0] CT
0 0.447 0.741 RC
2 setlinecap
10.0 ML
N
93.5 278.5 M
92.736 276.149 L
90.736 274.696 L
88.264 274.696 L
86.264 276.149 L
85.5 278.5 L
86.264 280.851 L
88.264 282.304 L
90.736 282.304 L
92.736 280.851 L
93.5 278.5 L
S
GR
GS
[0.75 0 0 0.75 0 0] CT
0 0.447 0.741 RC
2 setlinecap
10.0 ML
N
98.5 321.5 M
97.736 319.149 L
95.736 317.696 L
93.264 317.696 L
91.264 319.149 L
90.5 321.5 L
91.264 323.851 L
93.264 325.304 L
95.736 325.304 L
97.736 323.851 L
98.5 321.5 L
S
GR
GS
[0.75 0 0 0.75 0 0] CT
0 0.447 0.741 RC
2 setlinecap
10.0 ML
N
102.5 227.5 M
101.736 225.149 L
99.736 223.696 L
97.264 223.696 L
95.264 225.149 L
94.5 227.5 L
95.264 229.851 L
97.264 231.304 L
99.736 231.304 L
101.736 229.851 L
102.5 227.5 L
S
GR
GS
[0.75 0 0 0.75 0 0] CT
0 0.447 0.741 RC
2 setlinecap
10.0 ML
N
107.5 229.5 M
106.736 227.149 L
104.736 225.696 L
102.264 225.696 L
100.264 227.149 L
99.5 229.5 L
100.264 231.851 L
102.264 233.304 L
104.736 233.304 L
106.736 231.851 L
107.5 229.5 L
S
GR
GS
[0.75 0 0 0.75 0 0] CT
0 0.447 0.741 RC
2 setlinecap
10.0 ML
N
111.5 241.5 M
110.736 239.149 L
108.736 237.696 L
106.264 237.696 L
104.264 239.149 L
103.5 241.5 L
104.264 243.851 L
106.264 245.304 L
108.736 245.304 L
110.736 243.851 L
111.5 241.5 L
S
GR
GS
[0.75 0 0 0.75 0 0] CT
0 0.447 0.741 RC
2 setlinecap
10.0 ML
N
115.5 320.5 M
114.736 318.149 L
112.736 316.696 L
110.264 316.696 L
108.264 318.149 L
107.5 320.5 L
108.264 322.851 L
110.264 324.304 L
112.736 324.304 L
114.736 322.851 L
115.5 320.5 L
S
GR
GS
[0.75 0 0 0.75 0 0] CT
0 0.447 0.741 RC
2 setlinecap
10.0 ML
N
120.5 322.5 M
119.736 320.149 L
117.736 318.696 L
115.264 318.696 L
113.264 320.149 L
112.5 322.5 L
113.264 324.851 L
115.264 326.304 L
117.736 326.304 L
119.736 324.851 L
120.5 322.5 L
S
GR
GS
[0.75 0 0 0.75 0 0] CT
0 0.447 0.741 RC
2 setlinecap
10.0 ML
N
124.5 311.5 M
123.736 309.149 L
121.736 307.696 L
119.264 307.696 L
117.264 309.149 L
116.5 311.5 L
117.264 313.851 L
119.264 315.304 L
121.736 315.304 L
123.736 313.851 L
124.5 311.5 L
S
GR
GS
[0.75 0 0 0.75 0 0] CT
0 0.447 0.741 RC
2 setlinecap
10.0 ML
N
129.5 301.5 M
128.736 299.149 L
126.736 297.696 L
124.264 297.696 L
122.264 299.149 L
121.5 301.5 L
122.264 303.851 L
124.264 305.304 L
126.736 305.304 L
128.736 303.851 L
129.5 301.5 L
S
GR
GS
[0.75 0 0 0.75 0 0] CT
0 0.447 0.741 RC
2 setlinecap
10.0 ML
N
133.5 349.5 M
132.736 347.149 L
130.736 345.696 L
128.264 345.696 L
126.264 347.149 L
125.5 349.5 L
126.264 351.851 L
128.264 353.304 L
130.736 353.304 L
132.736 351.851 L
133.5 349.5 L
S
GR
GS
[0.75 0 0 0.75 0 0] CT
0 0.447 0.741 RC
2 setlinecap
10.0 ML
N
138.5 300.5 M
137.736 298.149 L
135.736 296.696 L
133.264 296.696 L
131.264 298.149 L
130.5 300.5 L
131.264 302.851 L
133.264 304.304 L
135.736 304.304 L
137.736 302.851 L
138.5 300.5 L
S
GR
GS
[0.75 0 0 0.75 0 0] CT
0 0.447 0.741 RC
2 setlinecap
10.0 ML
N
142.5 310.5 M
141.736 308.149 L
139.736 306.696 L
137.264 306.696 L
135.264 308.149 L
134.5 310.5 L
135.264 312.851 L
137.264 314.304 L
139.736 314.304 L
141.736 312.851 L
142.5 310.5 L
S
GR
GS
[0.75 0 0 0.75 0 0] CT
0 0.447 0.741 RC
2 setlinecap
10.0 ML
N
147.5 302.5 M
146.736 300.149 L
144.736 298.696 L
142.264 298.696 L
140.264 300.149 L
139.5 302.5 L
140.264 304.851 L
142.264 306.304 L
144.736 306.304 L
146.736 304.851 L
147.5 302.5 L
S
GR
GS
[0.75 0 0 0.75 0 0] CT
0 0.447 0.741 RC
2 setlinecap
10.0 ML
N
151.5 363.5 M
150.736 361.149 L
148.736 359.696 L
146.264 359.696 L
144.264 361.149 L
143.5 363.5 L
144.264 365.851 L
146.264 367.304 L
148.736 367.304 L
150.736 365.851 L
151.5 363.5 L
S
GR
GS
[0.75 0 0 0.75 0 0] CT
0 0.447 0.741 RC
2 setlinecap
10.0 ML
N
156.5 343.5 M
155.736 341.149 L
153.736 339.696 L
151.264 339.696 L
149.264 341.149 L
148.5 343.5 L
149.264 345.851 L
151.264 347.304 L
153.736 347.304 L
155.736 345.851 L
156.5 343.5 L
S
GR
GS
[0.75 0 0 0.75 0 0] CT
0 0.447 0.741 RC
2 setlinecap
10.0 ML
N
160.5 304.5 M
159.736 302.149 L
157.736 300.696 L
155.264 300.696 L
153.264 302.149 L
152.5 304.5 L
153.264 306.851 L
155.264 308.304 L
157.736 308.304 L
159.736 306.851 L
160.5 304.5 L
S
GR
GS
[0.75 0 0 0.75 0 0] CT
0 0.447 0.741 RC
2 setlinecap
10.0 ML
N
165.5 327.5 M
164.736 325.149 L
162.736 323.696 L
160.264 323.696 L
158.264 325.149 L
157.5 327.5 L
158.264 329.851 L
160.264 331.304 L
162.736 331.304 L
164.736 329.851 L
165.5 327.5 L
S
GR
GS
[0.75 0 0 0.75 0 0] CT
0 0.447 0.741 RC
2 setlinecap
10.0 ML
N
169.5 365.5 M
168.736 363.149 L
166.736 361.696 L
164.264 361.696 L
162.264 363.149 L
161.5 365.5 L
162.264 367.851 L
164.264 369.304 L
166.736 369.304 L
168.736 367.851 L
169.5 365.5 L
S
GR
GS
[0.75 0 0 0.75 0 0] CT
0 0.447 0.741 RC
2 setlinecap
10.0 ML
N
173.5 348.5 M
172.736 346.149 L
170.736 344.696 L
168.264 344.696 L
166.264 346.149 L
165.5 348.5 L
166.264 350.851 L
168.264 352.304 L
170.736 352.304 L
172.736 350.851 L
173.5 348.5 L
S
GR
GS
[0.75 0 0 0.75 0 0] CT
0 0.447 0.741 RC
2 setlinecap
10.0 ML
N
178.5 342.5 M
177.736 340.149 L
175.736 338.696 L
173.264 338.696 L
171.264 340.149 L
170.5 342.5 L
171.264 344.851 L
173.264 346.304 L
175.736 346.304 L
177.736 344.851 L
178.5 342.5 L
S
GR
GS
[0.75 0 0 0.75 0 0] CT
0 0.447 0.741 RC
2 setlinecap
10.0 ML
N
182.5 341.5 M
181.736 339.149 L
179.736 337.696 L
177.264 337.696 L
175.264 339.149 L
174.5 341.5 L
175.264 343.851 L
177.264 345.304 L
179.736 345.304 L
181.736 343.851 L
182.5 341.5 L
S
GR
GS
[0.75 0 0 0.75 0 0] CT
0 0.447 0.741 RC
2 setlinecap
10.0 ML
N
187.5 334.5 M
186.736 332.149 L
184.736 330.696 L
182.264 330.696 L
180.264 332.149 L
179.5 334.5 L
180.264 336.851 L
182.264 338.304 L
184.736 338.304 L
186.736 336.851 L
187.5 334.5 L
S
GR
GS
[0.75 0 0 0.75 0 0] CT
0 0.447 0.741 RC
2 setlinecap
10.0 ML
N
191.5 345.5 M
190.736 343.149 L
188.736 341.696 L
186.264 341.696 L
184.264 343.149 L
183.5 345.5 L
184.264 347.851 L
186.264 349.304 L
188.736 349.304 L
190.736 347.851 L
191.5 345.5 L
S
GR
GS
[0.75 0 0 0.75 0 0] CT
0 0.447 0.741 RC
2 setlinecap
10.0 ML
N
196.5 355.5 M
195.736 353.149 L
193.736 351.696 L
191.264 351.696 L
189.264 353.149 L
188.5 355.5 L
189.264 357.851 L
191.264 359.304 L
193.736 359.304 L
195.736 357.851 L
196.5 355.5 L
S
GR
GS
[0.75 0 0 0.75 0 0] CT
0 0.447 0.741 RC
2 setlinecap
10.0 ML
N
200.5 347.5 M
199.736 345.149 L
197.736 343.696 L
195.264 343.696 L
193.264 345.149 L
192.5 347.5 L
193.264 349.851 L
195.264 351.304 L
197.736 351.304 L
199.736 349.851 L
200.5 347.5 L
S
GR
GS
[0.75 0 0 0.75 0 0] CT
0 0.447 0.741 RC
2 setlinecap
10.0 ML
N
205.5 338.5 M
204.736 336.149 L
202.736 334.696 L
200.264 334.696 L
198.264 336.149 L
197.5 338.5 L
198.264 340.851 L
200.264 342.304 L
202.736 342.304 L
204.736 340.851 L
205.5 338.5 L
S
GR
GS
[0.75 0 0 0.75 0 0] CT
0 0.447 0.741 RC
2 setlinecap
10.0 ML
N
209.5 337.5 M
208.736 335.149 L
206.736 333.696 L
204.264 333.696 L
202.264 335.149 L
201.5 337.5 L
202.264 339.851 L
204.264 341.304 L
206.736 341.304 L
208.736 339.851 L
209.5 337.5 L
S
GR
GS
[0.75 0 0 0.75 0 0] CT
0 0.447 0.741 RC
2 setlinecap
10.0 ML
N
214.5 349.5 M
213.736 347.149 L
211.736 345.696 L
209.264 345.696 L
207.264 347.149 L
206.5 349.5 L
207.264 351.851 L
209.264 353.304 L
211.736 353.304 L
213.736 351.851 L
214.5 349.5 L
S
GR
GS
[0.75 0 0 0.75 0 0] CT
0 0.447 0.741 RC
2 setlinecap
10.0 ML
N
218.5 358.5 M
217.736 356.149 L
215.736 354.696 L
213.264 354.696 L
211.264 356.149 L
210.5 358.5 L
211.264 360.851 L
213.264 362.304 L
215.736 362.304 L
217.736 360.851 L
218.5 358.5 L
S
GR
GS
[0.75 0 0 0.75 0 0] CT
0 0.447 0.741 RC
2 setlinecap
10.0 ML
N
222.5 344.5 M
221.736 342.149 L
219.736 340.696 L
217.264 340.696 L
215.264 342.149 L
214.5 344.5 L
215.264 346.851 L
217.264 348.304 L
219.736 348.304 L
221.736 346.851 L
222.5 344.5 L
S
GR
GS
[0.75 0 0 0.75 0 0] CT
0 0.447 0.741 RC
2 setlinecap
10.0 ML
N
227.5 345.5 M
226.736 343.149 L
224.736 341.696 L
222.264 341.696 L
220.264 343.149 L
219.5 345.5 L
220.264 347.851 L
222.264 349.304 L
224.736 349.304 L
226.736 347.851 L
227.5 345.5 L
S
GR
GS
[0.75 0 0 0.75 0 0] CT
0 0.447 0.741 RC
2 setlinecap
10.0 ML
N
231.5 347.5 M
230.736 345.149 L
228.736 343.696 L
226.264 343.696 L
224.264 345.149 L
223.5 347.5 L
224.264 349.851 L
226.264 351.304 L
228.736 351.304 L
230.736 349.851 L
231.5 347.5 L
S
GR
GS
[0.75 0 0 0.75 0 0] CT
0 0.447 0.741 RC
2 setlinecap
10.0 ML
N
236.5 338.5 M
235.736 336.149 L
233.736 334.696 L
231.264 334.696 L
229.264 336.149 L
228.5 338.5 L
229.264 340.851 L
231.264 342.304 L
233.736 342.304 L
235.736 340.851 L
236.5 338.5 L
S
GR
GS
[0.75 0 0 0.75 0 0] CT
0 0.447 0.741 RC
2 setlinecap
10.0 ML
N
240.5 363.5 M
239.736 361.149 L
237.736 359.696 L
235.264 359.696 L
233.264 361.149 L
232.5 363.5 L
233.264 365.851 L
235.264 367.304 L
237.736 367.304 L
239.736 365.851 L
240.5 363.5 L
S
GR
GS
[0.75 0 0 0.75 0 0] CT
0 0.447 0.741 RC
2 setlinecap
10.0 ML
N
245.5 363.5 M
244.736 361.149 L
242.736 359.696 L
240.264 359.696 L
238.264 361.149 L
237.5 363.5 L
238.264 365.851 L
240.264 367.304 L
242.736 367.304 L
244.736 365.851 L
245.5 363.5 L
S
GR
GS
[0.75 0 0 0.75 0 0] CT
0 0.447 0.741 RC
2 setlinecap
10.0 ML
N
249.5 346.5 M
248.736 344.149 L
246.736 342.696 L
244.264 342.696 L
242.264 344.149 L
241.5 346.5 L
242.264 348.851 L
244.264 350.304 L
246.736 350.304 L
248.736 348.851 L
249.5 346.5 L
S
GR
GS
[0.75 0 0 0.75 0 0] CT
0 0.447 0.741 RC
2 setlinecap
10.0 ML
N
254.5 353.5 M
253.736 351.149 L
251.736 349.696 L
249.264 349.696 L
247.264 351.149 L
246.5 353.5 L
247.264 355.851 L
249.264 357.304 L
251.736 357.304 L
253.736 355.851 L
254.5 353.5 L
S
GR
GS
[0.75 0 0 0.75 0 0] CT
0 0.447 0.741 RC
2 setlinecap
10.0 ML
N
258.5 340.5 M
257.736 338.149 L
255.736 336.696 L
253.264 336.696 L
251.264 338.149 L
250.5 340.5 L
251.264 342.851 L
253.264 344.304 L
255.736 344.304 L
257.736 342.851 L
258.5 340.5 L
S
GR
GS
[0.75 0 0 0.75 0 0] CT
0 0.447 0.741 RC
2 setlinecap
10.0 ML
N
263.5 340.5 M
262.736 338.149 L
260.736 336.696 L
258.264 336.696 L
256.264 338.149 L
255.5 340.5 L
256.264 342.851 L
258.264 344.304 L
260.736 344.304 L
262.736 342.851 L
263.5 340.5 L
S
GR
GS
[0.75 0 0 0.75 0 0] CT
0 0.447 0.741 RC
2 setlinecap
10.0 ML
N
267.5 355.5 M
266.736 353.149 L
264.736 351.696 L
262.264 351.696 L
260.264 353.149 L
259.5 355.5 L
260.264 357.851 L
262.264 359.304 L
264.736 359.304 L
266.736 357.851 L
267.5 355.5 L
S
GR
GS
[0.75 0 0 0.75 0 0] CT
0 0.447 0.741 RC
2 setlinecap
10.0 ML
N
271.5 349.5 M
270.736 347.149 L
268.736 345.696 L
266.264 345.696 L
264.264 347.149 L
263.5 349.5 L
264.264 351.851 L
266.264 353.304 L
268.736 353.304 L
270.736 351.851 L
271.5 349.5 L
S
GR
GS
[0.75 0 0 0.75 0 0] CT
0 0.447 0.741 RC
2 setlinecap
10.0 ML
N
276.5 340.5 M
275.736 338.149 L
273.736 336.696 L
271.264 336.696 L
269.264 338.149 L
268.5 340.5 L
269.264 342.851 L
271.264 344.304 L
273.736 344.304 L
275.736 342.851 L
276.5 340.5 L
S
GR
GS
[0.75 0 0 0.75 0 0] CT
0 0.447 0.741 RC
2 setlinecap
10.0 ML
N
280.5 342.5 M
279.736 340.149 L
277.736 338.696 L
275.264 338.696 L
273.264 340.149 L
272.5 342.5 L
273.264 344.851 L
275.264 346.304 L
277.736 346.304 L
279.736 344.851 L
280.5 342.5 L
S
GR
GS
[0.75 0 0 0.75 0 0] CT
0 0.447 0.741 RC
2 setlinecap
10.0 ML
N
285.5 334.5 M
284.736 332.149 L
282.736 330.696 L
280.264 330.696 L
278.264 332.149 L
277.5 334.5 L
278.264 336.851 L
280.264 338.304 L
282.736 338.304 L
284.736 336.851 L
285.5 334.5 L
S
GR
GS
[0.75 0 0 0.75 0 0] CT
0 0.447 0.741 RC
2 setlinecap
10.0 ML
N
289.5 344.5 M
288.736 342.149 L
286.736 340.696 L
284.264 340.696 L
282.264 342.149 L
281.5 344.5 L
282.264 346.851 L
284.264 348.304 L
286.736 348.304 L
288.736 346.851 L
289.5 344.5 L
S
GR
GS
[0.75 0 0 0.75 0 0] CT
0 0.447 0.741 RC
2 setlinecap
10.0 ML
N
294.5 349.5 M
293.736 347.149 L
291.736 345.696 L
289.264 345.696 L
287.264 347.149 L
286.5 349.5 L
287.264 351.851 L
289.264 353.304 L
291.736 353.304 L
293.736 351.851 L
294.5 349.5 L
S
GR
GS
[0.75 0 0 0.75 0 0] CT
0 0.447 0.741 RC
2 setlinecap
10.0 ML
N
298.5 331.5 M
297.736 329.149 L
295.736 327.696 L
293.264 327.696 L
291.264 329.149 L
290.5 331.5 L
291.264 333.851 L
293.264 335.304 L
295.736 335.304 L
297.736 333.851 L
298.5 331.5 L
S
GR
GS
[0.75 0 0 0.75 0 0] CT
0 0.447 0.741 RC
2 setlinecap
10.0 ML
N
303.5 336.5 M
302.736 334.149 L
300.736 332.696 L
298.264 332.696 L
296.264 334.149 L
295.5 336.5 L
296.264 338.851 L
298.264 340.304 L
300.736 340.304 L
302.736 338.851 L
303.5 336.5 L
S
GR
GS
[0.75 0 0 0.75 0 0] CT
0 0.447 0.741 RC
2 setlinecap
10.0 ML
N
307.5 338.5 M
306.736 336.149 L
304.736 334.696 L
302.264 334.696 L
300.264 336.149 L
299.5 338.5 L
300.264 340.851 L
302.264 342.304 L
304.736 342.304 L
306.736 340.851 L
307.5 338.5 L
S
GR
GS
[0.75 0 0 0.75 0 0] CT
0 0.447 0.741 RC
2 setlinecap
10.0 ML
N
312.5 340.5 M
311.736 338.149 L
309.736 336.696 L
307.264 336.696 L
305.264 338.149 L
304.5 340.5 L
305.264 342.851 L
307.264 344.304 L
309.736 344.304 L
311.736 342.851 L
312.5 340.5 L
S
GR
GS
[0.75 0 0 0.75 0 0] CT
0 0.447 0.741 RC
2 setlinecap
10.0 ML
N
316.5 359.5 M
315.736 357.149 L
313.736 355.696 L
311.264 355.696 L
309.264 357.149 L
308.5 359.5 L
309.264 361.851 L
311.264 363.304 L
313.736 363.304 L
315.736 361.851 L
316.5 359.5 L
S
GR
GS
[0.75 0 0 0.75 0 0] CT
0 0.447 0.741 RC
2 setlinecap
10.0 ML
N
321.5 347.5 M
320.736 345.149 L
318.736 343.696 L
316.264 343.696 L
314.264 345.149 L
313.5 347.5 L
314.264 349.851 L
316.264 351.304 L
318.736 351.304 L
320.736 349.851 L
321.5 347.5 L
S
GR
GS
[0.75 0 0 0.75 0 0] CT
0 0.447 0.741 RC
2 setlinecap
10.0 ML
N
325.5 341.5 M
324.736 339.149 L
322.736 337.696 L
320.264 337.696 L
318.264 339.149 L
317.5 341.5 L
318.264 343.851 L
320.264 345.304 L
322.736 345.304 L
324.736 343.851 L
325.5 341.5 L
S
GR
GS
[0.75 0 0 0.75 0 0] CT
0 0.447 0.741 RC
2 setlinecap
10.0 ML
N
329.5 358.5 M
328.736 356.149 L
326.736 354.696 L
324.264 354.696 L
322.264 356.149 L
321.5 358.5 L
322.264 360.851 L
324.264 362.304 L
326.736 362.304 L
328.736 360.851 L
329.5 358.5 L
S
GR
GS
[0.75 0 0 0.75 0 0] CT
0 0.447 0.741 RC
2 setlinecap
10.0 ML
N
334.5 315.5 M
333.736 313.149 L
331.736 311.696 L
329.264 311.696 L
327.264 313.149 L
326.5 315.5 L
327.264 317.851 L
329.264 319.304 L
331.736 319.304 L
333.736 317.851 L
334.5 315.5 L
S
GR
GS
[0.75 0 0 0.75 0 0] CT
0 0.447 0.741 RC
2 setlinecap
10.0 ML
N
338.5 308.5 M
337.736 306.149 L
335.736 304.696 L
333.264 304.696 L
331.264 306.149 L
330.5 308.5 L
331.264 310.851 L
333.264 312.304 L
335.736 312.304 L
337.736 310.851 L
338.5 308.5 L
S
GR
GS
[0.75 0 0 0.75 0 0] CT
0 0.447 0.741 RC
2 setlinecap
10.0 ML
N
343.5 338.5 M
342.736 336.149 L
340.736 334.696 L
338.264 334.696 L
336.264 336.149 L
335.5 338.5 L
336.264 340.851 L
338.264 342.304 L
340.736 342.304 L
342.736 340.851 L
343.5 338.5 L
S
GR
GS
[0.75 0 0 0.75 0 0] CT
0 0.447 0.741 RC
2 setlinecap
10.0 ML
N
347.5 353.5 M
346.736 351.149 L
344.736 349.696 L
342.264 349.696 L
340.264 351.149 L
339.5 353.5 L
340.264 355.851 L
342.264 357.304 L
344.736 357.304 L
346.736 355.851 L
347.5 353.5 L
S
GR
GS
[0.75 0 0 0.75 0 0] CT
0 0.447 0.741 RC
2 setlinecap
10.0 ML
N
352.5 346.5 M
351.736 344.149 L
349.736 342.696 L
347.264 342.696 L
345.264 344.149 L
344.5 346.5 L
345.264 348.851 L
347.264 350.304 L
349.736 350.304 L
351.736 348.851 L
352.5 346.5 L
S
GR
GS
[0.75 0 0 0.75 0 0] CT
0 0.447 0.741 RC
2 setlinecap
10.0 ML
N
356.5 366.5 M
355.736 364.149 L
353.736 362.696 L
351.264 362.696 L
349.264 364.149 L
348.5 366.5 L
349.264 368.851 L
351.264 370.304 L
353.736 370.304 L
355.736 368.851 L
356.5 366.5 L
S
GR
GS
[0.75 0 0 0.75 0 0] CT
0 0.447 0.741 RC
2 setlinecap
10.0 ML
N
361.5 359.5 M
360.736 357.149 L
358.736 355.696 L
356.264 355.696 L
354.264 357.149 L
353.5 359.5 L
354.264 361.851 L
356.264 363.304 L
358.736 363.304 L
360.736 361.851 L
361.5 359.5 L
S
GR
GS
[0.75 0 0 0.75 0 0] CT
0 0.447 0.741 RC
2 setlinecap
10.0 ML
N
365.5 355.5 M
364.736 353.149 L
362.736 351.696 L
360.264 351.696 L
358.264 353.149 L
357.5 355.5 L
358.264 357.851 L
360.264 359.304 L
362.736 359.304 L
364.736 357.851 L
365.5 355.5 L
S
GR
GS
[0.75 0 0 0.75 0 0] CT
0 0.447 0.741 RC
2 setlinecap
10.0 ML
N
370.5 369.5 M
369.736 367.149 L
367.736 365.696 L
365.264 365.696 L
363.264 367.149 L
362.5 369.5 L
363.264 371.851 L
365.264 373.304 L
367.736 373.304 L
369.736 371.851 L
370.5 369.5 L
S
GR
GS
[0.75 0 0 0.75 0 0] CT
0 0.447 0.741 RC
2 setlinecap
10.0 ML
N
374.5 356.5 M
373.736 354.149 L
371.736 352.696 L
369.264 352.696 L
367.264 354.149 L
366.5 356.5 L
367.264 358.851 L
369.264 360.304 L
371.736 360.304 L
373.736 358.851 L
374.5 356.5 L
S
GR
GS
[0.75 0 0 0.75 0 0] CT
0 0.447 0.741 RC
2 setlinecap
10.0 ML
N
378.5 361.5 M
377.736 359.149 L
375.736 357.696 L
373.264 357.696 L
371.264 359.149 L
370.5 361.5 L
371.264 363.851 L
373.264 365.304 L
375.736 365.304 L
377.736 363.851 L
378.5 361.5 L
S
GR
GS
[0.75 0 0 0.75 0 0] CT
0 0.447 0.741 RC
2 setlinecap
10.0 ML
N
383.5 366.5 M
382.736 364.149 L
380.736 362.696 L
378.264 362.696 L
376.264 364.149 L
375.5 366.5 L
376.264 368.851 L
378.264 370.304 L
380.736 370.304 L
382.736 368.851 L
383.5 366.5 L
S
GR
GS
[0.75 0 0 0.75 0 0] CT
0 0.447 0.741 RC
2 setlinecap
10.0 ML
N
387.5 364.5 M
386.736 362.149 L
384.736 360.696 L
382.264 360.696 L
380.264 362.149 L
379.5 364.5 L
380.264 366.851 L
382.264 368.304 L
384.736 368.304 L
386.736 366.851 L
387.5 364.5 L
S
GR
GS
[0.75 0 0 0.75 0 0] CT
0 0.447 0.741 RC
2 setlinecap
10.0 ML
N
392.5 363.5 M
391.736 361.149 L
389.736 359.696 L
387.264 359.696 L
385.264 361.149 L
384.5 363.5 L
385.264 365.851 L
387.264 367.304 L
389.736 367.304 L
391.736 365.851 L
392.5 363.5 L
S
GR
GS
[0.75 0 0 0.75 0 0] CT
0 0.447 0.741 RC
2 setlinecap
10.0 ML
N
396.5 363.5 M
395.736 361.149 L
393.736 359.696 L
391.264 359.696 L
389.264 361.149 L
388.5 363.5 L
389.264 365.851 L
391.264 367.304 L
393.736 367.304 L
395.736 365.851 L
396.5 363.5 L
S
GR
GS
[0.75 0 0 0.75 0 0] CT
0 0.447 0.741 RC
2 setlinecap
10.0 ML
N
401.5 360.5 M
400.736 358.149 L
398.736 356.696 L
396.264 356.696 L
394.264 358.149 L
393.5 360.5 L
394.264 362.851 L
396.264 364.304 L
398.736 364.304 L
400.736 362.851 L
401.5 360.5 L
S
GR
GS
[0.75 0 0 0.75 0 0] CT
0 0.447 0.741 RC
2 setlinecap
10.0 ML
N
405.5 373.5 M
404.736 371.149 L
402.736 369.696 L
400.264 369.696 L
398.264 371.149 L
397.5 373.5 L
398.264 375.851 L
400.264 377.304 L
402.736 377.304 L
404.736 375.851 L
405.5 373.5 L
S
GR
GS
[0.75 0 0 0.75 0 0] CT
0 0.447 0.741 RC
2 setlinecap
10.0 ML
N
410.5 372.5 M
409.736 370.149 L
407.736 368.696 L
405.264 368.696 L
403.264 370.149 L
402.5 372.5 L
403.264 374.851 L
405.264 376.304 L
407.736 376.304 L
409.736 374.851 L
410.5 372.5 L
S
GR
GS
[0.75 0 0 0.75 0 0] CT
0 0.447 0.741 RC
2 setlinecap
10.0 ML
N
414.5 365.5 M
413.736 363.149 L
411.736 361.696 L
409.264 361.696 L
407.264 363.149 L
406.5 365.5 L
407.264 367.851 L
409.264 369.304 L
411.736 369.304 L
413.736 367.851 L
414.5 365.5 L
S
GR
GS
[0.75 0 0 0.75 0 0] CT
0 0.447 0.741 RC
2 setlinecap
10.0 ML
N
419.5 368.5 M
418.736 366.149 L
416.736 364.696 L
414.264 364.696 L
412.264 366.149 L
411.5 368.5 L
412.264 370.851 L
414.264 372.304 L
416.736 372.304 L
418.736 370.851 L
419.5 368.5 L
S
GR
GS
[0.75 0 0 0.75 0 0] CT
0 0.447 0.741 RC
2 setlinecap
10.0 ML
N
423.5 369.5 M
422.736 367.149 L
420.736 365.696 L
418.264 365.696 L
416.264 367.149 L
415.5 369.5 L
416.264 371.851 L
418.264 373.304 L
420.736 373.304 L
422.736 371.851 L
423.5 369.5 L
S
GR
GS
[0.75 0 0 0.75 0 0] CT
0 0.447 0.741 RC
2 setlinecap
10.0 ML
N
427.5 368.5 M
426.736 366.149 L
424.736 364.696 L
422.264 364.696 L
420.264 366.149 L
419.5 368.5 L
420.264 370.851 L
422.264 372.304 L
424.736 372.304 L
426.736 370.851 L
427.5 368.5 L
S
GR
GS
[0.75 0 0 0.75 0 0] CT
0 0.447 0.741 RC
2 setlinecap
10.0 ML
N
432.5 368.5 M
431.736 366.149 L
429.736 364.696 L
427.264 364.696 L
425.264 366.149 L
424.5 368.5 L
425.264 370.851 L
427.264 372.304 L
429.736 372.304 L
431.736 370.851 L
432.5 368.5 L
S
GR
GS
[0.75 0 0 0.75 0 0] CT
0 0.447 0.741 RC
2 setlinecap
10.0 ML
N
436.5 372.5 M
435.736 370.149 L
433.736 368.696 L
431.264 368.696 L
429.264 370.149 L
428.5 372.5 L
429.264 374.851 L
431.264 376.304 L
433.736 376.304 L
435.736 374.851 L
436.5 372.5 L
S
GR
GS
[0.75 0 0 0.75 0 0] CT
0 0.447 0.741 RC
2 setlinecap
10.0 ML
N
441.5 368.5 M
440.736 366.149 L
438.736 364.696 L
436.264 364.696 L
434.264 366.149 L
433.5 368.5 L
434.264 370.851 L
436.264 372.304 L
438.736 372.304 L
440.736 370.851 L
441.5 368.5 L
S
GR
GS
[0.75 0 0 0.75 0 0] CT
0 0.447 0.741 RC
2 setlinecap
10.0 ML
N
445.5 366.5 M
444.736 364.149 L
442.736 362.696 L
440.264 362.696 L
438.264 364.149 L
437.5 366.5 L
438.264 368.851 L
440.264 370.304 L
442.736 370.304 L
444.736 368.851 L
445.5 366.5 L
S
GR
GS
[0.75 0 0 0.75 0 0] CT
0 0.447 0.741 RC
2 setlinecap
10.0 ML
N
450.5 367.5 M
449.736 365.149 L
447.736 363.696 L
445.264 363.696 L
443.264 365.149 L
442.5 367.5 L
443.264 369.851 L
445.264 371.304 L
447.736 371.304 L
449.736 369.851 L
450.5 367.5 L
S
GR
GS
[0.75 0 0 0.75 0 0] CT
0 0.447 0.741 RC
2 setlinecap
10.0 ML
N
454.5 364.5 M
453.736 362.149 L
451.736 360.696 L
449.264 360.696 L
447.264 362.149 L
446.5 364.5 L
447.264 366.851 L
449.264 368.304 L
451.736 368.304 L
453.736 366.851 L
454.5 364.5 L
S
GR
GS
[0.75 0 0 0.75 0 0] CT
0 0.447 0.741 RC
2 setlinecap
10.0 ML
N
459.5 366.5 M
458.736 364.149 L
456.736 362.696 L
454.264 362.696 L
452.264 364.149 L
451.5 366.5 L
452.264 368.851 L
454.264 370.304 L
456.736 370.304 L
458.736 368.851 L
459.5 366.5 L
S
GR
GS
[0.75 0 0 0.75 0 0] CT
0 0.447 0.741 RC
2 setlinecap
10.0 ML
N
463.5 369.5 M
462.736 367.149 L
460.736 365.696 L
458.264 365.696 L
456.264 367.149 L
455.5 369.5 L
456.264 371.851 L
458.264 373.304 L
460.736 373.304 L
462.736 371.851 L
463.5 369.5 L
S
GR
GS
[0.75 0 0 0.75 0 0] CT
0 0.447 0.741 RC
2 setlinecap
10.0 ML
N
468.5 364.5 M
467.736 362.149 L
465.736 360.696 L
463.264 360.696 L
461.264 362.149 L
460.5 364.5 L
461.264 366.851 L
463.264 368.304 L
465.736 368.304 L
467.736 366.851 L
468.5 364.5 L
S
GR
GS
[0.75 0 0 0.75 0 0] CT
0 0.447 0.741 RC
2 setlinecap
10.0 ML
N
472.5 359.5 M
471.736 357.149 L
469.736 355.696 L
467.264 355.696 L
465.264 357.149 L
464.5 359.5 L
465.264 361.851 L
467.264 363.304 L
469.736 363.304 L
471.736 361.851 L
472.5 359.5 L
S
GR
GS
[0.75 0 0 0.75 0 0] CT
0 0.447 0.741 RC
2 setlinecap
10.0 ML
N
477.5 362.5 M
476.736 360.149 L
474.736 358.696 L
472.264 358.696 L
470.264 360.149 L
469.5 362.5 L
470.264 364.851 L
472.264 366.304 L
474.736 366.304 L
476.736 364.851 L
477.5 362.5 L
S
GR
GS
[0.75 0 0 0.75 0 0] CT
0 0.447 0.741 RC
2 setlinecap
10.0 ML
N
481.5 365.5 M
480.736 363.149 L
478.736 361.696 L
476.264 361.696 L
474.264 363.149 L
473.5 365.5 L
474.264 367.851 L
476.264 369.304 L
478.736 369.304 L
480.736 367.851 L
481.5 365.5 L
S
GR
GS
[0.75 0 0 0.75 0 0] CT
0 0.447 0.741 RC
2 setlinecap
10.0 ML
N
485.5 362.5 M
484.736 360.149 L
482.736 358.696 L
480.264 358.696 L
478.264 360.149 L
477.5 362.5 L
478.264 364.851 L
480.264 366.304 L
482.736 366.304 L
484.736 364.851 L
485.5 362.5 L
S
GR
GS
[0.75 0 0 0.75 0 0] CT
0 0.447 0.741 RC
2 setlinecap
10.0 ML
N
490.5 364.5 M
489.736 362.149 L
487.736 360.696 L
485.264 360.696 L
483.264 362.149 L
482.5 364.5 L
483.264 366.851 L
485.264 368.304 L
487.736 368.304 L
489.736 366.851 L
490.5 364.5 L
S
GR
GS
[0.75 0 0 0.75 0 0] CT
0 0.447 0.741 RC
2 setlinecap
10.0 ML
N
494.5 362.5 M
493.736 360.149 L
491.736 358.696 L
489.264 358.696 L
487.264 360.149 L
486.5 362.5 L
487.264 364.851 L
489.264 366.304 L
491.736 366.304 L
493.736 364.851 L
494.5 362.5 L
S
GR
GS
[0.75 0 0 0.75 0 0] CT
0 0.447 0.741 RC
2 setlinecap
10.0 ML
N
499.5 366.5 M
498.736 364.149 L
496.736 362.696 L
494.264 362.696 L
492.264 364.149 L
491.5 366.5 L
492.264 368.851 L
494.264 370.304 L
496.736 370.304 L
498.736 368.851 L
499.5 366.5 L
S
GR
GS
[0.75 0 0 0.75 0 0] CT
0 0.447 0.741 RC
2 setlinecap
10.0 ML
N
503.5 372.5 M
502.736 370.149 L
500.736 368.696 L
498.264 368.696 L
496.264 370.149 L
495.5 372.5 L
496.264 374.851 L
498.264 376.304 L
500.736 376.304 L
502.736 374.851 L
503.5 372.5 L
S
GR
GS
[0.75 0 0 0.75 0 0] CT
0 0.447 0.741 RC
2 setlinecap
10.0 ML
N
508.5 368.5 M
507.736 366.149 L
505.736 364.696 L
503.264 364.696 L
501.264 366.149 L
500.5 368.5 L
501.264 370.851 L
503.264 372.304 L
505.736 372.304 L
507.736 370.851 L
508.5 368.5 L
S
GR
GS
[0.75 0 0 0.75 0 0] CT
0 0.447 0.741 RC
2 setlinecap
10.0 ML
N
76.343 374 M
76.343 40.183 L
S
GR
GS
[0.75 0 0 0.75 0 0] CT
0 0.447 0.741 RC
2 setlinecap
10.0 ML
N
80.8 374 M
80.8 65.708 L
S
GR
GS
[0.75 0 0 0.75 0 0] CT
0 0.447 0.741 RC
2 setlinecap
10.0 ML
N
85.257 374 M
85.257 91.864 L
S
GR
GS
[0.75 0 0 0.75 0 0] CT
0 0.447 0.741 RC
2 setlinecap
10.0 ML
N
89.714 374 M
89.714 278.1 L
S
GR
GS
[0.75 0 0 0.75 0 0] CT
0 0.447 0.741 RC
2 setlinecap
10.0 ML
N
94.171 374 M
94.171 321.216 L
S
GR
GS
[0.75 0 0 0.75 0 0] CT
0 0.447 0.741 RC
2 setlinecap
10.0 ML
N
98.628 374 M
98.628 227.098 L
S
GR
GS
[0.75 0 0 0.75 0 0] CT
0 0.447 0.741 RC
2 setlinecap
10.0 ML
N
103.085 374 M
103.085 229.377 L
S
GR
GS
[0.75 0 0 0.75 0 0] CT
0 0.447 0.741 RC
2 setlinecap
10.0 ML
N
107.542 374 M
107.542 241.997 L
S
GR
GS
[0.75 0 0 0.75 0 0] CT
0 0.447 0.741 RC
2 setlinecap
10.0 ML
N
111.999 374 M
111.999 320.375 L
S
GR
GS
[0.75 0 0 0.75 0 0] CT
0 0.447 0.741 RC
2 setlinecap
10.0 ML
N
116.456 374 M
116.456 322.568 L
S
GR
GS
[0.75 0 0 0.75 0 0] CT
0 0.447 0.741 RC
2 setlinecap
10.0 ML
N
120.913 374 M
120.913 311.338 L
S
GR
GS
[0.75 0 0 0.75 0 0] CT
0 0.447 0.741 RC
2 setlinecap
10.0 ML
N
125.37 374 M
125.37 301.748 L
S
GR
GS
[0.75 0 0 0.75 0 0] CT
0 0.447 0.741 RC
2 setlinecap
10.0 ML
N
129.827 374 M
129.827 349.578 L
S
GR
GS
[0.75 0 0 0.75 0 0] CT
0 0.447 0.741 RC
2 setlinecap
10.0 ML
N
134.284 374 M
134.284 300.977 L
S
GR
GS
[0.75 0 0 0.75 0 0] CT
0 0.447 0.741 RC
2 setlinecap
10.0 ML
N
138.741 374 M
138.741 310.427 L
S
GR
GS
[0.75 0 0 0.75 0 0] CT
0 0.447 0.741 RC
2 setlinecap
10.0 ML
N
143.198 374 M
143.198 302.504 L
S
GR
GS
[0.75 0 0 0.75 0 0] CT
0 0.447 0.741 RC
2 setlinecap
10.0 ML
N
147.655 374 M
147.655 363.886 L
S
GR
GS
[0.75 0 0 0.75 0 0] CT
0 0.447 0.741 RC
2 setlinecap
10.0 ML
N
152.112 374 M
152.112 343.241 L
S
GR
GS
[0.75 0 0 0.75 0 0] CT
0 0.447 0.741 RC
2 setlinecap
10.0 ML
N
156.569 374 M
156.569 304.916 L
S
GR
GS
[0.75 0 0 0.75 0 0] CT
0 0.447 0.741 RC
2 setlinecap
10.0 ML
N
161.026 374 M
161.026 327.778 L
S
GR
GS
[0.75 0 0 0.75 0 0] CT
0 0.447 0.741 RC
2 setlinecap
10.0 ML
N
165.483 374 M
165.483 365.293 L
S
GR
GS
[0.75 0 0 0.75 0 0] CT
0 0.447 0.741 RC
2 setlinecap
10.0 ML
N
169.94 374 M
169.94 348.673 L
S
GR
GS
[0.75 0 0 0.75 0 0] CT
0 0.447 0.741 RC
2 setlinecap
10.0 ML
N
174.397 374 M
174.397 342.496 L
S
GR
GS
[0.75 0 0 0.75 0 0] CT
0 0.447 0.741 RC
2 setlinecap
10.0 ML
N
178.854 374 M
178.854 341.483 L
S
GR
GS
[0.75 0 0 0.75 0 0] CT
0 0.447 0.741 RC
2 setlinecap
10.0 ML
N
183.311 374 M
183.311 334.445 L
S
GR
GS
[0.75 0 0 0.75 0 0] CT
0 0.447 0.741 RC
2 setlinecap
10.0 ML
N
187.768 374 M
187.768 345.795 L
S
GR
GS
[0.75 0 0 0.75 0 0] CT
0 0.447 0.741 RC
2 setlinecap
10.0 ML
N
192.225 374 M
192.225 355.16 L
S
GR
GS
[0.75 0 0 0.75 0 0] CT
0 0.447 0.741 RC
2 setlinecap
10.0 ML
N
196.682 374 M
196.682 347.904 L
S
GR
GS
[0.75 0 0 0.75 0 0] CT
0 0.447 0.741 RC
2 setlinecap
10.0 ML
N
201.139 374 M
201.139 338.683 L
S
GR
GS
[0.75 0 0 0.75 0 0] CT
0 0.447 0.741 RC
2 setlinecap
10.0 ML
N
205.596 374 M
205.596 337.126 L
S
GR
GS
[0.75 0 0 0.75 0 0] CT
0 0.447 0.741 RC
2 setlinecap
10.0 ML
N
210.053 374 M
210.053 349.659 L
S
GR
GS
[0.75 0 0 0.75 0 0] CT
0 0.447 0.741 RC
2 setlinecap
10.0 ML
N
214.51 374 M
214.51 358.731 L
S
GR
GS
[0.75 0 0 0.75 0 0] CT
0 0.447 0.741 RC
2 setlinecap
10.0 ML
N
218.967 374 M
218.967 344.872 L
S
GR
GS
[0.75 0 0 0.75 0 0] CT
0 0.447 0.741 RC
2 setlinecap
10.0 ML
N
223.424 374 M
223.424 345.778 L
S
GR
GS
[0.75 0 0 0.75 0 0] CT
0 0.447 0.741 RC
2 setlinecap
10.0 ML
N
227.881 374 M
227.881 347.99 L
S
GR
GS
[0.75 0 0 0.75 0 0] CT
0 0.447 0.741 RC
2 setlinecap
10.0 ML
N
232.338 374 M
232.338 338.963 L
S
GR
GS
[0.75 0 0 0.75 0 0] CT
0 0.447 0.741 RC
2 setlinecap
10.0 ML
N
236.795 374 M
236.795 363.463 L
S
GR
GS
[0.75 0 0 0.75 0 0] CT
0 0.447 0.741 RC
2 setlinecap
10.0 ML
N
241.252 374 M
241.252 363.557 L
S
GR
GS
[0.75 0 0 0.75 0 0] CT
0 0.447 0.741 RC
2 setlinecap
10.0 ML
N
245.709 374 M
245.709 346.991 L
S
GR
GS
[0.75 0 0 0.75 0 0] CT
0 0.447 0.741 RC
2 setlinecap
10.0 ML
N
250.166 374 M
250.166 353.559 L
S
GR
GS
[0.75 0 0 0.75 0 0] CT
0 0.447 0.741 RC
2 setlinecap
10.0 ML
N
254.623 374 M
254.623 340.981 L
S
GR
GS
[0.75 0 0 0.75 0 0] CT
0 0.447 0.741 RC
2 setlinecap
10.0 ML
N
259.08 374 M
259.08 340.457 L
S
GR
GS
[0.75 0 0 0.75 0 0] CT
0 0.447 0.741 RC
2 setlinecap
10.0 ML
N
263.537 374 M
263.537 355.293 L
S
GR
GS
[0.75 0 0 0.75 0 0] CT
0 0.447 0.741 RC
2 setlinecap
10.0 ML
N
267.994 374 M
267.994 349.226 L
S
GR
GS
[0.75 0 0 0.75 0 0] CT
0 0.447 0.741 RC
2 setlinecap
10.0 ML
N
272.451 374 M
272.451 340.932 L
S
GR
GS
[0.75 0 0 0.75 0 0] CT
0 0.447 0.741 RC
2 setlinecap
10.0 ML
N
276.908 374 M
276.908 342.694 L
S
GR
GS
[0.75 0 0 0.75 0 0] CT
0 0.447 0.741 RC
2 setlinecap
10.0 ML
N
281.365 374 M
281.365 334.951 L
S
GR
GS
[0.75 0 0 0.75 0 0] CT
0 0.447 0.741 RC
2 setlinecap
10.0 ML
N
285.822 374 M
285.822 344.28 L
S
GR
GS
[0.75 0 0 0.75 0 0] CT
0 0.447 0.741 RC
2 setlinecap
10.0 ML
N
290.279 374 M
290.279 349.753 L
S
GR
GS
[0.75 0 0 0.75 0 0] CT
0 0.447 0.741 RC
2 setlinecap
10.0 ML
N
294.736 374 M
294.736 331.817 L
S
GR
GS
[0.75 0 0 0.75 0 0] CT
0 0.447 0.741 RC
2 setlinecap
10.0 ML
N
299.193 374 M
299.193 336.704 L
S
GR
GS
[0.75 0 0 0.75 0 0] CT
0 0.447 0.741 RC
2 setlinecap
10.0 ML
N
303.65 374 M
303.65 338.009 L
S
GR
GS
[0.75 0 0 0.75 0 0] CT
0 0.447 0.741 RC
2 setlinecap
10.0 ML
N
308.107 374 M
308.107 340.15 L
S
GR
GS
[0.75 0 0 0.75 0 0] CT
0 0.447 0.741 RC
2 setlinecap
10.0 ML
N
312.564 374 M
312.564 359.751 L
S
GR
GS
[0.75 0 0 0.75 0 0] CT
0 0.447 0.741 RC
2 setlinecap
10.0 ML
N
317.021 374 M
317.021 347.228 L
S
GR
GS
[0.75 0 0 0.75 0 0] CT
0 0.447 0.741 RC
2 setlinecap
10.0 ML
N
321.478 374 M
321.478 341.195 L
S
GR
GS
[0.75 0 0 0.75 0 0] CT
0 0.447 0.741 RC
2 setlinecap
10.0 ML
N
325.935 374 M
325.935 358.788 L
S
GR
GS
[0.75 0 0 0.75 0 0] CT
0 0.447 0.741 RC
2 setlinecap
10.0 ML
N
330.392 374 M
330.392 315.27 L
S
GR
GS
[0.75 0 0 0.75 0 0] CT
0 0.447 0.741 RC
2 setlinecap
10.0 ML
N
334.849 374 M
334.849 308.944 L
S
GR
GS
[0.75 0 0 0.75 0 0] CT
0 0.447 0.741 RC
2 setlinecap
10.0 ML
N
339.306 374 M
339.306 338.508 L
S
GR
GS
[0.75 0 0 0.75 0 0] CT
0 0.447 0.741 RC
2 setlinecap
10.0 ML
N
343.763 374 M
343.763 353.916 L
S
GR
GS
[0.75 0 0 0.75 0 0] CT
0 0.447 0.741 RC
2 setlinecap
10.0 ML
N
348.22 374 M
348.22 346.846 L
S
GR
GS
[0.75 0 0 0.75 0 0] CT
0 0.447 0.741 RC
2 setlinecap
10.0 ML
N
352.676 374 M
352.676 366.42 L
S
GR
GS
[0.75 0 0 0.75 0 0] CT
0 0.447 0.741 RC
2 setlinecap
10.0 ML
N
357.134 374 M
357.134 359.348 L
S
GR
GS
[0.75 0 0 0.75 0 0] CT
0 0.447 0.741 RC
2 setlinecap
10.0 ML
N
361.59 374 M
361.59 355.302 L
S
GR
GS
[0.75 0 0 0.75 0 0] CT
0 0.447 0.741 RC
2 setlinecap
10.0 ML
N
366.047 374 M
366.047 369.966 L
S
GR
GS
[0.75 0 0 0.75 0 0] CT
0 0.447 0.741 RC
2 setlinecap
10.0 ML
N
370.504 374 M
370.504 356.211 L
S
GR
GS
[0.75 0 0 0.75 0 0] CT
0 0.447 0.741 RC
2 setlinecap
10.0 ML
N
374.961 374 M
374.961 361.72 L
S
GR
GS
[0.75 0 0 0.75 0 0] CT
0 0.447 0.741 RC
2 setlinecap
10.0 ML
N
379.418 374 M
379.418 366.794 L
S
GR
GS
[0.75 0 0 0.75 0 0] CT
0 0.447 0.741 RC
2 setlinecap
10.0 ML
N
383.875 374 M
383.875 364.645 L
S
GR
GS
[0.75 0 0 0.75 0 0] CT
0 0.447 0.741 RC
2 setlinecap
10.0 ML
N
388.332 374 M
388.332 363.078 L
S
GR
GS
[0.75 0 0 0.75 0 0] CT
0 0.447 0.741 RC
2 setlinecap
10.0 ML
N
392.789 374 M
392.789 363.463 L
S
GR
GS
[0.75 0 0 0.75 0 0] CT
0 0.447 0.741 RC
2 setlinecap
10.0 ML
N
397.246 374 M
397.246 360.482 L
S
GR
GS
[0.75 0 0 0.75 0 0] CT
0 0.447 0.741 RC
2 setlinecap
10.0 ML
N
401.703 374 M
401.703 373.432 L
S
GR
GS
[0.75 0 0 0.75 0 0] CT
0 0.447 0.741 RC
2 setlinecap
10.0 ML
N
406.16 374 M
406.16 372.526 L
S
GR
GS
[0.75 0 0 0.75 0 0] CT
0 0.447 0.741 RC
2 setlinecap
10.0 ML
N
410.617 374 M
410.617 365.363 L
S
GR
GS
[0.75 0 0 0.75 0 0] CT
0 0.447 0.741 RC
2 setlinecap
10.0 ML
N
415.074 374 M
415.074 368.58 L
S
GR
GS
[0.75 0 0 0.75 0 0] CT
0 0.447 0.741 RC
2 setlinecap
10.0 ML
N
419.531 374 M
419.531 369.211 L
S
GR
GS
[0.75 0 0 0.75 0 0] CT
0 0.447 0.741 RC
2 setlinecap
10.0 ML
N
423.988 374 M
423.988 368.383 L
S
GR
GS
[0.75 0 0 0.75 0 0] CT
0 0.447 0.741 RC
2 setlinecap
10.0 ML
N
428.445 374 M
428.445 368.414 L
S
GR
GS
[0.75 0 0 0.75 0 0] CT
0 0.447 0.741 RC
2 setlinecap
10.0 ML
N
432.902 374 M
432.902 372.81 L
S
GR
GS
[0.75 0 0 0.75 0 0] CT
0 0.447 0.741 RC
2 setlinecap
10.0 ML
N
437.359 374 M
437.359 368.584 L
S
GR
GS
[0.75 0 0 0.75 0 0] CT
0 0.447 0.741 RC
2 setlinecap
10.0 ML
N
441.816 374 M
441.816 366.919 L
S
GR
GS
[0.75 0 0 0.75 0 0] CT
0 0.447 0.741 RC
2 setlinecap
10.0 ML
N
446.273 374 M
446.273 367.798 L
S
GR
GS
[0.75 0 0 0.75 0 0] CT
0 0.447 0.741 RC
2 setlinecap
10.0 ML
N
450.73 374 M
450.73 364.299 L
S
GR
GS
[0.75 0 0 0.75 0 0] CT
0 0.447 0.741 RC
2 setlinecap
10.0 ML
N
455.187 374 M
455.187 366.157 L
S
GR
GS
[0.75 0 0 0.75 0 0] CT
0 0.447 0.741 RC
2 setlinecap
10.0 ML
N
459.644 374 M
459.644 369.441 L
S
GR
GS
[0.75 0 0 0.75 0 0] CT
0 0.447 0.741 RC
2 setlinecap
10.0 ML
N
464.101 374 M
464.101 364.299 L
S
GR
GS
[0.75 0 0 0.75 0 0] CT
0 0.447 0.741 RC
2 setlinecap
10.0 ML
N
468.558 374 M
468.558 359.492 L
S
GR
GS
[0.75 0 0 0.75 0 0] CT
0 0.447 0.741 RC
2 setlinecap
10.0 ML
N
473.015 374 M
473.015 362.368 L
S
GR
GS
[0.75 0 0 0.75 0 0] CT
0 0.447 0.741 RC
2 setlinecap
10.0 ML
N
477.472 374 M
477.472 365.638 L
S
GR
GS
[0.75 0 0 0.75 0 0] CT
0 0.447 0.741 RC
2 setlinecap
10.0 ML
N
481.929 374 M
481.929 362.5 L
S
GR
GS
[0.75 0 0 0.75 0 0] CT
0 0.447 0.741 RC
2 setlinecap
10.0 ML
N
486.386 374 M
486.386 364.808 L
S
GR
GS
[0.75 0 0 0.75 0 0] CT
0 0.447 0.741 RC
2 setlinecap
10.0 ML
N
490.843 374 M
490.843 362.899 L
S
GR
GS
[0.75 0 0 0.75 0 0] CT
0 0.447 0.741 RC
2 setlinecap
10.0 ML
N
495.3 374 M
495.3 366.92 L
S
GR
GS
[0.75 0 0 0.75 0 0] CT
0 0.447 0.741 RC
2 setlinecap
10.0 ML
N
499.757 374 M
499.757 372.574 L
S
GR
GS
[0.75 0 0 0.75 0 0] CT
0 0.447 0.741 RC
2 setlinecap
10.0 ML
N
504.214 374 M
504.214 368.777 L
S
GR
GS
[0.75 0 0 0.75 217.50021 21.18749] CT
/Helvetica-Bold 15 F
GS
[1 0 0 1 0 0] CT
-144 -4 moveto 
1 -1 scale
(Single-Sided Amplitude Spectrum of y\(t\)) t 
GR
GR
GS
[0.75 0 0 0.75 0 0] CT
0.149 GC
2 setlinecap
10.0 ML
N
73 374 M
507 374 L
S
GR
%%Trailer
%%Pages: 1
%%EOF
