%!PS-Adobe-3.0
%%Creator: PCBNEW
%%CreationDate: Wed Jan 02 10:35:01 2019
%%Title: C:\Users\aleja\Desktop\TFG\Kicad_eschematics\PCB\PCB-drl_map.ps
%%Pages: 1
%%PageOrder: Ascend
%%BoundingBox: 0 0 596 842
%%DocumentMedia: A4 595 842 0 () ()
%%Orientation: Landscape
%%EndComments
%%BeginProlog
/line { newpath moveto lineto stroke } bind def
/cir0 { newpath 0 360 arc stroke } bind def
/cir1 { newpath 0 360 arc gsave fill grestore stroke } bind def
/cir2 { newpath 0 360 arc gsave fill grestore stroke } bind def
/arc0 { newpath arc stroke } bind def
/arc1 { newpath 4 index 4 index moveto arc closepath gsave fill
    grestore stroke } bind def
/arc2 { newpath 4 index 4 index moveto arc closepath gsave fill
    grestore stroke } bind def
/poly0 { stroke } bind def
/poly1 { closepath gsave fill grestore stroke } bind def
/poly2 { closepath gsave fill grestore stroke } bind def
/rect0 { rectstroke } bind def
/rect1 { rectfill } bind def
/rect2 { rectfill } bind def
/linemode0 { 0 setlinecap 0 setlinejoin 0 setlinewidth } bind def
/linemode1 { 1 setlinecap 1 setlinejoin } bind def
/dashedline { [200] 100 setdash } bind def
/solidline { [] 0 setdash } bind def
/phantomshow { moveto
    /KicadFont findfont 0.000001 scalefont setfont
    show } bind def
/textshow { gsave
    findfont exch scalefont setfont concat 1 scale 0 0 moveto show
    } bind def
/reencodefont {
  findfont dup length dict begin
  { 1 index /FID ne
    { def }
    { pop pop } ifelse
  } forall
  /Encoding ISOLatin1Encoding def
  currentdict
  end } bind def
/KicadFont /Helvetica reencodefont definefont pop
/KicadFont-Bold /Helvetica-Bold reencodefont definefont pop
/KicadFont-Oblique /Helvetica-Oblique reencodefont definefont pop
/KicadFont-BoldOblique /Helvetica-BoldOblique reencodefont definefont pop
%%EndProlog
%%Page: 1 1
%%BeginPageSetup
gsave
0.0072 0.0072 scale
linemode1
82680 0 translate 90 rotate
150 setlinewidth
%%EndPageSetup
78.7394 setlinewidth
newpath
179764 -6375.97 moveto
180355 -6966.52 lineto
stroke
newpath
180355 -6375.97 moveto
179764 -6966.52 lineto
stroke
newpath
224115 4431.12 moveto
224705 3840.57 lineto
stroke
newpath
224705 4431.12 moveto
224115 3840.57 lineto
stroke
newpath
224115 -10746 moveto
224705 -11336.6 lineto
stroke
newpath
224705 -10746 moveto
224115 -11336.6 lineto
stroke
newpath
226418 -55096.4 moveto
227008 -55687 lineto
stroke
newpath
227008 -55096.4 moveto
226418 -55687 lineto
stroke
newpath
180461 -64415.3 moveto
181052 -65005.9 lineto
stroke
newpath
181052 -64415.3 moveto
180461 -65005.9 lineto
stroke
newpath
179705 -18246 moveto
180296 -18836.6 lineto
stroke
newpath
180296 -18246 moveto
179705 -18836.6 lineto
stroke
newpath
179764 -1651.56 moveto
180355 -2242.11 lineto
stroke
newpath
180355 -1651.56 moveto
179764 -2242.11 lineto
stroke
newpath
223937 -25214.6 moveto
224528 -25805.1 lineto
stroke
newpath
224528 -25214.6 moveto
223937 -25805.1 lineto
stroke
newpath
223701 -55096.4 moveto
224292 -55687 lineto
stroke
newpath
224292 -55096.4 moveto
223701 -55687 lineto
stroke
newpath
196090 6050.13 moveto
196681 5459.57 lineto
stroke
newpath
196681 6050.13 moveto
196090 5459.57 lineto
stroke
newpath
179705 -34663.4 moveto
180296 -35253.9 lineto
stroke
newpath
180296 -34663.4 moveto
179705 -35253.9 lineto
stroke
newpath
229371 -66021.6 moveto
229961 -66612.2 lineto
stroke
newpath
229961 -66021.6 moveto
229371 -66612.2 lineto
stroke
newpath
227067 -10746 moveto
227658 -11336.6 lineto
stroke
newpath
227658 -10746 moveto
227067 -11336.6 lineto
stroke
newpath
179705 -20608.3 moveto
180296 -21198.8 lineto
stroke
newpath
180296 -20608.3 moveto
179705 -21198.8 lineto
stroke
newpath
179676 -29909.4 moveto
180266 -30500 lineto
stroke
newpath
180266 -29909.4 moveto
179676 -30500 lineto
stroke
newpath
196090 9002.88 moveto
196681 8412.33 lineto
stroke
newpath
196681 9002.88 moveto
196090 8412.33 lineto
stroke
newpath
179823 -47242.1 moveto
180414 -47832.7 lineto
stroke
newpath
180414 -47242.1 moveto
179823 -47832.7 lineto
stroke
newpath
180473 -59702.7 moveto
181063 -60293.3 lineto
stroke
newpath
181063 -59702.7 moveto
180473 -60293.3 lineto
stroke
newpath
179764 -4013.76 moveto
180355 -4604.31 lineto
stroke
newpath
180355 -4013.76 moveto
179764 -4604.31 lineto
stroke
newpath
226890 -25214.6 moveto
227481 -25805.1 lineto
stroke
newpath
227481 -25214.6 moveto
226890 -25805.1 lineto
stroke
newpath
229371 -36080.7 moveto
229961 -36671.2 lineto
stroke
newpath
229961 -36080.7 moveto
229371 -36671.2 lineto
stroke
newpath
179823 -44879.9 moveto
180414 -45470.5 lineto
stroke
newpath
180414 -44879.9 moveto
179823 -45470.5 lineto
stroke
newpath
229843 -21671.2 moveto
230434 -22261.8 lineto
stroke
newpath
230434 -21671.2 moveto
229843 -22261.8 lineto
stroke
newpath
229548 -51080.7 moveto
230138 -51671.2 lineto
stroke
newpath
230138 -51080.7 moveto
229548 -51671.2 lineto
stroke
newpath
180473 -62064.9 moveto
181063 -62655.5 lineto
stroke
newpath
181063 -62064.9 moveto
180473 -62655.5 lineto
stroke
newpath
179823 -49604.3 moveto
180414 -50194.9 lineto
stroke
newpath
180414 -49604.3 moveto
179823 -50194.9 lineto
stroke
newpath
221162 4431.12 moveto
221752 3840.57 lineto
stroke
newpath
221752 4431.12 moveto
221162 3840.57 lineto
stroke
newpath
230020 -6671.24 moveto
230611 -7261.8 lineto
stroke
newpath
230611 -6671.24 moveto
230020 -7261.8 lineto
stroke
newpath
224056 -40155.5 moveto
224646 -40746 lineto
stroke
newpath
224646 -40155.5 moveto
224056 -40746 lineto
stroke
newpath
227008 -40155.5 moveto
227599 -40746 lineto
stroke
newpath
227599 -40155.5 moveto
227008 -40746 lineto
stroke
newpath
179676 -32330.7 moveto
180266 -32921.2 lineto
stroke
newpath
180266 -32330.7 moveto
179676 -32921.2 lineto
stroke
newpath
179705 -15883.8 moveto
180296 -16474.4 lineto
stroke
newpath
180296 -15883.8 moveto
179705 -16474.4 lineto
stroke
215846 1388.68 413.386 cir0
221846 1388.68 413.386 cir0
224056 -27813 413.386 cir0
224056 -33813 413.386 cir0
200079 -61734.2 413.386 cir0
200079 -67734.2 413.386 cir0
184252 -44702.7 413.386 cir0
184252 -50702.7 413.386 cir0
224056 -57813 413.386 cir0
224056 -63813 413.386 cir0
184311 -175.181 413.386 cir0
184311 -6175.18 413.386 cir0
215670 -57813 413.386 cir0
221670 -57813 413.386 cir0
224292 -13344.5 413.386 cir0
224292 -19344.5 413.386 cir0
178433 14353.3 413.386 cir0
178433 8353.28 413.386 cir0
184134 -29230.3 413.386 cir0
184134 -35230.3 413.386 cir0
215847 -42990.1 413.386 cir0
221847 -42990.1 413.386 cir0
200256 -16734.2 413.386 cir0
200256 -22734.2 413.386 cir0
215752 -19545.3 413.386 cir0
221752 -19545.3 413.386 cir0
200020 -1793.29 413.386 cir0
200020 -7793.29 413.386 cir0
193551 10987.1 413.386 cir0
193551 4987.13 413.386 cir0
200197 -46498 413.386 cir0
200197 -52498 413.386 cir0
184193 -15116.1 413.386 cir0
184193 -21116.1 413.386 cir0
215871 -48954.7 413.386 cir0
221871 -48954.7 413.386 cir0
224410 1478.36 413.386 cir0
224410 -4521.64 413.386 cir0
215693 -4781.48 413.386 cir0
221693 -4781.48 413.386 cir0
184465 -59525.6 413.386 cir0
184465 -65525.6 413.386 cir0
200611 -31261.8 413.386 cir0
200611 -37261.8 413.386 cir0
224233 -42813 413.386 cir0
224233 -48813 413.386 cir0
215729 -13462.6 413.386 cir0
221729 -13462.6 413.386 cir0
215670 -27872 413.386 cir0
221670 -27872 413.386 cir0
215670 -34072.8 413.386 cir0
221670 -34072.8 413.386 cir0
215693 -63836.6 413.386 cir0
221693 -63836.6 413.386 cir0
newpath
200079 -40746 moveto
200079 -41690.9 lineto
stroke
newpath
199607 -41218.5 moveto
200552 -41218.5 lineto
stroke
newpath
200079 -43698.8 moveto
200079 -44643.7 lineto
stroke
newpath
199607 -44171.2 moveto
200552 -44171.2 lineto
stroke
newpath
217619 -45529.5 moveto
217619 -46474.4 lineto
stroke
newpath
217146 -46002 moveto
218091 -46002 lineto
stroke
newpath
220571 -45529.5 moveto
220571 -46474.4 lineto
stroke
newpath
220099 -46002 moveto
221044 -46002 lineto
stroke
newpath
187536 -57234.2 moveto
187536 -58179.1 lineto
stroke
newpath
187063 -57706.7 moveto
188008 -57706.7 lineto
stroke
newpath
187536 -66234.2 moveto
187536 -67179.1 lineto
stroke
newpath
187063 -66706.7 moveto
188008 -66706.7 lineto
stroke
newpath
190536 -57234.2 moveto
190536 -58179.1 lineto
stroke
newpath
190063 -57706.7 moveto
191008 -57706.7 lineto
stroke
newpath
190536 -66234.2 moveto
190536 -67179.1 lineto
stroke
newpath
190063 -66706.7 moveto
191008 -66706.7 lineto
stroke
newpath
193536 -57234.2 moveto
193536 -58179.1 lineto
stroke
newpath
193063 -57706.7 moveto
194008 -57706.7 lineto
stroke
newpath
193536 -66234.2 moveto
193536 -67179.1 lineto
stroke
newpath
193063 -66706.7 moveto
194008 -66706.7 lineto
stroke
newpath
196536 -57234.2 moveto
196536 -58179.1 lineto
stroke
newpath
196063 -57706.7 moveto
197008 -57706.7 lineto
stroke
newpath
196536 -66234.2 moveto
196536 -67179.1 lineto
stroke
newpath
196063 -66706.7 moveto
197008 -66706.7 lineto
stroke
newpath
215788 -66376 moveto
215788 -67320.9 lineto
stroke
newpath
215315 -66848.4 moveto
216260 -66848.4 lineto
stroke
newpath
218741 -66376 moveto
218741 -67320.9 lineto
stroke
newpath
218268 -66848.4 moveto
219213 -66848.4 lineto
stroke
newpath
200079 4017.73 moveto
200079 3072.85 lineto
stroke
newpath
199607 3545.29 moveto
200552 3545.29 lineto
stroke
newpath
200079 1064.98 moveto
200079 120.094 lineto
stroke
newpath
199607 592.535 moveto
200552 592.535 lineto
stroke
newpath
215788 -36612.2 moveto
215788 -37557.1 lineto
stroke
newpath
215315 -37084.6 moveto
216260 -37084.6 lineto
stroke
newpath
218741 -36612.2 moveto
218741 -37557.1 lineto
stroke
newpath
218268 -37084.6 moveto
219213 -37084.6 lineto
stroke
newpath
217086 -1268.8 moveto
217086 -2213.68 lineto
stroke
newpath
216613 -1741.24 moveto
217558 -1741.24 lineto
stroke
newpath
220039 -1268.8 moveto
220039 -2213.68 lineto
stroke
newpath
219566 -1741.24 moveto
220511 -1741.24 lineto
stroke
newpath
203741 1915.37 moveto
203741 970.488 lineto
stroke
newpath
203268 1442.93 moveto
204213 1442.93 lineto
stroke
newpath
203741 -7084.63 moveto
203741 -8029.51 lineto
stroke
newpath
203268 -7557.07 moveto
204213 -7557.07 lineto
stroke
newpath
206741 1915.37 moveto
206741 970.488 lineto
stroke
newpath
206268 1442.93 moveto
207213 1442.93 lineto
stroke
newpath
206741 -7084.63 moveto
206741 -8029.51 lineto
stroke
newpath
206268 -7557.07 moveto
207213 -7557.07 lineto
stroke
newpath
209741 1915.37 moveto
209741 970.488 lineto
stroke
newpath
209268 1442.93 moveto
210213 1442.93 lineto
stroke
newpath
209741 -7084.63 moveto
209741 -8029.51 lineto
stroke
newpath
209268 -7557.07 moveto
210213 -7557.07 lineto
stroke
newpath
212741 1915.37 moveto
212741 970.488 lineto
stroke
newpath
212268 1442.93 moveto
213213 1442.93 lineto
stroke
newpath
212741 -7084.63 moveto
212741 -8029.51 lineto
stroke
newpath
212268 -7557.07 moveto
213213 -7557.07 lineto
stroke
newpath
200020 -25450.8 moveto
200020 -26395.7 lineto
stroke
newpath
199548 -25923.2 moveto
200493 -25923.2 lineto
stroke
newpath
200020 -28403.5 moveto
200020 -29348.4 lineto
stroke
newpath
199548 -28876 moveto
200493 -28876 lineto
stroke
newpath
187323 -42789.4 moveto
187323 -43734.2 lineto
stroke
newpath
186851 -43261.8 moveto
187796 -43261.8 lineto
stroke
newpath
187323 -51789.4 moveto
187323 -52734.2 lineto
stroke
newpath
186851 -52261.8 moveto
187796 -52261.8 lineto
stroke
newpath
190323 -42789.4 moveto
190323 -43734.2 lineto
stroke
newpath
189851 -43261.8 moveto
190796 -43261.8 lineto
stroke
newpath
190323 -51789.4 moveto
190323 -52734.2 lineto
stroke
newpath
189851 -52261.8 moveto
190796 -52261.8 lineto
stroke
newpath
193323 -42789.4 moveto
193323 -43734.2 lineto
stroke
newpath
192851 -43261.8 moveto
193796 -43261.8 lineto
stroke
newpath
193323 -51789.4 moveto
193323 -52734.2 lineto
stroke
newpath
192851 -52261.8 moveto
193796 -52261.8 lineto
stroke
newpath
196323 -42789.4 moveto
196323 -43734.2 lineto
stroke
newpath
195851 -43261.8 moveto
196796 -43261.8 lineto
stroke
newpath
196323 -51789.4 moveto
196323 -52734.2 lineto
stroke
newpath
195851 -52261.8 moveto
196796 -52261.8 lineto
stroke
newpath
187441 1856.31 moveto
187441 911.433 lineto
stroke
newpath
186969 1383.87 moveto
187914 1383.87 lineto
stroke
newpath
187441 -7143.69 moveto
187441 -8088.57 lineto
stroke
newpath
186969 -7616.13 moveto
187914 -7616.13 lineto
stroke
newpath
190441 1856.31 moveto
190441 911.433 lineto
stroke
newpath
189969 1383.87 moveto
190914 1383.87 lineto
stroke
newpath
190441 -7143.69 moveto
190441 -8088.57 lineto
stroke
newpath
189969 -7616.13 moveto
190914 -7616.13 lineto
stroke
newpath
193441 1856.31 moveto
193441 911.433 lineto
stroke
newpath
192969 1383.87 moveto
193914 1383.87 lineto
stroke
newpath
193441 -7143.69 moveto
193441 -8088.57 lineto
stroke
newpath
192969 -7616.13 moveto
193914 -7616.13 lineto
stroke
newpath
196441 1856.31 moveto
196441 911.433 lineto
stroke
newpath
195969 1383.87 moveto
196914 1383.87 lineto
stroke
newpath
196441 -7143.69 moveto
196441 -8088.57 lineto
stroke
newpath
195969 -7616.13 moveto
196914 -7616.13 lineto
stroke
newpath
200103 -55935 moveto
200103 -56879.9 lineto
stroke
newpath
199630 -56407.5 moveto
200575 -56407.5 lineto
stroke
newpath
200103 -58887.8 moveto
200103 -59832.7 lineto
stroke
newpath
199630 -59360.2 moveto
200575 -59360.2 lineto
stroke
newpath
217323 -30411.4 moveto
217323 -31356.3 lineto
stroke
newpath
216851 -30883.8 moveto
217796 -30883.8 lineto
stroke
newpath
220276 -30411.4 moveto
220276 -31356.3 lineto
stroke
newpath
219804 -30883.8 moveto
220748 -30883.8 lineto
stroke
newpath
187264 -27553.1 moveto
187264 -28498 lineto
stroke
newpath
186792 -28025.6 moveto
187737 -28025.6 lineto
stroke
newpath
187264 -36553.1 moveto
187264 -37498 lineto
stroke
newpath
186792 -37025.6 moveto
187737 -37025.6 lineto
stroke
newpath
190264 -27553.1 moveto
190264 -28498 lineto
stroke
newpath
189792 -28025.6 moveto
190737 -28025.6 lineto
stroke
newpath
190264 -36553.1 moveto
190264 -37498 lineto
stroke
newpath
189792 -37025.6 moveto
190737 -37025.6 lineto
stroke
newpath
193264 -27553.1 moveto
193264 -28498 lineto
stroke
newpath
192792 -28025.6 moveto
193737 -28025.6 lineto
stroke
newpath
193264 -36553.1 moveto
193264 -37498 lineto
stroke
newpath
192792 -37025.6 moveto
193737 -37025.6 lineto
stroke
newpath
196264 -27553.1 moveto
196264 -28498 lineto
stroke
newpath
195792 -28025.6 moveto
196737 -28025.6 lineto
stroke
newpath
196264 -36553.1 moveto
196264 -37498 lineto
stroke
newpath
195792 -37025.6 moveto
196737 -37025.6 lineto
stroke
newpath
200138 -10923.2 moveto
200138 -11868.1 lineto
stroke
newpath
199666 -11395.7 moveto
200611 -11395.7 lineto
stroke
newpath
200138 -13876 moveto
200138 -14820.9 lineto
stroke
newpath
199666 -14348.4 moveto
200611 -14348.4 lineto
stroke
newpath
216733 -60352.3 moveto
216733 -61297.2 lineto
stroke
newpath
216260 -60824.8 moveto
217205 -60824.8 lineto
stroke
newpath
219685 -60352.3 moveto
219685 -61297.2 lineto
stroke
newpath
219213 -60824.8 moveto
220158 -60824.8 lineto
stroke
newpath
215965 -51494.1 moveto
215965 -52439 lineto
stroke
newpath
215493 -51966.5 moveto
216437 -51966.5 lineto
stroke
newpath
218918 -51494.1 moveto
218918 -52439 lineto
stroke
newpath
218445 -51966.5 moveto
219390 -51966.5 lineto
stroke
newpath
187559 -13084.6 moveto
187559 -14029.5 lineto
stroke
newpath
187087 -13557.1 moveto
188032 -13557.1 lineto
stroke
newpath
187559 -22084.6 moveto
187559 -23029.5 lineto
stroke
newpath
187087 -22557.1 moveto
188032 -22557.1 lineto
stroke
newpath
190559 -13084.6 moveto
190559 -14029.5 lineto
stroke
newpath
190087 -13557.1 moveto
191032 -13557.1 lineto
stroke
newpath
190559 -22084.6 moveto
190559 -23029.5 lineto
stroke
newpath
190087 -22557.1 moveto
191032 -22557.1 lineto
stroke
newpath
193559 -13084.6 moveto
193559 -14029.5 lineto
stroke
newpath
193087 -13557.1 moveto
194032 -13557.1 lineto
stroke
newpath
193559 -22084.6 moveto
193559 -23029.5 lineto
stroke
newpath
193087 -22557.1 moveto
194032 -22557.1 lineto
stroke
newpath
196559 -13084.6 moveto
196559 -14029.5 lineto
stroke
newpath
196087 -13557.1 moveto
197032 -13557.1 lineto
stroke
newpath
196559 -22084.6 moveto
196559 -23029.5 lineto
stroke
newpath
196087 -22557.1 moveto
197032 -22557.1 lineto
stroke
newpath
215847 -7379.91 moveto
215847 -8324.79 lineto
stroke
newpath
215374 -7852.35 moveto
216319 -7852.35 lineto
stroke
newpath
218800 -7379.91 moveto
218800 -8324.79 lineto
stroke
newpath
218327 -7852.35 moveto
219272 -7852.35 lineto
stroke
newpath
203918 -42789.4 moveto
203918 -43734.2 lineto
stroke
newpath
203445 -43261.8 moveto
204390 -43261.8 lineto
stroke
newpath
203918 -51789.4 moveto
203918 -52734.2 lineto
stroke
newpath
203445 -52261.8 moveto
204390 -52261.8 lineto
stroke
newpath
206918 -42789.4 moveto
206918 -43734.2 lineto
stroke
newpath
206445 -43261.8 moveto
207390 -43261.8 lineto
stroke
newpath
206918 -51789.4 moveto
206918 -52734.2 lineto
stroke
newpath
206445 -52261.8 moveto
207390 -52261.8 lineto
stroke
newpath
209918 -42789.4 moveto
209918 -43734.2 lineto
stroke
newpath
209445 -43261.8 moveto
210390 -43261.8 lineto
stroke
newpath
209918 -51789.4 moveto
209918 -52734.2 lineto
stroke
newpath
209445 -52261.8 moveto
210390 -52261.8 lineto
stroke
newpath
212918 -42789.4 moveto
212918 -43734.2 lineto
stroke
newpath
212445 -43261.8 moveto
213390 -43261.8 lineto
stroke
newpath
212918 -51789.4 moveto
212918 -52734.2 lineto
stroke
newpath
212445 -52261.8 moveto
213390 -52261.8 lineto
stroke
newpath
217678 -16002 moveto
217678 -16946.8 lineto
stroke
newpath
217205 -16474.4 moveto
218150 -16474.4 lineto
stroke
newpath
220630 -16002 moveto
220630 -16946.8 lineto
stroke
newpath
220158 -16474.4 moveto
221103 -16474.4 lineto
stroke
newpath
215906 -22084.6 moveto
215906 -23029.5 lineto
stroke
newpath
215434 -22557.1 moveto
216378 -22557.1 lineto
stroke
newpath
218859 -22084.6 moveto
218859 -23029.5 lineto
stroke
newpath
218386 -22557.1 moveto
219331 -22557.1 lineto
stroke
newpath
203800 -13084.6 moveto
203800 -14029.5 lineto
stroke
newpath
203327 -13557.1 moveto
204272 -13557.1 lineto
stroke
newpath
203800 -22084.6 moveto
203800 -23029.5 lineto
stroke
newpath
203327 -22557.1 moveto
204272 -22557.1 lineto
stroke
newpath
206800 -13084.6 moveto
206800 -14029.5 lineto
stroke
newpath
206327 -13557.1 moveto
207272 -13557.1 lineto
stroke
newpath
206800 -22084.6 moveto
206800 -23029.5 lineto
stroke
newpath
206327 -22557.1 moveto
207272 -22557.1 lineto
stroke
newpath
209800 -13084.6 moveto
209800 -14029.5 lineto
stroke
newpath
209327 -13557.1 moveto
210272 -13557.1 lineto
stroke
newpath
209800 -22084.6 moveto
209800 -23029.5 lineto
stroke
newpath
209327 -22557.1 moveto
210272 -22557.1 lineto
stroke
newpath
212800 -13084.6 moveto
212800 -14029.5 lineto
stroke
newpath
212327 -13557.1 moveto
213272 -13557.1 lineto
stroke
newpath
212800 -22084.6 moveto
212800 -23029.5 lineto
stroke
newpath
212327 -22557.1 moveto
213272 -22557.1 lineto
stroke
newpath
181480 14613.1 moveto
181480 13668.2 lineto
stroke
newpath
181008 14140.7 moveto
181953 14140.7 lineto
stroke
newpath
181480 5613.12 moveto
181480 4668.24 lineto
stroke
newpath
181008 5140.68 moveto
181953 5140.68 lineto
stroke
newpath
184480 14613.1 moveto
184480 13668.2 lineto
stroke
newpath
184008 14140.7 moveto
184953 14140.7 lineto
stroke
newpath
184480 5613.12 moveto
184480 4668.24 lineto
stroke
newpath
184008 5140.68 moveto
184953 5140.68 lineto
stroke
newpath
187480 14613.1 moveto
187480 13668.2 lineto
stroke
newpath
187008 14140.7 moveto
187953 14140.7 lineto
stroke
newpath
187480 5613.12 moveto
187480 4668.24 lineto
stroke
newpath
187008 5140.68 moveto
187953 5140.68 lineto
stroke
newpath
190480 14613.1 moveto
190480 13668.2 lineto
stroke
newpath
190008 14140.7 moveto
190953 14140.7 lineto
stroke
newpath
190480 5613.12 moveto
190480 4668.24 lineto
stroke
newpath
190008 5140.68 moveto
190953 5140.68 lineto
stroke
newpath
203741 -57257.9 moveto
203741 -58202.7 lineto
stroke
newpath
203268 -57730.3 moveto
204213 -57730.3 lineto
stroke
newpath
203741 -66257.9 moveto
203741 -67202.7 lineto
stroke
newpath
203268 -66730.3 moveto
204213 -66730.3 lineto
stroke
newpath
206741 -57257.9 moveto
206741 -58202.7 lineto
stroke
newpath
206268 -57730.3 moveto
207213 -57730.3 lineto
stroke
newpath
206741 -66257.9 moveto
206741 -67202.7 lineto
stroke
newpath
206268 -66730.3 moveto
207213 -66730.3 lineto
stroke
newpath
209741 -57257.9 moveto
209741 -58202.7 lineto
stroke
newpath
209268 -57730.3 moveto
210213 -57730.3 lineto
stroke
newpath
209741 -66257.9 moveto
209741 -67202.7 lineto
stroke
newpath
209268 -66730.3 moveto
210213 -66730.3 lineto
stroke
newpath
212741 -57257.9 moveto
212741 -58202.7 lineto
stroke
newpath
212268 -57730.3 moveto
213213 -57730.3 lineto
stroke
newpath
212741 -66257.9 moveto
212741 -67202.7 lineto
stroke
newpath
212268 -66730.3 moveto
213213 -66730.3 lineto
stroke
newpath
203741 -27553.1 moveto
203741 -28498 lineto
stroke
newpath
203268 -28025.6 moveto
204213 -28025.6 lineto
stroke
newpath
203741 -36553.1 moveto
203741 -37498 lineto
stroke
newpath
203268 -37025.6 moveto
204213 -37025.6 lineto
stroke
newpath
206741 -27553.1 moveto
206741 -28498 lineto
stroke
newpath
206268 -28025.6 moveto
207213 -28025.6 lineto
stroke
newpath
206741 -36553.1 moveto
206741 -37498 lineto
stroke
newpath
206268 -37025.6 moveto
207213 -37025.6 lineto
stroke
newpath
209741 -27553.1 moveto
209741 -28498 lineto
stroke
newpath
209268 -28025.6 moveto
210213 -28025.6 lineto
stroke
newpath
209741 -36553.1 moveto
209741 -37498 lineto
stroke
newpath
209268 -37025.6 moveto
210213 -37025.6 lineto
stroke
newpath
212741 -27553.1 moveto
212741 -28498 lineto
stroke
newpath
212268 -28025.6 moveto
213213 -28025.6 lineto
stroke
newpath
212741 -36553.1 moveto
212741 -37498 lineto
stroke
newpath
212268 -37025.6 moveto
213213 -37025.6 lineto
stroke
newpath
226971 -58306.9 moveto
226971 -57555.3 lineto
226219 -57555.3 lineto
226219 -58306.9 lineto
226971 -58306.9 lineto
poly0
newpath
226971 -64212.4 moveto
226971 -63460.8 lineto
226219 -63460.8 lineto
226219 -64212.4 lineto
226971 -64212.4 lineto
poly0
newpath
229924 -61259.7 moveto
229924 -60508 lineto
229172 -60508 lineto
229172 -61259.7 lineto
229924 -61259.7 lineto
poly0
newpath
227148 -43366 moveto
227148 -42614.3 lineto
226396 -42614.3 lineto
226396 -43366 lineto
227148 -43366 lineto
poly0
newpath
227148 -49271.5 moveto
227148 -48519.8 lineto
226396 -48519.8 lineto
226396 -49271.5 lineto
227148 -49271.5 lineto
poly0
newpath
230101 -46318.7 moveto
230101 -45567.1 lineto
229349 -45567.1 lineto
229349 -46318.7 lineto
230101 -46318.7 lineto
poly0
newpath
226971 -28366 moveto
226971 -27614.3 lineto
226219 -27614.3 lineto
226219 -28366 lineto
226971 -28366 lineto
poly0
newpath
226971 -34271.5 moveto
226971 -33519.8 lineto
226219 -33519.8 lineto
226219 -34271.5 lineto
226971 -34271.5 lineto
poly0
newpath
229924 -31318.7 moveto
229924 -30567.1 lineto
229172 -30567.1 lineto
229172 -31318.7 lineto
229924 -31318.7 lineto
poly0
newpath
227443 -13956.5 moveto
227443 -13204.9 lineto
226692 -13204.9 lineto
226692 -13956.5 lineto
227443 -13956.5 lineto
poly0
newpath
227443 -19862 moveto
227443 -19110.4 lineto
226692 -19110.4 lineto
226692 -19862 lineto
227443 -19862 lineto
poly0
newpath
230396 -16909.3 moveto
230396 -16157.6 lineto
229644 -16157.6 lineto
229644 -16909.3 lineto
230396 -16909.3 lineto
poly0
newpath
227620 1102.53 moveto
227620 1854.19 lineto
226869 1854.19 lineto
226869 1102.53 lineto
227620 1102.53 lineto
poly0
newpath
227620 -4802.98 moveto
227620 -4051.32 lineto
226869 -4051.32 lineto
226869 -4802.98 lineto
227620 -4802.98 lineto
poly0
newpath
230573 -1850.22 moveto
230573 -1098.57 lineto
229821 -1098.57 lineto
229821 -1850.22 lineto
230573 -1850.22 lineto
poly0
118.11 setlinewidth
0 0 0 setrgbcolor
0 0 0 setrgbcolor
newpath
59592.7 56042.5 moveto
59592.7 57223.6 lineto
59873.9 57223.6 lineto
60042.6 57167.3 lineto
60155.1 57054.9 lineto
60211.3 56942.4 lineto
60267.6 56717.4 lineto
60267.6 56548.7 lineto
60211.3 56323.7 lineto
60155.1 56211.2 lineto
60042.6 56098.7 lineto
59873.9 56042.5 lineto
59592.7 56042.5 lineto
stroke
newpath
60773.8 56042.5 moveto
60773.8 56829.9 lineto
stroke
newpath
60773.8 56604.9 moveto
60830 56717.4 lineto
60886.3 56773.6 lineto
60998.7 56829.9 lineto
61111.2 56829.9 lineto
stroke
newpath
61504.9 56042.5 moveto
61504.9 56829.9 lineto
stroke
newpath
61504.9 57223.6 moveto
61448.7 57167.3 lineto
61504.9 57111.1 lineto
61561.2 57167.3 lineto
61504.9 57223.6 lineto
61504.9 57111.1 lineto
stroke
newpath
62236.1 56042.5 moveto
62123.6 56098.7 lineto
62067.4 56211.2 lineto
62067.4 57223.6 lineto
stroke
newpath
62854.8 56042.5 moveto
62742.3 56098.7 lineto
62686 56211.2 lineto
62686 57223.6 lineto
stroke
newpath
64204.6 56042.5 moveto
64204.6 57223.6 lineto
64598.3 56379.9 lineto
64992 57223.6 lineto
64992 56042.5 lineto
stroke
newpath
66060.6 56042.5 moveto
66060.6 56661.2 lineto
66004.4 56773.6 lineto
65891.9 56829.9 lineto
65666.9 56829.9 lineto
65554.4 56773.6 lineto
stroke
newpath
66060.6 56098.7 moveto
65948.1 56042.5 lineto
65666.9 56042.5 lineto
65554.4 56098.7 lineto
65498.2 56211.2 lineto
65498.2 56323.7 lineto
65554.4 56436.2 lineto
65666.9 56492.4 lineto
65948.1 56492.4 lineto
66060.6 56548.7 lineto
stroke
newpath
66623 56829.9 moveto
66623 55648.8 lineto
stroke
newpath
66623 56773.6 moveto
66735.5 56829.9 lineto
66960.5 56829.9 lineto
67073 56773.6 lineto
67129.2 56717.4 lineto
67185.5 56604.9 lineto
67185.5 56267.5 lineto
67129.2 56155 lineto
67073 56098.7 lineto
66960.5 56042.5 lineto
66735.5 56042.5 lineto
66623 56098.7 lineto
stroke
newpath
67691.7 56155 moveto
67747.9 56098.7 lineto
67691.7 56042.5 lineto
67635.4 56098.7 lineto
67691.7 56155 lineto
67691.7 56042.5 lineto
stroke
newpath
67691.7 56773.6 moveto
67747.9 56717.4 lineto
67691.7 56661.2 lineto
67635.4 56717.4 lineto
67691.7 56773.6 lineto
67691.7 56661.2 lineto
stroke
newpath
57874.4 54391.7 moveto
58465 53801.2 lineto
stroke
newpath
58465 54391.7 moveto
57874.4 53801.2 lineto
stroke
0 0 0 setrgbcolor
0 0 0 setrgbcolor
newpath
59817.6 54743.3 moveto
59930.1 54743.3 lineto
60042.6 54687 lineto
60098.9 54630.8 lineto
60155.1 54518.3 lineto
60211.3 54293.3 lineto
60211.3 54012.1 lineto
60155.1 53787.1 lineto
60098.9 53674.7 lineto
60042.6 53618.4 lineto
59930.1 53562.2 lineto
59817.6 53562.2 lineto
59705.2 53618.4 lineto
59648.9 53674.7 lineto
59592.7 53787.1 lineto
59536.4 54012.1 lineto
59536.4 54293.3 lineto
59592.7 54518.3 lineto
59648.9 54630.8 lineto
59705.2 54687 lineto
59817.6 54743.3 lineto
stroke
newpath
60717.5 53674.7 moveto
60773.8 53618.4 lineto
60717.5 53562.2 lineto
60661.3 53618.4 lineto
60717.5 53674.7 lineto
60717.5 53562.2 lineto
stroke
newpath
61842.4 54743.3 moveto
61280 54743.3 lineto
61223.7 54180.8 lineto
61280 54237.1 lineto
61392.4 54293.3 lineto
61673.7 54293.3 lineto
61786.1 54237.1 lineto
61842.4 54180.8 lineto
61898.6 54068.4 lineto
61898.6 53787.1 lineto
61842.4 53674.7 lineto
61786.1 53618.4 lineto
61673.7 53562.2 lineto
61392.4 53562.2 lineto
61280 53618.4 lineto
61223.7 53674.7 lineto
stroke
newpath
62629.8 54743.3 moveto
62742.3 54743.3 lineto
62854.8 54687 lineto
62911 54630.8 lineto
62967.3 54518.3 lineto
63023.5 54293.3 lineto
63023.5 54012.1 lineto
62967.3 53787.1 lineto
62911 53674.7 lineto
62854.8 53618.4 lineto
62742.3 53562.2 lineto
62629.8 53562.2 lineto
62517.3 53618.4 lineto
62461.1 53674.7 lineto
62404.8 53787.1 lineto
62348.6 54012.1 lineto
62348.6 54293.3 lineto
62404.8 54518.3 lineto
62461.1 54630.8 lineto
62517.3 54687 lineto
62629.8 54743.3 lineto
stroke
newpath
63529.7 53562.2 moveto
63529.7 54349.6 lineto
stroke
newpath
63529.7 54237.1 moveto
63585.9 54293.3 lineto
63698.4 54349.6 lineto
63867.1 54349.6 lineto
63979.6 54293.3 lineto
64035.9 54180.8 lineto
64035.9 53562.2 lineto
stroke
newpath
64035.9 54180.8 moveto
64092.1 54293.3 lineto
64204.6 54349.6 lineto
64373.3 54349.6 lineto
64485.8 54293.3 lineto
64542.1 54180.8 lineto
64542.1 53562.2 lineto
stroke
newpath
65104.5 53562.2 moveto
65104.5 54349.6 lineto
stroke
newpath
65104.5 54237.1 moveto
65160.7 54293.3 lineto
65273.2 54349.6 lineto
65441.9 54349.6 lineto
65554.4 54293.3 lineto
65610.7 54180.8 lineto
65610.7 53562.2 lineto
stroke
newpath
65610.7 54180.8 moveto
65666.9 54293.3 lineto
65779.4 54349.6 lineto
65948.1 54349.6 lineto
66060.6 54293.3 lineto
66116.9 54180.8 lineto
66116.9 53562.2 lineto
stroke
newpath
68422.8 54799.5 moveto
67410.4 53280.9 lineto
stroke
newpath
69941.4 54743.3 moveto
70053.9 54743.3 lineto
70166.4 54687 lineto
70222.6 54630.8 lineto
70278.8 54518.3 lineto
70335.1 54293.3 lineto
70335.1 54012.1 lineto
70278.8 53787.1 lineto
70222.6 53674.7 lineto
70166.4 53618.4 lineto
70053.9 53562.2 lineto
69941.4 53562.2 lineto
69828.9 53618.4 lineto
69772.6 53674.7 lineto
69716.4 53787.1 lineto
69660.2 54012.1 lineto
69660.2 54293.3 lineto
69716.4 54518.3 lineto
69772.6 54630.8 lineto
69828.9 54687 lineto
69941.4 54743.3 lineto
stroke
newpath
70841.3 53674.7 moveto
70897.5 53618.4 lineto
70841.3 53562.2 lineto
70785 53618.4 lineto
70841.3 53674.7 lineto
70841.3 53562.2 lineto
stroke
newpath
71628.7 54743.3 moveto
71741.2 54743.3 lineto
71853.6 54687 lineto
71909.9 54630.8 lineto
71966.1 54518.3 lineto
72022.4 54293.3 lineto
72022.4 54012.1 lineto
71966.1 53787.1 lineto
71909.9 53674.7 lineto
71853.6 53618.4 lineto
71741.2 53562.2 lineto
71628.7 53562.2 lineto
71516.2 53618.4 lineto
71459.9 53674.7 lineto
71403.7 53787.1 lineto
71347.5 54012.1 lineto
71347.5 54293.3 lineto
71403.7 54518.3 lineto
71459.9 54630.8 lineto
71516.2 54687 lineto
71628.7 54743.3 lineto
stroke
newpath
72472.3 54630.8 moveto
72528.6 54687 lineto
72641 54743.3 lineto
72922.3 54743.3 lineto
73034.7 54687 lineto
73091 54630.8 lineto
73147.2 54518.3 lineto
73147.2 54405.8 lineto
73091 54237.1 lineto
72416.1 53562.2 lineto
73147.2 53562.2 lineto
stroke
newpath
73878.4 54743.3 moveto
73990.9 54743.3 lineto
74103.4 54687 lineto
74159.6 54630.8 lineto
74215.8 54518.3 lineto
74272.1 54293.3 lineto
74272.1 54012.1 lineto
74215.8 53787.1 lineto
74159.6 53674.7 lineto
74103.4 53618.4 lineto
73990.9 53562.2 lineto
73878.4 53562.2 lineto
73765.9 53618.4 lineto
73709.7 53674.7 lineto
73653.4 53787.1 lineto
73597.2 54012.1 lineto
73597.2 54293.3 lineto
73653.4 54518.3 lineto
73709.7 54630.8 lineto
73765.9 54687 lineto
73878.4 54743.3 lineto
stroke
newpath
74722 54743.3 moveto
74722 54518.3 lineto
stroke
newpath
75172 54743.3 moveto
75172 54518.3 lineto
stroke
newpath
76915.5 53112.2 moveto
76859.3 53168.5 lineto
76746.8 53337.2 lineto
76690.5 53449.7 lineto
76634.3 53618.4 lineto
76578 53899.6 lineto
76578 54124.6 lineto
76634.3 54405.8 lineto
76690.5 54574.5 lineto
76746.8 54687 lineto
76859.3 54855.8 lineto
76915.5 54912 lineto
stroke
newpath
77253 54743.3 moveto
77984.1 54743.3 lineto
77590.4 54293.3 lineto
77759.2 54293.3 lineto
77871.6 54237.1 lineto
77927.9 54180.8 lineto
77984.1 54068.4 lineto
77984.1 53787.1 lineto
77927.9 53674.7 lineto
77871.6 53618.4 lineto
77759.2 53562.2 lineto
77421.7 53562.2 lineto
77309.2 53618.4 lineto
77253 53674.7 lineto
stroke
newpath
78434.1 54630.8 moveto
78490.3 54687 lineto
78602.8 54743.3 lineto
78884 54743.3 lineto
78996.5 54687 lineto
79052.7 54630.8 lineto
79109 54518.3 lineto
79109 54405.8 lineto
79052.7 54237.1 lineto
78377.8 53562.2 lineto
79109 53562.2 lineto
stroke
newpath
80515.1 53562.2 moveto
80515.1 54743.3 lineto
stroke
newpath
81021.2 53562.2 moveto
81021.2 54180.8 lineto
80965 54293.3 lineto
80852.5 54349.6 lineto
80683.8 54349.6 lineto
80571.3 54293.3 lineto
80515.1 54237.1 lineto
stroke
newpath
81752.4 53562.2 moveto
81639.9 53618.4 lineto
81583.7 53674.7 lineto
81527.4 53787.1 lineto
81527.4 54124.6 lineto
81583.7 54237.1 lineto
81639.9 54293.3 lineto
81752.4 54349.6 lineto
81921.1 54349.6 lineto
82033.6 54293.3 lineto
82089.9 54237.1 lineto
82146.1 54124.6 lineto
82146.1 53787.1 lineto
82089.9 53674.7 lineto
82033.6 53618.4 lineto
81921.1 53562.2 lineto
81752.4 53562.2 lineto
stroke
newpath
82821 53562.2 moveto
82708.5 53618.4 lineto
82652.3 53730.9 lineto
82652.3 54743.3 lineto
stroke
newpath
83720.9 53618.4 moveto
83608.4 53562.2 lineto
83383.4 53562.2 lineto
83271 53618.4 lineto
83214.7 53730.9 lineto
83214.7 54180.8 lineto
83271 54293.3 lineto
83383.4 54349.6 lineto
83608.4 54349.6 lineto
83720.9 54293.3 lineto
83777.1 54180.8 lineto
83777.1 54068.4 lineto
83214.7 53955.9 lineto
stroke
newpath
84227.1 53618.4 moveto
84339.6 53562.2 lineto
84564.6 53562.2 lineto
84677 53618.4 lineto
84733.3 53730.9 lineto
84733.3 53787.1 lineto
84677 53899.6 lineto
84564.6 53955.9 lineto
84395.8 53955.9 lineto
84283.3 54012.1 lineto
84227.1 54124.6 lineto
84227.1 54180.8 lineto
84283.3 54293.3 lineto
84395.8 54349.6 lineto
84564.6 54349.6 lineto
84677 54293.3 lineto
stroke
newpath
85127 53112.2 moveto
85183.2 53168.5 lineto
85295.7 53337.2 lineto
85352 53449.7 lineto
85408.2 53618.4 lineto
85464.4 53899.6 lineto
85464.4 54124.6 lineto
85408.2 54405.8 lineto
85352 54574.5 lineto
85295.7 54687 lineto
85183.2 54855.8 lineto
85127 54912 lineto
stroke
58051.6 52537.4 413.386 cir0
0 0 0 setrgbcolor
0 0 0 setrgbcolor
newpath
59817.6 53184.2 moveto
59930.1 53184.2 lineto
60042.6 53128 lineto
60098.9 53071.7 lineto
60155.1 52959.2 lineto
60211.3 52734.3 lineto
60211.3 52453.1 lineto
60155.1 52228.1 lineto
60098.9 52115.6 lineto
60042.6 52059.4 lineto
59930.1 52003.1 lineto
59817.6 52003.1 lineto
59705.2 52059.4 lineto
59648.9 52115.6 lineto
59592.7 52228.1 lineto
59536.4 52453.1 lineto
59536.4 52734.3 lineto
59592.7 52959.2 lineto
59648.9 53071.7 lineto
59705.2 53128 lineto
59817.6 53184.2 lineto
stroke
newpath
60717.5 52115.6 moveto
60773.8 52059.4 lineto
60717.5 52003.1 lineto
60661.3 52059.4 lineto
60717.5 52115.6 lineto
60717.5 52003.1 lineto
stroke
newpath
61167.5 53184.2 moveto
61954.9 53184.2 lineto
61448.7 52003.1 lineto
stroke
newpath
62629.8 53184.2 moveto
62742.3 53184.2 lineto
62854.8 53128 lineto
62911 53071.7 lineto
62967.3 52959.2 lineto
63023.5 52734.3 lineto
63023.5 52453.1 lineto
62967.3 52228.1 lineto
62911 52115.6 lineto
62854.8 52059.4 lineto
62742.3 52003.1 lineto
62629.8 52003.1 lineto
62517.3 52059.4 lineto
62461.1 52115.6 lineto
62404.8 52228.1 lineto
62348.6 52453.1 lineto
62348.6 52734.3 lineto
62404.8 52959.2 lineto
62461.1 53071.7 lineto
62517.3 53128 lineto
62629.8 53184.2 lineto
stroke
newpath
63529.7 52003.1 moveto
63529.7 52790.5 lineto
stroke
newpath
63529.7 52678 moveto
63585.9 52734.3 lineto
63698.4 52790.5 lineto
63867.1 52790.5 lineto
63979.6 52734.3 lineto
64035.9 52621.8 lineto
64035.9 52003.1 lineto
stroke
newpath
64035.9 52621.8 moveto
64092.1 52734.3 lineto
64204.6 52790.5 lineto
64373.3 52790.5 lineto
64485.8 52734.3 lineto
64542.1 52621.8 lineto
64542.1 52003.1 lineto
stroke
newpath
65104.5 52003.1 moveto
65104.5 52790.5 lineto
stroke
newpath
65104.5 52678 moveto
65160.7 52734.3 lineto
65273.2 52790.5 lineto
65441.9 52790.5 lineto
65554.4 52734.3 lineto
65610.7 52621.8 lineto
65610.7 52003.1 lineto
stroke
newpath
65610.7 52621.8 moveto
65666.9 52734.3 lineto
65779.4 52790.5 lineto
65948.1 52790.5 lineto
66060.6 52734.3 lineto
66116.9 52621.8 lineto
66116.9 52003.1 lineto
stroke
newpath
68422.8 53240.5 moveto
67410.4 51721.9 lineto
stroke
newpath
69941.4 53184.2 moveto
70053.9 53184.2 lineto
70166.4 53128 lineto
70222.6 53071.7 lineto
70278.8 52959.2 lineto
70335.1 52734.3 lineto
70335.1 52453.1 lineto
70278.8 52228.1 lineto
70222.6 52115.6 lineto
70166.4 52059.4 lineto
70053.9 52003.1 lineto
69941.4 52003.1 lineto
69828.9 52059.4 lineto
69772.6 52115.6 lineto
69716.4 52228.1 lineto
69660.2 52453.1 lineto
69660.2 52734.3 lineto
69716.4 52959.2 lineto
69772.6 53071.7 lineto
69828.9 53128 lineto
69941.4 53184.2 lineto
stroke
newpath
70841.3 52115.6 moveto
70897.5 52059.4 lineto
70841.3 52003.1 lineto
70785 52059.4 lineto
70841.3 52115.6 lineto
70841.3 52003.1 lineto
stroke
newpath
71628.7 53184.2 moveto
71741.2 53184.2 lineto
71853.6 53128 lineto
71909.9 53071.7 lineto
71966.1 52959.2 lineto
72022.4 52734.3 lineto
72022.4 52453.1 lineto
71966.1 52228.1 lineto
71909.9 52115.6 lineto
71853.6 52059.4 lineto
71741.2 52003.1 lineto
71628.7 52003.1 lineto
71516.2 52059.4 lineto
71459.9 52115.6 lineto
71403.7 52228.1 lineto
71347.5 52453.1 lineto
71347.5 52734.3 lineto
71403.7 52959.2 lineto
71459.9 53071.7 lineto
71516.2 53128 lineto
71628.7 53184.2 lineto
stroke
newpath
72472.3 53071.7 moveto
72528.6 53128 lineto
72641 53184.2 lineto
72922.3 53184.2 lineto
73034.7 53128 lineto
73091 53071.7 lineto
73147.2 52959.2 lineto
73147.2 52846.8 lineto
73091 52678 lineto
72416.1 52003.1 lineto
73147.2 52003.1 lineto
stroke
newpath
73822.1 52678 moveto
73709.7 52734.3 lineto
73653.4 52790.5 lineto
73597.2 52903 lineto
73597.2 52959.2 lineto
73653.4 53071.7 lineto
73709.7 53128 lineto
73822.1 53184.2 lineto
74047.1 53184.2 lineto
74159.6 53128 lineto
74215.8 53071.7 lineto
74272.1 52959.2 lineto
74272.1 52903 lineto
74215.8 52790.5 lineto
74159.6 52734.3 lineto
74047.1 52678 lineto
73822.1 52678 lineto
73709.7 52621.8 lineto
73653.4 52565.5 lineto
73597.2 52453.1 lineto
73597.2 52228.1 lineto
73653.4 52115.6 lineto
73709.7 52059.4 lineto
73822.1 52003.1 lineto
74047.1 52003.1 lineto
74159.6 52059.4 lineto
74215.8 52115.6 lineto
74272.1 52228.1 lineto
74272.1 52453.1 lineto
74215.8 52565.5 lineto
74159.6 52621.8 lineto
74047.1 52678 lineto
stroke
newpath
74722 53184.2 moveto
74722 52959.2 lineto
stroke
newpath
75172 53184.2 moveto
75172 52959.2 lineto
stroke
newpath
76915.5 51553.2 moveto
76859.3 51609.4 lineto
76746.8 51778.1 lineto
76690.5 51890.6 lineto
76634.3 52059.4 lineto
76578 52340.6 lineto
76578 52565.5 lineto
76634.3 52846.8 lineto
76690.5 53015.5 lineto
76746.8 53128 lineto
76859.3 53296.7 lineto
76915.5 53352.9 lineto
stroke
newpath
77927.9 53184.2 moveto
77365.5 53184.2 lineto
77309.2 52621.8 lineto
77365.5 52678 lineto
77477.9 52734.3 lineto
77759.2 52734.3 lineto
77871.6 52678 lineto
77927.9 52621.8 lineto
77984.1 52509.3 lineto
77984.1 52228.1 lineto
77927.9 52115.6 lineto
77871.6 52059.4 lineto
77759.2 52003.1 lineto
77477.9 52003.1 lineto
77365.5 52059.4 lineto
77309.2 52115.6 lineto
stroke
newpath
78996.5 52790.5 moveto
78996.5 52003.1 lineto
stroke
newpath
78715.3 53240.5 moveto
78434.1 52396.8 lineto
79165.2 52396.8 lineto
stroke
newpath
80515.1 52003.1 moveto
80515.1 53184.2 lineto
stroke
newpath
81021.2 52003.1 moveto
81021.2 52621.8 lineto
80965 52734.3 lineto
80852.5 52790.5 lineto
80683.8 52790.5 lineto
80571.3 52734.3 lineto
80515.1 52678 lineto
stroke
newpath
81752.4 52003.1 moveto
81639.9 52059.4 lineto
81583.7 52115.6 lineto
81527.4 52228.1 lineto
81527.4 52565.5 lineto
81583.7 52678 lineto
81639.9 52734.3 lineto
81752.4 52790.5 lineto
81921.1 52790.5 lineto
82033.6 52734.3 lineto
82089.9 52678 lineto
82146.1 52565.5 lineto
82146.1 52228.1 lineto
82089.9 52115.6 lineto
82033.6 52059.4 lineto
81921.1 52003.1 lineto
81752.4 52003.1 lineto
stroke
newpath
82821 52003.1 moveto
82708.5 52059.4 lineto
82652.3 52171.8 lineto
82652.3 53184.2 lineto
stroke
newpath
83720.9 52059.4 moveto
83608.4 52003.1 lineto
83383.4 52003.1 lineto
83271 52059.4 lineto
83214.7 52171.8 lineto
83214.7 52621.8 lineto
83271 52734.3 lineto
83383.4 52790.5 lineto
83608.4 52790.5 lineto
83720.9 52734.3 lineto
83777.1 52621.8 lineto
83777.1 52509.3 lineto
83214.7 52396.8 lineto
stroke
newpath
84227.1 52059.4 moveto
84339.6 52003.1 lineto
84564.6 52003.1 lineto
84677 52059.4 lineto
84733.3 52171.8 lineto
84733.3 52228.1 lineto
84677 52340.6 lineto
84564.6 52396.8 lineto
84395.8 52396.8 lineto
84283.3 52453.1 lineto
84227.1 52565.5 lineto
84227.1 52621.8 lineto
84283.3 52734.3 lineto
84395.8 52790.5 lineto
84564.6 52790.5 lineto
84677 52734.3 lineto
stroke
newpath
85127 51553.2 moveto
85183.2 51609.4 lineto
85295.7 51778.1 lineto
85352 51890.6 lineto
85408.2 52059.4 lineto
85464.4 52340.6 lineto
85464.4 52565.5 lineto
85408.2 52846.8 lineto
85352 53015.5 lineto
85295.7 53128 lineto
85183.2 53296.7 lineto
85127 53352.9 lineto
stroke
newpath
57992.6 51450.8 moveto
57992.6 50505.9 lineto
stroke
newpath
57520.1 50978.4 moveto
58465 50978.4 lineto
stroke
0 0 0 setrgbcolor
0 0 0 setrgbcolor
newpath
59817.6 51625.2 moveto
59930.1 51625.2 lineto
60042.6 51568.9 lineto
60098.9 51512.7 lineto
60155.1 51400.2 lineto
60211.3 51175.2 lineto
60211.3 50894 lineto
60155.1 50669 lineto
60098.9 50556.5 lineto
60042.6 50500.3 lineto
59930.1 50444.1 lineto
59817.6 50444.1 lineto
59705.2 50500.3 lineto
59648.9 50556.5 lineto
59592.7 50669 lineto
59536.4 50894 lineto
59536.4 51175.2 lineto
59592.7 51400.2 lineto
59648.9 51512.7 lineto
59705.2 51568.9 lineto
59817.6 51625.2 lineto
stroke
newpath
60717.5 50556.5 moveto
60773.8 50500.3 lineto
60717.5 50444.1 lineto
60661.3 50500.3 lineto
60717.5 50556.5 lineto
60717.5 50444.1 lineto
stroke
newpath
61448.7 51119 moveto
61336.2 51175.2 lineto
61280 51231.5 lineto
61223.7 51343.9 lineto
61223.7 51400.2 lineto
61280 51512.7 lineto
61336.2 51568.9 lineto
61448.7 51625.2 lineto
61673.7 51625.2 lineto
61786.1 51568.9 lineto
61842.4 51512.7 lineto
61898.6 51400.2 lineto
61898.6 51343.9 lineto
61842.4 51231.5 lineto
61786.1 51175.2 lineto
61673.7 51119 lineto
61448.7 51119 lineto
61336.2 51062.7 lineto
61280 51006.5 lineto
61223.7 50894 lineto
61223.7 50669 lineto
61280 50556.5 lineto
61336.2 50500.3 lineto
61448.7 50444.1 lineto
61673.7 50444.1 lineto
61786.1 50500.3 lineto
61842.4 50556.5 lineto
61898.6 50669 lineto
61898.6 50894 lineto
61842.4 51006.5 lineto
61786.1 51062.7 lineto
61673.7 51119 lineto
stroke
newpath
62629.8 51625.2 moveto
62742.3 51625.2 lineto
62854.8 51568.9 lineto
62911 51512.7 lineto
62967.3 51400.2 lineto
63023.5 51175.2 lineto
63023.5 50894 lineto
62967.3 50669 lineto
62911 50556.5 lineto
62854.8 50500.3 lineto
62742.3 50444.1 lineto
62629.8 50444.1 lineto
62517.3 50500.3 lineto
62461.1 50556.5 lineto
62404.8 50669 lineto
62348.6 50894 lineto
62348.6 51175.2 lineto
62404.8 51400.2 lineto
62461.1 51512.7 lineto
62517.3 51568.9 lineto
62629.8 51625.2 lineto
stroke
newpath
63529.7 50444.1 moveto
63529.7 51231.5 lineto
stroke
newpath
63529.7 51119 moveto
63585.9 51175.2 lineto
63698.4 51231.5 lineto
63867.1 51231.5 lineto
63979.6 51175.2 lineto
64035.9 51062.7 lineto
64035.9 50444.1 lineto
stroke
newpath
64035.9 51062.7 moveto
64092.1 51175.2 lineto
64204.6 51231.5 lineto
64373.3 51231.5 lineto
64485.8 51175.2 lineto
64542.1 51062.7 lineto
64542.1 50444.1 lineto
stroke
newpath
65104.5 50444.1 moveto
65104.5 51231.5 lineto
stroke
newpath
65104.5 51119 moveto
65160.7 51175.2 lineto
65273.2 51231.5 lineto
65441.9 51231.5 lineto
65554.4 51175.2 lineto
65610.7 51062.7 lineto
65610.7 50444.1 lineto
stroke
newpath
65610.7 51062.7 moveto
65666.9 51175.2 lineto
65779.4 51231.5 lineto
65948.1 51231.5 lineto
66060.6 51175.2 lineto
66116.9 51062.7 lineto
66116.9 50444.1 lineto
stroke
newpath
68422.8 51681.4 moveto
67410.4 50162.8 lineto
stroke
newpath
69941.4 51625.2 moveto
70053.9 51625.2 lineto
70166.4 51568.9 lineto
70222.6 51512.7 lineto
70278.8 51400.2 lineto
70335.1 51175.2 lineto
70335.1 50894 lineto
70278.8 50669 lineto
70222.6 50556.5 lineto
70166.4 50500.3 lineto
70053.9 50444.1 lineto
69941.4 50444.1 lineto
69828.9 50500.3 lineto
69772.6 50556.5 lineto
69716.4 50669 lineto
69660.2 50894 lineto
69660.2 51175.2 lineto
69716.4 51400.2 lineto
69772.6 51512.7 lineto
69828.9 51568.9 lineto
69941.4 51625.2 lineto
stroke
newpath
70841.3 50556.5 moveto
70897.5 50500.3 lineto
70841.3 50444.1 lineto
70785 50500.3 lineto
70841.3 50556.5 lineto
70841.3 50444.1 lineto
stroke
newpath
71628.7 51625.2 moveto
71741.2 51625.2 lineto
71853.6 51568.9 lineto
71909.9 51512.7 lineto
71966.1 51400.2 lineto
72022.4 51175.2 lineto
72022.4 50894 lineto
71966.1 50669 lineto
71909.9 50556.5 lineto
71853.6 50500.3 lineto
71741.2 50444.1 lineto
71628.7 50444.1 lineto
71516.2 50500.3 lineto
71459.9 50556.5 lineto
71403.7 50669 lineto
71347.5 50894 lineto
71347.5 51175.2 lineto
71403.7 51400.2 lineto
71459.9 51512.7 lineto
71516.2 51568.9 lineto
71628.7 51625.2 lineto
stroke
newpath
72416.1 51625.2 moveto
73147.2 51625.2 lineto
72753.5 51175.2 lineto
72922.3 51175.2 lineto
73034.7 51119 lineto
73091 51062.7 lineto
73147.2 50950.2 lineto
73147.2 50669 lineto
73091 50556.5 lineto
73034.7 50500.3 lineto
72922.3 50444.1 lineto
72584.8 50444.1 lineto
72472.3 50500.3 lineto
72416.1 50556.5 lineto
stroke
newpath
74272.1 50444.1 moveto
73597.2 50444.1 lineto
stroke
newpath
73934.6 50444.1 moveto
73934.6 51625.2 lineto
73822.1 51456.4 lineto
73709.7 51343.9 lineto
73597.2 51287.7 lineto
stroke
newpath
74722 51625.2 moveto
74722 51400.2 lineto
stroke
newpath
75172 51625.2 moveto
75172 51400.2 lineto
stroke
newpath
76915.5 49994.1 moveto
76859.3 50050.4 lineto
76746.8 50219.1 lineto
76690.5 50331.6 lineto
76634.3 50500.3 lineto
76578 50781.5 lineto
76578 51006.5 lineto
76634.3 51287.7 lineto
76690.5 51456.4 lineto
76746.8 51568.9 lineto
76859.3 51737.6 lineto
76915.5 51793.9 lineto
stroke
newpath
77984.1 50444.1 moveto
77309.2 50444.1 lineto
stroke
newpath
77646.7 50444.1 moveto
77646.7 51625.2 lineto
77534.2 51456.4 lineto
77421.7 51343.9 lineto
77309.2 51287.7 lineto
stroke
newpath
79109 50444.1 moveto
78434.1 50444.1 lineto
stroke
newpath
78771.5 50444.1 moveto
78771.5 51625.2 lineto
78659 51456.4 lineto
78546.6 51343.9 lineto
78434.1 51287.7 lineto
stroke
newpath
79783.9 51119 moveto
79671.4 51175.2 lineto
79615.2 51231.5 lineto
79558.9 51343.9 lineto
79558.9 51400.2 lineto
79615.2 51512.7 lineto
79671.4 51568.9 lineto
79783.9 51625.2 lineto
80008.9 51625.2 lineto
80121.4 51568.9 lineto
80177.6 51512.7 lineto
80233.8 51400.2 lineto
80233.8 51343.9 lineto
80177.6 51231.5 lineto
80121.4 51175.2 lineto
80008.9 51119 lineto
79783.9 51119 lineto
79671.4 51062.7 lineto
79615.2 51006.5 lineto
79558.9 50894 lineto
79558.9 50669 lineto
79615.2 50556.5 lineto
79671.4 50500.3 lineto
79783.9 50444.1 lineto
80008.9 50444.1 lineto
80121.4 50500.3 lineto
80177.6 50556.5 lineto
80233.8 50669 lineto
80233.8 50894 lineto
80177.6 51006.5 lineto
80121.4 51062.7 lineto
80008.9 51119 lineto
stroke
newpath
81639.9 50444.1 moveto
81639.9 51625.2 lineto
stroke
newpath
82146.1 50444.1 moveto
82146.1 51062.7 lineto
82089.9 51175.2 lineto
81977.4 51231.5 lineto
81808.6 51231.5 lineto
81696.2 51175.2 lineto
81639.9 51119 lineto
stroke
newpath
82877.3 50444.1 moveto
82764.8 50500.3 lineto
82708.5 50556.5 lineto
82652.3 50669 lineto
82652.3 51006.5 lineto
82708.5 51119 lineto
82764.8 51175.2 lineto
82877.3 51231.5 lineto
83046 51231.5 lineto
83158.5 51175.2 lineto
83214.7 51119 lineto
83271 51006.5 lineto
83271 50669 lineto
83214.7 50556.5 lineto
83158.5 50500.3 lineto
83046 50444.1 lineto
82877.3 50444.1 lineto
stroke
newpath
83945.9 50444.1 moveto
83833.4 50500.3 lineto
83777.1 50612.8 lineto
83777.1 51625.2 lineto
stroke
newpath
84845.8 50500.3 moveto
84733.3 50444.1 lineto
84508.3 50444.1 lineto
84395.8 50500.3 lineto
84339.6 50612.8 lineto
84339.6 51062.7 lineto
84395.8 51175.2 lineto
84508.3 51231.5 lineto
84733.3 51231.5 lineto
84845.8 51175.2 lineto
84902 51062.7 lineto
84902 50950.2 lineto
84339.6 50837.8 lineto
stroke
newpath
85352 50500.3 moveto
85464.4 50444.1 lineto
85689.4 50444.1 lineto
85801.9 50500.3 lineto
85858.1 50612.8 lineto
85858.1 50669 lineto
85801.9 50781.5 lineto
85689.4 50837.8 lineto
85520.7 50837.8 lineto
85408.2 50894 lineto
85352 51006.5 lineto
85352 51062.7 lineto
85408.2 51175.2 lineto
85520.7 51231.5 lineto
85689.4 51231.5 lineto
85801.9 51175.2 lineto
stroke
newpath
86251.8 49994.1 moveto
86308.1 50050.4 lineto
86420.6 50219.1 lineto
86476.8 50331.6 lineto
86533.1 50500.3 lineto
86589.3 50781.5 lineto
86589.3 51006.5 lineto
86533.1 51287.7 lineto
86476.8 51456.4 lineto
86420.6 51568.9 lineto
86308.1 51737.6 lineto
86251.8 51793.9 lineto
stroke
newpath
58309.3 49043.5 moveto
58309.3 49795.1 lineto
57557.7 49795.1 lineto
57557.7 49043.5 lineto
58309.3 49043.5 lineto
poly0
0 0 0 setrgbcolor
0 0 0 setrgbcolor
newpath
59817.6 50066.1 moveto
59930.1 50066.1 lineto
60042.6 50009.9 lineto
60098.9 49953.6 lineto
60155.1 49841.1 lineto
60211.3 49616.2 lineto
60211.3 49334.9 lineto
60155.1 49110 lineto
60098.9 48997.5 lineto
60042.6 48941.2 lineto
59930.1 48885 lineto
59817.6 48885 lineto
59705.2 48941.2 lineto
59648.9 48997.5 lineto
59592.7 49110 lineto
59536.4 49334.9 lineto
59536.4 49616.2 lineto
59592.7 49841.1 lineto
59648.9 49953.6 lineto
59705.2 50009.9 lineto
59817.6 50066.1 lineto
stroke
newpath
60717.5 48997.5 moveto
60773.8 48941.2 lineto
60717.5 48885 lineto
60661.3 48941.2 lineto
60717.5 48997.5 lineto
60717.5 48885 lineto
stroke
newpath
61336.2 48885 moveto
61561.2 48885 lineto
61673.7 48941.2 lineto
61729.9 48997.5 lineto
61842.4 49166.2 lineto
61898.6 49391.2 lineto
61898.6 49841.1 lineto
61842.4 49953.6 lineto
61786.1 50009.9 lineto
61673.7 50066.1 lineto
61448.7 50066.1 lineto
61336.2 50009.9 lineto
61280 49953.6 lineto
61223.7 49841.1 lineto
61223.7 49559.9 lineto
61280 49447.4 lineto
61336.2 49391.2 lineto
61448.7 49334.9 lineto
61673.7 49334.9 lineto
61786.1 49391.2 lineto
61842.4 49447.4 lineto
61898.6 49559.9 lineto
stroke
newpath
62629.8 50066.1 moveto
62742.3 50066.1 lineto
62854.8 50009.9 lineto
62911 49953.6 lineto
62967.3 49841.1 lineto
63023.5 49616.2 lineto
63023.5 49334.9 lineto
62967.3 49110 lineto
62911 48997.5 lineto
62854.8 48941.2 lineto
62742.3 48885 lineto
62629.8 48885 lineto
62517.3 48941.2 lineto
62461.1 48997.5 lineto
62404.8 49110 lineto
62348.6 49334.9 lineto
62348.6 49616.2 lineto
62404.8 49841.1 lineto
62461.1 49953.6 lineto
62517.3 50009.9 lineto
62629.8 50066.1 lineto
stroke
newpath
63529.7 48885 moveto
63529.7 49672.4 lineto
stroke
newpath
63529.7 49559.9 moveto
63585.9 49616.2 lineto
63698.4 49672.4 lineto
63867.1 49672.4 lineto
63979.6 49616.2 lineto
64035.9 49503.7 lineto
64035.9 48885 lineto
stroke
newpath
64035.9 49503.7 moveto
64092.1 49616.2 lineto
64204.6 49672.4 lineto
64373.3 49672.4 lineto
64485.8 49616.2 lineto
64542.1 49503.7 lineto
64542.1 48885 lineto
stroke
newpath
65104.5 48885 moveto
65104.5 49672.4 lineto
stroke
newpath
65104.5 49559.9 moveto
65160.7 49616.2 lineto
65273.2 49672.4 lineto
65441.9 49672.4 lineto
65554.4 49616.2 lineto
65610.7 49503.7 lineto
65610.7 48885 lineto
stroke
newpath
65610.7 49503.7 moveto
65666.9 49616.2 lineto
65779.4 49672.4 lineto
65948.1 49672.4 lineto
66060.6 49616.2 lineto
66116.9 49503.7 lineto
66116.9 48885 lineto
stroke
newpath
68422.8 50122.3 moveto
67410.4 48603.8 lineto
stroke
newpath
69941.4 50066.1 moveto
70053.9 50066.1 lineto
70166.4 50009.9 lineto
70222.6 49953.6 lineto
70278.8 49841.1 lineto
70335.1 49616.2 lineto
70335.1 49334.9 lineto
70278.8 49110 lineto
70222.6 48997.5 lineto
70166.4 48941.2 lineto
70053.9 48885 lineto
69941.4 48885 lineto
69828.9 48941.2 lineto
69772.6 48997.5 lineto
69716.4 49110 lineto
69660.2 49334.9 lineto
69660.2 49616.2 lineto
69716.4 49841.1 lineto
69772.6 49953.6 lineto
69828.9 50009.9 lineto
69941.4 50066.1 lineto
stroke
newpath
70841.3 48997.5 moveto
70897.5 48941.2 lineto
70841.3 48885 lineto
70785 48941.2 lineto
70841.3 48997.5 lineto
70841.3 48885 lineto
stroke
newpath
71628.7 50066.1 moveto
71741.2 50066.1 lineto
71853.6 50009.9 lineto
71909.9 49953.6 lineto
71966.1 49841.1 lineto
72022.4 49616.2 lineto
72022.4 49334.9 lineto
71966.1 49110 lineto
71909.9 48997.5 lineto
71853.6 48941.2 lineto
71741.2 48885 lineto
71628.7 48885 lineto
71516.2 48941.2 lineto
71459.9 48997.5 lineto
71403.7 49110 lineto
71347.5 49334.9 lineto
71347.5 49616.2 lineto
71403.7 49841.1 lineto
71459.9 49953.6 lineto
71516.2 50009.9 lineto
71628.7 50066.1 lineto
stroke
newpath
72416.1 50066.1 moveto
73147.2 50066.1 lineto
72753.5 49616.2 lineto
72922.3 49616.2 lineto
73034.7 49559.9 lineto
73091 49503.7 lineto
73147.2 49391.2 lineto
73147.2 49110 lineto
73091 48997.5 lineto
73034.7 48941.2 lineto
72922.3 48885 lineto
72584.8 48885 lineto
72472.3 48941.2 lineto
72416.1 48997.5 lineto
stroke
newpath
74215.8 50066.1 moveto
73653.4 50066.1 lineto
73597.2 49503.7 lineto
73653.4 49559.9 lineto
73765.9 49616.2 lineto
74047.1 49616.2 lineto
74159.6 49559.9 lineto
74215.8 49503.7 lineto
74272.1 49391.2 lineto
74272.1 49110 lineto
74215.8 48997.5 lineto
74159.6 48941.2 lineto
74047.1 48885 lineto
73765.9 48885 lineto
73653.4 48941.2 lineto
73597.2 48997.5 lineto
stroke
newpath
74722 50066.1 moveto
74722 49841.1 lineto
stroke
newpath
75172 50066.1 moveto
75172 49841.1 lineto
stroke
newpath
76915.5 48435.1 moveto
76859.3 48491.3 lineto
76746.8 48660 lineto
76690.5 48772.5 lineto
76634.3 48941.2 lineto
76578 49222.5 lineto
76578 49447.4 lineto
76634.3 49728.6 lineto
76690.5 49897.4 lineto
76746.8 50009.9 lineto
76859.3 50178.6 lineto
76915.5 50234.8 lineto
stroke
newpath
77984.1 48885 moveto
77309.2 48885 lineto
stroke
newpath
77646.7 48885 moveto
77646.7 50066.1 lineto
77534.2 49897.4 lineto
77421.7 49784.9 lineto
77309.2 49728.6 lineto
stroke
newpath
79052.7 50066.1 moveto
78490.3 50066.1 lineto
78434.1 49503.7 lineto
78490.3 49559.9 lineto
78602.8 49616.2 lineto
78884 49616.2 lineto
78996.5 49559.9 lineto
79052.7 49503.7 lineto
79109 49391.2 lineto
79109 49110 lineto
79052.7 48997.5 lineto
78996.5 48941.2 lineto
78884 48885 lineto
78602.8 48885 lineto
78490.3 48941.2 lineto
78434.1 48997.5 lineto
stroke
newpath
80515.1 48885 moveto
80515.1 50066.1 lineto
stroke
newpath
81021.2 48885 moveto
81021.2 49503.7 lineto
80965 49616.2 lineto
80852.5 49672.4 lineto
80683.8 49672.4 lineto
80571.3 49616.2 lineto
80515.1 49559.9 lineto
stroke
newpath
81752.4 48885 moveto
81639.9 48941.2 lineto
81583.7 48997.5 lineto
81527.4 49110 lineto
81527.4 49447.4 lineto
81583.7 49559.9 lineto
81639.9 49616.2 lineto
81752.4 49672.4 lineto
81921.1 49672.4 lineto
82033.6 49616.2 lineto
82089.9 49559.9 lineto
82146.1 49447.4 lineto
82146.1 49110 lineto
82089.9 48997.5 lineto
82033.6 48941.2 lineto
81921.1 48885 lineto
81752.4 48885 lineto
stroke
newpath
82821 48885 moveto
82708.5 48941.2 lineto
82652.3 49053.7 lineto
82652.3 50066.1 lineto
stroke
newpath
83720.9 48941.2 moveto
83608.4 48885 lineto
83383.4 48885 lineto
83271 48941.2 lineto
83214.7 49053.7 lineto
83214.7 49503.7 lineto
83271 49616.2 lineto
83383.4 49672.4 lineto
83608.4 49672.4 lineto
83720.9 49616.2 lineto
83777.1 49503.7 lineto
83777.1 49391.2 lineto
83214.7 49278.7 lineto
stroke
newpath
84227.1 48941.2 moveto
84339.6 48885 lineto
84564.6 48885 lineto
84677 48941.2 lineto
84733.3 49053.7 lineto
84733.3 49110 lineto
84677 49222.5 lineto
84564.6 49278.7 lineto
84395.8 49278.7 lineto
84283.3 49334.9 lineto
84227.1 49447.4 lineto
84227.1 49503.7 lineto
84283.3 49616.2 lineto
84395.8 49672.4 lineto
84564.6 49672.4 lineto
84677 49616.2 lineto
stroke
newpath
85127 48435.1 moveto
85183.2 48491.3 lineto
85295.7 48660 lineto
85352 48772.5 lineto
85408.2 48941.2 lineto
85464.4 49222.5 lineto
85464.4 49447.4 lineto
85408.2 49728.6 lineto
85352 49897.4 lineto
85295.7 50009.9 lineto
85183.2 50178.6 lineto
85127 50234.8 lineto
stroke
showpage
grestore
%%EOF
