(export (version D)
  (design
    (source C:\Users\aleja\Desktop\TFG\TFG\PCB\PCB.sch)
    (date "08/12/2018 16:34:00")
    (tool "Eeschema (5.0.1)-4")
    (sheet (number 1) (name /) (tstamps /)
      (title_block
        (title)
        (company)
        (rev)
        (date)
        (source PCB.sch)
        (comment (number 1) (value ""))
        (comment (number 2) (value ""))
        (comment (number 3) (value ""))
        (comment (number 4) (value "")))))
  (components
    (comp (ref U1)
      (value AD620)
      (footprint Package_DIP:DIP-8_W7.62mm)
      (datasheet http://www.analog.com/media/en/technical-documentation/data-sheets/AD620.pdf)
      (libsource (lib Amplifier_Instrumentation) (part AD620) (description "Low Cost, Low Power, Instrumentation Amplifier, DIP-8/SOIC-8"))
      (sheetpath (names /) (tstamps /))
      (tstamp 5B9B84E1))
    (comp (ref U2)
      (value 3130)
      (footprint Package_DIP:DIP-8_W7.62mm)
      (datasheet http://www.intersil.com/content/dam/intersil/documents/ca31/ca3130-a.pdf)
      (libsource (lib Amplifier_Operational) (part CA3130) (description "15MHz, BiMOS Operational Amplifier with MOSFET Input/CMOS Output, DIP-8/SOIC-8"))
      (sheetpath (names /) (tstamps /))
      (tstamp 5B9B88BC))
    (comp (ref R1)
      (value 2.2K)
      (footprint Resistor_THT:R_Axial_DIN0204_L3.6mm_D1.6mm_P5.08mm_Horizontal)
      (datasheet ~)
      (libsource (lib Device) (part R) (description Resistor))
      (sheetpath (names /) (tstamps /))
      (tstamp 5B9BC83A))
    (comp (ref R4)
      (value 1M)
      (footprint Resistor_THT:R_Axial_DIN0204_L3.6mm_D1.6mm_P5.08mm_Horizontal)
      (datasheet ~)
      (libsource (lib Device) (part R) (description Resistor))
      (sheetpath (names /) (tstamps /))
      (tstamp 5B9C059E))
    (comp (ref R3)
      (value 1M)
      (footprint Resistor_THT:R_Axial_DIN0204_L3.6mm_D1.6mm_P5.08mm_Horizontal)
      (datasheet ~)
      (libsource (lib Device) (part R) (description Resistor))
      (sheetpath (names /) (tstamps /))
      (tstamp 5B9C1927))
    (comp (ref C2)
      (value .0068)
      (footprint Capacitor_THT:C_Rect_L4.0mm_W2.5mm_P2.50mm)
      (datasheet ~)
      (libsource (lib Device) (part C) (description "Unpolarized capacitor"))
      (sheetpath (names /) (tstamps /))
      (tstamp 5B9C1EAA))
    (comp (ref RV1)
      (value 1M)
      (footprint Potentiometer_THT:Potentiometer_ACP_CA6-H2,5_Horizontal)
      (datasheet ~)
      (libsource (lib Device) (part R_POT_US) (description "Potentiometer, US symbol"))
      (sheetpath (names /) (tstamps /))
      (tstamp 5B9C07BC))
    (comp (ref C1)
      (value 1uF)
      (footprint Capacitor_THT:C_Rect_L4.0mm_W2.5mm_P2.50mm)
      (datasheet ~)
      (libsource (lib Device) (part C) (description "Unpolarized capacitor"))
      (sheetpath (names /) (tstamps /))
      (tstamp 5C00082E))
    (comp (ref R2)
      (value 113K)
      (footprint Resistor_THT:R_Axial_DIN0204_L3.6mm_D1.6mm_P5.08mm_Horizontal)
      (datasheet ~)
      (libsource (lib Device) (part R) (description Resistor))
      (sheetpath (names /) (tstamps /))
      (tstamp 5C0008C6))
    (comp (ref R5)
      (value 10K)
      (footprint Resistor_THT:R_Axial_DIN0204_L3.6mm_D1.6mm_P5.08mm_Horizontal)
      (datasheet ~)
      (libsource (lib Device) (part R) (description Resistor))
      (sheetpath (names /) (tstamps /))
      (tstamp 5C005F9C))
    (comp (ref C3)
      (value .0068)
      (footprint Capacitor_THT:C_Rect_L4.0mm_W2.5mm_P2.50mm)
      (datasheet ~)
      (libsource (lib Device) (part C) (description "Unpolarized capacitor"))
      (sheetpath (names /) (tstamps /))
      (tstamp 5C005FEF))
    (comp (ref J6)
      (value V_out)
      (footprint Connector_PinHeader_1.00mm:PinHeader_1x01_P1.00mm_Vertical)
      (datasheet ~)
      (libsource (lib Connector_Generic) (part Conn_01x01) (description "Generic connector, single row, 01x01, script generated (kicad-library-utils/schlib/autogen/connector/)"))
      (sheetpath (names /) (tstamps /))
      (tstamp 5C007F1A))
    (comp (ref J1)
      (value A_electrode_+)
      (footprint Connector_PinHeader_1.00mm:PinHeader_1x01_P1.00mm_Vertical)
      (datasheet ~)
      (libsource (lib Connector) (part Conn_01x01_Male) (description "Generic connector, single row, 01x01, script generated (kicad-library-utils/schlib/autogen/connector/)"))
      (sheetpath (names /) (tstamps /))
      (tstamp 5C0948A4))
    (comp (ref J2)
      (value A_electrode_-)
      (footprint Connector_PinHeader_1.00mm:PinHeader_1x01_P1.00mm_Vertical)
      (datasheet ~)
      (libsource (lib Connector) (part Conn_01x01_Male) (description "Generic connector, single row, 01x01, script generated (kicad-library-utils/schlib/autogen/connector/)"))
      (sheetpath (names /) (tstamps /))
      (tstamp 5C0948FC))
    (comp (ref J3)
      (value N_electrode)
      (footprint Connector_PinHeader_1.00mm:PinHeader_1x01_P1.00mm_Vertical)
      (datasheet ~)
      (libsource (lib Connector) (part Conn_01x01_Male) (description "Generic connector, single row, 01x01, script generated (kicad-library-utils/schlib/autogen/connector/)"))
      (sheetpath (names /) (tstamps /))
      (tstamp 5C094963))
    (comp (ref R7)
      (value R)
      (footprint Resistor_THT:R_Axial_DIN0204_L3.6mm_D1.6mm_P5.08mm_Horizontal)
      (datasheet ~)
      (libsource (lib Device) (part R) (description Resistor))
      (sheetpath (names /) (tstamps /))
      (tstamp 5C00520C))
    (comp (ref R6)
      (value R)
      (footprint Resistor_THT:R_Axial_DIN0204_L3.6mm_D1.6mm_P5.08mm_Horizontal)
      (datasheet ~)
      (libsource (lib Device) (part R) (description Resistor))
      (sheetpath (names /) (tstamps /))
      (tstamp 5C0052A3))
    (comp (ref J5)
      (value GND)
      (footprint Connector_PinHeader_1.00mm:PinHeader_1x01_P1.00mm_Vertical)
      (datasheet ~)
      (libsource (lib Connector) (part Conn_01x01_Male) (description "Generic connector, single row, 01x01, script generated (kicad-library-utils/schlib/autogen/connector/)"))
      (sheetpath (names /) (tstamps /))
      (tstamp 5C09205F))
    (comp (ref J4)
      (value VCC)
      (footprint Connector_PinHeader_1.00mm:PinHeader_1x01_P1.00mm_Vertical)
      (datasheet ~)
      (libsource (lib Connector) (part Conn_01x01_Male) (description "Generic connector, single row, 01x01, script generated (kicad-library-utils/schlib/autogen/connector/)"))
      (sheetpath (names /) (tstamps /))
      (tstamp 5C09008C))
    (comp (ref U3)
      (value CA3140)
      (footprint Package_DIP:DIP-8_W7.62mm)
      (datasheet http://www.intersil.com/content/dam/intersil/documents/ca31/ca3140-a.pdf)
      (libsource (lib Amplifier_Operational) (part CA3140) (description "4.5MHz, BiMOS Operational Amplifier with MOSFET Input/Bipolar Output, DIP-8/SOIC-8"))
      (sheetpath (names /) (tstamps /))
      (tstamp 5C00538D))
    (comp (ref U1_2)
      (value AD620)
      (footprint Package_DIP:DIP-8_W7.62mm)
      (datasheet http://www.analog.com/media/en/technical-documentation/data-sheets/AD620.pdf)
      (libsource (lib Amplifier_Instrumentation) (part AD620) (description "Low Cost, Low Power, Instrumentation Amplifier, DIP-8/SOIC-8"))
      (sheetpath (names /) (tstamps /))
      (tstamp 5C0FA20D))
    (comp (ref U2_2)
      (value 3130)
      (footprint Package_DIP:DIP-8_W7.62mm)
      (datasheet http://www.intersil.com/content/dam/intersil/documents/ca31/ca3130-a.pdf)
      (libsource (lib Amplifier_Operational) (part CA3130) (description "15MHz, BiMOS Operational Amplifier with MOSFET Input/CMOS Output, DIP-8/SOIC-8"))
      (sheetpath (names /) (tstamps /))
      (tstamp 5C0FA213))
    (comp (ref R1_2)
      (value 2.2K)
      (footprint Resistor_THT:R_Axial_DIN0204_L3.6mm_D1.6mm_P5.08mm_Horizontal)
      (datasheet ~)
      (libsource (lib Device) (part R) (description Resistor))
      (sheetpath (names /) (tstamps /))
      (tstamp 5C0FA219))
    (comp (ref R4_2)
      (value 1M)
      (footprint Resistor_THT:R_Axial_DIN0204_L3.6mm_D1.6mm_P5.08mm_Horizontal)
      (datasheet ~)
      (libsource (lib Device) (part R) (description Resistor))
      (sheetpath (names /) (tstamps /))
      (tstamp 5C0FA21F))
    (comp (ref R3_2)
      (value 1M)
      (footprint Resistor_THT:R_Axial_DIN0204_L3.6mm_D1.6mm_P5.08mm_Horizontal)
      (datasheet ~)
      (libsource (lib Device) (part R) (description Resistor))
      (sheetpath (names /) (tstamps /))
      (tstamp 5C0FA225))
    (comp (ref C2_2)
      (value .0068)
      (footprint Capacitor_THT:C_Rect_L4.0mm_W2.5mm_P2.50mm)
      (datasheet ~)
      (libsource (lib Device) (part C) (description "Unpolarized capacitor"))
      (sheetpath (names /) (tstamps /))
      (tstamp 5C0FA22B))
    (comp (ref RV1_2)
      (value 1M)
      (footprint Potentiometer_THT:Potentiometer_ACP_CA6-H2,5_Horizontal)
      (datasheet ~)
      (libsource (lib Device) (part R_POT_US) (description "Potentiometer, US symbol"))
      (sheetpath (names /) (tstamps /))
      (tstamp 5C0FA235))
    (comp (ref C1_2)
      (value 1uF)
      (footprint Capacitor_THT:C_Rect_L4.0mm_W2.5mm_P2.50mm)
      (datasheet ~)
      (libsource (lib Device) (part C) (description "Unpolarized capacitor"))
      (sheetpath (names /) (tstamps /))
      (tstamp 5C0FA23B))
    (comp (ref R2_2)
      (value 113K)
      (footprint Resistor_THT:R_Axial_DIN0204_L3.6mm_D1.6mm_P5.08mm_Horizontal)
      (datasheet ~)
      (libsource (lib Device) (part R) (description Resistor))
      (sheetpath (names /) (tstamps /))
      (tstamp 5C0FA241))
    (comp (ref R5_2)
      (value 10K)
      (footprint Resistor_THT:R_Axial_DIN0204_L3.6mm_D1.6mm_P5.08mm_Horizontal)
      (datasheet ~)
      (libsource (lib Device) (part R) (description Resistor))
      (sheetpath (names /) (tstamps /))
      (tstamp 5C0FA247))
    (comp (ref C3_2)
      (value .0068)
      (footprint Capacitor_THT:C_Rect_L4.0mm_W2.5mm_P2.50mm)
      (datasheet ~)
      (libsource (lib Device) (part C) (description "Unpolarized capacitor"))
      (sheetpath (names /) (tstamps /))
      (tstamp 5C0FA24D))
    (comp (ref J6_2)
      (value V_out)
      (footprint Connector_PinHeader_1.00mm:PinHeader_1x01_P1.00mm_Vertical)
      (datasheet ~)
      (libsource (lib Connector_Generic) (part Conn_01x01) (description "Generic connector, single row, 01x01, script generated (kicad-library-utils/schlib/autogen/connector/)"))
      (sheetpath (names /) (tstamps /))
      (tstamp 5C0FA253))
    (comp (ref J1_2)
      (value A_electrode_+)
      (footprint Connector_PinHeader_1.00mm:PinHeader_1x01_P1.00mm_Vertical)
      (datasheet ~)
      (libsource (lib Connector) (part Conn_01x01_Male) (description "Generic connector, single row, 01x01, script generated (kicad-library-utils/schlib/autogen/connector/)"))
      (sheetpath (names /) (tstamps /))
      (tstamp 5C0FA259))
    (comp (ref J2_2)
      (value A_electrode_-)
      (footprint Connector_PinHeader_1.00mm:PinHeader_1x01_P1.00mm_Vertical)
      (datasheet ~)
      (libsource (lib Connector) (part Conn_01x01_Male) (description "Generic connector, single row, 01x01, script generated (kicad-library-utils/schlib/autogen/connector/)"))
      (sheetpath (names /) (tstamps /))
      (tstamp 5C0FA25F))
    (comp (ref J3_2)
      (value N_electrode)
      (footprint Connector_PinHeader_1.00mm:PinHeader_1x01_P1.00mm_Vertical)
      (datasheet ~)
      (libsource (lib Connector) (part Conn_01x01_Male) (description "Generic connector, single row, 01x01, script generated (kicad-library-utils/schlib/autogen/connector/)"))
      (sheetpath (names /) (tstamps /))
      (tstamp 5C0FA265))
    (comp (ref U1_3)
      (value AD620)
      (footprint Package_DIP:DIP-8_W7.62mm)
      (datasheet http://www.analog.com/media/en/technical-documentation/data-sheets/AD620.pdf)
      (libsource (lib Amplifier_Instrumentation) (part AD620) (description "Low Cost, Low Power, Instrumentation Amplifier, DIP-8/SOIC-8"))
      (sheetpath (names /) (tstamps /))
      (tstamp 5C105069))
    (comp (ref U2_3)
      (value 3130)
      (footprint Package_DIP:DIP-8_W7.62mm)
      (datasheet http://www.intersil.com/content/dam/intersil/documents/ca31/ca3130-a.pdf)
      (libsource (lib Amplifier_Operational) (part CA3130) (description "15MHz, BiMOS Operational Amplifier with MOSFET Input/CMOS Output, DIP-8/SOIC-8"))
      (sheetpath (names /) (tstamps /))
      (tstamp 5C10506F))
    (comp (ref R1_3)
      (value 2.2K)
      (footprint Resistor_THT:R_Axial_DIN0204_L3.6mm_D1.6mm_P5.08mm_Horizontal)
      (datasheet ~)
      (libsource (lib Device) (part R) (description Resistor))
      (sheetpath (names /) (tstamps /))
      (tstamp 5C105075))
    (comp (ref R4_3)
      (value 1M)
      (footprint Resistor_THT:R_Axial_DIN0204_L3.6mm_D1.6mm_P5.08mm_Horizontal)
      (datasheet ~)
      (libsource (lib Device) (part R) (description Resistor))
      (sheetpath (names /) (tstamps /))
      (tstamp 5C10507B))
    (comp (ref R3_3)
      (value 1M)
      (footprint Resistor_THT:R_Axial_DIN0204_L3.6mm_D1.6mm_P5.08mm_Horizontal)
      (datasheet ~)
      (libsource (lib Device) (part R) (description Resistor))
      (sheetpath (names /) (tstamps /))
      (tstamp 5C105081))
    (comp (ref C2_3)
      (value .0068)
      (footprint Capacitor_THT:C_Rect_L4.0mm_W2.5mm_P2.50mm)
      (datasheet ~)
      (libsource (lib Device) (part C) (description "Unpolarized capacitor"))
      (sheetpath (names /) (tstamps /))
      (tstamp 5C105087))
    (comp (ref RV1_3)
      (value 1M)
      (footprint Potentiometer_THT:Potentiometer_ACP_CA6-H2,5_Horizontal)
      (datasheet ~)
      (libsource (lib Device) (part R_POT_US) (description "Potentiometer, US symbol"))
      (sheetpath (names /) (tstamps /))
      (tstamp 5C105091))
    (comp (ref C1_3)
      (value 1uF)
      (footprint Capacitor_THT:C_Rect_L4.0mm_W2.5mm_P2.50mm)
      (datasheet ~)
      (libsource (lib Device) (part C) (description "Unpolarized capacitor"))
      (sheetpath (names /) (tstamps /))
      (tstamp 5C105097))
    (comp (ref R2_3)
      (value 113K)
      (footprint Resistor_THT:R_Axial_DIN0204_L3.6mm_D1.6mm_P5.08mm_Horizontal)
      (datasheet ~)
      (libsource (lib Device) (part R) (description Resistor))
      (sheetpath (names /) (tstamps /))
      (tstamp 5C10509D))
    (comp (ref R5_3)
      (value 10K)
      (footprint Resistor_THT:R_Axial_DIN0204_L3.6mm_D1.6mm_P5.08mm_Horizontal)
      (datasheet ~)
      (libsource (lib Device) (part R) (description Resistor))
      (sheetpath (names /) (tstamps /))
      (tstamp 5C1050A3))
    (comp (ref C3_3)
      (value .0068)
      (footprint Capacitor_THT:C_Rect_L4.0mm_W2.5mm_P2.50mm)
      (datasheet ~)
      (libsource (lib Device) (part C) (description "Unpolarized capacitor"))
      (sheetpath (names /) (tstamps /))
      (tstamp 5C1050A9))
    (comp (ref J6_3)
      (value V_out)
      (footprint Connector_PinHeader_1.00mm:PinHeader_1x01_P1.00mm_Vertical)
      (datasheet ~)
      (libsource (lib Connector_Generic) (part Conn_01x01) (description "Generic connector, single row, 01x01, script generated (kicad-library-utils/schlib/autogen/connector/)"))
      (sheetpath (names /) (tstamps /))
      (tstamp 5C1050AF))
    (comp (ref J1_3)
      (value A_electrode_+)
      (footprint Connector_PinHeader_1.00mm:PinHeader_1x01_P1.00mm_Vertical)
      (datasheet ~)
      (libsource (lib Connector) (part Conn_01x01_Male) (description "Generic connector, single row, 01x01, script generated (kicad-library-utils/schlib/autogen/connector/)"))
      (sheetpath (names /) (tstamps /))
      (tstamp 5C1050B5))
    (comp (ref J2_3)
      (value A_electrode_-)
      (footprint Connector_PinHeader_1.00mm:PinHeader_1x01_P1.00mm_Vertical)
      (datasheet ~)
      (libsource (lib Connector) (part Conn_01x01_Male) (description "Generic connector, single row, 01x01, script generated (kicad-library-utils/schlib/autogen/connector/)"))
      (sheetpath (names /) (tstamps /))
      (tstamp 5C1050BB))
    (comp (ref J3_3)
      (value N_electrode)
      (footprint Connector_PinHeader_1.00mm:PinHeader_1x01_P1.00mm_Vertical)
      (datasheet ~)
      (libsource (lib Connector) (part Conn_01x01_Male) (description "Generic connector, single row, 01x01, script generated (kicad-library-utils/schlib/autogen/connector/)"))
      (sheetpath (names /) (tstamps /))
      (tstamp 5C1050C1))
    (comp (ref U1_4)
      (value AD620)
      (footprint Package_DIP:DIP-8_W7.62mm)
      (datasheet http://www.analog.com/media/en/technical-documentation/data-sheets/AD620.pdf)
      (libsource (lib Amplifier_Instrumentation) (part AD620) (description "Low Cost, Low Power, Instrumentation Amplifier, DIP-8/SOIC-8"))
      (sheetpath (names /) (tstamps /))
      (tstamp 5C10A749))
    (comp (ref U2_4)
      (value 3130)
      (footprint Package_DIP:DIP-8_W7.62mm)
      (datasheet http://www.intersil.com/content/dam/intersil/documents/ca31/ca3130-a.pdf)
      (libsource (lib Amplifier_Operational) (part CA3130) (description "15MHz, BiMOS Operational Amplifier with MOSFET Input/CMOS Output, DIP-8/SOIC-8"))
      (sheetpath (names /) (tstamps /))
      (tstamp 5C10A74F))
    (comp (ref R1_4)
      (value 2.2K)
      (footprint Resistor_THT:R_Axial_DIN0204_L3.6mm_D1.6mm_P5.08mm_Horizontal)
      (datasheet ~)
      (libsource (lib Device) (part R) (description Resistor))
      (sheetpath (names /) (tstamps /))
      (tstamp 5C10A755))
    (comp (ref R4_4)
      (value 1M)
      (footprint Resistor_THT:R_Axial_DIN0204_L3.6mm_D1.6mm_P5.08mm_Horizontal)
      (datasheet ~)
      (libsource (lib Device) (part R) (description Resistor))
      (sheetpath (names /) (tstamps /))
      (tstamp 5C10A75B))
    (comp (ref R3_4)
      (value 1M)
      (footprint Resistor_THT:R_Axial_DIN0204_L3.6mm_D1.6mm_P5.08mm_Horizontal)
      (datasheet ~)
      (libsource (lib Device) (part R) (description Resistor))
      (sheetpath (names /) (tstamps /))
      (tstamp 5C10A761))
    (comp (ref C2_4)
      (value .0068)
      (footprint Capacitor_THT:C_Rect_L4.0mm_W2.5mm_P2.50mm)
      (datasheet ~)
      (libsource (lib Device) (part C) (description "Unpolarized capacitor"))
      (sheetpath (names /) (tstamps /))
      (tstamp 5C10A767))
    (comp (ref RV1_4)
      (value 1M)
      (footprint Potentiometer_THT:Potentiometer_ACP_CA6-H2,5_Horizontal)
      (datasheet ~)
      (libsource (lib Device) (part R_POT_US) (description "Potentiometer, US symbol"))
      (sheetpath (names /) (tstamps /))
      (tstamp 5C10A771))
    (comp (ref C1_4)
      (value 1uF)
      (footprint Capacitor_THT:C_Rect_L4.0mm_W2.5mm_P2.50mm)
      (datasheet ~)
      (libsource (lib Device) (part C) (description "Unpolarized capacitor"))
      (sheetpath (names /) (tstamps /))
      (tstamp 5C10A777))
    (comp (ref R2_4)
      (value 113K)
      (footprint Resistor_THT:R_Axial_DIN0204_L3.6mm_D1.6mm_P5.08mm_Horizontal)
      (datasheet ~)
      (libsource (lib Device) (part R) (description Resistor))
      (sheetpath (names /) (tstamps /))
      (tstamp 5C10A77D))
    (comp (ref R5_4)
      (value 10K)
      (footprint Resistor_THT:R_Axial_DIN0204_L3.6mm_D1.6mm_P5.08mm_Horizontal)
      (datasheet ~)
      (libsource (lib Device) (part R) (description Resistor))
      (sheetpath (names /) (tstamps /))
      (tstamp 5C10A783))
    (comp (ref C3_4)
      (value .0068)
      (footprint Capacitor_THT:C_Rect_L4.0mm_W2.5mm_P2.50mm)
      (datasheet ~)
      (libsource (lib Device) (part C) (description "Unpolarized capacitor"))
      (sheetpath (names /) (tstamps /))
      (tstamp 5C10A789))
    (comp (ref J6_4)
      (value V_out)
      (footprint Connector_PinHeader_1.00mm:PinHeader_1x01_P1.00mm_Vertical)
      (datasheet ~)
      (libsource (lib Connector_Generic) (part Conn_01x01) (description "Generic connector, single row, 01x01, script generated (kicad-library-utils/schlib/autogen/connector/)"))
      (sheetpath (names /) (tstamps /))
      (tstamp 5C10A78F))
    (comp (ref J1_4)
      (value A_electrode_+)
      (footprint Connector_PinHeader_1.00mm:PinHeader_1x01_P1.00mm_Vertical)
      (datasheet ~)
      (libsource (lib Connector) (part Conn_01x01_Male) (description "Generic connector, single row, 01x01, script generated (kicad-library-utils/schlib/autogen/connector/)"))
      (sheetpath (names /) (tstamps /))
      (tstamp 5C10A795))
    (comp (ref J2_4)
      (value A_electrode_-)
      (footprint Connector_PinHeader_1.00mm:PinHeader_1x01_P1.00mm_Vertical)
      (datasheet ~)
      (libsource (lib Connector) (part Conn_01x01_Male) (description "Generic connector, single row, 01x01, script generated (kicad-library-utils/schlib/autogen/connector/)"))
      (sheetpath (names /) (tstamps /))
      (tstamp 5C10A79B))
    (comp (ref J3_4)
      (value N_electrode)
      (footprint Connector_PinHeader_1.00mm:PinHeader_1x01_P1.00mm_Vertical)
      (datasheet ~)
      (libsource (lib Connector) (part Conn_01x01_Male) (description "Generic connector, single row, 01x01, script generated (kicad-library-utils/schlib/autogen/connector/)"))
      (sheetpath (names /) (tstamps /))
      (tstamp 5C10A7A1))
    (comp (ref U1_5)
      (value AD620)
      (footprint Package_DIP:DIP-8_W7.62mm)
      (datasheet http://www.analog.com/media/en/technical-documentation/data-sheets/AD620.pdf)
      (libsource (lib Amplifier_Instrumentation) (part AD620) (description "Low Cost, Low Power, Instrumentation Amplifier, DIP-8/SOIC-8"))
      (sheetpath (names /) (tstamps /))
      (tstamp 5C112DCC))
    (comp (ref U2_5)
      (value 3130)
      (footprint Package_DIP:DIP-8_W7.62mm)
      (datasheet http://www.intersil.com/content/dam/intersil/documents/ca31/ca3130-a.pdf)
      (libsource (lib Amplifier_Operational) (part CA3130) (description "15MHz, BiMOS Operational Amplifier with MOSFET Input/CMOS Output, DIP-8/SOIC-8"))
      (sheetpath (names /) (tstamps /))
      (tstamp 5C112DD2))
    (comp (ref R1_5)
      (value 2.2K)
      (footprint Resistor_THT:R_Axial_DIN0204_L3.6mm_D1.6mm_P5.08mm_Horizontal)
      (datasheet ~)
      (libsource (lib Device) (part R) (description Resistor))
      (sheetpath (names /) (tstamps /))
      (tstamp 5C112DD8))
    (comp (ref R4_5)
      (value 1M)
      (footprint Resistor_THT:R_Axial_DIN0204_L3.6mm_D1.6mm_P5.08mm_Horizontal)
      (datasheet ~)
      (libsource (lib Device) (part R) (description Resistor))
      (sheetpath (names /) (tstamps /))
      (tstamp 5C112DDE))
    (comp (ref R3_5)
      (value 1M)
      (footprint Resistor_THT:R_Axial_DIN0204_L3.6mm_D1.6mm_P5.08mm_Horizontal)
      (datasheet ~)
      (libsource (lib Device) (part R) (description Resistor))
      (sheetpath (names /) (tstamps /))
      (tstamp 5C112DE4))
    (comp (ref C2_5)
      (value .0068)
      (footprint Capacitor_THT:C_Rect_L4.0mm_W2.5mm_P2.50mm)
      (datasheet ~)
      (libsource (lib Device) (part C) (description "Unpolarized capacitor"))
      (sheetpath (names /) (tstamps /))
      (tstamp 5C112DEA))
    (comp (ref RV1_5)
      (value 1M)
      (footprint Potentiometer_THT:Potentiometer_ACP_CA6-H2,5_Horizontal)
      (datasheet ~)
      (libsource (lib Device) (part R_POT_US) (description "Potentiometer, US symbol"))
      (sheetpath (names /) (tstamps /))
      (tstamp 5C112DF4))
    (comp (ref C1_5)
      (value 1uF)
      (footprint Capacitor_THT:C_Rect_L4.0mm_W2.5mm_P2.50mm)
      (datasheet ~)
      (libsource (lib Device) (part C) (description "Unpolarized capacitor"))
      (sheetpath (names /) (tstamps /))
      (tstamp 5C112DFA))
    (comp (ref R2_5)
      (value 113K)
      (footprint Resistor_THT:R_Axial_DIN0204_L3.6mm_D1.6mm_P5.08mm_Horizontal)
      (datasheet ~)
      (libsource (lib Device) (part R) (description Resistor))
      (sheetpath (names /) (tstamps /))
      (tstamp 5C112E00))
    (comp (ref R5_5)
      (value 10K)
      (footprint Resistor_THT:R_Axial_DIN0204_L3.6mm_D1.6mm_P5.08mm_Horizontal)
      (datasheet ~)
      (libsource (lib Device) (part R) (description Resistor))
      (sheetpath (names /) (tstamps /))
      (tstamp 5C112E06))
    (comp (ref C3_5)
      (value .0068)
      (footprint Capacitor_THT:C_Rect_L4.0mm_W2.5mm_P2.50mm)
      (datasheet ~)
      (libsource (lib Device) (part C) (description "Unpolarized capacitor"))
      (sheetpath (names /) (tstamps /))
      (tstamp 5C112E0C))
    (comp (ref J6_5)
      (value V_out)
      (footprint Connector_PinHeader_1.00mm:PinHeader_1x01_P1.00mm_Vertical)
      (datasheet ~)
      (libsource (lib Connector_Generic) (part Conn_01x01) (description "Generic connector, single row, 01x01, script generated (kicad-library-utils/schlib/autogen/connector/)"))
      (sheetpath (names /) (tstamps /))
      (tstamp 5C112E12))
    (comp (ref J1_5)
      (value A_electrode_+)
      (footprint Connector_PinHeader_1.00mm:PinHeader_1x01_P1.00mm_Vertical)
      (datasheet ~)
      (libsource (lib Connector) (part Conn_01x01_Male) (description "Generic connector, single row, 01x01, script generated (kicad-library-utils/schlib/autogen/connector/)"))
      (sheetpath (names /) (tstamps /))
      (tstamp 5C112E18))
    (comp (ref J2_5)
      (value A_electrode_-)
      (footprint Connector_PinHeader_1.00mm:PinHeader_1x01_P1.00mm_Vertical)
      (datasheet ~)
      (libsource (lib Connector) (part Conn_01x01_Male) (description "Generic connector, single row, 01x01, script generated (kicad-library-utils/schlib/autogen/connector/)"))
      (sheetpath (names /) (tstamps /))
      (tstamp 5C112E1E))
    (comp (ref J3_5)
      (value N_electrode)
      (footprint Connector_PinHeader_1.00mm:PinHeader_1x01_P1.00mm_Vertical)
      (datasheet ~)
      (libsource (lib Connector) (part Conn_01x01_Male) (description "Generic connector, single row, 01x01, script generated (kicad-library-utils/schlib/autogen/connector/)"))
      (sheetpath (names /) (tstamps /))
      (tstamp 5C112E24)))
  (libparts
    (libpart (lib Amplifier_Instrumentation) (part AD620)
      (aliases
        (alias AD623))
      (description "Low Cost, Low Power, Instrumentation Amplifier, DIP-8/SOIC-8")
      (docs http://www.analog.com/media/en/technical-documentation/data-sheets/AD620.pdf)
      (footprints
        (fp SOIC*P1.27mm*)
        (fp DIP*W7.62mm*))
      (fields
        (field (name Reference) U)
        (field (name Value) AD620))
      (pins
        (pin (num 1) (name Rg) (type passive))
        (pin (num 2) (name -) (type input))
        (pin (num 3) (name +) (type input))
        (pin (num 4) (name Vs-) (type power_in))
        (pin (num 5) (name Ref) (type passive))
        (pin (num 6) (name ~) (type output))
        (pin (num 7) (name Vs+) (type power_in))
        (pin (num 8) (name Rg) (type passive))))
    (libpart (lib Amplifier_Operational) (part CA3130)
      (aliases
        (alias CA3140))
      (description "15MHz, BiMOS Operational Amplifier with MOSFET Input/CMOS Output, DIP-8/SOIC-8")
      (docs http://www.intersil.com/content/dam/intersil/documents/ca31/ca3130-a.pdf)
      (footprints
        (fp DIP*W7.62mm*)
        (fp SOIC*3.9x4.9mm*P1.27mm*))
      (fields
        (field (name Reference) U)
        (field (name Value) CA3130))
      (pins
        (pin (num 1) (name NULL) (type passive))
        (pin (num 2) (name -) (type input))
        (pin (num 3) (name +) (type input))
        (pin (num 4) (name V-) (type power_in))
        (pin (num 5) (name NULL) (type passive))
        (pin (num 6) (name ~) (type output))
        (pin (num 7) (name V+) (type power_in))
        (pin (num 8) (name STRB) (type passive))))
    (libpart (lib Connector) (part Conn_01x01_Male)
      (description "Generic connector, single row, 01x01, script generated (kicad-library-utils/schlib/autogen/connector/)")
      (docs ~)
      (footprints
        (fp Connector*:*))
      (fields
        (field (name Reference) J)
        (field (name Value) Conn_01x01_Male))
      (pins
        (pin (num 1) (name Pin_1) (type passive))))
    (libpart (lib Connector_Generic) (part Conn_01x01)
      (description "Generic connector, single row, 01x01, script generated (kicad-library-utils/schlib/autogen/connector/)")
      (docs ~)
      (footprints
        (fp Connector*:*))
      (fields
        (field (name Reference) J)
        (field (name Value) Conn_01x01))
      (pins
        (pin (num 1) (name Pin_1) (type passive))))
    (libpart (lib Device) (part C)
      (description "Unpolarized capacitor")
      (docs ~)
      (footprints
        (fp C_*))
      (fields
        (field (name Reference) C)
        (field (name Value) C))
      (pins
        (pin (num 1) (name ~) (type passive))
        (pin (num 2) (name ~) (type passive))))
    (libpart (lib Device) (part R)
      (description Resistor)
      (docs ~)
      (footprints
        (fp R_*))
      (fields
        (field (name Reference) R)
        (field (name Value) R))
      (pins
        (pin (num 1) (name ~) (type passive))
        (pin (num 2) (name ~) (type passive))))
    (libpart (lib Device) (part R_POT_US)
      (description "Potentiometer, US symbol")
      (docs ~)
      (footprints
        (fp Potentiometer*))
      (fields
        (field (name Reference) RV)
        (field (name Value) R_POT_US))
      (pins
        (pin (num 1) (name 1) (type passive))
        (pin (num 2) (name 2) (type passive))
        (pin (num 3) (name 3) (type passive)))))
  (libraries
    (library (logical Amplifier_Instrumentation)
      (uri "C:\\Program Files\\KiCad\\share\\kicad\\library/Amplifier_Instrumentation.lib"))
    (library (logical Amplifier_Operational)
      (uri "C:\\Program Files\\KiCad\\share\\kicad\\library/Amplifier_Operational.lib"))
    (library (logical Connector)
      (uri "C:\\Program Files\\KiCad\\share\\kicad\\library/Connector.lib"))
    (library (logical Connector_Generic)
      (uri "C:\\Program Files\\KiCad\\share\\kicad\\library/Connector_Generic.lib"))
    (library (logical Device)
      (uri "C:\\Program Files\\KiCad\\share\\kicad\\library/Device.lib")))
  (nets
    (net (code 1) (name "Net-(R4_5-Pad2)")
      (node (ref R4_5) (pin 2))
      (node (ref RV1_5) (pin 2)))
    (net (code 2) (name "Net-(U2_5-Pad5)")
      (node (ref U2_5) (pin 5)))
    (net (code 3) (name "Net-(C2_5-Pad1)")
      (node (ref R5_5) (pin 2))
      (node (ref C2_5) (pin 1))
      (node (ref U2_5) (pin 6))
      (node (ref R3_5) (pin 1)))
    (net (code 4) (name "Net-(U2_5-Pad8)")
      (node (ref U2_5) (pin 8)))
    (net (code 5) (name "Net-(R1_5-Pad1)")
      (node (ref R1_5) (pin 1))
      (node (ref U1_5) (pin 8)))
    (net (code 6) (name "Net-(R1_5-Pad2)")
      (node (ref U1_5) (pin 1))
      (node (ref R1_5) (pin 2)))
    (net (code 7) (name "Net-(U1_5-Pad5)")
      (node (ref U1_5) (pin 5)))
    (net (code 8) (name "Net-(C1_5-Pad2)")
      (node (ref C1_5) (pin 2))
      (node (ref U1_5) (pin 6)))
    (net (code 9) (name "Net-(U2_5-Pad1)")
      (node (ref U2_5) (pin 1)))
    (net (code 10) (name "Net-(C2_5-Pad2)")
      (node (ref U2_5) (pin 2))
      (node (ref C2_5) (pin 2))
      (node (ref R2_5) (pin 1))
      (node (ref RV1_5) (pin 1))
      (node (ref R3_5) (pin 2)))
    (net (code 11) (name "Net-(RV1_5-Pad3)")
      (node (ref RV1_5) (pin 3)))
    (net (code 12) (name "Net-(C1_5-Pad1)")
      (node (ref C1_5) (pin 1))
      (node (ref R2_5) (pin 2)))
    (net (code 13) (name "Net-(C3_5-Pad2)")
      (node (ref J6_5) (pin 1))
      (node (ref C3_5) (pin 2))
      (node (ref R5_5) (pin 1)))
    (net (code 14) (name "Net-(U2_4-Pad8)")
      (node (ref U2_4) (pin 8)))
    (net (code 15) (name "Net-(J1_5-Pad1)")
      (node (ref J1_5) (pin 1))
      (node (ref U1_5) (pin 2)))
    (net (code 16) (name "Net-(J2_5-Pad1)")
      (node (ref J2_5) (pin 1))
      (node (ref U1_5) (pin 3)))
    (net (code 17) (name "Net-(R1_4-Pad1)")
      (node (ref R1_4) (pin 1))
      (node (ref U1_4) (pin 8)))
    (net (code 18) (name "Net-(R1_4-Pad2)")
      (node (ref R1_4) (pin 2))
      (node (ref U1_4) (pin 1)))
    (net (code 19) (name "Net-(R4_4-Pad2)")
      (node (ref R4_4) (pin 2))
      (node (ref RV1_4) (pin 2)))
    (net (code 20) (name "Net-(C2_4-Pad2)")
      (node (ref U2_4) (pin 2))
      (node (ref R2_4) (pin 1))
      (node (ref RV1_4) (pin 1))
      (node (ref C2_4) (pin 2))
      (node (ref R3_4) (pin 2)))
    (net (code 21) (name "Net-(C2_4-Pad1)")
      (node (ref U2_4) (pin 6))
      (node (ref R5_4) (pin 2))
      (node (ref R3_4) (pin 1))
      (node (ref C2_4) (pin 1)))
    (net (code 22) (name "Net-(RV1_4-Pad3)")
      (node (ref RV1_4) (pin 3)))
    (net (code 23) (name "Net-(C1_4-Pad1)")
      (node (ref C1_4) (pin 1))
      (node (ref R2_4) (pin 2)))
    (net (code 24) (name "Net-(C1_4-Pad2)")
      (node (ref U1_4) (pin 6))
      (node (ref C1_4) (pin 2)))
    (net (code 25) (name "Net-(U1_4-Pad5)")
      (node (ref U1_4) (pin 5)))
    (net (code 26) (name "Net-(C3_4-Pad2)")
      (node (ref R5_4) (pin 1))
      (node (ref C3_4) (pin 2))
      (node (ref J6_4) (pin 1)))
    (net (code 27) (name "Net-(U2_4-Pad1)")
      (node (ref U2_4) (pin 1)))
    (net (code 28) (name "Net-(U2_4-Pad5)")
      (node (ref U2_4) (pin 5)))
    (net (code 29) (name "Net-(J1_4-Pad1)")
      (node (ref U1_4) (pin 2))
      (node (ref J1_4) (pin 1)))
    (net (code 30) (name "Net-(J2_4-Pad1)")
      (node (ref J2_4) (pin 1))
      (node (ref U1_4) (pin 3)))
    (net (code 32) (name "Net-(U2_3-Pad1)")
      (node (ref U2_3) (pin 1)))
    (net (code 33) (name /Virtual_GND)
      (node (ref J3_3) (pin 1))
      (node (ref U2_5) (pin 3))
      (node (ref U2_3) (pin 3))
      (node (ref U2) (pin 3))
      (node (ref U2_2) (pin 3))
      (node (ref U3) (pin 6))
      (node (ref U3) (pin 2))
      (node (ref J3) (pin 1))
      (node (ref J3_4) (pin 1))
      (node (ref J3_2) (pin 1))
      (node (ref J3_5) (pin 1))
      (node (ref U2_4) (pin 3)))
    (net (code 34) (name "Net-(U3-Pad5)")
      (node (ref U3) (pin 5)))
    (net (code 35) (name "Net-(U3-Pad8)")
      (node (ref U3) (pin 8)))
    (net (code 36) (name "Net-(U3-Pad1)")
      (node (ref U3) (pin 1)))
    (net (code 37) (name "Net-(R6-Pad1)")
      (node (ref U3) (pin 3))
      (node (ref R7) (pin 2))
      (node (ref R6) (pin 1)))
    (net (code 38) (name "Net-(U2-Pad8)")
      (node (ref U2) (pin 8)))
    (net (code 39) (name "Net-(C3-Pad2)")
      (node (ref C3) (pin 2))
      (node (ref J6) (pin 1))
      (node (ref R5) (pin 1)))
    (net (code 40) (name "Net-(RV1-Pad3)")
      (node (ref RV1) (pin 3)))
    (net (code 41) (name "Net-(U2-Pad1)")
      (node (ref U2) (pin 1)))
    (net (code 42) (name "Net-(U2-Pad5)")
      (node (ref U2) (pin 5)))
    (net (code 43) (name /VCC)
      (node (ref R4_5) (pin 1))
      (node (ref U1_2) (pin 7))
      (node (ref U1) (pin 7))
      (node (ref U2_5) (pin 7))
      (node (ref R4) (pin 1))
      (node (ref U1_5) (pin 7))
      (node (ref U3) (pin 7))
      (node (ref U2) (pin 7))
      (node (ref R4_4) (pin 1))
      (node (ref U1_4) (pin 7))
      (node (ref R4_3) (pin 1))
      (node (ref U2_3) (pin 7))
      (node (ref U2_2) (pin 7))
      (node (ref R4_2) (pin 1))
      (node (ref U1_3) (pin 7))
      (node (ref J4) (pin 1))
      (node (ref U2_4) (pin 7))
      (node (ref R7) (pin 1)))
    (net (code 44) (name "Net-(U1_2-Pad5)")
      (node (ref U1_2) (pin 5)))
    (net (code 45) (name "Net-(C1_2-Pad2)")
      (node (ref C1_2) (pin 2))
      (node (ref U1_2) (pin 6)))
    (net (code 46) (name "Net-(U2_2-Pad1)")
      (node (ref U2_2) (pin 1)))
    (net (code 47) (name "Net-(R4-Pad2)")
      (node (ref R4) (pin 2))
      (node (ref RV1) (pin 2)))
    (net (code 48) (name "Net-(C2-Pad1)")
      (node (ref R5) (pin 2))
      (node (ref U2) (pin 6))
      (node (ref C2) (pin 1))
      (node (ref R3) (pin 1)))
    (net (code 49) (name "Net-(R1-Pad2)")
      (node (ref R1) (pin 2))
      (node (ref U1) (pin 1)))
    (net (code 50) (name "Net-(R1-Pad1)")
      (node (ref U1) (pin 8))
      (node (ref R1) (pin 1)))
    (net (code 51) (name "Net-(C1-Pad1)")
      (node (ref R2) (pin 2))
      (node (ref C1) (pin 1)))
    (net (code 52) (name "Net-(C1-Pad2)")
      (node (ref C1) (pin 2))
      (node (ref U1) (pin 6)))
    (net (code 53) (name "Net-(C2-Pad2)")
      (node (ref C2) (pin 2))
      (node (ref R3) (pin 2))
      (node (ref R2) (pin 1))
      (node (ref RV1) (pin 1))
      (node (ref U2) (pin 2)))
    (net (code 54) (name "Net-(C3-Pad1)")
      (node (ref R6) (pin 2))
      (node (ref J5) (pin 1))
      (node (ref C3_3) (pin 1))
      (node (ref U2_3) (pin 4))
      (node (ref U1_3) (pin 4))
      (node (ref C3_2) (pin 1))
      (node (ref U2) (pin 4))
      (node (ref U1) (pin 4))
      (node (ref C3) (pin 1))
      (node (ref C3_4) (pin 1))
      (node (ref U2_4) (pin 4))
      (node (ref U1_2) (pin 4))
      (node (ref U1_4) (pin 4))
      (node (ref U3) (pin 4))
      (node (ref U2_2) (pin 4))
      (node (ref U2_5) (pin 4))
      (node (ref U1_5) (pin 4))
      (node (ref C3_5) (pin 1)))
    (net (code 55) (name "Net-(U1-Pad5)")
      (node (ref U1) (pin 5)))
    (net (code 56) (name "Net-(J1-Pad1)")
      (node (ref U1) (pin 2))
      (node (ref J1) (pin 1)))
    (net (code 57) (name "Net-(J2-Pad1)")
      (node (ref U1) (pin 3))
      (node (ref J2) (pin 1)))
    (net (code 58) (name "Net-(U2_2-Pad5)")
      (node (ref U2_2) (pin 5)))
    (net (code 59) (name "Net-(RV1_3-Pad3)")
      (node (ref RV1_3) (pin 3)))
    (net (code 60) (name "Net-(R1_3-Pad2)")
      (node (ref U1_3) (pin 1))
      (node (ref R1_3) (pin 2)))
    (net (code 61) (name "Net-(R1_3-Pad1)")
      (node (ref U1_3) (pin 8))
      (node (ref R1_3) (pin 1)))
    (net (code 62) (name "Net-(R4_3-Pad2)")
      (node (ref R4_3) (pin 2))
      (node (ref RV1_3) (pin 2)))
    (net (code 63) (name "Net-(C1_3-Pad1)")
      (node (ref R2_3) (pin 2))
      (node (ref C1_3) (pin 1)))
    (net (code 64) (name "Net-(C1_3-Pad2)")
      (node (ref C1_3) (pin 2))
      (node (ref U1_3) (pin 6)))
    (net (code 65) (name "Net-(C2_3-Pad2)")
      (node (ref R3_3) (pin 2))
      (node (ref R2_3) (pin 1))
      (node (ref C2_3) (pin 2))
      (node (ref U2_3) (pin 2))
      (node (ref RV1_3) (pin 1)))
    (net (code 66) (name "Net-(C3_3-Pad2)")
      (node (ref J6_3) (pin 1))
      (node (ref R5_3) (pin 1))
      (node (ref C3_3) (pin 2)))
    (net (code 67) (name "Net-(U1_3-Pad5)")
      (node (ref U1_3) (pin 5)))
    (net (code 68) (name "Net-(J1_3-Pad1)")
      (node (ref U1_3) (pin 2))
      (node (ref J1_3) (pin 1)))
    (net (code 69) (name "Net-(U2_3-Pad5)")
      (node (ref U2_3) (pin 5)))
    (net (code 70) (name "Net-(U2_3-Pad8)")
      (node (ref U2_3) (pin 8)))
    (net (code 71) (name "Net-(C2_3-Pad1)")
      (node (ref R5_3) (pin 2))
      (node (ref C2_3) (pin 1))
      (node (ref R3_3) (pin 1))
      (node (ref U2_3) (pin 6)))
    (net (code 72) (name "Net-(J2_3-Pad1)")
      (node (ref U1_3) (pin 3))
      (node (ref J2_3) (pin 1)))
    (net (code 73) (name "Net-(J2_2-Pad1)")
      (node (ref J2_2) (pin 1))
      (node (ref U1_2) (pin 3)))
    (net (code 74) (name "Net-(C2_2-Pad2)")
      (node (ref C2_2) (pin 2))
      (node (ref R3_2) (pin 2))
      (node (ref RV1_2) (pin 1))
      (node (ref U2_2) (pin 2))
      (node (ref R2_2) (pin 1)))
    (net (code 75) (name "Net-(C1_2-Pad1)")
      (node (ref C1_2) (pin 1))
      (node (ref R2_2) (pin 2)))
    (net (code 76) (name "Net-(C3_2-Pad2)")
      (node (ref R5_2) (pin 1))
      (node (ref J6_2) (pin 1))
      (node (ref C3_2) (pin 2)))
    (net (code 77) (name "Net-(J1_2-Pad1)")
      (node (ref U1_2) (pin 2))
      (node (ref J1_2) (pin 1)))
    (net (code 78) (name "Net-(C2_2-Pad1)")
      (node (ref R3_2) (pin 1))
      (node (ref R5_2) (pin 2))
      (node (ref U2_2) (pin 6))
      (node (ref C2_2) (pin 1)))
    (net (code 79) (name "Net-(U2_2-Pad8)")
      (node (ref U2_2) (pin 8)))
    (net (code 80) (name "Net-(R1_2-Pad1)")
      (node (ref R1_2) (pin 1))
      (node (ref U1_2) (pin 8)))
    (net (code 81) (name "Net-(R1_2-Pad2)")
      (node (ref R1_2) (pin 2))
      (node (ref U1_2) (pin 1)))
    (net (code 82) (name "Net-(R4_2-Pad2)")
      (node (ref R4_2) (pin 2))
      (node (ref RV1_2) (pin 2)))
    (net (code 83) (name "Net-(RV1_2-Pad3)")
      (node (ref RV1_2) (pin 3)))))