\relax 
\providecommand\hyper@newdestlabel[2]{}
\providecommand\HyperFirstAtBeginDocument{\AtBeginDocument}
\HyperFirstAtBeginDocument{\ifx\hyper@anchor\@undefined
\global\let\oldcontentsline\contentsline
\gdef\contentsline#1#2#3#4{\oldcontentsline{#1}{#2}{#3}}
\global\let\oldnewlabel\newlabel
\gdef\newlabel#1#2{\newlabelxx{#1}#2}
\gdef\newlabelxx#1#2#3#4#5#6{\oldnewlabel{#1}{{#2}{#3}}}
\AtEndDocument{\ifx\hyper@anchor\@undefined
\let\contentsline\oldcontentsline
\let\newlabel\oldnewlabel
\fi}
\fi}
\global\let\hyper@last\relax 
\gdef\HyperFirstAtBeginDocument#1{#1}
\providecommand\HyField@AuxAddToFields[1]{}
\providecommand\HyField@AuxAddToCoFields[2]{}
\@writefile{nav}{\headcommand {\slideentry {0}{0}{1}{1/1}{}{0}}}
\@writefile{nav}{\headcommand {\beamer@framepages {1}{1}}}
\@writefile{nav}{\headcommand {\slideentry {0}{0}{2}{2/2}{}{0}}}
\@writefile{nav}{\headcommand {\beamer@framepages {2}{2}}}
\@writefile{toc}{\beamer@sectionintoc {1}{Introducci\IeC {\'o}n}{3}{0}{1}}
\@writefile{nav}{\headcommand {\beamer@sectionpages {1}{2}}}
\@writefile{nav}{\headcommand {\beamer@subsectionpages {1}{2}}}
\@writefile{nav}{\headcommand {\sectionentry {1}{Introducci\IeC {\'o}n}{3}{Introducci\IeC {\'o}n}{0}}}
\@writefile{toc}{\beamer@subsectionintoc {1}{1}{Estado del arte}{3}{0}{1}}
\@writefile{nav}{\headcommand {\beamer@subsectionpages {3}{2}}}
\@writefile{nav}{\headcommand {\beamer@subsectionentry {0}{1}{1}{3}{Estado del arte}}}
\@writefile{nav}{\headcommand {\slideentry {1}{1}{1}{3/3}{Estado del arte}{0}}}
\@writefile{nav}{\headcommand {\beamer@framepages {3}{3}}}
\@writefile{nav}{\headcommand {\slideentry {1}{1}{2}{4/4}{Estado del arte}{0}}}
\@writefile{nav}{\headcommand {\beamer@framepages {4}{4}}}
\@writefile{toc}{\beamer@subsectionintoc {1}{2}{Neurolog\IeC {\'\i }a}{5}{0}{1}}
\@writefile{nav}{\headcommand {\beamer@subsectionpages {3}{4}}}
\@writefile{nav}{\headcommand {\beamer@subsectionentry {0}{1}{2}{5}{Neurolog\IeC {\'\i }a}}}
\@writefile{nav}{\headcommand {\slideentry {1}{2}{1}{5/5}{Neurolog\IeC {\'\i }a}{0}}}
\@writefile{nav}{\headcommand {\beamer@framepages {5}{5}}}
\@writefile{nav}{\headcommand {\slideentry {1}{2}{2}{6/6}{Neurolog\IeC {\'\i }a}{0}}}
\@writefile{nav}{\headcommand {\beamer@framepages {6}{6}}}
\@writefile{nav}{\headcommand {\slideentry {1}{2}{3}{7/7}{Neurolog\IeC {\'\i }a}{0}}}
\@writefile{nav}{\headcommand {\beamer@framepages {7}{7}}}
\@writefile{nav}{\headcommand {\slideentry {1}{2}{4}{8/8}{Neurolog\IeC {\'\i }a}{0}}}
\@writefile{nav}{\headcommand {\beamer@framepages {8}{8}}}
\@writefile{toc}{\beamer@sectionintoc {2}{Memoria descriptiva}{9}{0}{2}}
\@writefile{nav}{\headcommand {\beamer@sectionpages {3}{8}}}
\@writefile{nav}{\headcommand {\beamer@subsectionpages {5}{8}}}
\@writefile{nav}{\headcommand {\sectionentry {2}{Memoria descriptiva}{9}{Memoria descriptiva}{0}}}
\@writefile{toc}{\beamer@subsectionintoc {2}{1}{Componentes}{9}{0}{2}}
\@writefile{nav}{\headcommand {\beamer@subsectionpages {9}{8}}}
\@writefile{nav}{\headcommand {\beamer@subsectionentry {0}{2}{1}{9}{Componentes}}}
\@writefile{nav}{\headcommand {\slideentry {2}{1}{1}{9/9}{Componentes}{0}}}
\@writefile{nav}{\headcommand {\beamer@framepages {9}{9}}}
\@writefile{nav}{\headcommand {\slideentry {2}{1}{2}{10/10}{Componentes}{0}}}
\@writefile{nav}{\headcommand {\beamer@framepages {10}{10}}}
\@writefile{toc}{\beamer@subsectionintoc {2}{2}{Esquem\IeC {\'a}tico}{11}{0}{2}}
\@writefile{nav}{\headcommand {\beamer@subsectionpages {9}{10}}}
\@writefile{nav}{\headcommand {\beamer@subsectionentry {0}{2}{2}{11}{Esquem\IeC {\'a}tico}}}
\@writefile{nav}{\headcommand {\slideentry {2}{2}{1}{11/11}{Esquem\IeC {\'a}tico}{0}}}
\@writefile{nav}{\headcommand {\beamer@framepages {11}{11}}}
\@writefile{toc}{\beamer@subsectionintoc {2}{3}{PCB}{12}{0}{2}}
\@writefile{nav}{\headcommand {\beamer@subsectionpages {11}{11}}}
\@writefile{nav}{\headcommand {\beamer@subsectionentry {0}{2}{3}{12}{PCB}}}
\@writefile{nav}{\headcommand {\slideentry {2}{3}{1}{12/12}{PCB}{0}}}
\@writefile{nav}{\headcommand {\beamer@framepages {12}{12}}}
\@writefile{nav}{\headcommand {\slideentry {2}{3}{2}{13/13}{PCB}{0}}}
\@writefile{nav}{\headcommand {\beamer@framepages {13}{13}}}
\@writefile{nav}{\headcommand {\slideentry {2}{3}{3}{14/14}{PCB}{0}}}
\@writefile{nav}{\headcommand {\beamer@framepages {14}{14}}}
\@writefile{toc}{\beamer@subsectionintoc {2}{4}{Protoboard}{15}{0}{2}}
\@writefile{nav}{\headcommand {\beamer@subsectionpages {12}{14}}}
\@writefile{nav}{\headcommand {\beamer@subsectionentry {0}{2}{4}{15}{Protoboard}}}
\@writefile{nav}{\headcommand {\slideentry {2}{4}{1}{15/15}{Protoboard}{0}}}
\@writefile{nav}{\headcommand {\beamer@framepages {15}{15}}}
\@writefile{nav}{\headcommand {\slideentry {2}{4}{2}{16/16}{Protoboard}{0}}}
\@writefile{nav}{\headcommand {\beamer@framepages {16}{16}}}
\@writefile{toc}{\beamer@subsectionintoc {2}{5}{Transformada de Fourier}{17}{0}{2}}
\@writefile{nav}{\headcommand {\beamer@subsectionpages {15}{16}}}
\@writefile{nav}{\headcommand {\beamer@subsectionentry {0}{2}{5}{17}{Transformada de Fourier}}}
\@writefile{nav}{\headcommand {\slideentry {2}{5}{1}{17/17}{Transformada de Fourier}{0}}}
\@writefile{nav}{\headcommand {\beamer@framepages {17}{17}}}
\@writefile{toc}{\beamer@subsectionintoc {2}{6}{Codificaci\IeC {\'o}n}{18}{0}{2}}
\@writefile{nav}{\headcommand {\beamer@subsectionpages {17}{17}}}
\@writefile{nav}{\headcommand {\beamer@subsectionentry {0}{2}{6}{18}{Codificaci\IeC {\'o}n}}}
\@writefile{nav}{\headcommand {\slideentry {2}{6}{1}{18/18}{Codificaci\IeC {\'o}n}{0}}}
\@writefile{nav}{\headcommand {\beamer@framepages {18}{18}}}
\@writefile{toc}{\beamer@subsubsectionintoc {2}{6}{1}{C\IeC {\'o}digo Teensy}{19}{0}{2}}
\@writefile{nav}{\headcommand {\beamer@subsubsectionentry {0}{2}{6}{1}{19}{C\IeC {\'o}digo Teensy}}}
\@writefile{nav}{\headcommand {\slideentry {2}{6}{2}{19/19}{Codificaci\IeC {\'o}n}{0}}}
\@writefile{nav}{\headcommand {\beamer@framepages {19}{19}}}
\@writefile{toc}{\beamer@subsubsectionintoc {2}{6}{2}{Aplicaci\IeC {\'o}n Python}{20}{0}{2}}
\@writefile{nav}{\headcommand {\beamer@subsubsectionentry {0}{2}{6}{2}{20}{Aplicaci\IeC {\'o}n Python}}}
\newlabel{E_R}{{27}{20}{Aplicación Python}{Doc-Start}{}}
\@writefile{snm}{\beamer@slide {E_R}{20}}
\newlabel{funcionamiento_app}{{28}{20}{Aplicación Python}{Doc-Start}{}}
\@writefile{snm}{\beamer@slide {funcionamiento_app}{20}}
\@writefile{nav}{\headcommand {\slideentry {2}{6}{3}{20/20}{Codificaci\IeC {\'o}n}{0}}}
\@writefile{nav}{\headcommand {\beamer@framepages {20}{20}}}
\newlabel{Python_app}{{29}{21}{Aplicación Python}{Doc-Start}{}}
\@writefile{snm}{\beamer@slide {Python_app}{21}}
\@writefile{nav}{\headcommand {\slideentry {2}{6}{4}{21/21}{Codificaci\IeC {\'o}n}{0}}}
\@writefile{nav}{\headcommand {\beamer@framepages {21}{21}}}
\@writefile{toc}{\beamer@sectionintoc {3}{Experimentaci\IeC {\'o}n}{22}{0}{3}}
\@writefile{nav}{\headcommand {\beamer@sectionpages {9}{21}}}
\@writefile{nav}{\headcommand {\beamer@subsectionpages {18}{21}}}
\@writefile{nav}{\headcommand {\sectionentry {3}{Experimentaci\IeC {\'o}n}{22}{Experimentaci\IeC {\'o}n}{0}}}
\@writefile{toc}{\beamer@subsectionintoc {3}{1}{Prueba de ejercicios matem\IeC {\'a}ticos}{22}{0}{3}}
\@writefile{nav}{\headcommand {\beamer@subsectionpages {22}{21}}}
\@writefile{nav}{\headcommand {\beamer@subsectionentry {0}{3}{1}{22}{Prueba de ejercicios matem\IeC {\'a}ticos}}}
\@writefile{nav}{\headcommand {\slideentry {3}{1}{1}{22/22}{Prueba de ejercicios matem\IeC {\'a}ticos}{0}}}
\@writefile{nav}{\headcommand {\beamer@framepages {22}{22}}}
\@writefile{toc}{\beamer@subsectionintoc {3}{2}{M\IeC {\'u}sica estridente}{23}{0}{3}}
\@writefile{nav}{\headcommand {\beamer@subsectionpages {22}{22}}}
\@writefile{nav}{\headcommand {\beamer@subsectionentry {0}{3}{2}{23}{M\IeC {\'u}sica estridente}}}
\@writefile{nav}{\headcommand {\slideentry {3}{2}{1}{23/23}{M\IeC {\'u}sica estridente}{0}}}
\@writefile{nav}{\headcommand {\beamer@framepages {23}{23}}}
\@writefile{toc}{\beamer@subsectionintoc {3}{3}{M\IeC {\'u}sica relajante}{24}{0}{3}}
\@writefile{nav}{\headcommand {\beamer@subsectionpages {23}{23}}}
\@writefile{nav}{\headcommand {\beamer@subsectionentry {0}{3}{3}{24}{M\IeC {\'u}sica relajante}}}
\@writefile{nav}{\headcommand {\slideentry {3}{3}{1}{24/24}{M\IeC {\'u}sica relajante}{0}}}
\@writefile{nav}{\headcommand {\beamer@framepages {24}{24}}}
\@writefile{toc}{\beamer@subsectionintoc {3}{4}{Comparaciones}{25}{0}{3}}
\@writefile{nav}{\headcommand {\beamer@subsectionpages {24}{24}}}
\@writefile{nav}{\headcommand {\beamer@subsectionentry {0}{3}{4}{25}{Comparaciones}}}
\@writefile{nav}{\headcommand {\slideentry {3}{4}{1}{25/25}{Comparaciones}{0}}}
\@writefile{nav}{\headcommand {\beamer@framepages {25}{25}}}
\@writefile{nav}{\headcommand {\slideentry {3}{4}{2}{26/26}{Comparaciones}{0}}}
\@writefile{nav}{\headcommand {\beamer@framepages {26}{26}}}
\@writefile{nav}{\headcommand {\slideentry {3}{4}{3}{27/27}{Comparaciones}{0}}}
\@writefile{nav}{\headcommand {\beamer@framepages {27}{27}}}
\@writefile{nav}{\headcommand {\beamer@sectionpages {22}{27}}}
\@writefile{nav}{\headcommand {\beamer@subsectionpages {25}{27}}}
\@writefile{nav}{\headcommand {\sectionentry {4}{Conclusiones}{28}{Conclusiones}{0}}}
\@writefile{nav}{\headcommand {\slideentry {4}{0}{1}{28/28}{}{0}}}
\@writefile{nav}{\headcommand {\beamer@framepages {28}{28}}}
\@writefile{nav}{\headcommand {\slideentry {4}{0}{2}{29/29}{}{0}}}
\@writefile{nav}{\headcommand {\beamer@framepages {29}{29}}}
\@writefile{nav}{\headcommand {\beamer@partpages {1}{29}}}
\@writefile{nav}{\headcommand {\beamer@subsectionpages {28}{29}}}
\@writefile{nav}{\headcommand {\beamer@sectionpages {28}{29}}}
\@writefile{nav}{\headcommand {\beamer@documentpages {29}}}
\@writefile{nav}{\headcommand {\gdef \inserttotalframenumber {29}}}
