%!PS-Adobe-3.0 EPSF-3.0
%%Creator: (MATLAB, The Mathworks, Inc. Version 8.5.0.197613 \(R2015a\). Operating System: Windows 8)
%%Title: (C:/Users/aleja/Desktop/TFG/Documentaci\363n/Obtenci\363n de datos/matlab_plot/stems/alvaro12-13.eps)
%%CreationDate: 2019-05-22T00:34:56
%%Pages: (atend)
%%BoundingBox: 0 0 420 315
%%LanguageLevel: 2
%%EndComments
%%BeginProlog
%%BeginResource: procset (Apache XML Graphics Std ProcSet) 1.2 0
%%Version: 1.2 0
%%Copyright: (Copyright 2001-2003,2010 The Apache Software Foundation. License terms: http://www.apache.org/licenses/LICENSE-2.0)
/bd{bind def}bind def
/ld{load def}bd
/GR/grestore ld
/M/moveto ld
/LJ/setlinejoin ld
/C/curveto ld
/f/fill ld
/LW/setlinewidth ld
/GC/setgray ld
/t/show ld
/N/newpath ld
/CT/concat ld
/cp/closepath ld
/S/stroke ld
/L/lineto ld
/CC/setcmykcolor ld
/A/ashow ld
/GS/gsave ld
/RC/setrgbcolor ld
/RM/rmoveto ld
/ML/setmiterlimit ld
/re {4 2 roll M
1 index 0 rlineto
0 exch rlineto
neg 0 rlineto
cp } bd
/_ctm matrix def
/_tm matrix def
/BT { _ctm currentmatrix pop matrix _tm copy pop 0 0 moveto } bd
/ET { _ctm setmatrix } bd
/iTm { _ctm setmatrix _tm concat } bd
/Tm { _tm astore pop iTm 0 0 moveto } bd
/ux 0.0 def
/uy 0.0 def
/F {
  /Tp exch def
  /Tf exch def
  Tf findfont Tp scalefont setfont
  /cf Tf def  /cs Tp def
} bd
/ULS {currentpoint /uy exch def /ux exch def} bd
/ULE {
  /Tcx currentpoint pop def
  gsave
  newpath
  cf findfont cs scalefont dup
  /FontMatrix get 0 get /Ts exch def /FontInfo get dup
  /UnderlinePosition get Ts mul /To exch def
  /UnderlineThickness get Ts mul /Tt exch def
  ux uy To add moveto  Tcx uy To add lineto
  Tt setlinewidth stroke
  grestore
} bd
/OLE {
  /Tcx currentpoint pop def
  gsave
  newpath
  cf findfont cs scalefont dup
  /FontMatrix get 0 get /Ts exch def /FontInfo get dup
  /UnderlinePosition get Ts mul /To exch def
  /UnderlineThickness get Ts mul /Tt exch def
  ux uy To add cs add moveto Tcx uy To add cs add lineto
  Tt setlinewidth stroke
  grestore
} bd
/SOE {
  /Tcx currentpoint pop def
  gsave
  newpath
  cf findfont cs scalefont dup
  /FontMatrix get 0 get /Ts exch def /FontInfo get dup
  /UnderlinePosition get Ts mul /To exch def
  /UnderlineThickness get Ts mul /Tt exch def
  ux uy To add cs 10 mul 26 idiv add moveto Tcx uy To add cs 10 mul 26 idiv add lineto
  Tt setlinewidth stroke
  grestore
} bd
/QT {
/Y22 exch store
/X22 exch store
/Y21 exch store
/X21 exch store
currentpoint
/Y21 load 2 mul add 3 div exch
/X21 load 2 mul add 3 div exch
/X21 load 2 mul /X22 load add 3 div
/Y21 load 2 mul /Y22 load add 3 div
/X22 load /Y22 load curveto
} bd
/SSPD {
dup length /d exch dict def
{
/v exch def
/k exch def
currentpagedevice k known {
/cpdv currentpagedevice k get def
v cpdv ne {
/upd false def
/nullv v type /nulltype eq def
/nullcpdv cpdv type /nulltype eq def
nullv nullcpdv or
{
/upd true def
} {
/sametype v type cpdv type eq def
sametype {
v type /arraytype eq {
/vlen v length def
/cpdvlen cpdv length def
vlen cpdvlen eq {
0 1 vlen 1 sub {
/i exch def
/obj v i get def
/cpdobj cpdv i get def
obj cpdobj ne {
/upd true def
exit
} if
} for
} {
/upd true def
} ifelse
} {
v type /dicttype eq {
v {
/dv exch def
/dk exch def
/cpddv cpdv dk get def
dv cpddv ne {
/upd true def
exit
} if
} forall
} {
/upd true def
} ifelse
} ifelse
} if
} ifelse
upd true eq {
d k v put
} if
} if
} if
} forall
d length 0 gt {
d setpagedevice
} if
} bd
%%EndResource
%%BeginResource: procset (Apache XML Graphics EPS ProcSet) 1.0 0
%%Version: 1.0 0
%%Copyright: (Copyright 2002-2003 The Apache Software Foundation. License terms: http://www.apache.org/licenses/LICENSE-2.0)
/BeginEPSF { %def
/b4_Inc_state save def         % Save state for cleanup
/dict_count countdictstack def % Count objects on dict stack
/op_count count 1 sub def      % Count objects on operand stack
userdict begin                 % Push userdict on dict stack
/showpage { } def              % Redefine showpage, { } = null proc
0 setgray 0 setlinecap         % Prepare graphics state
1 setlinewidth 0 setlinejoin
10 setmiterlimit [ ] 0 setdash newpath
/languagelevel where           % If level not equal to 1 then
{pop languagelevel             % set strokeadjust and
1 ne                           % overprint to their defaults.
{false setstrokeadjust false setoverprint
} if
} if
} bd
/EndEPSF { %def
count op_count sub {pop} repeat            % Clean up stacks
countdictstack dict_count sub {end} repeat
b4_Inc_state restore
} bd
%%EndResource
%FOPBeginFontDict
%%IncludeResource: font Courier-Bold
%%IncludeResource: font Helvetica
%%IncludeResource: font Courier-BoldOblique
%%IncludeResource: font Courier-Oblique
%%IncludeResource: font Times-Roman
%%IncludeResource: font Helvetica-BoldOblique
%%IncludeResource: font Helvetica-Bold
%%IncludeResource: font Helvetica-Oblique
%%IncludeResource: font Times-BoldItalic
%%IncludeResource: font Courier
%%IncludeResource: font Times-Italic
%%IncludeResource: font Times-Bold
%%IncludeResource: font Symbol
%%IncludeResource: font ZapfDingbats
%FOPEndFontDict
%%BeginResource: encoding WinAnsiEncoding
/WinAnsiEncoding [
/.notdef /.notdef /.notdef /.notdef /.notdef
/.notdef /.notdef /.notdef /.notdef /.notdef
/.notdef /.notdef /.notdef /.notdef /.notdef
/.notdef /.notdef /.notdef /.notdef /.notdef
/.notdef /.notdef /.notdef /.notdef /.notdef
/.notdef /.notdef /.notdef /.notdef /.notdef
/.notdef /.notdef /space /exclam /quotedbl
/numbersign /dollar /percent /ampersand /quotesingle
/parenleft /parenright /asterisk /plus /comma
/hyphen /period /slash /zero /one
/two /three /four /five /six
/seven /eight /nine /colon /semicolon
/less /equal /greater /question /at
/A /B /C /D /E
/F /G /H /I /J
/K /L /M /N /O
/P /Q /R /S /T
/U /V /W /X /Y
/Z /bracketleft /backslash /bracketright /asciicircum
/underscore /quoteleft /a /b /c
/d /e /f /g /h
/i /j /k /l /m
/n /o /p /q /r
/s /t /u /v /w
/x /y /z /braceleft /bar
/braceright /asciitilde /bullet /Euro /bullet
/quotesinglbase /florin /quotedblbase /ellipsis /dagger
/daggerdbl /circumflex /perthousand /Scaron /guilsinglleft
/OE /bullet /Zcaron /bullet /bullet
/quoteleft /quoteright /quotedblleft /quotedblright /bullet
/endash /emdash /asciitilde /trademark /scaron
/guilsinglright /oe /bullet /zcaron /Ydieresis
/space /exclamdown /cent /sterling /currency
/yen /brokenbar /section /dieresis /copyright
/ordfeminine /guillemotleft /logicalnot /sfthyphen /registered
/macron /degree /plusminus /twosuperior /threesuperior
/acute /mu /paragraph /middot /cedilla
/onesuperior /ordmasculine /guillemotright /onequarter /onehalf
/threequarters /questiondown /Agrave /Aacute /Acircumflex
/Atilde /Adieresis /Aring /AE /Ccedilla
/Egrave /Eacute /Ecircumflex /Edieresis /Igrave
/Iacute /Icircumflex /Idieresis /Eth /Ntilde
/Ograve /Oacute /Ocircumflex /Otilde /Odieresis
/multiply /Oslash /Ugrave /Uacute /Ucircumflex
/Udieresis /Yacute /Thorn /germandbls /agrave
/aacute /acircumflex /atilde /adieresis /aring
/ae /ccedilla /egrave /eacute /ecircumflex
/edieresis /igrave /iacute /icircumflex /idieresis
/eth /ntilde /ograve /oacute /ocircumflex
/otilde /odieresis /divide /oslash /ugrave
/uacute /ucircumflex /udieresis /yacute /thorn
/ydieresis
] def
%%EndResource
%FOPBeginFontReencode
/Courier-Bold findfont
dup length dict begin
  {1 index /FID ne {def} {pop pop} ifelse} forall
  /Encoding WinAnsiEncoding def
  currentdict
end
/Courier-Bold exch definefont pop
/Helvetica findfont
dup length dict begin
  {1 index /FID ne {def} {pop pop} ifelse} forall
  /Encoding WinAnsiEncoding def
  currentdict
end
/Helvetica exch definefont pop
/Courier-BoldOblique findfont
dup length dict begin
  {1 index /FID ne {def} {pop pop} ifelse} forall
  /Encoding WinAnsiEncoding def
  currentdict
end
/Courier-BoldOblique exch definefont pop
/Courier-Oblique findfont
dup length dict begin
  {1 index /FID ne {def} {pop pop} ifelse} forall
  /Encoding WinAnsiEncoding def
  currentdict
end
/Courier-Oblique exch definefont pop
/Times-Roman findfont
dup length dict begin
  {1 index /FID ne {def} {pop pop} ifelse} forall
  /Encoding WinAnsiEncoding def
  currentdict
end
/Times-Roman exch definefont pop
/Helvetica-BoldOblique findfont
dup length dict begin
  {1 index /FID ne {def} {pop pop} ifelse} forall
  /Encoding WinAnsiEncoding def
  currentdict
end
/Helvetica-BoldOblique exch definefont pop
/Helvetica-Bold findfont
dup length dict begin
  {1 index /FID ne {def} {pop pop} ifelse} forall
  /Encoding WinAnsiEncoding def
  currentdict
end
/Helvetica-Bold exch definefont pop
/Helvetica-Oblique findfont
dup length dict begin
  {1 index /FID ne {def} {pop pop} ifelse} forall
  /Encoding WinAnsiEncoding def
  currentdict
end
/Helvetica-Oblique exch definefont pop
/Times-BoldItalic findfont
dup length dict begin
  {1 index /FID ne {def} {pop pop} ifelse} forall
  /Encoding WinAnsiEncoding def
  currentdict
end
/Times-BoldItalic exch definefont pop
/Courier findfont
dup length dict begin
  {1 index /FID ne {def} {pop pop} ifelse} forall
  /Encoding WinAnsiEncoding def
  currentdict
end
/Courier exch definefont pop
/Times-Italic findfont
dup length dict begin
  {1 index /FID ne {def} {pop pop} ifelse} forall
  /Encoding WinAnsiEncoding def
  currentdict
end
/Times-Italic exch definefont pop
/Times-Bold findfont
dup length dict begin
  {1 index /FID ne {def} {pop pop} ifelse} forall
  /Encoding WinAnsiEncoding def
  currentdict
end
/Times-Bold exch definefont pop
%FOPEndFontReencode
%%EndProlog
%%Page: 1 1
%%PageBoundingBox: 0 0 420 315
%%BeginPageSetup
[1 0 0 -1 0 315] CT
%%EndPageSetup
GS
[0.75 0 0 0.75 0 0] CT
1 GC
N
0 0 560 420 re
f
GR
GS
[0.75 0 0 0.75 0 0] CT
1 GC
N
0 0 560 420 re
f
GR
GS
[0.75 0 0 0.75 0 0] CT
1 GC
N
73 374 M
507 374 L
507 31 L
73 31 L
cp
f
GR
GS
[0.75 0 0 0.75 217.50016 298.24999] CT
0.149 GC
/Helvetica 15 F
GS
[1 0 0 1 0 0] CT
-52 16 moveto 
1 -1 scale
(Frequency \(Hz\)) t 
GR
GR
GS
[0.75 0 0 0.75 0 0] CT
0.149 GC
2 setlinecap
10.0 ML
N
73 374 M
507 374 L
S
GR
GS
[0.75 0 0 0.75 0 0] CT
0.149 GC
2 setlinecap
10.0 ML
N
73 31 M
507 31 L
S
GR
GS
[0.75 0 0 0.75 0 0] CT
0.149 GC
2 setlinecap
10.0 ML
N
73 374 M
73 369.66 L
S
GR
GS
[0.75 0 0 0.75 0 0] CT
0.149 GC
2 setlinecap
10.0 ML
N
116.4 374 M
116.4 369.66 L
S
GR
GS
[0.75 0 0 0.75 0 0] CT
0.149 GC
2 setlinecap
10.0 ML
N
159.8 374 M
159.8 369.66 L
S
GR
GS
[0.75 0 0 0.75 0 0] CT
0.149 GC
2 setlinecap
10.0 ML
N
203.2 374 M
203.2 369.66 L
S
GR
GS
[0.75 0 0 0.75 0 0] CT
0.149 GC
2 setlinecap
10.0 ML
N
246.6 374 M
246.6 369.66 L
S
GR
GS
[0.75 0 0 0.75 0 0] CT
0.149 GC
2 setlinecap
10.0 ML
N
290 374 M
290 369.66 L
S
GR
GS
[0.75 0 0 0.75 0 0] CT
0.149 GC
2 setlinecap
10.0 ML
N
333.4 374 M
333.4 369.66 L
S
GR
GS
[0.75 0 0 0.75 0 0] CT
0.149 GC
2 setlinecap
10.0 ML
N
376.8 374 M
376.8 369.66 L
S
GR
GS
[0.75 0 0 0.75 0 0] CT
0.149 GC
2 setlinecap
10.0 ML
N
420.2 374 M
420.2 369.66 L
S
GR
GS
[0.75 0 0 0.75 0 0] CT
0.149 GC
2 setlinecap
10.0 ML
N
463.6 374 M
463.6 369.66 L
S
GR
GS
[0.75 0 0 0.75 0 0] CT
0.149 GC
2 setlinecap
10.0 ML
N
507 374 M
507 369.66 L
S
GR
GS
[0.75 0 0 0.75 0 0] CT
0.149 GC
2 setlinecap
10.0 ML
N
73 31 M
73 35.34 L
S
GR
GS
[0.75 0 0 0.75 0 0] CT
0.149 GC
2 setlinecap
10.0 ML
N
116.4 31 M
116.4 35.34 L
S
GR
GS
[0.75 0 0 0.75 0 0] CT
0.149 GC
2 setlinecap
10.0 ML
N
159.8 31 M
159.8 35.34 L
S
GR
GS
[0.75 0 0 0.75 0 0] CT
0.149 GC
2 setlinecap
10.0 ML
N
203.2 31 M
203.2 35.34 L
S
GR
GS
[0.75 0 0 0.75 0 0] CT
0.149 GC
2 setlinecap
10.0 ML
N
246.6 31 M
246.6 35.34 L
S
GR
GS
[0.75 0 0 0.75 0 0] CT
0.149 GC
2 setlinecap
10.0 ML
N
290 31 M
290 35.34 L
S
GR
GS
[0.75 0 0 0.75 0 0] CT
0.149 GC
2 setlinecap
10.0 ML
N
333.4 31 M
333.4 35.34 L
S
GR
GS
[0.75 0 0 0.75 0 0] CT
0.149 GC
2 setlinecap
10.0 ML
N
376.8 31 M
376.8 35.34 L
S
GR
GS
[0.75 0 0 0.75 0 0] CT
0.149 GC
2 setlinecap
10.0 ML
N
420.2 31 M
420.2 35.34 L
S
GR
GS
[0.75 0 0 0.75 0 0] CT
0.149 GC
2 setlinecap
10.0 ML
N
463.6 31 M
463.6 35.34 L
S
GR
GS
[0.75 0 0 0.75 0 0] CT
0.149 GC
2 setlinecap
10.0 ML
N
507 31 M
507 35.34 L
S
GR
GS
[0.75 0 0 0.75 54.75 284.50001] CT
0.149 GC
/Helvetica 13 F
GS
[1 0 0 1 0 0] CT
-4 14 moveto 
1 -1 scale
(0) t 
GR
GR
GS
[0.75 0 0 0.75 87.3 284.50001] CT
0.149 GC
/Helvetica 13 F
GS
[1 0 0 1 0 0] CT
-7.5 14 moveto 
1 -1 scale
(10) t 
GR
GR
GS
[0.75 0 0 0.75 119.85 284.50001] CT
0.149 GC
/Helvetica 13 F
GS
[1 0 0 1 0 0] CT
-7.5 14 moveto 
1 -1 scale
(20) t 
GR
GR
GS
[0.75 0 0 0.75 152.4 284.50001] CT
0.149 GC
/Helvetica 13 F
GS
[1 0 0 1 0 0] CT
-7.5 14 moveto 
1 -1 scale
(30) t 
GR
GR
GS
[0.75 0 0 0.75 184.95 284.50001] CT
0.149 GC
/Helvetica 13 F
GS
[1 0 0 1 0 0] CT
-7.5 14 moveto 
1 -1 scale
(40) t 
GR
GR
GS
[0.75 0 0 0.75 217.5 284.50001] CT
0.149 GC
/Helvetica 13 F
GS
[1 0 0 1 0 0] CT
-7.5 14 moveto 
1 -1 scale
(50) t 
GR
GR
GS
[0.75 0 0 0.75 250.05 284.50001] CT
0.149 GC
/Helvetica 13 F
GS
[1 0 0 1 0 0] CT
-7.5 14 moveto 
1 -1 scale
(60) t 
GR
GR
GS
[0.75 0 0 0.75 282.59999 284.50001] CT
0.149 GC
/Helvetica 13 F
GS
[1 0 0 1 0 0] CT
-7.5 14 moveto 
1 -1 scale
(70) t 
GR
GR
GS
[0.75 0 0 0.75 315.15001 284.50001] CT
0.149 GC
/Helvetica 13 F
GS
[1 0 0 1 0 0] CT
-7.5 14 moveto 
1 -1 scale
(80) t 
GR
GR
GS
[0.75 0 0 0.75 347.7 284.50001] CT
0.149 GC
/Helvetica 13 F
GS
[1 0 0 1 0 0] CT
-7.5 14 moveto 
1 -1 scale
(90) t 
GR
GR
GS
[0.75 0 0 0.75 380.25 284.50001] CT
0.149 GC
/Helvetica 13 F
GS
[1 0 0 1 0 0] CT
-11 14 moveto 
1 -1 scale
(100) t 
GR
GR
GS
[0 -0.75 0.75 0 41.75 151.87487] CT
0.149 GC
/Helvetica 15 F
GS
[1 0 0 1 0 0] CT
-61.5 -4 moveto 
1 -1 scale
(|P\(f\)| MAgnitud dB) t 
GR
GR
GS
[0.75 0 0 0.75 0 0] CT
0.149 GC
2 setlinecap
10.0 ML
N
73 374 M
73 31 L
S
GR
GS
[0.75 0 0 0.75 0 0] CT
0.149 GC
2 setlinecap
10.0 ML
N
507 374 M
507 31 L
S
GR
GS
[0.75 0 0 0.75 0 0] CT
0.149 GC
2 setlinecap
10.0 ML
N
73 374 M
77.34 374 L
S
GR
GS
[0.75 0 0 0.75 0 0] CT
0.149 GC
2 setlinecap
10.0 ML
N
73 331.125 M
77.34 331.125 L
S
GR
GS
[0.75 0 0 0.75 0 0] CT
0.149 GC
2 setlinecap
10.0 ML
N
73 288.25 M
77.34 288.25 L
S
GR
GS
[0.75 0 0 0.75 0 0] CT
0.149 GC
2 setlinecap
10.0 ML
N
73 245.375 M
77.34 245.375 L
S
GR
GS
[0.75 0 0 0.75 0 0] CT
0.149 GC
2 setlinecap
10.0 ML
N
73 202.5 M
77.34 202.5 L
S
GR
GS
[0.75 0 0 0.75 0 0] CT
0.149 GC
2 setlinecap
10.0 ML
N
73 159.625 M
77.34 159.625 L
S
GR
GS
[0.75 0 0 0.75 0 0] CT
0.149 GC
2 setlinecap
10.0 ML
N
73 116.75 M
77.34 116.75 L
S
GR
GS
[0.75 0 0 0.75 0 0] CT
0.149 GC
2 setlinecap
10.0 ML
N
73 73.875 M
77.34 73.875 L
S
GR
GS
[0.75 0 0 0.75 0 0] CT
0.149 GC
2 setlinecap
10.0 ML
N
73 31 M
77.34 31 L
S
GR
GS
[0.75 0 0 0.75 0 0] CT
0.149 GC
2 setlinecap
10.0 ML
N
507 374 M
502.66 374 L
S
GR
GS
[0.75 0 0 0.75 0 0] CT
0.149 GC
2 setlinecap
10.0 ML
N
507 331.125 M
502.66 331.125 L
S
GR
GS
[0.75 0 0 0.75 0 0] CT
0.149 GC
2 setlinecap
10.0 ML
N
507 288.25 M
502.66 288.25 L
S
GR
GS
[0.75 0 0 0.75 0 0] CT
0.149 GC
2 setlinecap
10.0 ML
N
507 245.375 M
502.66 245.375 L
S
GR
GS
[0.75 0 0 0.75 0 0] CT
0.149 GC
2 setlinecap
10.0 ML
N
507 202.5 M
502.66 202.5 L
S
GR
GS
[0.75 0 0 0.75 0 0] CT
0.149 GC
2 setlinecap
10.0 ML
N
507 159.625 M
502.66 159.625 L
S
GR
GS
[0.75 0 0 0.75 0 0] CT
0.149 GC
2 setlinecap
10.0 ML
N
507 116.75 M
502.66 116.75 L
S
GR
GS
[0.75 0 0 0.75 0 0] CT
0.149 GC
2 setlinecap
10.0 ML
N
507 73.875 M
502.66 73.875 L
S
GR
GS
[0.75 0 0 0.75 0 0] CT
0.149 GC
2 setlinecap
10.0 ML
N
507 31 M
502.66 31 L
S
GR
GS
[0.75 0 0 0.75 50.75 280.5] CT
0.149 GC
/Helvetica 13 F
GS
[1 0 0 1 0 0] CT
-8 5.5 moveto 
1 -1 scale
(0) t 
GR
GR
GS
[0.75 0 0 0.75 50.75 248.34375] CT
0.149 GC
/Helvetica 13 F
GS
[1 0 0 1 0 0] CT
-8 5.5 moveto 
1 -1 scale
(1) t 
GR
GR
GS
[0.75 0 0 0.75 50.75 216.1875] CT
0.149 GC
/Helvetica 13 F
GS
[1 0 0 1 0 0] CT
-8 5.5 moveto 
1 -1 scale
(2) t 
GR
GR
GS
[0.75 0 0 0.75 50.75 184.03125] CT
0.149 GC
/Helvetica 13 F
GS
[1 0 0 1 0 0] CT
-8 5.5 moveto 
1 -1 scale
(3) t 
GR
GR
GS
[0.75 0 0 0.75 50.75 151.875] CT
0.149 GC
/Helvetica 13 F
GS
[1 0 0 1 0 0] CT
-8 5.5 moveto 
1 -1 scale
(4) t 
GR
GR
GS
[0.75 0 0 0.75 50.75 119.71875] CT
0.149 GC
/Helvetica 13 F
GS
[1 0 0 1 0 0] CT
-8 5.5 moveto 
1 -1 scale
(5) t 
GR
GR
GS
[0.75 0 0 0.75 50.75 87.5625] CT
0.149 GC
/Helvetica 13 F
GS
[1 0 0 1 0 0] CT
-8 5.5 moveto 
1 -1 scale
(6) t 
GR
GR
GS
[0.75 0 0 0.75 50.75 55.40625] CT
0.149 GC
/Helvetica 13 F
GS
[1 0 0 1 0 0] CT
-8 5.5 moveto 
1 -1 scale
(7) t 
GR
GR
GS
[0.75 0 0 0.75 50.75 23.25] CT
0.149 GC
/Helvetica 13 F
GS
[1 0 0 1 0 0] CT
-8 5.5 moveto 
1 -1 scale
(8) t 
GR
GR
GS
[0.75 0 0 0.75 0 0] CT
0 0.447 0.741 RC
2 setlinecap
10.0 ML
N
79.5 36.5 M
78.736 34.149 L
76.736 32.696 L
74.264 32.696 L
72.264 34.149 L
71.5 36.5 L
72.264 38.851 L
74.264 40.304 L
76.736 40.304 L
78.736 38.851 L
79.5 36.5 L
S
GR
GS
[0.75 0 0 0.75 0 0] CT
0 0.447 0.741 RC
2 setlinecap
10.0 ML
N
83.5 91.5 M
82.736 89.149 L
80.736 87.696 L
78.264 87.696 L
76.264 89.149 L
75.5 91.5 L
76.264 93.851 L
78.264 95.304 L
80.736 95.304 L
82.736 93.851 L
83.5 91.5 L
S
GR
GS
[0.75 0 0 0.75 0 0] CT
0 0.447 0.741 RC
2 setlinecap
10.0 ML
N
87.5 218.5 M
86.736 216.149 L
84.736 214.696 L
82.264 214.696 L
80.264 216.149 L
79.5 218.5 L
80.264 220.851 L
82.264 222.304 L
84.736 222.304 L
86.736 220.851 L
87.5 218.5 L
S
GR
GS
[0.75 0 0 0.75 0 0] CT
0 0.447 0.741 RC
2 setlinecap
10.0 ML
N
91.5 182.5 M
90.736 180.149 L
88.736 178.696 L
86.264 178.696 L
84.264 180.149 L
83.5 182.5 L
84.264 184.851 L
86.264 186.304 L
88.736 186.304 L
90.736 184.851 L
91.5 182.5 L
S
GR
GS
[0.75 0 0 0.75 0 0] CT
0 0.447 0.741 RC
2 setlinecap
10.0 ML
N
94.5 239.5 M
93.736 237.149 L
91.736 235.696 L
89.264 235.696 L
87.264 237.149 L
86.5 239.5 L
87.264 241.851 L
89.264 243.304 L
91.736 243.304 L
93.736 241.851 L
94.5 239.5 L
S
GR
GS
[0.75 0 0 0.75 0 0] CT
0 0.447 0.741 RC
2 setlinecap
10.0 ML
N
98.5 319.5 M
97.736 317.149 L
95.736 315.696 L
93.264 315.696 L
91.264 317.149 L
90.5 319.5 L
91.264 321.851 L
93.264 323.304 L
95.736 323.304 L
97.736 321.851 L
98.5 319.5 L
S
GR
GS
[0.75 0 0 0.75 0 0] CT
0 0.447 0.741 RC
2 setlinecap
10.0 ML
N
102.5 274.5 M
101.736 272.149 L
99.736 270.696 L
97.264 270.696 L
95.264 272.149 L
94.5 274.5 L
95.264 276.851 L
97.264 278.304 L
99.736 278.304 L
101.736 276.851 L
102.5 274.5 L
S
GR
GS
[0.75 0 0 0.75 0 0] CT
0 0.447 0.741 RC
2 setlinecap
10.0 ML
N
106.5 307.5 M
105.736 305.149 L
103.736 303.696 L
101.264 303.696 L
99.264 305.149 L
98.5 307.5 L
99.264 309.851 L
101.264 311.304 L
103.736 311.304 L
105.736 309.851 L
106.5 307.5 L
S
GR
GS
[0.75 0 0 0.75 0 0] CT
0 0.447 0.741 RC
2 setlinecap
10.0 ML
N
110.5 324.5 M
109.736 322.149 L
107.736 320.696 L
105.264 320.696 L
103.264 322.149 L
102.5 324.5 L
103.264 326.851 L
105.264 328.304 L
107.736 328.304 L
109.736 326.851 L
110.5 324.5 L
S
GR
GS
[0.75 0 0 0.75 0 0] CT
0 0.447 0.741 RC
2 setlinecap
10.0 ML
N
113.5 312.5 M
112.736 310.149 L
110.736 308.696 L
108.264 308.696 L
106.264 310.149 L
105.5 312.5 L
106.264 314.851 L
108.264 316.304 L
110.736 316.304 L
112.736 314.851 L
113.5 312.5 L
S
GR
GS
[0.75 0 0 0.75 0 0] CT
0 0.447 0.741 RC
2 setlinecap
10.0 ML
N
117.5 274.5 M
116.736 272.149 L
114.736 270.696 L
112.264 270.696 L
110.264 272.149 L
109.5 274.5 L
110.264 276.851 L
112.264 278.304 L
114.736 278.304 L
116.736 276.851 L
117.5 274.5 L
S
GR
GS
[0.75 0 0 0.75 0 0] CT
0 0.447 0.741 RC
2 setlinecap
10.0 ML
N
121.5 341.5 M
120.736 339.149 L
118.736 337.696 L
116.264 337.696 L
114.264 339.149 L
113.5 341.5 L
114.264 343.851 L
116.264 345.304 L
118.736 345.304 L
120.736 343.851 L
121.5 341.5 L
S
GR
GS
[0.75 0 0 0.75 0 0] CT
0 0.447 0.741 RC
2 setlinecap
10.0 ML
N
125.5 288.5 M
124.736 286.149 L
122.736 284.696 L
120.264 284.696 L
118.264 286.149 L
117.5 288.5 L
118.264 290.851 L
120.264 292.304 L
122.736 292.304 L
124.736 290.851 L
125.5 288.5 L
S
GR
GS
[0.75 0 0 0.75 0 0] CT
0 0.447 0.741 RC
2 setlinecap
10.0 ML
N
128.5 304.5 M
127.736 302.149 L
125.736 300.696 L
123.264 300.696 L
121.264 302.149 L
120.5 304.5 L
121.264 306.851 L
123.264 308.304 L
125.736 308.304 L
127.736 306.851 L
128.5 304.5 L
S
GR
GS
[0.75 0 0 0.75 0 0] CT
0 0.447 0.741 RC
2 setlinecap
10.0 ML
N
132.5 339.5 M
131.736 337.149 L
129.736 335.696 L
127.264 335.696 L
125.264 337.149 L
124.5 339.5 L
125.264 341.851 L
127.264 343.304 L
129.736 343.304 L
131.736 341.851 L
132.5 339.5 L
S
GR
GS
[0.75 0 0 0.75 0 0] CT
0 0.447 0.741 RC
2 setlinecap
10.0 ML
N
136.5 287.5 M
135.736 285.149 L
133.736 283.696 L
131.264 283.696 L
129.264 285.149 L
128.5 287.5 L
129.264 289.851 L
131.264 291.304 L
133.736 291.304 L
135.736 289.851 L
136.5 287.5 L
S
GR
GS
[0.75 0 0 0.75 0 0] CT
0 0.447 0.741 RC
2 setlinecap
10.0 ML
N
140.5 341.5 M
139.736 339.149 L
137.736 337.696 L
135.264 337.696 L
133.264 339.149 L
132.5 341.5 L
133.264 343.851 L
135.264 345.304 L
137.736 345.304 L
139.736 343.851 L
140.5 341.5 L
S
GR
GS
[0.75 0 0 0.75 0 0] CT
0 0.447 0.741 RC
2 setlinecap
10.0 ML
N
144.5 326.5 M
143.736 324.149 L
141.736 322.696 L
139.264 322.696 L
137.264 324.149 L
136.5 326.5 L
137.264 328.851 L
139.264 330.304 L
141.736 330.304 L
143.736 328.851 L
144.5 326.5 L
S
GR
GS
[0.75 0 0 0.75 0 0] CT
0 0.447 0.741 RC
2 setlinecap
10.0 ML
N
147.5 333.5 M
146.736 331.149 L
144.736 329.696 L
142.264 329.696 L
140.264 331.149 L
139.5 333.5 L
140.264 335.851 L
142.264 337.304 L
144.736 337.304 L
146.736 335.851 L
147.5 333.5 L
S
GR
GS
[0.75 0 0 0.75 0 0] CT
0 0.447 0.741 RC
2 setlinecap
10.0 ML
N
151.5 353.5 M
150.736 351.149 L
148.736 349.696 L
146.264 349.696 L
144.264 351.149 L
143.5 353.5 L
144.264 355.851 L
146.264 357.304 L
148.736 357.304 L
150.736 355.851 L
151.5 353.5 L
S
GR
GS
[0.75 0 0 0.75 0 0] CT
0 0.447 0.741 RC
2 setlinecap
10.0 ML
N
155.5 332.5 M
154.736 330.149 L
152.736 328.696 L
150.264 328.696 L
148.264 330.149 L
147.5 332.5 L
148.264 334.851 L
150.264 336.304 L
152.736 336.304 L
154.736 334.851 L
155.5 332.5 L
S
GR
GS
[0.75 0 0 0.75 0 0] CT
0 0.447 0.741 RC
2 setlinecap
10.0 ML
N
159.5 310.5 M
158.736 308.149 L
156.736 306.696 L
154.264 306.696 L
152.264 308.149 L
151.5 310.5 L
152.264 312.851 L
154.264 314.304 L
156.736 314.304 L
158.736 312.851 L
159.5 310.5 L
S
GR
GS
[0.75 0 0 0.75 0 0] CT
0 0.447 0.741 RC
2 setlinecap
10.0 ML
N
162.5 352.5 M
161.736 350.149 L
159.736 348.696 L
157.264 348.696 L
155.264 350.149 L
154.5 352.5 L
155.264 354.851 L
157.264 356.304 L
159.736 356.304 L
161.736 354.851 L
162.5 352.5 L
S
GR
GS
[0.75 0 0 0.75 0 0] CT
0 0.447 0.741 RC
2 setlinecap
10.0 ML
N
166.5 340.5 M
165.736 338.149 L
163.736 336.696 L
161.264 336.696 L
159.264 338.149 L
158.5 340.5 L
159.264 342.851 L
161.264 344.304 L
163.736 344.304 L
165.736 342.851 L
166.5 340.5 L
S
GR
GS
[0.75 0 0 0.75 0 0] CT
0 0.447 0.741 RC
2 setlinecap
10.0 ML
N
170.5 338.5 M
169.736 336.149 L
167.736 334.696 L
165.264 334.696 L
163.264 336.149 L
162.5 338.5 L
163.264 340.851 L
165.264 342.304 L
167.736 342.304 L
169.736 340.851 L
170.5 338.5 L
S
GR
GS
[0.75 0 0 0.75 0 0] CT
0 0.447 0.741 RC
2 setlinecap
10.0 ML
N
174.5 342.5 M
173.736 340.149 L
171.736 338.696 L
169.264 338.696 L
167.264 340.149 L
166.5 342.5 L
167.264 344.851 L
169.264 346.304 L
171.736 346.304 L
173.736 344.851 L
174.5 342.5 L
S
GR
GS
[0.75 0 0 0.75 0 0] CT
0 0.447 0.741 RC
2 setlinecap
10.0 ML
N
178.5 312.5 M
177.736 310.149 L
175.736 308.696 L
173.264 308.696 L
171.264 310.149 L
170.5 312.5 L
171.264 314.851 L
173.264 316.304 L
175.736 316.304 L
177.736 314.851 L
178.5 312.5 L
S
GR
GS
[0.75 0 0 0.75 0 0] CT
0 0.447 0.741 RC
2 setlinecap
10.0 ML
N
181.5 369.5 M
180.736 367.149 L
178.736 365.696 L
176.264 365.696 L
174.264 367.149 L
173.5 369.5 L
174.264 371.851 L
176.264 373.304 L
178.736 373.304 L
180.736 371.851 L
181.5 369.5 L
S
GR
GS
[0.75 0 0 0.75 0 0] CT
0 0.447 0.741 RC
2 setlinecap
10.0 ML
N
185.5 352.5 M
184.736 350.149 L
182.736 348.696 L
180.264 348.696 L
178.264 350.149 L
177.5 352.5 L
178.264 354.851 L
180.264 356.304 L
182.736 356.304 L
184.736 354.851 L
185.5 352.5 L
S
GR
GS
[0.75 0 0 0.75 0 0] CT
0 0.447 0.741 RC
2 setlinecap
10.0 ML
N
189.5 328.5 M
188.736 326.149 L
186.736 324.696 L
184.264 324.696 L
182.264 326.149 L
181.5 328.5 L
182.264 330.851 L
184.264 332.304 L
186.736 332.304 L
188.736 330.851 L
189.5 328.5 L
S
GR
GS
[0.75 0 0 0.75 0 0] CT
0 0.447 0.741 RC
2 setlinecap
10.0 ML
N
193.5 336.5 M
192.736 334.149 L
190.736 332.696 L
188.264 332.696 L
186.264 334.149 L
185.5 336.5 L
186.264 338.851 L
188.264 340.304 L
190.736 340.304 L
192.736 338.851 L
193.5 336.5 L
S
GR
GS
[0.75 0 0 0.75 0 0] CT
0 0.447 0.741 RC
2 setlinecap
10.0 ML
N
196.5 326.5 M
195.736 324.149 L
193.736 322.696 L
191.264 322.696 L
189.264 324.149 L
188.5 326.5 L
189.264 328.851 L
191.264 330.304 L
193.736 330.304 L
195.736 328.851 L
196.5 326.5 L
S
GR
GS
[0.75 0 0 0.75 0 0] CT
0 0.447 0.741 RC
2 setlinecap
10.0 ML
N
200.5 320.5 M
199.736 318.149 L
197.736 316.696 L
195.264 316.696 L
193.264 318.149 L
192.5 320.5 L
193.264 322.851 L
195.264 324.304 L
197.736 324.304 L
199.736 322.851 L
200.5 320.5 L
S
GR
GS
[0.75 0 0 0.75 0 0] CT
0 0.447 0.741 RC
2 setlinecap
10.0 ML
N
204.5 340.5 M
203.736 338.149 L
201.736 336.696 L
199.264 336.696 L
197.264 338.149 L
196.5 340.5 L
197.264 342.851 L
199.264 344.304 L
201.736 344.304 L
203.736 342.851 L
204.5 340.5 L
S
GR
GS
[0.75 0 0 0.75 0 0] CT
0 0.447 0.741 RC
2 setlinecap
10.0 ML
N
208.5 316.5 M
207.736 314.149 L
205.736 312.696 L
203.264 312.696 L
201.264 314.149 L
200.5 316.5 L
201.264 318.851 L
203.264 320.304 L
205.736 320.304 L
207.736 318.851 L
208.5 316.5 L
S
GR
GS
[0.75 0 0 0.75 0 0] CT
0 0.447 0.741 RC
2 setlinecap
10.0 ML
N
212.5 337.5 M
211.736 335.149 L
209.736 333.696 L
207.264 333.696 L
205.264 335.149 L
204.5 337.5 L
205.264 339.851 L
207.264 341.304 L
209.736 341.304 L
211.736 339.851 L
212.5 337.5 L
S
GR
GS
[0.75 0 0 0.75 0 0] CT
0 0.447 0.741 RC
2 setlinecap
10.0 ML
N
215.5 365.5 M
214.736 363.149 L
212.736 361.696 L
210.264 361.696 L
208.264 363.149 L
207.5 365.5 L
208.264 367.851 L
210.264 369.304 L
212.736 369.304 L
214.736 367.851 L
215.5 365.5 L
S
GR
GS
[0.75 0 0 0.75 0 0] CT
0 0.447 0.741 RC
2 setlinecap
10.0 ML
N
219.5 361.5 M
218.736 359.149 L
216.736 357.696 L
214.264 357.696 L
212.264 359.149 L
211.5 361.5 L
212.264 363.851 L
214.264 365.304 L
216.736 365.304 L
218.736 363.851 L
219.5 361.5 L
S
GR
GS
[0.75 0 0 0.75 0 0] CT
0 0.447 0.741 RC
2 setlinecap
10.0 ML
N
223.5 342.5 M
222.736 340.149 L
220.736 338.696 L
218.264 338.696 L
216.264 340.149 L
215.5 342.5 L
216.264 344.851 L
218.264 346.304 L
220.736 346.304 L
222.736 344.851 L
223.5 342.5 L
S
GR
GS
[0.75 0 0 0.75 0 0] CT
0 0.447 0.741 RC
2 setlinecap
10.0 ML
N
227.5 360.5 M
226.736 358.149 L
224.736 356.696 L
222.264 356.696 L
220.264 358.149 L
219.5 360.5 L
220.264 362.851 L
222.264 364.304 L
224.736 364.304 L
226.736 362.851 L
227.5 360.5 L
S
GR
GS
[0.75 0 0 0.75 0 0] CT
0 0.447 0.741 RC
2 setlinecap
10.0 ML
N
230.5 370.5 M
229.736 368.149 L
227.736 366.696 L
225.264 366.696 L
223.264 368.149 L
222.5 370.5 L
223.264 372.851 L
225.264 374.304 L
227.736 374.304 L
229.736 372.851 L
230.5 370.5 L
S
GR
GS
[0.75 0 0 0.75 0 0] CT
0 0.447 0.741 RC
2 setlinecap
10.0 ML
N
234.5 347.5 M
233.736 345.149 L
231.736 343.696 L
229.264 343.696 L
227.264 345.149 L
226.5 347.5 L
227.264 349.851 L
229.264 351.304 L
231.736 351.304 L
233.736 349.851 L
234.5 347.5 L
S
GR
GS
[0.75 0 0 0.75 0 0] CT
0 0.447 0.741 RC
2 setlinecap
10.0 ML
N
238.5 353.5 M
237.736 351.149 L
235.736 349.696 L
233.264 349.696 L
231.264 351.149 L
230.5 353.5 L
231.264 355.851 L
233.264 357.304 L
235.736 357.304 L
237.736 355.851 L
238.5 353.5 L
S
GR
GS
[0.75 0 0 0.75 0 0] CT
0 0.447 0.741 RC
2 setlinecap
10.0 ML
N
242.5 348.5 M
241.736 346.149 L
239.736 344.696 L
237.264 344.696 L
235.264 346.149 L
234.5 348.5 L
235.264 350.851 L
237.264 352.304 L
239.736 352.304 L
241.736 350.851 L
242.5 348.5 L
S
GR
GS
[0.75 0 0 0.75 0 0] CT
0 0.447 0.741 RC
2 setlinecap
10.0 ML
N
246.5 361.5 M
245.736 359.149 L
243.736 357.696 L
241.264 357.696 L
239.264 359.149 L
238.5 361.5 L
239.264 363.851 L
241.264 365.304 L
243.736 365.304 L
245.736 363.851 L
246.5 361.5 L
S
GR
GS
[0.75 0 0 0.75 0 0] CT
0 0.447 0.741 RC
2 setlinecap
10.0 ML
N
249.5 321.5 M
248.736 319.149 L
246.736 317.696 L
244.264 317.696 L
242.264 319.149 L
241.5 321.5 L
242.264 323.851 L
244.264 325.304 L
246.736 325.304 L
248.736 323.851 L
249.5 321.5 L
S
GR
GS
[0.75 0 0 0.75 0 0] CT
0 0.447 0.741 RC
2 setlinecap
10.0 ML
N
253.5 352.5 M
252.736 350.149 L
250.736 348.696 L
248.264 348.696 L
246.264 350.149 L
245.5 352.5 L
246.264 354.851 L
248.264 356.304 L
250.736 356.304 L
252.736 354.851 L
253.5 352.5 L
S
GR
GS
[0.75 0 0 0.75 0 0] CT
0 0.447 0.741 RC
2 setlinecap
10.0 ML
N
257.5 361.5 M
256.736 359.149 L
254.736 357.696 L
252.264 357.696 L
250.264 359.149 L
249.5 361.5 L
250.264 363.851 L
252.264 365.304 L
254.736 365.304 L
256.736 363.851 L
257.5 361.5 L
S
GR
GS
[0.75 0 0 0.75 0 0] CT
0 0.447 0.741 RC
2 setlinecap
10.0 ML
N
261.5 344.5 M
260.736 342.149 L
258.736 340.696 L
256.264 340.696 L
254.264 342.149 L
253.5 344.5 L
254.264 346.851 L
256.264 348.304 L
258.736 348.304 L
260.736 346.851 L
261.5 344.5 L
S
GR
GS
[0.75 0 0 0.75 0 0] CT
0 0.447 0.741 RC
2 setlinecap
10.0 ML
N
264.5 342.5 M
263.736 340.149 L
261.736 338.696 L
259.264 338.696 L
257.264 340.149 L
256.5 342.5 L
257.264 344.851 L
259.264 346.304 L
261.736 346.304 L
263.736 344.851 L
264.5 342.5 L
S
GR
GS
[0.75 0 0 0.75 0 0] CT
0 0.447 0.741 RC
2 setlinecap
10.0 ML
N
268.5 358.5 M
267.736 356.149 L
265.736 354.696 L
263.264 354.696 L
261.264 356.149 L
260.5 358.5 L
261.264 360.851 L
263.264 362.304 L
265.736 362.304 L
267.736 360.851 L
268.5 358.5 L
S
GR
GS
[0.75 0 0 0.75 0 0] CT
0 0.447 0.741 RC
2 setlinecap
10.0 ML
N
272.5 340.5 M
271.736 338.149 L
269.736 336.696 L
267.264 336.696 L
265.264 338.149 L
264.5 340.5 L
265.264 342.851 L
267.264 344.304 L
269.736 344.304 L
271.736 342.851 L
272.5 340.5 L
S
GR
GS
[0.75 0 0 0.75 0 0] CT
0 0.447 0.741 RC
2 setlinecap
10.0 ML
N
276.5 344.5 M
275.736 342.149 L
273.736 340.696 L
271.264 340.696 L
269.264 342.149 L
268.5 344.5 L
269.264 346.851 L
271.264 348.304 L
273.736 348.304 L
275.736 346.851 L
276.5 344.5 L
S
GR
GS
[0.75 0 0 0.75 0 0] CT
0 0.447 0.741 RC
2 setlinecap
10.0 ML
N
280.5 359.5 M
279.736 357.149 L
277.736 355.696 L
275.264 355.696 L
273.264 357.149 L
272.5 359.5 L
273.264 361.851 L
275.264 363.304 L
277.736 363.304 L
279.736 361.851 L
280.5 359.5 L
S
GR
GS
[0.75 0 0 0.75 0 0] CT
0 0.447 0.741 RC
2 setlinecap
10.0 ML
N
283.5 347.5 M
282.736 345.149 L
280.736 343.696 L
278.264 343.696 L
276.264 345.149 L
275.5 347.5 L
276.264 349.851 L
278.264 351.304 L
280.736 351.304 L
282.736 349.851 L
283.5 347.5 L
S
GR
GS
[0.75 0 0 0.75 0 0] CT
0 0.447 0.741 RC
2 setlinecap
10.0 ML
N
287.5 362.5 M
286.736 360.149 L
284.736 358.696 L
282.264 358.696 L
280.264 360.149 L
279.5 362.5 L
280.264 364.851 L
282.264 366.304 L
284.736 366.304 L
286.736 364.851 L
287.5 362.5 L
S
GR
GS
[0.75 0 0 0.75 0 0] CT
0 0.447 0.741 RC
2 setlinecap
10.0 ML
N
291.5 360.5 M
290.736 358.149 L
288.736 356.696 L
286.264 356.696 L
284.264 358.149 L
283.5 360.5 L
284.264 362.851 L
286.264 364.304 L
288.736 364.304 L
290.736 362.851 L
291.5 360.5 L
S
GR
GS
[0.75 0 0 0.75 0 0] CT
0 0.447 0.741 RC
2 setlinecap
10.0 ML
N
295.5 361.5 M
294.736 359.149 L
292.736 357.696 L
290.264 357.696 L
288.264 359.149 L
287.5 361.5 L
288.264 363.851 L
290.264 365.304 L
292.736 365.304 L
294.736 363.851 L
295.5 361.5 L
S
GR
GS
[0.75 0 0 0.75 0 0] CT
0 0.447 0.741 RC
2 setlinecap
10.0 ML
N
298.5 357.5 M
297.736 355.149 L
295.736 353.696 L
293.264 353.696 L
291.264 355.149 L
290.5 357.5 L
291.264 359.851 L
293.264 361.304 L
295.736 361.304 L
297.736 359.851 L
298.5 357.5 L
S
GR
GS
[0.75 0 0 0.75 0 0] CT
0 0.447 0.741 RC
2 setlinecap
10.0 ML
N
302.5 369.5 M
301.736 367.149 L
299.736 365.696 L
297.264 365.696 L
295.264 367.149 L
294.5 369.5 L
295.264 371.851 L
297.264 373.304 L
299.736 373.304 L
301.736 371.851 L
302.5 369.5 L
S
GR
GS
[0.75 0 0 0.75 0 0] CT
0 0.447 0.741 RC
2 setlinecap
10.0 ML
N
306.5 370.5 M
305.736 368.149 L
303.736 366.696 L
301.264 366.696 L
299.264 368.149 L
298.5 370.5 L
299.264 372.851 L
301.264 374.304 L
303.736 374.304 L
305.736 372.851 L
306.5 370.5 L
S
GR
GS
[0.75 0 0 0.75 0 0] CT
0 0.447 0.741 RC
2 setlinecap
10.0 ML
N
310.5 359.5 M
309.736 357.149 L
307.736 355.696 L
305.264 355.696 L
303.264 357.149 L
302.5 359.5 L
303.264 361.851 L
305.264 363.304 L
307.736 363.304 L
309.736 361.851 L
310.5 359.5 L
S
GR
GS
[0.75 0 0 0.75 0 0] CT
0 0.447 0.741 RC
2 setlinecap
10.0 ML
N
314.5 364.5 M
313.736 362.149 L
311.736 360.696 L
309.264 360.696 L
307.264 362.149 L
306.5 364.5 L
307.264 366.851 L
309.264 368.304 L
311.736 368.304 L
313.736 366.851 L
314.5 364.5 L
S
GR
GS
[0.75 0 0 0.75 0 0] CT
0 0.447 0.741 RC
2 setlinecap
10.0 ML
N
317.5 366.5 M
316.736 364.149 L
314.736 362.696 L
312.264 362.696 L
310.264 364.149 L
309.5 366.5 L
310.264 368.851 L
312.264 370.304 L
314.736 370.304 L
316.736 368.851 L
317.5 366.5 L
S
GR
GS
[0.75 0 0 0.75 0 0] CT
0 0.447 0.741 RC
2 setlinecap
10.0 ML
N
321.5 351.5 M
320.736 349.149 L
318.736 347.696 L
316.264 347.696 L
314.264 349.149 L
313.5 351.5 L
314.264 353.851 L
316.264 355.304 L
318.736 355.304 L
320.736 353.851 L
321.5 351.5 L
S
GR
GS
[0.75 0 0 0.75 0 0] CT
0 0.447 0.741 RC
2 setlinecap
10.0 ML
N
325.5 348.5 M
324.736 346.149 L
322.736 344.696 L
320.264 344.696 L
318.264 346.149 L
317.5 348.5 L
318.264 350.851 L
320.264 352.304 L
322.736 352.304 L
324.736 350.851 L
325.5 348.5 L
S
GR
GS
[0.75 0 0 0.75 0 0] CT
0 0.447 0.741 RC
2 setlinecap
10.0 ML
N
329.5 354.5 M
328.736 352.149 L
326.736 350.696 L
324.264 350.696 L
322.264 352.149 L
321.5 354.5 L
322.264 356.851 L
324.264 358.304 L
326.736 358.304 L
328.736 356.851 L
329.5 354.5 L
S
GR
GS
[0.75 0 0 0.75 0 0] CT
0 0.447 0.741 RC
2 setlinecap
10.0 ML
N
332.5 359.5 M
331.736 357.149 L
329.736 355.696 L
327.264 355.696 L
325.264 357.149 L
324.5 359.5 L
325.264 361.851 L
327.264 363.304 L
329.736 363.304 L
331.736 361.851 L
332.5 359.5 L
S
GR
GS
[0.75 0 0 0.75 0 0] CT
0 0.447 0.741 RC
2 setlinecap
10.0 ML
N
336.5 341.5 M
335.736 339.149 L
333.736 337.696 L
331.264 337.696 L
329.264 339.149 L
328.5 341.5 L
329.264 343.851 L
331.264 345.304 L
333.736 345.304 L
335.736 343.851 L
336.5 341.5 L
S
GR
GS
[0.75 0 0 0.75 0 0] CT
0 0.447 0.741 RC
2 setlinecap
10.0 ML
N
340.5 342.5 M
339.736 340.149 L
337.736 338.696 L
335.264 338.696 L
333.264 340.149 L
332.5 342.5 L
333.264 344.851 L
335.264 346.304 L
337.736 346.304 L
339.736 344.851 L
340.5 342.5 L
S
GR
GS
[0.75 0 0 0.75 0 0] CT
0 0.447 0.741 RC
2 setlinecap
10.0 ML
N
344.5 355.5 M
343.736 353.149 L
341.736 351.696 L
339.264 351.696 L
337.264 353.149 L
336.5 355.5 L
337.264 357.851 L
339.264 359.304 L
341.736 359.304 L
343.736 357.851 L
344.5 355.5 L
S
GR
GS
[0.75 0 0 0.75 0 0] CT
0 0.447 0.741 RC
2 setlinecap
10.0 ML
N
348.5 352.5 M
347.736 350.149 L
345.736 348.696 L
343.264 348.696 L
341.264 350.149 L
340.5 352.5 L
341.264 354.851 L
343.264 356.304 L
345.736 356.304 L
347.736 354.851 L
348.5 352.5 L
S
GR
GS
[0.75 0 0 0.75 0 0] CT
0 0.447 0.741 RC
2 setlinecap
10.0 ML
N
351.5 358.5 M
350.736 356.149 L
348.736 354.696 L
346.264 354.696 L
344.264 356.149 L
343.5 358.5 L
344.264 360.851 L
346.264 362.304 L
348.736 362.304 L
350.736 360.851 L
351.5 358.5 L
S
GR
GS
[0.75 0 0 0.75 0 0] CT
0 0.447 0.741 RC
2 setlinecap
10.0 ML
N
355.5 369.5 M
354.736 367.149 L
352.736 365.696 L
350.264 365.696 L
348.264 367.149 L
347.5 369.5 L
348.264 371.851 L
350.264 373.304 L
352.736 373.304 L
354.736 371.851 L
355.5 369.5 L
S
GR
GS
[0.75 0 0 0.75 0 0] CT
0 0.447 0.741 RC
2 setlinecap
10.0 ML
N
359.5 366.5 M
358.736 364.149 L
356.736 362.696 L
354.264 362.696 L
352.264 364.149 L
351.5 366.5 L
352.264 368.851 L
354.264 370.304 L
356.736 370.304 L
358.736 368.851 L
359.5 366.5 L
S
GR
GS
[0.75 0 0 0.75 0 0] CT
0 0.447 0.741 RC
2 setlinecap
10.0 ML
N
363.5 368.5 M
362.736 366.149 L
360.736 364.696 L
358.264 364.696 L
356.264 366.149 L
355.5 368.5 L
356.264 370.851 L
358.264 372.304 L
360.736 372.304 L
362.736 370.851 L
363.5 368.5 L
S
GR
GS
[0.75 0 0 0.75 0 0] CT
0 0.447 0.741 RC
2 setlinecap
10.0 ML
N
366.5 366.5 M
365.736 364.149 L
363.736 362.696 L
361.264 362.696 L
359.264 364.149 L
358.5 366.5 L
359.264 368.851 L
361.264 370.304 L
363.736 370.304 L
365.736 368.851 L
366.5 366.5 L
S
GR
GS
[0.75 0 0 0.75 0 0] CT
0 0.447 0.741 RC
2 setlinecap
10.0 ML
N
370.5 365.5 M
369.736 363.149 L
367.736 361.696 L
365.264 361.696 L
363.264 363.149 L
362.5 365.5 L
363.264 367.851 L
365.264 369.304 L
367.736 369.304 L
369.736 367.851 L
370.5 365.5 L
S
GR
GS
[0.75 0 0 0.75 0 0] CT
0 0.447 0.741 RC
2 setlinecap
10.0 ML
N
374.5 364.5 M
373.736 362.149 L
371.736 360.696 L
369.264 360.696 L
367.264 362.149 L
366.5 364.5 L
367.264 366.851 L
369.264 368.304 L
371.736 368.304 L
373.736 366.851 L
374.5 364.5 L
S
GR
GS
[0.75 0 0 0.75 0 0] CT
0 0.447 0.741 RC
2 setlinecap
10.0 ML
N
378.5 368.5 M
377.736 366.149 L
375.736 364.696 L
373.264 364.696 L
371.264 366.149 L
370.5 368.5 L
371.264 370.851 L
373.264 372.304 L
375.736 372.304 L
377.736 370.851 L
378.5 368.5 L
S
GR
GS
[0.75 0 0 0.75 0 0] CT
0 0.447 0.741 RC
2 setlinecap
10.0 ML
N
382.5 366.5 M
381.736 364.149 L
379.736 362.696 L
377.264 362.696 L
375.264 364.149 L
374.5 366.5 L
375.264 368.851 L
377.264 370.304 L
379.736 370.304 L
381.736 368.851 L
382.5 366.5 L
S
GR
GS
[0.75 0 0 0.75 0 0] CT
0 0.447 0.741 RC
2 setlinecap
10.0 ML
N
385.5 365.5 M
384.736 363.149 L
382.736 361.696 L
380.264 361.696 L
378.264 363.149 L
377.5 365.5 L
378.264 367.851 L
380.264 369.304 L
382.736 369.304 L
384.736 367.851 L
385.5 365.5 L
S
GR
GS
[0.75 0 0 0.75 0 0] CT
0 0.447 0.741 RC
2 setlinecap
10.0 ML
N
389.5 371.5 M
388.736 369.149 L
386.736 367.696 L
384.264 367.696 L
382.264 369.149 L
381.5 371.5 L
382.264 373.851 L
384.264 375.304 L
386.736 375.304 L
388.736 373.851 L
389.5 371.5 L
S
GR
GS
[0.75 0 0 0.75 0 0] CT
0 0.447 0.741 RC
2 setlinecap
10.0 ML
N
393.5 368.5 M
392.736 366.149 L
390.736 364.696 L
388.264 364.696 L
386.264 366.149 L
385.5 368.5 L
386.264 370.851 L
388.264 372.304 L
390.736 372.304 L
392.736 370.851 L
393.5 368.5 L
S
GR
GS
[0.75 0 0 0.75 0 0] CT
0 0.447 0.741 RC
2 setlinecap
10.0 ML
N
397.5 367.5 M
396.736 365.149 L
394.736 363.696 L
392.264 363.696 L
390.264 365.149 L
389.5 367.5 L
390.264 369.851 L
392.264 371.304 L
394.736 371.304 L
396.736 369.851 L
397.5 367.5 L
S
GR
GS
[0.75 0 0 0.75 0 0] CT
0 0.447 0.741 RC
2 setlinecap
10.0 ML
N
400.5 365.5 M
399.736 363.149 L
397.736 361.696 L
395.264 361.696 L
393.264 363.149 L
392.5 365.5 L
393.264 367.851 L
395.264 369.304 L
397.736 369.304 L
399.736 367.851 L
400.5 365.5 L
S
GR
GS
[0.75 0 0 0.75 0 0] CT
0 0.447 0.741 RC
2 setlinecap
10.0 ML
N
404.5 365.5 M
403.736 363.149 L
401.736 361.696 L
399.264 361.696 L
397.264 363.149 L
396.5 365.5 L
397.264 367.851 L
399.264 369.304 L
401.736 369.304 L
403.736 367.851 L
404.5 365.5 L
S
GR
GS
[0.75 0 0 0.75 0 0] CT
0 0.447 0.741 RC
2 setlinecap
10.0 ML
N
408.5 368.5 M
407.736 366.149 L
405.736 364.696 L
403.264 364.696 L
401.264 366.149 L
400.5 368.5 L
401.264 370.851 L
403.264 372.304 L
405.736 372.304 L
407.736 370.851 L
408.5 368.5 L
S
GR
GS
[0.75 0 0 0.75 0 0] CT
0 0.447 0.741 RC
2 setlinecap
10.0 ML
N
412.5 369.5 M
411.736 367.149 L
409.736 365.696 L
407.264 365.696 L
405.264 367.149 L
404.5 369.5 L
405.264 371.851 L
407.264 373.304 L
409.736 373.304 L
411.736 371.851 L
412.5 369.5 L
S
GR
GS
[0.75 0 0 0.75 0 0] CT
0 0.447 0.741 RC
2 setlinecap
10.0 ML
N
416.5 372.5 M
415.736 370.149 L
413.736 368.696 L
411.264 368.696 L
409.264 370.149 L
408.5 372.5 L
409.264 374.851 L
411.264 376.304 L
413.736 376.304 L
415.736 374.851 L
416.5 372.5 L
S
GR
GS
[0.75 0 0 0.75 0 0] CT
0 0.447 0.741 RC
2 setlinecap
10.0 ML
N
419.5 367.5 M
418.736 365.149 L
416.736 363.696 L
414.264 363.696 L
412.264 365.149 L
411.5 367.5 L
412.264 369.851 L
414.264 371.304 L
416.736 371.304 L
418.736 369.851 L
419.5 367.5 L
S
GR
GS
[0.75 0 0 0.75 0 0] CT
0 0.447 0.741 RC
2 setlinecap
10.0 ML
N
423.5 368.5 M
422.736 366.149 L
420.736 364.696 L
418.264 364.696 L
416.264 366.149 L
415.5 368.5 L
416.264 370.851 L
418.264 372.304 L
420.736 372.304 L
422.736 370.851 L
423.5 368.5 L
S
GR
GS
[0.75 0 0 0.75 0 0] CT
0 0.447 0.741 RC
2 setlinecap
10.0 ML
N
427.5 371.5 M
426.736 369.149 L
424.736 367.696 L
422.264 367.696 L
420.264 369.149 L
419.5 371.5 L
420.264 373.851 L
422.264 375.304 L
424.736 375.304 L
426.736 373.851 L
427.5 371.5 L
S
GR
GS
[0.75 0 0 0.75 0 0] CT
0 0.447 0.741 RC
2 setlinecap
10.0 ML
N
431.5 369.5 M
430.736 367.149 L
428.736 365.696 L
426.264 365.696 L
424.264 367.149 L
423.5 369.5 L
424.264 371.851 L
426.264 373.304 L
428.736 373.304 L
430.736 371.851 L
431.5 369.5 L
S
GR
GS
[0.75 0 0 0.75 0 0] CT
0 0.447 0.741 RC
2 setlinecap
10.0 ML
N
434.5 368.5 M
433.736 366.149 L
431.736 364.696 L
429.264 364.696 L
427.264 366.149 L
426.5 368.5 L
427.264 370.851 L
429.264 372.304 L
431.736 372.304 L
433.736 370.851 L
434.5 368.5 L
S
GR
GS
[0.75 0 0 0.75 0 0] CT
0 0.447 0.741 RC
2 setlinecap
10.0 ML
N
438.5 369.5 M
437.736 367.149 L
435.736 365.696 L
433.264 365.696 L
431.264 367.149 L
430.5 369.5 L
431.264 371.851 L
433.264 373.304 L
435.736 373.304 L
437.736 371.851 L
438.5 369.5 L
S
GR
GS
[0.75 0 0 0.75 0 0] CT
0 0.447 0.741 RC
2 setlinecap
10.0 ML
N
442.5 366.5 M
441.736 364.149 L
439.736 362.696 L
437.264 362.696 L
435.264 364.149 L
434.5 366.5 L
435.264 368.851 L
437.264 370.304 L
439.736 370.304 L
441.736 368.851 L
442.5 366.5 L
S
GR
GS
[0.75 0 0 0.75 0 0] CT
0 0.447 0.741 RC
2 setlinecap
10.0 ML
N
446.5 360.5 M
445.736 358.149 L
443.736 356.696 L
441.264 356.696 L
439.264 358.149 L
438.5 360.5 L
439.264 362.851 L
441.264 364.304 L
443.736 364.304 L
445.736 362.851 L
446.5 360.5 L
S
GR
GS
[0.75 0 0 0.75 0 0] CT
0 0.447 0.741 RC
2 setlinecap
10.0 ML
N
450.5 367.5 M
449.736 365.149 L
447.736 363.696 L
445.264 363.696 L
443.264 365.149 L
442.5 367.5 L
443.264 369.851 L
445.264 371.304 L
447.736 371.304 L
449.736 369.851 L
450.5 367.5 L
S
GR
GS
[0.75 0 0 0.75 0 0] CT
0 0.447 0.741 RC
2 setlinecap
10.0 ML
N
453.5 367.5 M
452.736 365.149 L
450.736 363.696 L
448.264 363.696 L
446.264 365.149 L
445.5 367.5 L
446.264 369.851 L
448.264 371.304 L
450.736 371.304 L
452.736 369.851 L
453.5 367.5 L
S
GR
GS
[0.75 0 0 0.75 0 0] CT
0 0.447 0.741 RC
2 setlinecap
10.0 ML
N
457.5 364.5 M
456.736 362.149 L
454.736 360.696 L
452.264 360.696 L
450.264 362.149 L
449.5 364.5 L
450.264 366.851 L
452.264 368.304 L
454.736 368.304 L
456.736 366.851 L
457.5 364.5 L
S
GR
GS
[0.75 0 0 0.75 0 0] CT
0 0.447 0.741 RC
2 setlinecap
10.0 ML
N
461.5 370.5 M
460.736 368.149 L
458.736 366.696 L
456.264 366.696 L
454.264 368.149 L
453.5 370.5 L
454.264 372.851 L
456.264 374.304 L
458.736 374.304 L
460.736 372.851 L
461.5 370.5 L
S
GR
GS
[0.75 0 0 0.75 0 0] CT
0 0.447 0.741 RC
2 setlinecap
10.0 ML
N
465.5 368.5 M
464.736 366.149 L
462.736 364.696 L
460.264 364.696 L
458.264 366.149 L
457.5 368.5 L
458.264 370.851 L
460.264 372.304 L
462.736 372.304 L
464.736 370.851 L
465.5 368.5 L
S
GR
GS
[0.75 0 0 0.75 0 0] CT
0 0.447 0.741 RC
2 setlinecap
10.0 ML
N
468.5 367.5 M
467.736 365.149 L
465.736 363.696 L
463.264 363.696 L
461.264 365.149 L
460.5 367.5 L
461.264 369.851 L
463.264 371.304 L
465.736 371.304 L
467.736 369.851 L
468.5 367.5 L
S
GR
GS
[0.75 0 0 0.75 0 0] CT
0 0.447 0.741 RC
2 setlinecap
10.0 ML
N
472.5 372.5 M
471.736 370.149 L
469.736 368.696 L
467.264 368.696 L
465.264 370.149 L
464.5 372.5 L
465.264 374.851 L
467.264 376.304 L
469.736 376.304 L
471.736 374.851 L
472.5 372.5 L
S
GR
GS
[0.75 0 0 0.75 0 0] CT
0 0.447 0.741 RC
2 setlinecap
10.0 ML
N
476.5 367.5 M
475.736 365.149 L
473.736 363.696 L
471.264 363.696 L
469.264 365.149 L
468.5 367.5 L
469.264 369.851 L
471.264 371.304 L
473.736 371.304 L
475.736 369.851 L
476.5 367.5 L
S
GR
GS
[0.75 0 0 0.75 0 0] CT
0 0.447 0.741 RC
2 setlinecap
10.0 ML
N
480.5 369.5 M
479.736 367.149 L
477.736 365.696 L
475.264 365.696 L
473.264 367.149 L
472.5 369.5 L
473.264 371.851 L
475.264 373.304 L
477.736 373.304 L
479.736 371.851 L
480.5 369.5 L
S
GR
GS
[0.75 0 0 0.75 0 0] CT
0 0.447 0.741 RC
2 setlinecap
10.0 ML
N
484.5 372.5 M
483.736 370.149 L
481.736 368.696 L
479.264 368.696 L
477.264 370.149 L
476.5 372.5 L
477.264 374.851 L
479.264 376.304 L
481.736 376.304 L
483.736 374.851 L
484.5 372.5 L
S
GR
GS
[0.75 0 0 0.75 0 0] CT
0 0.447 0.741 RC
2 setlinecap
10.0 ML
N
487.5 373.5 M
486.736 371.149 L
484.736 369.696 L
482.264 369.696 L
480.264 371.149 L
479.5 373.5 L
480.264 375.851 L
482.264 377.304 L
484.736 377.304 L
486.736 375.851 L
487.5 373.5 L
S
GR
GS
[0.75 0 0 0.75 0 0] CT
0 0.447 0.741 RC
2 setlinecap
10.0 ML
N
491.5 372.5 M
490.736 370.149 L
488.736 368.696 L
486.264 368.696 L
484.264 370.149 L
483.5 372.5 L
484.264 374.851 L
486.264 376.304 L
488.736 376.304 L
490.736 374.851 L
491.5 372.5 L
S
GR
GS
[0.75 0 0 0.75 0 0] CT
0 0.447 0.741 RC
2 setlinecap
10.0 ML
N
495.5 369.5 M
494.736 367.149 L
492.736 365.696 L
490.264 365.696 L
488.264 367.149 L
487.5 369.5 L
488.264 371.851 L
490.264 373.304 L
492.736 373.304 L
494.736 371.851 L
495.5 369.5 L
S
GR
GS
[0.75 0 0 0.75 0 0] CT
0 0.447 0.741 RC
2 setlinecap
10.0 ML
N
499.5 371.5 M
498.736 369.149 L
496.736 367.696 L
494.264 367.696 L
492.264 369.149 L
491.5 371.5 L
492.264 373.851 L
494.264 375.304 L
496.736 375.304 L
498.736 373.851 L
499.5 371.5 L
S
GR
GS
[0.75 0 0 0.75 0 0] CT
0 0.447 0.741 RC
2 setlinecap
10.0 ML
N
502.5 371.5 M
501.736 369.149 L
499.736 367.696 L
497.264 367.696 L
495.264 369.149 L
494.5 371.5 L
495.264 373.851 L
497.264 375.304 L
499.736 375.304 L
501.736 373.851 L
502.5 371.5 L
S
GR
GS
[0.75 0 0 0.75 0 0] CT
0 0.447 0.741 RC
2 setlinecap
10.0 ML
N
506.5 371.5 M
505.736 369.149 L
503.736 367.696 L
501.264 367.696 L
499.264 369.149 L
498.5 371.5 L
499.264 373.851 L
501.264 375.304 L
503.736 375.304 L
505.736 373.851 L
506.5 371.5 L
S
GR
GS
[0.75 0 0 0.75 0 0] CT
0 0.447 0.741 RC
2 setlinecap
10.0 ML
N
510.5 372.5 M
509.736 370.149 L
507.736 368.696 L
505.264 368.696 L
503.264 370.149 L
502.5 372.5 L
503.264 374.851 L
505.264 376.304 L
507.736 376.304 L
509.736 374.851 L
510.5 372.5 L
S
GR
GS
[0.75 0 0 0.75 0 0] CT
0 0.447 0.741 RC
2 setlinecap
10.0 ML
N
75.834 374 M
75.834 36.386 L
S
GR
GS
[0.75 0 0 0.75 0 0] CT
0 0.447 0.741 RC
2 setlinecap
10.0 ML
N
79.612 374 M
79.612 91.219 L
S
GR
GS
[0.75 0 0 0.75 0 0] CT
0 0.447 0.741 RC
2 setlinecap
10.0 ML
N
83.39 374 M
83.39 218.301 L
S
GR
GS
[0.75 0 0 0.75 0 0] CT
0 0.447 0.741 RC
2 setlinecap
10.0 ML
N
87.168 374 M
87.168 182.423 L
S
GR
GS
[0.75 0 0 0.75 0 0] CT
0 0.447 0.741 RC
2 setlinecap
10.0 ML
N
90.946 374 M
90.946 239.595 L
S
GR
GS
[0.75 0 0 0.75 0 0] CT
0 0.447 0.741 RC
2 setlinecap
10.0 ML
N
94.724 374 M
94.724 319.518 L
S
GR
GS
[0.75 0 0 0.75 0 0] CT
0 0.447 0.741 RC
2 setlinecap
10.0 ML
N
98.502 374 M
98.502 274.846 L
S
GR
GS
[0.75 0 0 0.75 0 0] CT
0 0.447 0.741 RC
2 setlinecap
10.0 ML
N
102.28 374 M
102.28 307.934 L
S
GR
GS
[0.75 0 0 0.75 0 0] CT
0 0.447 0.741 RC
2 setlinecap
10.0 ML
N
106.058 374 M
106.058 324.041 L
S
GR
GS
[0.75 0 0 0.75 0 0] CT
0 0.447 0.741 RC
2 setlinecap
10.0 ML
N
109.836 374 M
109.836 312.883 L
S
GR
GS
[0.75 0 0 0.75 0 0] CT
0 0.447 0.741 RC
2 setlinecap
10.0 ML
N
113.614 374 M
113.614 274.914 L
S
GR
GS
[0.75 0 0 0.75 0 0] CT
0 0.447 0.741 RC
2 setlinecap
10.0 ML
N
117.392 374 M
117.392 341.21 L
S
GR
GS
[0.75 0 0 0.75 0 0] CT
0 0.447 0.741 RC
2 setlinecap
10.0 ML
N
121.17 374 M
121.17 288.393 L
S
GR
GS
[0.75 0 0 0.75 0 0] CT
0 0.447 0.741 RC
2 setlinecap
10.0 ML
N
124.948 374 M
124.948 304.979 L
S
GR
GS
[0.75 0 0 0.75 0 0] CT
0 0.447 0.741 RC
2 setlinecap
10.0 ML
N
128.726 374 M
128.726 339.589 L
S
GR
GS
[0.75 0 0 0.75 0 0] CT
0 0.447 0.741 RC
2 setlinecap
10.0 ML
N
132.504 374 M
132.504 287.083 L
S
GR
GS
[0.75 0 0 0.75 0 0] CT
0 0.447 0.741 RC
2 setlinecap
10.0 ML
N
136.282 374 M
136.282 341.492 L
S
GR
GS
[0.75 0 0 0.75 0 0] CT
0 0.447 0.741 RC
2 setlinecap
10.0 ML
N
140.06 374 M
140.06 326.404 L
S
GR
GS
[0.75 0 0 0.75 0 0] CT
0 0.447 0.741 RC
2 setlinecap
10.0 ML
N
143.838 374 M
143.838 333.422 L
S
GR
GS
[0.75 0 0 0.75 0 0] CT
0 0.447 0.741 RC
2 setlinecap
10.0 ML
N
147.616 374 M
147.616 353.17 L
S
GR
GS
[0.75 0 0 0.75 0 0] CT
0 0.447 0.741 RC
2 setlinecap
10.0 ML
N
151.394 374 M
151.394 332.543 L
S
GR
GS
[0.75 0 0 0.75 0 0] CT
0 0.447 0.741 RC
2 setlinecap
10.0 ML
N
155.172 374 M
155.172 310.811 L
S
GR
GS
[0.75 0 0 0.75 0 0] CT
0 0.447 0.741 RC
2 setlinecap
10.0 ML
N
158.95 374 M
158.95 352.714 L
S
GR
GS
[0.75 0 0 0.75 0 0] CT
0 0.447 0.741 RC
2 setlinecap
10.0 ML
N
162.728 374 M
162.728 340.879 L
S
GR
GS
[0.75 0 0 0.75 0 0] CT
0 0.447 0.741 RC
2 setlinecap
10.0 ML
N
166.506 374 M
166.506 338.805 L
S
GR
GS
[0.75 0 0 0.75 0 0] CT
0 0.447 0.741 RC
2 setlinecap
10.0 ML
N
170.284 374 M
170.284 342.944 L
S
GR
GS
[0.75 0 0 0.75 0 0] CT
0 0.447 0.741 RC
2 setlinecap
10.0 ML
N
174.062 374 M
174.062 312.641 L
S
GR
GS
[0.75 0 0 0.75 0 0] CT
0 0.447 0.741 RC
2 setlinecap
10.0 ML
N
177.84 374 M
177.84 369.275 L
S
GR
GS
[0.75 0 0 0.75 0 0] CT
0 0.447 0.741 RC
2 setlinecap
10.0 ML
N
181.618 374 M
181.618 352.992 L
S
GR
GS
[0.75 0 0 0.75 0 0] CT
0 0.447 0.741 RC
2 setlinecap
10.0 ML
N
185.396 374 M
185.396 328.196 L
S
GR
GS
[0.75 0 0 0.75 0 0] CT
0 0.447 0.741 RC
2 setlinecap
10.0 ML
N
189.174 374 M
189.174 336.624 L
S
GR
GS
[0.75 0 0 0.75 0 0] CT
0 0.447 0.741 RC
2 setlinecap
10.0 ML
N
192.952 374 M
192.952 326.185 L
S
GR
GS
[0.75 0 0 0.75 0 0] CT
0 0.447 0.741 RC
2 setlinecap
10.0 ML
N
196.73 374 M
196.73 320.405 L
S
GR
GS
[0.75 0 0 0.75 0 0] CT
0 0.447 0.741 RC
2 setlinecap
10.0 ML
N
200.508 374 M
200.508 340.905 L
S
GR
GS
[0.75 0 0 0.75 0 0] CT
0 0.447 0.741 RC
2 setlinecap
10.0 ML
N
204.286 374 M
204.286 316.405 L
S
GR
GS
[0.75 0 0 0.75 0 0] CT
0 0.447 0.741 RC
2 setlinecap
10.0 ML
N
208.064 374 M
208.064 337.608 L
S
GR
GS
[0.75 0 0 0.75 0 0] CT
0 0.447 0.741 RC
2 setlinecap
10.0 ML
N
211.842 374 M
211.842 365.407 L
S
GR
GS
[0.75 0 0 0.75 0 0] CT
0 0.447 0.741 RC
2 setlinecap
10.0 ML
N
215.62 374 M
215.62 361.055 L
S
GR
GS
[0.75 0 0 0.75 0 0] CT
0 0.447 0.741 RC
2 setlinecap
10.0 ML
N
219.398 374 M
219.398 342.065 L
S
GR
GS
[0.75 0 0 0.75 0 0] CT
0 0.447 0.741 RC
2 setlinecap
10.0 ML
N
223.176 374 M
223.176 360.919 L
S
GR
GS
[0.75 0 0 0.75 0 0] CT
0 0.447 0.741 RC
2 setlinecap
10.0 ML
N
226.954 374 M
226.954 370.896 L
S
GR
GS
[0.75 0 0 0.75 0 0] CT
0 0.447 0.741 RC
2 setlinecap
10.0 ML
N
230.732 374 M
230.732 347.746 L
S
GR
GS
[0.75 0 0 0.75 0 0] CT
0 0.447 0.741 RC
2 setlinecap
10.0 ML
N
234.51 374 M
234.51 353.76 L
S
GR
GS
[0.75 0 0 0.75 0 0] CT
0 0.447 0.741 RC
2 setlinecap
10.0 ML
N
238.288 374 M
238.288 348.872 L
S
GR
GS
[0.75 0 0 0.75 0 0] CT
0 0.447 0.741 RC
2 setlinecap
10.0 ML
N
242.066 374 M
242.066 361.076 L
S
GR
GS
[0.75 0 0 0.75 0 0] CT
0 0.447 0.741 RC
2 setlinecap
10.0 ML
N
245.844 374 M
245.844 321.979 L
S
GR
GS
[0.75 0 0 0.75 0 0] CT
0 0.447 0.741 RC
2 setlinecap
10.0 ML
N
249.622 374 M
249.622 352.95 L
S
GR
GS
[0.75 0 0 0.75 0 0] CT
0 0.447 0.741 RC
2 setlinecap
10.0 ML
N
253.4 374 M
253.4 361.985 L
S
GR
GS
[0.75 0 0 0.75 0 0] CT
0 0.447 0.741 RC
2 setlinecap
10.0 ML
N
257.178 374 M
257.178 344.771 L
S
GR
GS
[0.75 0 0 0.75 0 0] CT
0 0.447 0.741 RC
2 setlinecap
10.0 ML
N
260.956 374 M
260.956 342.765 L
S
GR
GS
[0.75 0 0 0.75 0 0] CT
0 0.447 0.741 RC
2 setlinecap
10.0 ML
N
264.734 374 M
264.734 358.72 L
S
GR
GS
[0.75 0 0 0.75 0 0] CT
0 0.447 0.741 RC
2 setlinecap
10.0 ML
N
268.513 374 M
268.513 340.752 L
S
GR
GS
[0.75 0 0 0.75 0 0] CT
0 0.447 0.741 RC
2 setlinecap
10.0 ML
N
272.291 374 M
272.291 344.506 L
S
GR
GS
[0.75 0 0 0.75 0 0] CT
0 0.447 0.741 RC
2 setlinecap
10.0 ML
N
276.069 374 M
276.069 359.776 L
S
GR
GS
[0.75 0 0 0.75 0 0] CT
0 0.447 0.741 RC
2 setlinecap
10.0 ML
N
279.847 374 M
279.847 347.813 L
S
GR
GS
[0.75 0 0 0.75 0 0] CT
0 0.447 0.741 RC
2 setlinecap
10.0 ML
N
283.625 374 M
283.625 362.875 L
S
GR
GS
[0.75 0 0 0.75 0 0] CT
0 0.447 0.741 RC
2 setlinecap
10.0 ML
N
287.403 374 M
287.403 360.806 L
S
GR
GS
[0.75 0 0 0.75 0 0] CT
0 0.447 0.741 RC
2 setlinecap
10.0 ML
N
291.181 374 M
291.181 361.512 L
S
GR
GS
[0.75 0 0 0.75 0 0] CT
0 0.447 0.741 RC
2 setlinecap
10.0 ML
N
294.959 374 M
294.959 357.344 L
S
GR
GS
[0.75 0 0 0.75 0 0] CT
0 0.447 0.741 RC
2 setlinecap
10.0 ML
N
298.737 374 M
298.737 369.666 L
S
GR
GS
[0.75 0 0 0.75 0 0] CT
0 0.447 0.741 RC
2 setlinecap
10.0 ML
N
302.515 374 M
302.515 370.329 L
S
GR
GS
[0.75 0 0 0.75 0 0] CT
0 0.447 0.741 RC
2 setlinecap
10.0 ML
N
306.293 374 M
306.293 359.764 L
S
GR
GS
[0.75 0 0 0.75 0 0] CT
0 0.447 0.741 RC
2 setlinecap
10.0 ML
N
310.071 374 M
310.071 364.674 L
S
GR
GS
[0.75 0 0 0.75 0 0] CT
0 0.447 0.741 RC
2 setlinecap
10.0 ML
N
313.849 374 M
313.849 366.876 L
S
GR
GS
[0.75 0 0 0.75 0 0] CT
0 0.447 0.741 RC
2 setlinecap
10.0 ML
N
317.627 374 M
317.627 351.03 L
S
GR
GS
[0.75 0 0 0.75 0 0] CT
0 0.447 0.741 RC
2 setlinecap
10.0 ML
N
321.405 374 M
321.405 348.387 L
S
GR
GS
[0.75 0 0 0.75 0 0] CT
0 0.447 0.741 RC
2 setlinecap
10.0 ML
N
325.183 374 M
325.183 354.15 L
S
GR
GS
[0.75 0 0 0.75 0 0] CT
0 0.447 0.741 RC
2 setlinecap
10.0 ML
N
328.961 374 M
328.961 359.45 L
S
GR
GS
[0.75 0 0 0.75 0 0] CT
0 0.447 0.741 RC
2 setlinecap
10.0 ML
N
332.739 374 M
332.739 341.125 L
S
GR
GS
[0.75 0 0 0.75 0 0] CT
0 0.447 0.741 RC
2 setlinecap
10.0 ML
N
336.517 374 M
336.517 342.725 L
S
GR
GS
[0.75 0 0 0.75 0 0] CT
0 0.447 0.741 RC
2 setlinecap
10.0 ML
N
340.295 374 M
340.295 355.538 L
S
GR
GS
[0.75 0 0 0.75 0 0] CT
0 0.447 0.741 RC
2 setlinecap
10.0 ML
N
344.073 374 M
344.073 352.626 L
S
GR
GS
[0.75 0 0 0.75 0 0] CT
0 0.447 0.741 RC
2 setlinecap
10.0 ML
N
347.851 374 M
347.851 358.977 L
S
GR
GS
[0.75 0 0 0.75 0 0] CT
0 0.447 0.741 RC
2 setlinecap
10.0 ML
N
351.629 374 M
351.629 369.314 L
S
GR
GS
[0.75 0 0 0.75 0 0] CT
0 0.447 0.741 RC
2 setlinecap
10.0 ML
N
355.407 374 M
355.407 366.813 L
S
GR
GS
[0.75 0 0 0.75 0 0] CT
0 0.447 0.741 RC
2 setlinecap
10.0 ML
N
359.185 374 M
359.185 368.975 L
S
GR
GS
[0.75 0 0 0.75 0 0] CT
0 0.447 0.741 RC
2 setlinecap
10.0 ML
N
362.963 374 M
362.963 366.46 L
S
GR
GS
[0.75 0 0 0.75 0 0] CT
0 0.447 0.741 RC
2 setlinecap
10.0 ML
N
366.741 374 M
366.741 365.602 L
S
GR
GS
[0.75 0 0 0.75 0 0] CT
0 0.447 0.741 RC
2 setlinecap
10.0 ML
N
370.519 374 M
370.519 364.719 L
S
GR
GS
[0.75 0 0 0.75 0 0] CT
0 0.447 0.741 RC
2 setlinecap
10.0 ML
N
374.297 374 M
374.297 368.647 L
S
GR
GS
[0.75 0 0 0.75 0 0] CT
0 0.447 0.741 RC
2 setlinecap
10.0 ML
N
378.075 374 M
378.075 366.56 L
S
GR
GS
[0.75 0 0 0.75 0 0] CT
0 0.447 0.741 RC
2 setlinecap
10.0 ML
N
381.853 374 M
381.853 365.802 L
S
GR
GS
[0.75 0 0 0.75 0 0] CT
0 0.447 0.741 RC
2 setlinecap
10.0 ML
N
385.631 374 M
385.631 371.525 L
S
GR
GS
[0.75 0 0 0.75 0 0] CT
0 0.447 0.741 RC
2 setlinecap
10.0 ML
N
389.409 374 M
389.409 368.597 L
S
GR
GS
[0.75 0 0 0.75 0 0] CT
0 0.447 0.741 RC
2 setlinecap
10.0 ML
N
393.187 374 M
393.187 367.947 L
S
GR
GS
[0.75 0 0 0.75 0 0] CT
0 0.447 0.741 RC
2 setlinecap
10.0 ML
N
396.965 374 M
396.965 365.404 L
S
GR
GS
[0.75 0 0 0.75 0 0] CT
0 0.447 0.741 RC
2 setlinecap
10.0 ML
N
400.743 374 M
400.743 365.343 L
S
GR
GS
[0.75 0 0 0.75 0 0] CT
0 0.447 0.741 RC
2 setlinecap
10.0 ML
N
404.521 374 M
404.521 368.649 L
S
GR
GS
[0.75 0 0 0.75 0 0] CT
0 0.447 0.741 RC
2 setlinecap
10.0 ML
N
408.299 374 M
408.299 369.416 L
S
GR
GS
[0.75 0 0 0.75 0 0] CT
0 0.447 0.741 RC
2 setlinecap
10.0 ML
N
412.077 374 M
412.077 372.252 L
S
GR
GS
[0.75 0 0 0.75 0 0] CT
0 0.447 0.741 RC
2 setlinecap
10.0 ML
N
415.855 374 M
415.855 367.916 L
S
GR
GS
[0.75 0 0 0.75 0 0] CT
0 0.447 0.741 RC
2 setlinecap
10.0 ML
N
419.633 374 M
419.633 368.489 L
S
GR
GS
[0.75 0 0 0.75 0 0] CT
0 0.447 0.741 RC
2 setlinecap
10.0 ML
N
423.411 374 M
423.411 371.182 L
S
GR
GS
[0.75 0 0 0.75 0 0] CT
0 0.447 0.741 RC
2 setlinecap
10.0 ML
N
427.189 374 M
427.189 369.45 L
S
GR
GS
[0.75 0 0 0.75 0 0] CT
0 0.447 0.741 RC
2 setlinecap
10.0 ML
N
430.967 374 M
430.967 368.9 L
S
GR
GS
[0.75 0 0 0.75 0 0] CT
0 0.447 0.741 RC
2 setlinecap
10.0 ML
N
434.745 374 M
434.745 369.667 L
S
GR
GS
[0.75 0 0 0.75 0 0] CT
0 0.447 0.741 RC
2 setlinecap
10.0 ML
N
438.523 374 M
438.523 366.808 L
S
GR
GS
[0.75 0 0 0.75 0 0] CT
0 0.447 0.741 RC
2 setlinecap
10.0 ML
N
442.301 374 M
442.301 360.652 L
S
GR
GS
[0.75 0 0 0.75 0 0] CT
0 0.447 0.741 RC
2 setlinecap
10.0 ML
N
446.079 374 M
446.079 367.816 L
S
GR
GS
[0.75 0 0 0.75 0 0] CT
0 0.447 0.741 RC
2 setlinecap
10.0 ML
N
449.857 374 M
449.857 367.306 L
S
GR
GS
[0.75 0 0 0.75 0 0] CT
0 0.447 0.741 RC
2 setlinecap
10.0 ML
N
453.635 374 M
453.635 364.103 L
S
GR
GS
[0.75 0 0 0.75 0 0] CT
0 0.447 0.741 RC
2 setlinecap
10.0 ML
N
457.414 374 M
457.414 370.299 L
S
GR
GS
[0.75 0 0 0.75 0 0] CT
0 0.447 0.741 RC
2 setlinecap
10.0 ML
N
461.191 374 M
461.191 368.941 L
S
GR
GS
[0.75 0 0 0.75 0 0] CT
0 0.447 0.741 RC
2 setlinecap
10.0 ML
N
464.97 374 M
464.97 367.154 L
S
GR
GS
[0.75 0 0 0.75 0 0] CT
0 0.447 0.741 RC
2 setlinecap
10.0 ML
N
468.748 374 M
468.748 372.141 L
S
GR
GS
[0.75 0 0 0.75 0 0] CT
0 0.447 0.741 RC
2 setlinecap
10.0 ML
N
472.526 374 M
472.526 367.632 L
S
GR
GS
[0.75 0 0 0.75 0 0] CT
0 0.447 0.741 RC
2 setlinecap
10.0 ML
N
476.304 374 M
476.304 369.184 L
S
GR
GS
[0.75 0 0 0.75 0 0] CT
0 0.447 0.741 RC
2 setlinecap
10.0 ML
N
480.082 374 M
480.082 372.348 L
S
GR
GS
[0.75 0 0 0.75 0 0] CT
0 0.447 0.741 RC
2 setlinecap
10.0 ML
N
483.86 374 M
483.86 373.149 L
S
GR
GS
[0.75 0 0 0.75 0 0] CT
0 0.447 0.741 RC
2 setlinecap
10.0 ML
N
487.638 374 M
487.638 372.768 L
S
GR
GS
[0.75 0 0 0.75 0 0] CT
0 0.447 0.741 RC
2 setlinecap
10.0 ML
N
491.416 374 M
491.416 369.597 L
S
GR
GS
[0.75 0 0 0.75 0 0] CT
0 0.447 0.741 RC
2 setlinecap
10.0 ML
N
495.194 374 M
495.194 371.777 L
S
GR
GS
[0.75 0 0 0.75 0 0] CT
0 0.447 0.741 RC
2 setlinecap
10.0 ML
N
498.972 374 M
498.972 371.562 L
S
GR
GS
[0.75 0 0 0.75 0 0] CT
0 0.447 0.741 RC
2 setlinecap
10.0 ML
N
502.75 374 M
502.75 371.897 L
S
GR
GS
[0.75 0 0 0.75 0 0] CT
0 0.447 0.741 RC
2 setlinecap
10.0 ML
N
506.528 374 M
506.528 372.376 L
S
GR
GS
[0.75 0 0 0.75 217.50021 21.18749] CT
/Helvetica-Bold 15 F
GS
[1 0 0 1 0 0] CT
-144 -4 moveto 
1 -1 scale
(Single-Sided Amplitude Spectrum of y\(t\)) t 
GR
GR
GS
[0.75 0 0 0.75 0 0] CT
0.149 GC
2 setlinecap
10.0 ML
N
73 374 M
507 374 L
S
GR
%%Trailer
%%Pages: 1
%%EOF
