%!PS-Adobe-3.0 EPSF-3.0
%%Creator: (MATLAB, The Mathworks, Inc. Version 8.5.0.197613 \(R2015a\). Operating System: Windows 8)
%%Title: (C:/Users/aleja/Desktop/TFG/Documentaci\363n/Obtenci\363n de datos/matlab_plot/stems/alvaro12-16.eps)
%%CreationDate: 2019-05-22T11:05:46
%%Pages: (atend)
%%BoundingBox: 0 0 420 315
%%LanguageLevel: 2
%%EndComments
%%BeginProlog
%%BeginResource: procset (Apache XML Graphics Std ProcSet) 1.2 0
%%Version: 1.2 0
%%Copyright: (Copyright 2001-2003,2010 The Apache Software Foundation. License terms: http://www.apache.org/licenses/LICENSE-2.0)
/bd{bind def}bind def
/ld{load def}bd
/GR/grestore ld
/M/moveto ld
/LJ/setlinejoin ld
/C/curveto ld
/f/fill ld
/LW/setlinewidth ld
/GC/setgray ld
/t/show ld
/N/newpath ld
/CT/concat ld
/cp/closepath ld
/S/stroke ld
/L/lineto ld
/CC/setcmykcolor ld
/A/ashow ld
/GS/gsave ld
/RC/setrgbcolor ld
/RM/rmoveto ld
/ML/setmiterlimit ld
/re {4 2 roll M
1 index 0 rlineto
0 exch rlineto
neg 0 rlineto
cp } bd
/_ctm matrix def
/_tm matrix def
/BT { _ctm currentmatrix pop matrix _tm copy pop 0 0 moveto } bd
/ET { _ctm setmatrix } bd
/iTm { _ctm setmatrix _tm concat } bd
/Tm { _tm astore pop iTm 0 0 moveto } bd
/ux 0.0 def
/uy 0.0 def
/F {
  /Tp exch def
  /Tf exch def
  Tf findfont Tp scalefont setfont
  /cf Tf def  /cs Tp def
} bd
/ULS {currentpoint /uy exch def /ux exch def} bd
/ULE {
  /Tcx currentpoint pop def
  gsave
  newpath
  cf findfont cs scalefont dup
  /FontMatrix get 0 get /Ts exch def /FontInfo get dup
  /UnderlinePosition get Ts mul /To exch def
  /UnderlineThickness get Ts mul /Tt exch def
  ux uy To add moveto  Tcx uy To add lineto
  Tt setlinewidth stroke
  grestore
} bd
/OLE {
  /Tcx currentpoint pop def
  gsave
  newpath
  cf findfont cs scalefont dup
  /FontMatrix get 0 get /Ts exch def /FontInfo get dup
  /UnderlinePosition get Ts mul /To exch def
  /UnderlineThickness get Ts mul /Tt exch def
  ux uy To add cs add moveto Tcx uy To add cs add lineto
  Tt setlinewidth stroke
  grestore
} bd
/SOE {
  /Tcx currentpoint pop def
  gsave
  newpath
  cf findfont cs scalefont dup
  /FontMatrix get 0 get /Ts exch def /FontInfo get dup
  /UnderlinePosition get Ts mul /To exch def
  /UnderlineThickness get Ts mul /Tt exch def
  ux uy To add cs 10 mul 26 idiv add moveto Tcx uy To add cs 10 mul 26 idiv add lineto
  Tt setlinewidth stroke
  grestore
} bd
/QT {
/Y22 exch store
/X22 exch store
/Y21 exch store
/X21 exch store
currentpoint
/Y21 load 2 mul add 3 div exch
/X21 load 2 mul add 3 div exch
/X21 load 2 mul /X22 load add 3 div
/Y21 load 2 mul /Y22 load add 3 div
/X22 load /Y22 load curveto
} bd
/SSPD {
dup length /d exch dict def
{
/v exch def
/k exch def
currentpagedevice k known {
/cpdv currentpagedevice k get def
v cpdv ne {
/upd false def
/nullv v type /nulltype eq def
/nullcpdv cpdv type /nulltype eq def
nullv nullcpdv or
{
/upd true def
} {
/sametype v type cpdv type eq def
sametype {
v type /arraytype eq {
/vlen v length def
/cpdvlen cpdv length def
vlen cpdvlen eq {
0 1 vlen 1 sub {
/i exch def
/obj v i get def
/cpdobj cpdv i get def
obj cpdobj ne {
/upd true def
exit
} if
} for
} {
/upd true def
} ifelse
} {
v type /dicttype eq {
v {
/dv exch def
/dk exch def
/cpddv cpdv dk get def
dv cpddv ne {
/upd true def
exit
} if
} forall
} {
/upd true def
} ifelse
} ifelse
} if
} ifelse
upd true eq {
d k v put
} if
} if
} if
} forall
d length 0 gt {
d setpagedevice
} if
} bd
%%EndResource
%%BeginResource: procset (Apache XML Graphics EPS ProcSet) 1.0 0
%%Version: 1.0 0
%%Copyright: (Copyright 2002-2003 The Apache Software Foundation. License terms: http://www.apache.org/licenses/LICENSE-2.0)
/BeginEPSF { %def
/b4_Inc_state save def         % Save state for cleanup
/dict_count countdictstack def % Count objects on dict stack
/op_count count 1 sub def      % Count objects on operand stack
userdict begin                 % Push userdict on dict stack
/showpage { } def              % Redefine showpage, { } = null proc
0 setgray 0 setlinecap         % Prepare graphics state
1 setlinewidth 0 setlinejoin
10 setmiterlimit [ ] 0 setdash newpath
/languagelevel where           % If level not equal to 1 then
{pop languagelevel             % set strokeadjust and
1 ne                           % overprint to their defaults.
{false setstrokeadjust false setoverprint
} if
} if
} bd
/EndEPSF { %def
count op_count sub {pop} repeat            % Clean up stacks
countdictstack dict_count sub {end} repeat
b4_Inc_state restore
} bd
%%EndResource
%FOPBeginFontDict
%%IncludeResource: font Courier-Bold
%%IncludeResource: font Helvetica
%%IncludeResource: font Courier-BoldOblique
%%IncludeResource: font Courier-Oblique
%%IncludeResource: font Times-Roman
%%IncludeResource: font Helvetica-BoldOblique
%%IncludeResource: font Helvetica-Bold
%%IncludeResource: font Helvetica-Oblique
%%IncludeResource: font Times-BoldItalic
%%IncludeResource: font Courier
%%IncludeResource: font Times-Italic
%%IncludeResource: font Times-Bold
%%IncludeResource: font Symbol
%%IncludeResource: font ZapfDingbats
%FOPEndFontDict
%%BeginResource: encoding WinAnsiEncoding
/WinAnsiEncoding [
/.notdef /.notdef /.notdef /.notdef /.notdef
/.notdef /.notdef /.notdef /.notdef /.notdef
/.notdef /.notdef /.notdef /.notdef /.notdef
/.notdef /.notdef /.notdef /.notdef /.notdef
/.notdef /.notdef /.notdef /.notdef /.notdef
/.notdef /.notdef /.notdef /.notdef /.notdef
/.notdef /.notdef /space /exclam /quotedbl
/numbersign /dollar /percent /ampersand /quotesingle
/parenleft /parenright /asterisk /plus /comma
/hyphen /period /slash /zero /one
/two /three /four /five /six
/seven /eight /nine /colon /semicolon
/less /equal /greater /question /at
/A /B /C /D /E
/F /G /H /I /J
/K /L /M /N /O
/P /Q /R /S /T
/U /V /W /X /Y
/Z /bracketleft /backslash /bracketright /asciicircum
/underscore /quoteleft /a /b /c
/d /e /f /g /h
/i /j /k /l /m
/n /o /p /q /r
/s /t /u /v /w
/x /y /z /braceleft /bar
/braceright /asciitilde /bullet /Euro /bullet
/quotesinglbase /florin /quotedblbase /ellipsis /dagger
/daggerdbl /circumflex /perthousand /Scaron /guilsinglleft
/OE /bullet /Zcaron /bullet /bullet
/quoteleft /quoteright /quotedblleft /quotedblright /bullet
/endash /emdash /asciitilde /trademark /scaron
/guilsinglright /oe /bullet /zcaron /Ydieresis
/space /exclamdown /cent /sterling /currency
/yen /brokenbar /section /dieresis /copyright
/ordfeminine /guillemotleft /logicalnot /sfthyphen /registered
/macron /degree /plusminus /twosuperior /threesuperior
/acute /mu /paragraph /middot /cedilla
/onesuperior /ordmasculine /guillemotright /onequarter /onehalf
/threequarters /questiondown /Agrave /Aacute /Acircumflex
/Atilde /Adieresis /Aring /AE /Ccedilla
/Egrave /Eacute /Ecircumflex /Edieresis /Igrave
/Iacute /Icircumflex /Idieresis /Eth /Ntilde
/Ograve /Oacute /Ocircumflex /Otilde /Odieresis
/multiply /Oslash /Ugrave /Uacute /Ucircumflex
/Udieresis /Yacute /Thorn /germandbls /agrave
/aacute /acircumflex /atilde /adieresis /aring
/ae /ccedilla /egrave /eacute /ecircumflex
/edieresis /igrave /iacute /icircumflex /idieresis
/eth /ntilde /ograve /oacute /ocircumflex
/otilde /odieresis /divide /oslash /ugrave
/uacute /ucircumflex /udieresis /yacute /thorn
/ydieresis
] def
%%EndResource
%FOPBeginFontReencode
/Courier-Bold findfont
dup length dict begin
  {1 index /FID ne {def} {pop pop} ifelse} forall
  /Encoding WinAnsiEncoding def
  currentdict
end
/Courier-Bold exch definefont pop
/Helvetica findfont
dup length dict begin
  {1 index /FID ne {def} {pop pop} ifelse} forall
  /Encoding WinAnsiEncoding def
  currentdict
end
/Helvetica exch definefont pop
/Courier-BoldOblique findfont
dup length dict begin
  {1 index /FID ne {def} {pop pop} ifelse} forall
  /Encoding WinAnsiEncoding def
  currentdict
end
/Courier-BoldOblique exch definefont pop
/Courier-Oblique findfont
dup length dict begin
  {1 index /FID ne {def} {pop pop} ifelse} forall
  /Encoding WinAnsiEncoding def
  currentdict
end
/Courier-Oblique exch definefont pop
/Times-Roman findfont
dup length dict begin
  {1 index /FID ne {def} {pop pop} ifelse} forall
  /Encoding WinAnsiEncoding def
  currentdict
end
/Times-Roman exch definefont pop
/Helvetica-BoldOblique findfont
dup length dict begin
  {1 index /FID ne {def} {pop pop} ifelse} forall
  /Encoding WinAnsiEncoding def
  currentdict
end
/Helvetica-BoldOblique exch definefont pop
/Helvetica-Bold findfont
dup length dict begin
  {1 index /FID ne {def} {pop pop} ifelse} forall
  /Encoding WinAnsiEncoding def
  currentdict
end
/Helvetica-Bold exch definefont pop
/Helvetica-Oblique findfont
dup length dict begin
  {1 index /FID ne {def} {pop pop} ifelse} forall
  /Encoding WinAnsiEncoding def
  currentdict
end
/Helvetica-Oblique exch definefont pop
/Times-BoldItalic findfont
dup length dict begin
  {1 index /FID ne {def} {pop pop} ifelse} forall
  /Encoding WinAnsiEncoding def
  currentdict
end
/Times-BoldItalic exch definefont pop
/Courier findfont
dup length dict begin
  {1 index /FID ne {def} {pop pop} ifelse} forall
  /Encoding WinAnsiEncoding def
  currentdict
end
/Courier exch definefont pop
/Times-Italic findfont
dup length dict begin
  {1 index /FID ne {def} {pop pop} ifelse} forall
  /Encoding WinAnsiEncoding def
  currentdict
end
/Times-Italic exch definefont pop
/Times-Bold findfont
dup length dict begin
  {1 index /FID ne {def} {pop pop} ifelse} forall
  /Encoding WinAnsiEncoding def
  currentdict
end
/Times-Bold exch definefont pop
%FOPEndFontReencode
%%EndProlog
%%Page: 1 1
%%PageBoundingBox: 0 0 420 315
%%BeginPageSetup
[1 0 0 -1 0 315] CT
%%EndPageSetup
GS
[0.75 0 0 0.75 0 0] CT
1 GC
N
0 0 560 420 re
f
GR
GS
[0.75 0 0 0.75 0 0] CT
1 GC
N
0 0 560 420 re
f
GR
GS
[0.75 0 0 0.75 0 0] CT
1 GC
N
73 374 M
507 374 L
507 31 L
73 31 L
cp
f
GR
GS
[0.75 0 0 0.75 217.50016 298.24999] CT
0.149 GC
/Helvetica 15 F
GS
[1 0 0 1 0 0] CT
-52 16 moveto 
1 -1 scale
(Frequency \(Hz\)) t 
GR
GR
GS
[0.75 0 0 0.75 0 0] CT
0.149 GC
2 setlinecap
10.0 ML
N
73 374 M
507 374 L
S
GR
GS
[0.75 0 0 0.75 0 0] CT
0.149 GC
2 setlinecap
10.0 ML
N
73 31 M
507 31 L
S
GR
GS
[0.75 0 0 0.75 0 0] CT
0.149 GC
2 setlinecap
10.0 ML
N
73 374 M
73 369.66 L
S
GR
GS
[0.75 0 0 0.75 0 0] CT
0.149 GC
2 setlinecap
10.0 ML
N
116.4 374 M
116.4 369.66 L
S
GR
GS
[0.75 0 0 0.75 0 0] CT
0.149 GC
2 setlinecap
10.0 ML
N
159.8 374 M
159.8 369.66 L
S
GR
GS
[0.75 0 0 0.75 0 0] CT
0.149 GC
2 setlinecap
10.0 ML
N
203.2 374 M
203.2 369.66 L
S
GR
GS
[0.75 0 0 0.75 0 0] CT
0.149 GC
2 setlinecap
10.0 ML
N
246.6 374 M
246.6 369.66 L
S
GR
GS
[0.75 0 0 0.75 0 0] CT
0.149 GC
2 setlinecap
10.0 ML
N
290 374 M
290 369.66 L
S
GR
GS
[0.75 0 0 0.75 0 0] CT
0.149 GC
2 setlinecap
10.0 ML
N
333.4 374 M
333.4 369.66 L
S
GR
GS
[0.75 0 0 0.75 0 0] CT
0.149 GC
2 setlinecap
10.0 ML
N
376.8 374 M
376.8 369.66 L
S
GR
GS
[0.75 0 0 0.75 0 0] CT
0.149 GC
2 setlinecap
10.0 ML
N
420.2 374 M
420.2 369.66 L
S
GR
GS
[0.75 0 0 0.75 0 0] CT
0.149 GC
2 setlinecap
10.0 ML
N
463.6 374 M
463.6 369.66 L
S
GR
GS
[0.75 0 0 0.75 0 0] CT
0.149 GC
2 setlinecap
10.0 ML
N
507 374 M
507 369.66 L
S
GR
GS
[0.75 0 0 0.75 0 0] CT
0.149 GC
2 setlinecap
10.0 ML
N
73 31 M
73 35.34 L
S
GR
GS
[0.75 0 0 0.75 0 0] CT
0.149 GC
2 setlinecap
10.0 ML
N
116.4 31 M
116.4 35.34 L
S
GR
GS
[0.75 0 0 0.75 0 0] CT
0.149 GC
2 setlinecap
10.0 ML
N
159.8 31 M
159.8 35.34 L
S
GR
GS
[0.75 0 0 0.75 0 0] CT
0.149 GC
2 setlinecap
10.0 ML
N
203.2 31 M
203.2 35.34 L
S
GR
GS
[0.75 0 0 0.75 0 0] CT
0.149 GC
2 setlinecap
10.0 ML
N
246.6 31 M
246.6 35.34 L
S
GR
GS
[0.75 0 0 0.75 0 0] CT
0.149 GC
2 setlinecap
10.0 ML
N
290 31 M
290 35.34 L
S
GR
GS
[0.75 0 0 0.75 0 0] CT
0.149 GC
2 setlinecap
10.0 ML
N
333.4 31 M
333.4 35.34 L
S
GR
GS
[0.75 0 0 0.75 0 0] CT
0.149 GC
2 setlinecap
10.0 ML
N
376.8 31 M
376.8 35.34 L
S
GR
GS
[0.75 0 0 0.75 0 0] CT
0.149 GC
2 setlinecap
10.0 ML
N
420.2 31 M
420.2 35.34 L
S
GR
GS
[0.75 0 0 0.75 0 0] CT
0.149 GC
2 setlinecap
10.0 ML
N
463.6 31 M
463.6 35.34 L
S
GR
GS
[0.75 0 0 0.75 0 0] CT
0.149 GC
2 setlinecap
10.0 ML
N
507 31 M
507 35.34 L
S
GR
GS
[0.75 0 0 0.75 54.75 284.50001] CT
0.149 GC
/Helvetica 13 F
GS
[1 0 0 1 0 0] CT
-4 14 moveto 
1 -1 scale
(0) t 
GR
GR
GS
[0.75 0 0 0.75 87.3 284.50001] CT
0.149 GC
/Helvetica 13 F
GS
[1 0 0 1 0 0] CT
-7.5 14 moveto 
1 -1 scale
(10) t 
GR
GR
GS
[0.75 0 0 0.75 119.85 284.50001] CT
0.149 GC
/Helvetica 13 F
GS
[1 0 0 1 0 0] CT
-7.5 14 moveto 
1 -1 scale
(20) t 
GR
GR
GS
[0.75 0 0 0.75 152.4 284.50001] CT
0.149 GC
/Helvetica 13 F
GS
[1 0 0 1 0 0] CT
-7.5 14 moveto 
1 -1 scale
(30) t 
GR
GR
GS
[0.75 0 0 0.75 184.95 284.50001] CT
0.149 GC
/Helvetica 13 F
GS
[1 0 0 1 0 0] CT
-7.5 14 moveto 
1 -1 scale
(40) t 
GR
GR
GS
[0.75 0 0 0.75 217.5 284.50001] CT
0.149 GC
/Helvetica 13 F
GS
[1 0 0 1 0 0] CT
-7.5 14 moveto 
1 -1 scale
(50) t 
GR
GR
GS
[0.75 0 0 0.75 250.05 284.50001] CT
0.149 GC
/Helvetica 13 F
GS
[1 0 0 1 0 0] CT
-7.5 14 moveto 
1 -1 scale
(60) t 
GR
GR
GS
[0.75 0 0 0.75 282.59999 284.50001] CT
0.149 GC
/Helvetica 13 F
GS
[1 0 0 1 0 0] CT
-7.5 14 moveto 
1 -1 scale
(70) t 
GR
GR
GS
[0.75 0 0 0.75 315.15001 284.50001] CT
0.149 GC
/Helvetica 13 F
GS
[1 0 0 1 0 0] CT
-7.5 14 moveto 
1 -1 scale
(80) t 
GR
GR
GS
[0.75 0 0 0.75 347.7 284.50001] CT
0.149 GC
/Helvetica 13 F
GS
[1 0 0 1 0 0] CT
-7.5 14 moveto 
1 -1 scale
(90) t 
GR
GR
GS
[0.75 0 0 0.75 380.25 284.50001] CT
0.149 GC
/Helvetica 13 F
GS
[1 0 0 1 0 0] CT
-11 14 moveto 
1 -1 scale
(100) t 
GR
GR
GS
[0 -0.75 0.75 0 33.5 151.87487] CT
0.149 GC
/Helvetica 15 F
GS
[1 0 0 1 0 0] CT
-61.5 -4 moveto 
1 -1 scale
(|P\(f\)| MAgnitud dB) t 
GR
GR
GS
[0.75 0 0 0.75 0 0] CT
0.149 GC
2 setlinecap
10.0 ML
N
73 374 M
73 31 L
S
GR
GS
[0.75 0 0 0.75 0 0] CT
0.149 GC
2 setlinecap
10.0 ML
N
507 374 M
507 31 L
S
GR
GS
[0.75 0 0 0.75 0 0] CT
0.149 GC
2 setlinecap
10.0 ML
N
73 374 M
77.34 374 L
S
GR
GS
[0.75 0 0 0.75 0 0] CT
0.149 GC
2 setlinecap
10.0 ML
N
73 339.7 M
77.34 339.7 L
S
GR
GS
[0.75 0 0 0.75 0 0] CT
0.149 GC
2 setlinecap
10.0 ML
N
73 305.4 M
77.34 305.4 L
S
GR
GS
[0.75 0 0 0.75 0 0] CT
0.149 GC
2 setlinecap
10.0 ML
N
73 271.1 M
77.34 271.1 L
S
GR
GS
[0.75 0 0 0.75 0 0] CT
0.149 GC
2 setlinecap
10.0 ML
N
73 236.8 M
77.34 236.8 L
S
GR
GS
[0.75 0 0 0.75 0 0] CT
0.149 GC
2 setlinecap
10.0 ML
N
73 202.5 M
77.34 202.5 L
S
GR
GS
[0.75 0 0 0.75 0 0] CT
0.149 GC
2 setlinecap
10.0 ML
N
73 168.2 M
77.34 168.2 L
S
GR
GS
[0.75 0 0 0.75 0 0] CT
0.149 GC
2 setlinecap
10.0 ML
N
73 133.9 M
77.34 133.9 L
S
GR
GS
[0.75 0 0 0.75 0 0] CT
0.149 GC
2 setlinecap
10.0 ML
N
73 99.6 M
77.34 99.6 L
S
GR
GS
[0.75 0 0 0.75 0 0] CT
0.149 GC
2 setlinecap
10.0 ML
N
73 65.3 M
77.34 65.3 L
S
GR
GS
[0.75 0 0 0.75 0 0] CT
0.149 GC
2 setlinecap
10.0 ML
N
73 31 M
77.34 31 L
S
GR
GS
[0.75 0 0 0.75 0 0] CT
0.149 GC
2 setlinecap
10.0 ML
N
507 374 M
502.66 374 L
S
GR
GS
[0.75 0 0 0.75 0 0] CT
0.149 GC
2 setlinecap
10.0 ML
N
507 339.7 M
502.66 339.7 L
S
GR
GS
[0.75 0 0 0.75 0 0] CT
0.149 GC
2 setlinecap
10.0 ML
N
507 305.4 M
502.66 305.4 L
S
GR
GS
[0.75 0 0 0.75 0 0] CT
0.149 GC
2 setlinecap
10.0 ML
N
507 271.1 M
502.66 271.1 L
S
GR
GS
[0.75 0 0 0.75 0 0] CT
0.149 GC
2 setlinecap
10.0 ML
N
507 236.8 M
502.66 236.8 L
S
GR
GS
[0.75 0 0 0.75 0 0] CT
0.149 GC
2 setlinecap
10.0 ML
N
507 202.5 M
502.66 202.5 L
S
GR
GS
[0.75 0 0 0.75 0 0] CT
0.149 GC
2 setlinecap
10.0 ML
N
507 168.2 M
502.66 168.2 L
S
GR
GS
[0.75 0 0 0.75 0 0] CT
0.149 GC
2 setlinecap
10.0 ML
N
507 133.9 M
502.66 133.9 L
S
GR
GS
[0.75 0 0 0.75 0 0] CT
0.149 GC
2 setlinecap
10.0 ML
N
507 99.6 M
502.66 99.6 L
S
GR
GS
[0.75 0 0 0.75 0 0] CT
0.149 GC
2 setlinecap
10.0 ML
N
507 65.3 M
502.66 65.3 L
S
GR
GS
[0.75 0 0 0.75 0 0] CT
0.149 GC
2 setlinecap
10.0 ML
N
507 31 M
502.66 31 L
S
GR
GS
[0.75 0 0 0.75 50.75 280.5] CT
0.149 GC
/Helvetica 13 F
GS
[1 0 0 1 0 0] CT
-8 5.5 moveto 
1 -1 scale
(0) t 
GR
GR
GS
[0.75 0 0 0.75 50.75 254.77501] CT
0.149 GC
/Helvetica 13 F
GS
[1 0 0 1 0 0] CT
-19 5.5 moveto 
1 -1 scale
(0.2) t 
GR
GR
GS
[0.75 0 0 0.75 50.75 229.05] CT
0.149 GC
/Helvetica 13 F
GS
[1 0 0 1 0 0] CT
-19 5.5 moveto 
1 -1 scale
(0.4) t 
GR
GR
GS
[0.75 0 0 0.75 50.75 203.325] CT
0.149 GC
/Helvetica 13 F
GS
[1 0 0 1 0 0] CT
-19 5.5 moveto 
1 -1 scale
(0.6) t 
GR
GR
GS
[0.75 0 0 0.75 50.75 177.6] CT
0.149 GC
/Helvetica 13 F
GS
[1 0 0 1 0 0] CT
-19 5.5 moveto 
1 -1 scale
(0.8) t 
GR
GR
GS
[0.75 0 0 0.75 50.75 151.875] CT
0.149 GC
/Helvetica 13 F
GS
[1 0 0 1 0 0] CT
-8 5.5 moveto 
1 -1 scale
(1) t 
GR
GR
GS
[0.75 0 0 0.75 50.75 126.15] CT
0.149 GC
/Helvetica 13 F
GS
[1 0 0 1 0 0] CT
-19 5.5 moveto 
1 -1 scale
(1.2) t 
GR
GR
GS
[0.75 0 0 0.75 50.75 100.42501] CT
0.149 GC
/Helvetica 13 F
GS
[1 0 0 1 0 0] CT
-19 5.5 moveto 
1 -1 scale
(1.4) t 
GR
GR
GS
[0.75 0 0 0.75 50.75 74.7] CT
0.149 GC
/Helvetica 13 F
GS
[1 0 0 1 0 0] CT
-19 5.5 moveto 
1 -1 scale
(1.6) t 
GR
GR
GS
[0.75 0 0 0.75 50.75 48.97501] CT
0.149 GC
/Helvetica 13 F
GS
[1 0 0 1 0 0] CT
-19 5.5 moveto 
1 -1 scale
(1.8) t 
GR
GR
GS
[0.75 0 0 0.75 50.75 23.25] CT
0.149 GC
/Helvetica 13 F
GS
[1 0 0 1 0 0] CT
-8 5.5 moveto 
1 -1 scale
(2) t 
GR
GR
GS
[0.75 0 0 0.75 0 0] CT
0 0.447 0.741 RC
2 setlinecap
10.0 ML
N
81.5 94.5 M
80.736 92.149 L
78.736 90.696 L
76.264 90.696 L
74.264 92.149 L
73.5 94.5 L
74.264 96.851 L
76.264 98.304 L
78.736 98.304 L
80.736 96.851 L
81.5 94.5 L
S
GR
GS
[0.75 0 0 0.75 0 0] CT
0 0.447 0.741 RC
2 setlinecap
10.0 ML
N
87.5 66.5 M
86.736 64.149 L
84.736 62.696 L
82.264 62.696 L
80.264 64.149 L
79.5 66.5 L
80.264 68.851 L
82.264 70.304 L
84.736 70.304 L
86.736 68.851 L
87.5 66.5 L
S
GR
GS
[0.75 0 0 0.75 0 0] CT
0 0.447 0.741 RC
2 setlinecap
10.0 ML
N
92.5 161.5 M
91.736 159.149 L
89.736 157.696 L
87.264 157.696 L
85.264 159.149 L
84.5 161.5 L
85.264 163.851 L
87.264 165.304 L
89.736 165.304 L
91.736 163.851 L
92.5 161.5 L
S
GR
GS
[0.75 0 0 0.75 0 0] CT
0 0.447 0.741 RC
2 setlinecap
10.0 ML
N
98.5 267.5 M
97.736 265.149 L
95.736 263.696 L
93.264 263.696 L
91.264 265.149 L
90.5 267.5 L
91.264 269.851 L
93.264 271.304 L
95.736 271.304 L
97.736 269.851 L
98.5 267.5 L
S
GR
GS
[0.75 0 0 0.75 0 0] CT
0 0.447 0.741 RC
2 setlinecap
10.0 ML
N
104.5 158.5 M
103.736 156.149 L
101.736 154.696 L
99.264 154.696 L
97.264 156.149 L
96.5 158.5 L
97.264 160.851 L
99.264 162.304 L
101.736 162.304 L
103.736 160.851 L
104.5 158.5 L
S
GR
GS
[0.75 0 0 0.75 0 0] CT
0 0.447 0.741 RC
2 setlinecap
10.0 ML
N
109.5 107.5 M
108.736 105.149 L
106.736 103.696 L
104.264 103.696 L
102.264 105.149 L
101.5 107.5 L
102.264 109.851 L
104.264 111.304 L
106.736 111.304 L
108.736 109.851 L
109.5 107.5 L
S
GR
GS
[0.75 0 0 0.75 0 0] CT
0 0.447 0.741 RC
2 setlinecap
10.0 ML
N
115.5 57.5 M
114.736 55.149 L
112.736 53.696 L
110.264 53.696 L
108.264 55.149 L
107.5 57.5 L
108.264 59.851 L
110.264 61.304 L
112.736 61.304 L
114.736 59.851 L
115.5 57.5 L
S
GR
GS
[0.75 0 0 0.75 0 0] CT
0 0.447 0.741 RC
2 setlinecap
10.0 ML
N
121.5 105.5 M
120.736 103.149 L
118.736 101.696 L
116.264 101.696 L
114.264 103.149 L
113.5 105.5 L
114.264 107.851 L
116.264 109.304 L
118.736 109.304 L
120.736 107.851 L
121.5 105.5 L
S
GR
GS
[0.75 0 0 0.75 0 0] CT
0 0.447 0.741 RC
2 setlinecap
10.0 ML
N
127.5 97.5 M
126.736 95.149 L
124.736 93.696 L
122.264 93.696 L
120.264 95.149 L
119.5 97.5 L
120.264 99.851 L
122.264 101.304 L
124.736 101.304 L
126.736 99.851 L
127.5 97.5 L
S
GR
GS
[0.75 0 0 0.75 0 0] CT
0 0.447 0.741 RC
2 setlinecap
10.0 ML
N
132.5 117.5 M
131.736 115.149 L
129.736 113.696 L
127.264 113.696 L
125.264 115.149 L
124.5 117.5 L
125.264 119.851 L
127.264 121.304 L
129.736 121.304 L
131.736 119.851 L
132.5 117.5 L
S
GR
GS
[0.75 0 0 0.75 0 0] CT
0 0.447 0.741 RC
2 setlinecap
10.0 ML
N
138.5 140.5 M
137.736 138.149 L
135.736 136.696 L
133.264 136.696 L
131.264 138.149 L
130.5 140.5 L
131.264 142.851 L
133.264 144.304 L
135.736 144.304 L
137.736 142.851 L
138.5 140.5 L
S
GR
GS
[0.75 0 0 0.75 0 0] CT
0 0.447 0.741 RC
2 setlinecap
10.0 ML
N
144.5 99.5 M
143.736 97.149 L
141.736 95.696 L
139.264 95.696 L
137.264 97.149 L
136.5 99.5 L
137.264 101.851 L
139.264 103.304 L
141.736 103.304 L
143.736 101.851 L
144.5 99.5 L
S
GR
GS
[0.75 0 0 0.75 0 0] CT
0 0.447 0.741 RC
2 setlinecap
10.0 ML
N
150.5 138.5 M
149.736 136.149 L
147.736 134.696 L
145.264 134.696 L
143.264 136.149 L
142.5 138.5 L
143.264 140.851 L
145.264 142.304 L
147.736 142.304 L
149.736 140.851 L
150.5 138.5 L
S
GR
GS
[0.75 0 0 0.75 0 0] CT
0 0.447 0.741 RC
2 setlinecap
10.0 ML
N
155.5 106.5 M
154.736 104.149 L
152.736 102.696 L
150.264 102.696 L
148.264 104.149 L
147.5 106.5 L
148.264 108.851 L
150.264 110.304 L
152.736 110.304 L
154.736 108.851 L
155.5 106.5 L
S
GR
GS
[0.75 0 0 0.75 0 0] CT
0 0.447 0.741 RC
2 setlinecap
10.0 ML
N
161.5 151.5 M
160.736 149.149 L
158.736 147.696 L
156.264 147.696 L
154.264 149.149 L
153.5 151.5 L
154.264 153.851 L
156.264 155.304 L
158.736 155.304 L
160.736 153.851 L
161.5 151.5 L
S
GR
GS
[0.75 0 0 0.75 0 0] CT
0 0.447 0.741 RC
2 setlinecap
10.0 ML
N
167.5 195.5 M
166.736 193.149 L
164.736 191.696 L
162.264 191.696 L
160.264 193.149 L
159.5 195.5 L
160.264 197.851 L
162.264 199.304 L
164.736 199.304 L
166.736 197.851 L
167.5 195.5 L
S
GR
GS
[0.75 0 0 0.75 0 0] CT
0 0.447 0.741 RC
2 setlinecap
10.0 ML
N
173.5 150.5 M
172.736 148.149 L
170.736 146.696 L
168.264 146.696 L
166.264 148.149 L
165.5 150.5 L
166.264 152.851 L
168.264 154.304 L
170.736 154.304 L
172.736 152.851 L
173.5 150.5 L
S
GR
GS
[0.75 0 0 0.75 0 0] CT
0 0.447 0.741 RC
2 setlinecap
10.0 ML
N
178.5 136.5 M
177.736 134.149 L
175.736 132.696 L
173.264 132.696 L
171.264 134.149 L
170.5 136.5 L
171.264 138.851 L
173.264 140.304 L
175.736 140.304 L
177.736 138.851 L
178.5 136.5 L
S
GR
GS
[0.75 0 0 0.75 0 0] CT
0 0.447 0.741 RC
2 setlinecap
10.0 ML
N
184.5 169.5 M
183.736 167.149 L
181.736 165.696 L
179.264 165.696 L
177.264 167.149 L
176.5 169.5 L
177.264 171.851 L
179.264 173.304 L
181.736 173.304 L
183.736 171.851 L
184.5 169.5 L
S
GR
GS
[0.75 0 0 0.75 0 0] CT
0 0.447 0.741 RC
2 setlinecap
10.0 ML
N
190.5 265.5 M
189.736 263.149 L
187.736 261.696 L
185.264 261.696 L
183.264 263.149 L
182.5 265.5 L
183.264 267.851 L
185.264 269.304 L
187.736 269.304 L
189.736 267.851 L
190.5 265.5 L
S
GR
GS
[0.75 0 0 0.75 0 0] CT
0 0.447 0.741 RC
2 setlinecap
10.0 ML
N
196.5 265.5 M
195.736 263.149 L
193.736 261.696 L
191.264 261.696 L
189.264 263.149 L
188.5 265.5 L
189.264 267.851 L
191.264 269.304 L
193.736 269.304 L
195.736 267.851 L
196.5 265.5 L
S
GR
GS
[0.75 0 0 0.75 0 0] CT
0 0.447 0.741 RC
2 setlinecap
10.0 ML
N
201.5 188.5 M
200.736 186.149 L
198.736 184.696 L
196.264 184.696 L
194.264 186.149 L
193.5 188.5 L
194.264 190.851 L
196.264 192.304 L
198.736 192.304 L
200.736 190.851 L
201.5 188.5 L
S
GR
GS
[0.75 0 0 0.75 0 0] CT
0 0.447 0.741 RC
2 setlinecap
10.0 ML
N
207.5 250.5 M
206.736 248.149 L
204.736 246.696 L
202.264 246.696 L
200.264 248.149 L
199.5 250.5 L
200.264 252.851 L
202.264 254.304 L
204.736 254.304 L
206.736 252.851 L
207.5 250.5 L
S
GR
GS
[0.75 0 0 0.75 0 0] CT
0 0.447 0.741 RC
2 setlinecap
10.0 ML
N
213.5 284.5 M
212.736 282.149 L
210.736 280.696 L
208.264 280.696 L
206.264 282.149 L
205.5 284.5 L
206.264 286.851 L
208.264 288.304 L
210.736 288.304 L
212.736 286.851 L
213.5 284.5 L
S
GR
GS
[0.75 0 0 0.75 0 0] CT
0 0.447 0.741 RC
2 setlinecap
10.0 ML
N
219.5 291.5 M
218.736 289.149 L
216.736 287.696 L
214.264 287.696 L
212.264 289.149 L
211.5 291.5 L
212.264 293.851 L
214.264 295.304 L
216.736 295.304 L
218.736 293.851 L
219.5 291.5 L
S
GR
GS
[0.75 0 0 0.75 0 0] CT
0 0.447 0.741 RC
2 setlinecap
10.0 ML
N
224.5 277.5 M
223.736 275.149 L
221.736 273.696 L
219.264 273.696 L
217.264 275.149 L
216.5 277.5 L
217.264 279.851 L
219.264 281.304 L
221.736 281.304 L
223.736 279.851 L
224.5 277.5 L
S
GR
GS
[0.75 0 0 0.75 0 0] CT
0 0.447 0.741 RC
2 setlinecap
10.0 ML
N
230.5 293.5 M
229.736 291.149 L
227.736 289.696 L
225.264 289.696 L
223.264 291.149 L
222.5 293.5 L
223.264 295.851 L
225.264 297.304 L
227.736 297.304 L
229.736 295.851 L
230.5 293.5 L
S
GR
GS
[0.75 0 0 0.75 0 0] CT
0 0.447 0.741 RC
2 setlinecap
10.0 ML
N
236.5 285.5 M
235.736 283.149 L
233.736 281.696 L
231.264 281.696 L
229.264 283.149 L
228.5 285.5 L
229.264 287.851 L
231.264 289.304 L
233.736 289.304 L
235.736 287.851 L
236.5 285.5 L
S
GR
GS
[0.75 0 0 0.75 0 0] CT
0 0.447 0.741 RC
2 setlinecap
10.0 ML
N
241.5 335.5 M
240.736 333.149 L
238.736 331.696 L
236.264 331.696 L
234.264 333.149 L
233.5 335.5 L
234.264 337.851 L
236.264 339.304 L
238.736 339.304 L
240.736 337.851 L
241.5 335.5 L
S
GR
GS
[0.75 0 0 0.75 0 0] CT
0 0.447 0.741 RC
2 setlinecap
10.0 ML
N
247.5 317.5 M
246.736 315.149 L
244.736 313.696 L
242.264 313.696 L
240.264 315.149 L
239.5 317.5 L
240.264 319.851 L
242.264 321.304 L
244.736 321.304 L
246.736 319.851 L
247.5 317.5 L
S
GR
GS
[0.75 0 0 0.75 0 0] CT
0 0.447 0.741 RC
2 setlinecap
10.0 ML
N
253.5 310.5 M
252.736 308.149 L
250.736 306.696 L
248.264 306.696 L
246.264 308.149 L
245.5 310.5 L
246.264 312.851 L
248.264 314.304 L
250.736 314.304 L
252.736 312.851 L
253.5 310.5 L
S
GR
GS
[0.75 0 0 0.75 0 0] CT
0 0.447 0.741 RC
2 setlinecap
10.0 ML
N
259.5 317.5 M
258.736 315.149 L
256.736 313.696 L
254.264 313.696 L
252.264 315.149 L
251.5 317.5 L
252.264 319.851 L
254.264 321.304 L
256.736 321.304 L
258.736 319.851 L
259.5 317.5 L
S
GR
GS
[0.75 0 0 0.75 0 0] CT
0 0.447 0.741 RC
2 setlinecap
10.0 ML
N
264.5 327.5 M
263.736 325.149 L
261.736 323.696 L
259.264 323.696 L
257.264 325.149 L
256.5 327.5 L
257.264 329.851 L
259.264 331.304 L
261.736 331.304 L
263.736 329.851 L
264.5 327.5 L
S
GR
GS
[0.75 0 0 0.75 0 0] CT
0 0.447 0.741 RC
2 setlinecap
10.0 ML
N
270.5 342.5 M
269.736 340.149 L
267.736 338.696 L
265.264 338.696 L
263.264 340.149 L
262.5 342.5 L
263.264 344.851 L
265.264 346.304 L
267.736 346.304 L
269.736 344.851 L
270.5 342.5 L
S
GR
GS
[0.75 0 0 0.75 0 0] CT
0 0.447 0.741 RC
2 setlinecap
10.0 ML
N
276.5 333.5 M
275.736 331.149 L
273.736 329.696 L
271.264 329.696 L
269.264 331.149 L
268.5 333.5 L
269.264 335.851 L
271.264 337.304 L
273.736 337.304 L
275.736 335.851 L
276.5 333.5 L
S
GR
GS
[0.75 0 0 0.75 0 0] CT
0 0.447 0.741 RC
2 setlinecap
10.0 ML
N
282.5 354.5 M
281.736 352.149 L
279.736 350.696 L
277.264 350.696 L
275.264 352.149 L
274.5 354.5 L
275.264 356.851 L
277.264 358.304 L
279.736 358.304 L
281.736 356.851 L
282.5 354.5 L
S
GR
GS
[0.75 0 0 0.75 0 0] CT
0 0.447 0.741 RC
2 setlinecap
10.0 ML
N
287.5 343.5 M
286.736 341.149 L
284.736 339.696 L
282.264 339.696 L
280.264 341.149 L
279.5 343.5 L
280.264 345.851 L
282.264 347.304 L
284.736 347.304 L
286.736 345.851 L
287.5 343.5 L
S
GR
GS
[0.75 0 0 0.75 0 0] CT
0 0.447 0.741 RC
2 setlinecap
10.0 ML
N
293.5 328.5 M
292.736 326.149 L
290.736 324.696 L
288.264 324.696 L
286.264 326.149 L
285.5 328.5 L
286.264 330.851 L
288.264 332.304 L
290.736 332.304 L
292.736 330.851 L
293.5 328.5 L
S
GR
GS
[0.75 0 0 0.75 0 0] CT
0 0.447 0.741 RC
2 setlinecap
10.0 ML
N
299.5 342.5 M
298.736 340.149 L
296.736 338.696 L
294.264 338.696 L
292.264 340.149 L
291.5 342.5 L
292.264 344.851 L
294.264 346.304 L
296.736 346.304 L
298.736 344.851 L
299.5 342.5 L
S
GR
GS
[0.75 0 0 0.75 0 0] CT
0 0.447 0.741 RC
2 setlinecap
10.0 ML
N
305.5 296.5 M
304.736 294.149 L
302.736 292.696 L
300.264 292.696 L
298.264 294.149 L
297.5 296.5 L
298.264 298.851 L
300.264 300.304 L
302.736 300.304 L
304.736 298.851 L
305.5 296.5 L
S
GR
GS
[0.75 0 0 0.75 0 0] CT
0 0.447 0.741 RC
2 setlinecap
10.0 ML
N
310.5 346.5 M
309.736 344.149 L
307.736 342.696 L
305.264 342.696 L
303.264 344.149 L
302.5 346.5 L
303.264 348.851 L
305.264 350.304 L
307.736 350.304 L
309.736 348.851 L
310.5 346.5 L
S
GR
GS
[0.75 0 0 0.75 0 0] CT
0 0.447 0.741 RC
2 setlinecap
10.0 ML
N
316.5 308.5 M
315.736 306.149 L
313.736 304.696 L
311.264 304.696 L
309.264 306.149 L
308.5 308.5 L
309.264 310.851 L
311.264 312.304 L
313.736 312.304 L
315.736 310.851 L
316.5 308.5 L
S
GR
GS
[0.75 0 0 0.75 0 0] CT
0 0.447 0.741 RC
2 setlinecap
10.0 ML
N
322.5 351.5 M
321.736 349.149 L
319.736 347.696 L
317.264 347.696 L
315.264 349.149 L
314.5 351.5 L
315.264 353.851 L
317.264 355.304 L
319.736 355.304 L
321.736 353.851 L
322.5 351.5 L
S
GR
GS
[0.75 0 0 0.75 0 0] CT
0 0.447 0.741 RC
2 setlinecap
10.0 ML
N
328.5 272.5 M
327.736 270.149 L
325.736 268.696 L
323.264 268.696 L
321.264 270.149 L
320.5 272.5 L
321.264 274.851 L
323.264 276.304 L
325.736 276.304 L
327.736 274.851 L
328.5 272.5 L
S
GR
GS
[0.75 0 0 0.75 0 0] CT
0 0.447 0.741 RC
2 setlinecap
10.0 ML
N
333.5 201.5 M
332.736 199.149 L
330.736 197.696 L
328.264 197.696 L
326.264 199.149 L
325.5 201.5 L
326.264 203.851 L
328.264 205.304 L
330.736 205.304 L
332.736 203.851 L
333.5 201.5 L
S
GR
GS
[0.75 0 0 0.75 0 0] CT
0 0.447 0.741 RC
2 setlinecap
10.0 ML
N
339.5 163.5 M
338.736 161.149 L
336.736 159.696 L
334.264 159.696 L
332.264 161.149 L
331.5 163.5 L
332.264 165.851 L
334.264 167.304 L
336.736 167.304 L
338.736 165.851 L
339.5 163.5 L
S
GR
GS
[0.75 0 0 0.75 0 0] CT
0 0.447 0.741 RC
2 setlinecap
10.0 ML
N
345.5 269.5 M
344.736 267.149 L
342.736 265.696 L
340.264 265.696 L
338.264 267.149 L
337.5 269.5 L
338.264 271.851 L
340.264 273.304 L
342.736 273.304 L
344.736 271.851 L
345.5 269.5 L
S
GR
GS
[0.75 0 0 0.75 0 0] CT
0 0.447 0.741 RC
2 setlinecap
10.0 ML
N
351.5 302.5 M
350.736 300.149 L
348.736 298.696 L
346.264 298.696 L
344.264 300.149 L
343.5 302.5 L
344.264 304.851 L
346.264 306.304 L
348.736 306.304 L
350.736 304.851 L
351.5 302.5 L
S
GR
GS
[0.75 0 0 0.75 0 0] CT
0 0.447 0.741 RC
2 setlinecap
10.0 ML
N
356.5 352.5 M
355.736 350.149 L
353.736 348.696 L
351.264 348.696 L
349.264 350.149 L
348.5 352.5 L
349.264 354.851 L
351.264 356.304 L
353.736 356.304 L
355.736 354.851 L
356.5 352.5 L
S
GR
GS
[0.75 0 0 0.75 0 0] CT
0 0.447 0.741 RC
2 setlinecap
10.0 ML
N
362.5 294.5 M
361.736 292.149 L
359.736 290.696 L
357.264 290.696 L
355.264 292.149 L
354.5 294.5 L
355.264 296.851 L
357.264 298.304 L
359.736 298.304 L
361.736 296.851 L
362.5 294.5 L
S
GR
GS
[0.75 0 0 0.75 0 0] CT
0 0.447 0.741 RC
2 setlinecap
10.0 ML
N
368.5 359.5 M
367.736 357.149 L
365.736 355.696 L
363.264 355.696 L
361.264 357.149 L
360.5 359.5 L
361.264 361.851 L
363.264 363.304 L
365.736 363.304 L
367.736 361.851 L
368.5 359.5 L
S
GR
GS
[0.75 0 0 0.75 0 0] CT
0 0.447 0.741 RC
2 setlinecap
10.0 ML
N
373.5 339.5 M
372.736 337.149 L
370.736 335.696 L
368.264 335.696 L
366.264 337.149 L
365.5 339.5 L
366.264 341.851 L
368.264 343.304 L
370.736 343.304 L
372.736 341.851 L
373.5 339.5 L
S
GR
GS
[0.75 0 0 0.75 0 0] CT
0 0.447 0.741 RC
2 setlinecap
10.0 ML
N
379.5 369.5 M
378.736 367.149 L
376.736 365.696 L
374.264 365.696 L
372.264 367.149 L
371.5 369.5 L
372.264 371.851 L
374.264 373.304 L
376.736 373.304 L
378.736 371.851 L
379.5 369.5 L
S
GR
GS
[0.75 0 0 0.75 0 0] CT
0 0.447 0.741 RC
2 setlinecap
10.0 ML
N
385.5 315.5 M
384.736 313.149 L
382.736 311.696 L
380.264 311.696 L
378.264 313.149 L
377.5 315.5 L
378.264 317.851 L
380.264 319.304 L
382.736 319.304 L
384.736 317.851 L
385.5 315.5 L
S
GR
GS
[0.75 0 0 0.75 0 0] CT
0 0.447 0.741 RC
2 setlinecap
10.0 ML
N
391.5 347.5 M
390.736 345.149 L
388.736 343.696 L
386.264 343.696 L
384.264 345.149 L
383.5 347.5 L
384.264 349.851 L
386.264 351.304 L
388.736 351.304 L
390.736 349.851 L
391.5 347.5 L
S
GR
GS
[0.75 0 0 0.75 0 0] CT
0 0.447 0.741 RC
2 setlinecap
10.0 ML
N
396.5 322.5 M
395.736 320.149 L
393.736 318.696 L
391.264 318.696 L
389.264 320.149 L
388.5 322.5 L
389.264 324.851 L
391.264 326.304 L
393.736 326.304 L
395.736 324.851 L
396.5 322.5 L
S
GR
GS
[0.75 0 0 0.75 0 0] CT
0 0.447 0.741 RC
2 setlinecap
10.0 ML
N
402.5 361.5 M
401.736 359.149 L
399.736 357.696 L
397.264 357.696 L
395.264 359.149 L
394.5 361.5 L
395.264 363.851 L
397.264 365.304 L
399.736 365.304 L
401.736 363.851 L
402.5 361.5 L
S
GR
GS
[0.75 0 0 0.75 0 0] CT
0 0.447 0.741 RC
2 setlinecap
10.0 ML
N
408.5 346.5 M
407.736 344.149 L
405.736 342.696 L
403.264 342.696 L
401.264 344.149 L
400.5 346.5 L
401.264 348.851 L
403.264 350.304 L
405.736 350.304 L
407.736 348.851 L
408.5 346.5 L
S
GR
GS
[0.75 0 0 0.75 0 0] CT
0 0.447 0.741 RC
2 setlinecap
10.0 ML
N
414.5 348.5 M
413.736 346.149 L
411.736 344.696 L
409.264 344.696 L
407.264 346.149 L
406.5 348.5 L
407.264 350.851 L
409.264 352.304 L
411.736 352.304 L
413.736 350.851 L
414.5 348.5 L
S
GR
GS
[0.75 0 0 0.75 0 0] CT
0 0.447 0.741 RC
2 setlinecap
10.0 ML
N
419.5 330.5 M
418.736 328.149 L
416.736 326.696 L
414.264 326.696 L
412.264 328.149 L
411.5 330.5 L
412.264 332.851 L
414.264 334.304 L
416.736 334.304 L
418.736 332.851 L
419.5 330.5 L
S
GR
GS
[0.75 0 0 0.75 0 0] CT
0 0.447 0.741 RC
2 setlinecap
10.0 ML
N
425.5 348.5 M
424.736 346.149 L
422.736 344.696 L
420.264 344.696 L
418.264 346.149 L
417.5 348.5 L
418.264 350.851 L
420.264 352.304 L
422.736 352.304 L
424.736 350.851 L
425.5 348.5 L
S
GR
GS
[0.75 0 0 0.75 0 0] CT
0 0.447 0.741 RC
2 setlinecap
10.0 ML
N
431.5 367.5 M
430.736 365.149 L
428.736 363.696 L
426.264 363.696 L
424.264 365.149 L
423.5 367.5 L
424.264 369.851 L
426.264 371.304 L
428.736 371.304 L
430.736 369.851 L
431.5 367.5 L
S
GR
GS
[0.75 0 0 0.75 0 0] CT
0 0.447 0.741 RC
2 setlinecap
10.0 ML
N
437.5 342.5 M
436.736 340.149 L
434.736 338.696 L
432.264 338.696 L
430.264 340.149 L
429.5 342.5 L
430.264 344.851 L
432.264 346.304 L
434.736 346.304 L
436.736 344.851 L
437.5 342.5 L
S
GR
GS
[0.75 0 0 0.75 0 0] CT
0 0.447 0.741 RC
2 setlinecap
10.0 ML
N
442.5 345.5 M
441.736 343.149 L
439.736 341.696 L
437.264 341.696 L
435.264 343.149 L
434.5 345.5 L
435.264 347.851 L
437.264 349.304 L
439.736 349.304 L
441.736 347.851 L
442.5 345.5 L
S
GR
GS
[0.75 0 0 0.75 0 0] CT
0 0.447 0.741 RC
2 setlinecap
10.0 ML
N
448.5 357.5 M
447.736 355.149 L
445.736 353.696 L
443.264 353.696 L
441.264 355.149 L
440.5 357.5 L
441.264 359.851 L
443.264 361.304 L
445.736 361.304 L
447.736 359.851 L
448.5 357.5 L
S
GR
GS
[0.75 0 0 0.75 0 0] CT
0 0.447 0.741 RC
2 setlinecap
10.0 ML
N
454.5 352.5 M
453.736 350.149 L
451.736 348.696 L
449.264 348.696 L
447.264 350.149 L
446.5 352.5 L
447.264 354.851 L
449.264 356.304 L
451.736 356.304 L
453.736 354.851 L
454.5 352.5 L
S
GR
GS
[0.75 0 0 0.75 0 0] CT
0 0.447 0.741 RC
2 setlinecap
10.0 ML
N
460.5 371.5 M
459.736 369.149 L
457.736 367.696 L
455.264 367.696 L
453.264 369.149 L
452.5 371.5 L
453.264 373.851 L
455.264 375.304 L
457.736 375.304 L
459.736 373.851 L
460.5 371.5 L
S
GR
GS
[0.75 0 0 0.75 0 0] CT
0 0.447 0.741 RC
2 setlinecap
10.0 ML
N
465.5 358.5 M
464.736 356.149 L
462.736 354.696 L
460.264 354.696 L
458.264 356.149 L
457.5 358.5 L
458.264 360.851 L
460.264 362.304 L
462.736 362.304 L
464.736 360.851 L
465.5 358.5 L
S
GR
GS
[0.75 0 0 0.75 0 0] CT
0 0.447 0.741 RC
2 setlinecap
10.0 ML
N
471.5 361.5 M
470.736 359.149 L
468.736 357.696 L
466.264 357.696 L
464.264 359.149 L
463.5 361.5 L
464.264 363.851 L
466.264 365.304 L
468.736 365.304 L
470.736 363.851 L
471.5 361.5 L
S
GR
GS
[0.75 0 0 0.75 0 0] CT
0 0.447 0.741 RC
2 setlinecap
10.0 ML
N
477.5 367.5 M
476.736 365.149 L
474.736 363.696 L
472.264 363.696 L
470.264 365.149 L
469.5 367.5 L
470.264 369.851 L
472.264 371.304 L
474.736 371.304 L
476.736 369.851 L
477.5 367.5 L
S
GR
GS
[0.75 0 0 0.75 0 0] CT
0 0.447 0.741 RC
2 setlinecap
10.0 ML
N
483.5 354.5 M
482.736 352.149 L
480.736 350.696 L
478.264 350.696 L
476.264 352.149 L
475.5 354.5 L
476.264 356.851 L
478.264 358.304 L
480.736 358.304 L
482.736 356.851 L
483.5 354.5 L
S
GR
GS
[0.75 0 0 0.75 0 0] CT
0 0.447 0.741 RC
2 setlinecap
10.0 ML
N
488.5 360.5 M
487.736 358.149 L
485.736 356.696 L
483.264 356.696 L
481.264 358.149 L
480.5 360.5 L
481.264 362.851 L
483.264 364.304 L
485.736 364.304 L
487.736 362.851 L
488.5 360.5 L
S
GR
GS
[0.75 0 0 0.75 0 0] CT
0 0.447 0.741 RC
2 setlinecap
10.0 ML
N
494.5 353.5 M
493.736 351.149 L
491.736 349.696 L
489.264 349.696 L
487.264 351.149 L
486.5 353.5 L
487.264 355.851 L
489.264 357.304 L
491.736 357.304 L
493.736 355.851 L
494.5 353.5 L
S
GR
GS
[0.75 0 0 0.75 0 0] CT
0 0.447 0.741 RC
2 setlinecap
10.0 ML
N
500.5 367.5 M
499.736 365.149 L
497.736 363.696 L
495.264 363.696 L
493.264 365.149 L
492.5 367.5 L
493.264 369.851 L
495.264 371.304 L
497.736 371.304 L
499.736 369.851 L
500.5 367.5 L
S
GR
GS
[0.75 0 0 0.75 0 0] CT
0 0.447 0.741 RC
2 setlinecap
10.0 ML
N
505.5 371.5 M
504.736 369.149 L
502.736 367.696 L
500.264 367.696 L
498.264 369.149 L
497.5 371.5 L
498.264 373.851 L
500.264 375.304 L
502.736 375.304 L
504.736 373.851 L
505.5 371.5 L
S
GR
GS
[0.75 0 0 0.75 0 0] CT
0 0.447 0.741 RC
2 setlinecap
10.0 ML
N
77.304 374 M
77.304 94.945 L
S
GR
GS
[0.75 0 0 0.75 0 0] CT
0 0.447 0.741 RC
2 setlinecap
10.0 ML
N
83.043 374 M
83.043 66.437 L
S
GR
GS
[0.75 0 0 0.75 0 0] CT
0 0.447 0.741 RC
2 setlinecap
10.0 ML
N
88.782 374 M
88.782 161.272 L
S
GR
GS
[0.75 0 0 0.75 0 0] CT
0 0.447 0.741 RC
2 setlinecap
10.0 ML
N
94.521 374 M
94.521 267.966 L
S
GR
GS
[0.75 0 0 0.75 0 0] CT
0 0.447 0.741 RC
2 setlinecap
10.0 ML
N
100.26 374 M
100.26 158.83 L
S
GR
GS
[0.75 0 0 0.75 0 0] CT
0 0.447 0.741 RC
2 setlinecap
10.0 ML
N
105.998 374 M
105.998 107.412 L
S
GR
GS
[0.75 0 0 0.75 0 0] CT
0 0.447 0.741 RC
2 setlinecap
10.0 ML
N
111.737 374 M
111.737 57.997 L
S
GR
GS
[0.75 0 0 0.75 0 0] CT
0 0.447 0.741 RC
2 setlinecap
10.0 ML
N
117.476 374 M
117.476 105.922 L
S
GR
GS
[0.75 0 0 0.75 0 0] CT
0 0.447 0.741 RC
2 setlinecap
10.0 ML
N
123.215 374 M
123.215 97.597 L
S
GR
GS
[0.75 0 0 0.75 0 0] CT
0 0.447 0.741 RC
2 setlinecap
10.0 ML
N
128.954 374 M
128.954 117.993 L
S
GR
GS
[0.75 0 0 0.75 0 0] CT
0 0.447 0.741 RC
2 setlinecap
10.0 ML
N
134.693 374 M
134.693 140.778 L
S
GR
GS
[0.75 0 0 0.75 0 0] CT
0 0.447 0.741 RC
2 setlinecap
10.0 ML
N
140.431 374 M
140.431 99.037 L
S
GR
GS
[0.75 0 0 0.75 0 0] CT
0 0.447 0.741 RC
2 setlinecap
10.0 ML
N
146.17 374 M
146.17 138.866 L
S
GR
GS
[0.75 0 0 0.75 0 0] CT
0 0.447 0.741 RC
2 setlinecap
10.0 ML
N
151.909 374 M
151.909 106.67 L
S
GR
GS
[0.75 0 0 0.75 0 0] CT
0 0.447 0.741 RC
2 setlinecap
10.0 ML
N
157.648 374 M
157.648 151.038 L
S
GR
GS
[0.75 0 0 0.75 0 0] CT
0 0.447 0.741 RC
2 setlinecap
10.0 ML
N
163.387 374 M
163.387 195.299 L
S
GR
GS
[0.75 0 0 0.75 0 0] CT
0 0.447 0.741 RC
2 setlinecap
10.0 ML
N
169.126 374 M
169.126 150.04 L
S
GR
GS
[0.75 0 0 0.75 0 0] CT
0 0.447 0.741 RC
2 setlinecap
10.0 ML
N
174.864 374 M
174.864 136.059 L
S
GR
GS
[0.75 0 0 0.75 0 0] CT
0 0.447 0.741 RC
2 setlinecap
10.0 ML
N
180.603 374 M
180.603 169.832 L
S
GR
GS
[0.75 0 0 0.75 0 0] CT
0 0.447 0.741 RC
2 setlinecap
10.0 ML
N
186.342 374 M
186.342 265.996 L
S
GR
GS
[0.75 0 0 0.75 0 0] CT
0 0.447 0.741 RC
2 setlinecap
10.0 ML
N
192.081 374 M
192.081 265.28 L
S
GR
GS
[0.75 0 0 0.75 0 0] CT
0 0.447 0.741 RC
2 setlinecap
10.0 ML
N
197.82 374 M
197.82 188.571 L
S
GR
GS
[0.75 0 0 0.75 0 0] CT
0 0.447 0.741 RC
2 setlinecap
10.0 ML
N
203.559 374 M
203.559 250.971 L
S
GR
GS
[0.75 0 0 0.75 0 0] CT
0 0.447 0.741 RC
2 setlinecap
10.0 ML
N
209.298 374 M
209.298 284.297 L
S
GR
GS
[0.75 0 0 0.75 0 0] CT
0 0.447 0.741 RC
2 setlinecap
10.0 ML
N
215.036 374 M
215.036 291.098 L
S
GR
GS
[0.75 0 0 0.75 0 0] CT
0 0.447 0.741 RC
2 setlinecap
10.0 ML
N
220.775 374 M
220.775 277.172 L
S
GR
GS
[0.75 0 0 0.75 0 0] CT
0 0.447 0.741 RC
2 setlinecap
10.0 ML
N
226.514 374 M
226.514 293.106 L
S
GR
GS
[0.75 0 0 0.75 0 0] CT
0 0.447 0.741 RC
2 setlinecap
10.0 ML
N
232.253 374 M
232.253 285.78 L
S
GR
GS
[0.75 0 0 0.75 0 0] CT
0 0.447 0.741 RC
2 setlinecap
10.0 ML
N
237.992 374 M
237.992 335.125 L
S
GR
GS
[0.75 0 0 0.75 0 0] CT
0 0.447 0.741 RC
2 setlinecap
10.0 ML
N
243.731 374 M
243.731 317.993 L
S
GR
GS
[0.75 0 0 0.75 0 0] CT
0 0.447 0.741 RC
2 setlinecap
10.0 ML
N
249.469 374 M
249.469 310.267 L
S
GR
GS
[0.75 0 0 0.75 0 0] CT
0 0.447 0.741 RC
2 setlinecap
10.0 ML
N
255.208 374 M
255.208 317.603 L
S
GR
GS
[0.75 0 0 0.75 0 0] CT
0 0.447 0.741 RC
2 setlinecap
10.0 ML
N
260.947 374 M
260.947 327.059 L
S
GR
GS
[0.75 0 0 0.75 0 0] CT
0 0.447 0.741 RC
2 setlinecap
10.0 ML
N
266.686 374 M
266.686 342.999 L
S
GR
GS
[0.75 0 0 0.75 0 0] CT
0 0.447 0.741 RC
2 setlinecap
10.0 ML
N
272.425 374 M
272.425 333.795 L
S
GR
GS
[0.75 0 0 0.75 0 0] CT
0 0.447 0.741 RC
2 setlinecap
10.0 ML
N
278.164 374 M
278.164 354.727 L
S
GR
GS
[0.75 0 0 0.75 0 0] CT
0 0.447 0.741 RC
2 setlinecap
10.0 ML
N
283.902 374 M
283.902 343.332 L
S
GR
GS
[0.75 0 0 0.75 0 0] CT
0 0.447 0.741 RC
2 setlinecap
10.0 ML
N
289.641 374 M
289.641 328.836 L
S
GR
GS
[0.75 0 0 0.75 0 0] CT
0 0.447 0.741 RC
2 setlinecap
10.0 ML
N
295.38 374 M
295.38 342.518 L
S
GR
GS
[0.75 0 0 0.75 0 0] CT
0 0.447 0.741 RC
2 setlinecap
10.0 ML
N
301.119 374 M
301.119 296.471 L
S
GR
GS
[0.75 0 0 0.75 0 0] CT
0 0.447 0.741 RC
2 setlinecap
10.0 ML
N
306.858 374 M
306.858 346.66 L
S
GR
GS
[0.75 0 0 0.75 0 0] CT
0 0.447 0.741 RC
2 setlinecap
10.0 ML
N
312.597 374 M
312.597 308.687 L
S
GR
GS
[0.75 0 0 0.75 0 0] CT
0 0.447 0.741 RC
2 setlinecap
10.0 ML
N
318.336 374 M
318.336 351.606 L
S
GR
GS
[0.75 0 0 0.75 0 0] CT
0 0.447 0.741 RC
2 setlinecap
10.0 ML
N
324.074 374 M
324.074 272.376 L
S
GR
GS
[0.75 0 0 0.75 0 0] CT
0 0.447 0.741 RC
2 setlinecap
10.0 ML
N
329.813 374 M
329.813 201.312 L
S
GR
GS
[0.75 0 0 0.75 0 0] CT
0 0.447 0.741 RC
2 setlinecap
10.0 ML
N
335.552 374 M
335.552 163.86 L
S
GR
GS
[0.75 0 0 0.75 0 0] CT
0 0.447 0.741 RC
2 setlinecap
10.0 ML
N
341.291 374 M
341.291 269.405 L
S
GR
GS
[0.75 0 0 0.75 0 0] CT
0 0.447 0.741 RC
2 setlinecap
10.0 ML
N
347.03 374 M
347.03 302.737 L
S
GR
GS
[0.75 0 0 0.75 0 0] CT
0 0.447 0.741 RC
2 setlinecap
10.0 ML
N
352.769 374 M
352.769 352.328 L
S
GR
GS
[0.75 0 0 0.75 0 0] CT
0 0.447 0.741 RC
2 setlinecap
10.0 ML
N
358.507 374 M
358.507 294.412 L
S
GR
GS
[0.75 0 0 0.75 0 0] CT
0 0.447 0.741 RC
2 setlinecap
10.0 ML
N
364.246 374 M
364.246 359.362 L
S
GR
GS
[0.75 0 0 0.75 0 0] CT
0 0.447 0.741 RC
2 setlinecap
10.0 ML
N
369.985 374 M
369.985 339.398 L
S
GR
GS
[0.75 0 0 0.75 0 0] CT
0 0.447 0.741 RC
2 setlinecap
10.0 ML
N
375.724 374 M
375.724 369.195 L
S
GR
GS
[0.75 0 0 0.75 0 0] CT
0 0.447 0.741 RC
2 setlinecap
10.0 ML
N
381.463 374 M
381.463 315.99 L
S
GR
GS
[0.75 0 0 0.75 0 0] CT
0 0.447 0.741 RC
2 setlinecap
10.0 ML
N
387.202 374 M
387.202 347.314 L
S
GR
GS
[0.75 0 0 0.75 0 0] CT
0 0.447 0.741 RC
2 setlinecap
10.0 ML
N
392.94 374 M
392.94 322.964 L
S
GR
GS
[0.75 0 0 0.75 0 0] CT
0 0.447 0.741 RC
2 setlinecap
10.0 ML
N
398.679 374 M
398.679 361.235 L
S
GR
GS
[0.75 0 0 0.75 0 0] CT
0 0.447 0.741 RC
2 setlinecap
10.0 ML
N
404.418 374 M
404.418 346.321 L
S
GR
GS
[0.75 0 0 0.75 0 0] CT
0 0.447 0.741 RC
2 setlinecap
10.0 ML
N
410.157 374 M
410.157 348.46 L
S
GR
GS
[0.75 0 0 0.75 0 0] CT
0 0.447 0.741 RC
2 setlinecap
10.0 ML
N
415.896 374 M
415.896 330.513 L
S
GR
GS
[0.75 0 0 0.75 0 0] CT
0 0.447 0.741 RC
2 setlinecap
10.0 ML
N
421.635 374 M
421.635 348.431 L
S
GR
GS
[0.75 0 0 0.75 0 0] CT
0 0.447 0.741 RC
2 setlinecap
10.0 ML
N
427.374 374 M
427.374 367.796 L
S
GR
GS
[0.75 0 0 0.75 0 0] CT
0 0.447 0.741 RC
2 setlinecap
10.0 ML
N
433.112 374 M
433.112 342.099 L
S
GR
GS
[0.75 0 0 0.75 0 0] CT
0 0.447 0.741 RC
2 setlinecap
10.0 ML
N
438.851 374 M
438.851 345.351 L
S
GR
GS
[0.75 0 0 0.75 0 0] CT
0 0.447 0.741 RC
2 setlinecap
10.0 ML
N
444.59 374 M
444.59 357.343 L
S
GR
GS
[0.75 0 0 0.75 0 0] CT
0 0.447 0.741 RC
2 setlinecap
10.0 ML
N
450.329 374 M
450.329 352.804 L
S
GR
GS
[0.75 0 0 0.75 0 0] CT
0 0.447 0.741 RC
2 setlinecap
10.0 ML
N
456.068 374 M
456.068 371.541 L
S
GR
GS
[0.75 0 0 0.75 0 0] CT
0 0.447 0.741 RC
2 setlinecap
10.0 ML
N
461.807 374 M
461.807 358.241 L
S
GR
GS
[0.75 0 0 0.75 0 0] CT
0 0.447 0.741 RC
2 setlinecap
10.0 ML
N
467.545 374 M
467.545 361.156 L
S
GR
GS
[0.75 0 0 0.75 0 0] CT
0 0.447 0.741 RC
2 setlinecap
10.0 ML
N
473.284 374 M
473.284 367.612 L
S
GR
GS
[0.75 0 0 0.75 0 0] CT
0 0.447 0.741 RC
2 setlinecap
10.0 ML
N
479.023 374 M
479.023 354.08 L
S
GR
GS
[0.75 0 0 0.75 0 0] CT
0 0.447 0.741 RC
2 setlinecap
10.0 ML
N
484.762 374 M
484.762 360.864 L
S
GR
GS
[0.75 0 0 0.75 0 0] CT
0 0.447 0.741 RC
2 setlinecap
10.0 ML
N
490.501 374 M
490.501 353.629 L
S
GR
GS
[0.75 0 0 0.75 0 0] CT
0 0.447 0.741 RC
2 setlinecap
10.0 ML
N
496.24 374 M
496.24 367.217 L
S
GR
GS
[0.75 0 0 0.75 0 0] CT
0 0.447 0.741 RC
2 setlinecap
10.0 ML
N
501.978 374 M
501.978 371.071 L
S
GR
GS
[0.75 0 0 0.75 217.50021 21.18749] CT
/Helvetica-Bold 15 F
GS
[1 0 0 1 0 0] CT
-144 -4 moveto 
1 -1 scale
(Single-Sided Amplitude Spectrum of y\(t\)) t 
GR
GR
GS
[0.75 0 0 0.75 0 0] CT
0.149 GC
2 setlinecap
10.0 ML
N
73 374 M
507 374 L
S
GR
%%Trailer
%%Pages: 1
%%EOF
