%!PS-Adobe-3.0 EPSF-3.0
%%Creator: (MATLAB, The Mathworks, Inc. Version 8.5.0.197613 \(R2015a\). Operating System: Windows 8)
%%Title: (C:/Users/aleja/Desktop/TFG/Documentaci\363n/Obtenci\363n de datos/matlab_plot/stems/alvaro12-17.eps)
%%CreationDate: 2019-05-22T11:26:23
%%Pages: (atend)
%%BoundingBox: 0 0 420 315
%%LanguageLevel: 2
%%EndComments
%%BeginProlog
%%BeginResource: procset (Apache XML Graphics Std ProcSet) 1.2 0
%%Version: 1.2 0
%%Copyright: (Copyright 2001-2003,2010 The Apache Software Foundation. License terms: http://www.apache.org/licenses/LICENSE-2.0)
/bd{bind def}bind def
/ld{load def}bd
/GR/grestore ld
/M/moveto ld
/LJ/setlinejoin ld
/C/curveto ld
/f/fill ld
/LW/setlinewidth ld
/GC/setgray ld
/t/show ld
/N/newpath ld
/CT/concat ld
/cp/closepath ld
/S/stroke ld
/L/lineto ld
/CC/setcmykcolor ld
/A/ashow ld
/GS/gsave ld
/RC/setrgbcolor ld
/RM/rmoveto ld
/ML/setmiterlimit ld
/re {4 2 roll M
1 index 0 rlineto
0 exch rlineto
neg 0 rlineto
cp } bd
/_ctm matrix def
/_tm matrix def
/BT { _ctm currentmatrix pop matrix _tm copy pop 0 0 moveto } bd
/ET { _ctm setmatrix } bd
/iTm { _ctm setmatrix _tm concat } bd
/Tm { _tm astore pop iTm 0 0 moveto } bd
/ux 0.0 def
/uy 0.0 def
/F {
  /Tp exch def
  /Tf exch def
  Tf findfont Tp scalefont setfont
  /cf Tf def  /cs Tp def
} bd
/ULS {currentpoint /uy exch def /ux exch def} bd
/ULE {
  /Tcx currentpoint pop def
  gsave
  newpath
  cf findfont cs scalefont dup
  /FontMatrix get 0 get /Ts exch def /FontInfo get dup
  /UnderlinePosition get Ts mul /To exch def
  /UnderlineThickness get Ts mul /Tt exch def
  ux uy To add moveto  Tcx uy To add lineto
  Tt setlinewidth stroke
  grestore
} bd
/OLE {
  /Tcx currentpoint pop def
  gsave
  newpath
  cf findfont cs scalefont dup
  /FontMatrix get 0 get /Ts exch def /FontInfo get dup
  /UnderlinePosition get Ts mul /To exch def
  /UnderlineThickness get Ts mul /Tt exch def
  ux uy To add cs add moveto Tcx uy To add cs add lineto
  Tt setlinewidth stroke
  grestore
} bd
/SOE {
  /Tcx currentpoint pop def
  gsave
  newpath
  cf findfont cs scalefont dup
  /FontMatrix get 0 get /Ts exch def /FontInfo get dup
  /UnderlinePosition get Ts mul /To exch def
  /UnderlineThickness get Ts mul /Tt exch def
  ux uy To add cs 10 mul 26 idiv add moveto Tcx uy To add cs 10 mul 26 idiv add lineto
  Tt setlinewidth stroke
  grestore
} bd
/QT {
/Y22 exch store
/X22 exch store
/Y21 exch store
/X21 exch store
currentpoint
/Y21 load 2 mul add 3 div exch
/X21 load 2 mul add 3 div exch
/X21 load 2 mul /X22 load add 3 div
/Y21 load 2 mul /Y22 load add 3 div
/X22 load /Y22 load curveto
} bd
/SSPD {
dup length /d exch dict def
{
/v exch def
/k exch def
currentpagedevice k known {
/cpdv currentpagedevice k get def
v cpdv ne {
/upd false def
/nullv v type /nulltype eq def
/nullcpdv cpdv type /nulltype eq def
nullv nullcpdv or
{
/upd true def
} {
/sametype v type cpdv type eq def
sametype {
v type /arraytype eq {
/vlen v length def
/cpdvlen cpdv length def
vlen cpdvlen eq {
0 1 vlen 1 sub {
/i exch def
/obj v i get def
/cpdobj cpdv i get def
obj cpdobj ne {
/upd true def
exit
} if
} for
} {
/upd true def
} ifelse
} {
v type /dicttype eq {
v {
/dv exch def
/dk exch def
/cpddv cpdv dk get def
dv cpddv ne {
/upd true def
exit
} if
} forall
} {
/upd true def
} ifelse
} ifelse
} if
} ifelse
upd true eq {
d k v put
} if
} if
} if
} forall
d length 0 gt {
d setpagedevice
} if
} bd
%%EndResource
%%BeginResource: procset (Apache XML Graphics EPS ProcSet) 1.0 0
%%Version: 1.0 0
%%Copyright: (Copyright 2002-2003 The Apache Software Foundation. License terms: http://www.apache.org/licenses/LICENSE-2.0)
/BeginEPSF { %def
/b4_Inc_state save def         % Save state for cleanup
/dict_count countdictstack def % Count objects on dict stack
/op_count count 1 sub def      % Count objects on operand stack
userdict begin                 % Push userdict on dict stack
/showpage { } def              % Redefine showpage, { } = null proc
0 setgray 0 setlinecap         % Prepare graphics state
1 setlinewidth 0 setlinejoin
10 setmiterlimit [ ] 0 setdash newpath
/languagelevel where           % If level not equal to 1 then
{pop languagelevel             % set strokeadjust and
1 ne                           % overprint to their defaults.
{false setstrokeadjust false setoverprint
} if
} if
} bd
/EndEPSF { %def
count op_count sub {pop} repeat            % Clean up stacks
countdictstack dict_count sub {end} repeat
b4_Inc_state restore
} bd
%%EndResource
%FOPBeginFontDict
%%IncludeResource: font Courier-Bold
%%IncludeResource: font Helvetica
%%IncludeResource: font Courier-BoldOblique
%%IncludeResource: font Courier-Oblique
%%IncludeResource: font Times-Roman
%%IncludeResource: font Helvetica-BoldOblique
%%IncludeResource: font Helvetica-Bold
%%IncludeResource: font Helvetica-Oblique
%%IncludeResource: font Times-BoldItalic
%%IncludeResource: font Courier
%%IncludeResource: font Times-Italic
%%IncludeResource: font Times-Bold
%%IncludeResource: font Symbol
%%IncludeResource: font ZapfDingbats
%FOPEndFontDict
%%BeginResource: encoding WinAnsiEncoding
/WinAnsiEncoding [
/.notdef /.notdef /.notdef /.notdef /.notdef
/.notdef /.notdef /.notdef /.notdef /.notdef
/.notdef /.notdef /.notdef /.notdef /.notdef
/.notdef /.notdef /.notdef /.notdef /.notdef
/.notdef /.notdef /.notdef /.notdef /.notdef
/.notdef /.notdef /.notdef /.notdef /.notdef
/.notdef /.notdef /space /exclam /quotedbl
/numbersign /dollar /percent /ampersand /quotesingle
/parenleft /parenright /asterisk /plus /comma
/hyphen /period /slash /zero /one
/two /three /four /five /six
/seven /eight /nine /colon /semicolon
/less /equal /greater /question /at
/A /B /C /D /E
/F /G /H /I /J
/K /L /M /N /O
/P /Q /R /S /T
/U /V /W /X /Y
/Z /bracketleft /backslash /bracketright /asciicircum
/underscore /quoteleft /a /b /c
/d /e /f /g /h
/i /j /k /l /m
/n /o /p /q /r
/s /t /u /v /w
/x /y /z /braceleft /bar
/braceright /asciitilde /bullet /Euro /bullet
/quotesinglbase /florin /quotedblbase /ellipsis /dagger
/daggerdbl /circumflex /perthousand /Scaron /guilsinglleft
/OE /bullet /Zcaron /bullet /bullet
/quoteleft /quoteright /quotedblleft /quotedblright /bullet
/endash /emdash /asciitilde /trademark /scaron
/guilsinglright /oe /bullet /zcaron /Ydieresis
/space /exclamdown /cent /sterling /currency
/yen /brokenbar /section /dieresis /copyright
/ordfeminine /guillemotleft /logicalnot /sfthyphen /registered
/macron /degree /plusminus /twosuperior /threesuperior
/acute /mu /paragraph /middot /cedilla
/onesuperior /ordmasculine /guillemotright /onequarter /onehalf
/threequarters /questiondown /Agrave /Aacute /Acircumflex
/Atilde /Adieresis /Aring /AE /Ccedilla
/Egrave /Eacute /Ecircumflex /Edieresis /Igrave
/Iacute /Icircumflex /Idieresis /Eth /Ntilde
/Ograve /Oacute /Ocircumflex /Otilde /Odieresis
/multiply /Oslash /Ugrave /Uacute /Ucircumflex
/Udieresis /Yacute /Thorn /germandbls /agrave
/aacute /acircumflex /atilde /adieresis /aring
/ae /ccedilla /egrave /eacute /ecircumflex
/edieresis /igrave /iacute /icircumflex /idieresis
/eth /ntilde /ograve /oacute /ocircumflex
/otilde /odieresis /divide /oslash /ugrave
/uacute /ucircumflex /udieresis /yacute /thorn
/ydieresis
] def
%%EndResource
%FOPBeginFontReencode
/Courier-Bold findfont
dup length dict begin
  {1 index /FID ne {def} {pop pop} ifelse} forall
  /Encoding WinAnsiEncoding def
  currentdict
end
/Courier-Bold exch definefont pop
/Helvetica findfont
dup length dict begin
  {1 index /FID ne {def} {pop pop} ifelse} forall
  /Encoding WinAnsiEncoding def
  currentdict
end
/Helvetica exch definefont pop
/Courier-BoldOblique findfont
dup length dict begin
  {1 index /FID ne {def} {pop pop} ifelse} forall
  /Encoding WinAnsiEncoding def
  currentdict
end
/Courier-BoldOblique exch definefont pop
/Courier-Oblique findfont
dup length dict begin
  {1 index /FID ne {def} {pop pop} ifelse} forall
  /Encoding WinAnsiEncoding def
  currentdict
end
/Courier-Oblique exch definefont pop
/Times-Roman findfont
dup length dict begin
  {1 index /FID ne {def} {pop pop} ifelse} forall
  /Encoding WinAnsiEncoding def
  currentdict
end
/Times-Roman exch definefont pop
/Helvetica-BoldOblique findfont
dup length dict begin
  {1 index /FID ne {def} {pop pop} ifelse} forall
  /Encoding WinAnsiEncoding def
  currentdict
end
/Helvetica-BoldOblique exch definefont pop
/Helvetica-Bold findfont
dup length dict begin
  {1 index /FID ne {def} {pop pop} ifelse} forall
  /Encoding WinAnsiEncoding def
  currentdict
end
/Helvetica-Bold exch definefont pop
/Helvetica-Oblique findfont
dup length dict begin
  {1 index /FID ne {def} {pop pop} ifelse} forall
  /Encoding WinAnsiEncoding def
  currentdict
end
/Helvetica-Oblique exch definefont pop
/Times-BoldItalic findfont
dup length dict begin
  {1 index /FID ne {def} {pop pop} ifelse} forall
  /Encoding WinAnsiEncoding def
  currentdict
end
/Times-BoldItalic exch definefont pop
/Courier findfont
dup length dict begin
  {1 index /FID ne {def} {pop pop} ifelse} forall
  /Encoding WinAnsiEncoding def
  currentdict
end
/Courier exch definefont pop
/Times-Italic findfont
dup length dict begin
  {1 index /FID ne {def} {pop pop} ifelse} forall
  /Encoding WinAnsiEncoding def
  currentdict
end
/Times-Italic exch definefont pop
/Times-Bold findfont
dup length dict begin
  {1 index /FID ne {def} {pop pop} ifelse} forall
  /Encoding WinAnsiEncoding def
  currentdict
end
/Times-Bold exch definefont pop
%FOPEndFontReencode
%%EndProlog
%%Page: 1 1
%%PageBoundingBox: 0 0 420 315
%%BeginPageSetup
[1 0 0 -1 0 315] CT
%%EndPageSetup
GS
[0.75 0 0 0.75 0 0] CT
1 GC
N
0 0 560 420 re
f
GR
GS
[0.75 0 0 0.75 0 0] CT
1 GC
N
0 0 560 420 re
f
GR
GS
[0.75 0 0 0.75 0 0] CT
1 GC
N
73 374 M
507 374 L
507 31 L
73 31 L
cp
f
GR
GS
[0.75 0 0 0.75 217.50016 298.24999] CT
0.149 GC
/Helvetica 15 F
GS
[1 0 0 1 0 0] CT
-52 16 moveto 
1 -1 scale
(Frequency \(Hz\)) t 
GR
GR
GS
[0.75 0 0 0.75 0 0] CT
0.149 GC
2 setlinecap
10.0 ML
N
73 374 M
507 374 L
S
GR
GS
[0.75 0 0 0.75 0 0] CT
0.149 GC
2 setlinecap
10.0 ML
N
73 31 M
507 31 L
S
GR
GS
[0.75 0 0 0.75 0 0] CT
0.149 GC
2 setlinecap
10.0 ML
N
73 374 M
73 369.66 L
S
GR
GS
[0.75 0 0 0.75 0 0] CT
0.149 GC
2 setlinecap
10.0 ML
N
116.4 374 M
116.4 369.66 L
S
GR
GS
[0.75 0 0 0.75 0 0] CT
0.149 GC
2 setlinecap
10.0 ML
N
159.8 374 M
159.8 369.66 L
S
GR
GS
[0.75 0 0 0.75 0 0] CT
0.149 GC
2 setlinecap
10.0 ML
N
203.2 374 M
203.2 369.66 L
S
GR
GS
[0.75 0 0 0.75 0 0] CT
0.149 GC
2 setlinecap
10.0 ML
N
246.6 374 M
246.6 369.66 L
S
GR
GS
[0.75 0 0 0.75 0 0] CT
0.149 GC
2 setlinecap
10.0 ML
N
290 374 M
290 369.66 L
S
GR
GS
[0.75 0 0 0.75 0 0] CT
0.149 GC
2 setlinecap
10.0 ML
N
333.4 374 M
333.4 369.66 L
S
GR
GS
[0.75 0 0 0.75 0 0] CT
0.149 GC
2 setlinecap
10.0 ML
N
376.8 374 M
376.8 369.66 L
S
GR
GS
[0.75 0 0 0.75 0 0] CT
0.149 GC
2 setlinecap
10.0 ML
N
420.2 374 M
420.2 369.66 L
S
GR
GS
[0.75 0 0 0.75 0 0] CT
0.149 GC
2 setlinecap
10.0 ML
N
463.6 374 M
463.6 369.66 L
S
GR
GS
[0.75 0 0 0.75 0 0] CT
0.149 GC
2 setlinecap
10.0 ML
N
507 374 M
507 369.66 L
S
GR
GS
[0.75 0 0 0.75 0 0] CT
0.149 GC
2 setlinecap
10.0 ML
N
73 31 M
73 35.34 L
S
GR
GS
[0.75 0 0 0.75 0 0] CT
0.149 GC
2 setlinecap
10.0 ML
N
116.4 31 M
116.4 35.34 L
S
GR
GS
[0.75 0 0 0.75 0 0] CT
0.149 GC
2 setlinecap
10.0 ML
N
159.8 31 M
159.8 35.34 L
S
GR
GS
[0.75 0 0 0.75 0 0] CT
0.149 GC
2 setlinecap
10.0 ML
N
203.2 31 M
203.2 35.34 L
S
GR
GS
[0.75 0 0 0.75 0 0] CT
0.149 GC
2 setlinecap
10.0 ML
N
246.6 31 M
246.6 35.34 L
S
GR
GS
[0.75 0 0 0.75 0 0] CT
0.149 GC
2 setlinecap
10.0 ML
N
290 31 M
290 35.34 L
S
GR
GS
[0.75 0 0 0.75 0 0] CT
0.149 GC
2 setlinecap
10.0 ML
N
333.4 31 M
333.4 35.34 L
S
GR
GS
[0.75 0 0 0.75 0 0] CT
0.149 GC
2 setlinecap
10.0 ML
N
376.8 31 M
376.8 35.34 L
S
GR
GS
[0.75 0 0 0.75 0 0] CT
0.149 GC
2 setlinecap
10.0 ML
N
420.2 31 M
420.2 35.34 L
S
GR
GS
[0.75 0 0 0.75 0 0] CT
0.149 GC
2 setlinecap
10.0 ML
N
463.6 31 M
463.6 35.34 L
S
GR
GS
[0.75 0 0 0.75 0 0] CT
0.149 GC
2 setlinecap
10.0 ML
N
507 31 M
507 35.34 L
S
GR
GS
[0.75 0 0 0.75 54.75 284.50001] CT
0.149 GC
/Helvetica 13 F
GS
[1 0 0 1 0 0] CT
-4 14 moveto 
1 -1 scale
(0) t 
GR
GR
GS
[0.75 0 0 0.75 87.3 284.50001] CT
0.149 GC
/Helvetica 13 F
GS
[1 0 0 1 0 0] CT
-7.5 14 moveto 
1 -1 scale
(10) t 
GR
GR
GS
[0.75 0 0 0.75 119.85 284.50001] CT
0.149 GC
/Helvetica 13 F
GS
[1 0 0 1 0 0] CT
-7.5 14 moveto 
1 -1 scale
(20) t 
GR
GR
GS
[0.75 0 0 0.75 152.4 284.50001] CT
0.149 GC
/Helvetica 13 F
GS
[1 0 0 1 0 0] CT
-7.5 14 moveto 
1 -1 scale
(30) t 
GR
GR
GS
[0.75 0 0 0.75 184.95 284.50001] CT
0.149 GC
/Helvetica 13 F
GS
[1 0 0 1 0 0] CT
-7.5 14 moveto 
1 -1 scale
(40) t 
GR
GR
GS
[0.75 0 0 0.75 217.5 284.50001] CT
0.149 GC
/Helvetica 13 F
GS
[1 0 0 1 0 0] CT
-7.5 14 moveto 
1 -1 scale
(50) t 
GR
GR
GS
[0.75 0 0 0.75 250.05 284.50001] CT
0.149 GC
/Helvetica 13 F
GS
[1 0 0 1 0 0] CT
-7.5 14 moveto 
1 -1 scale
(60) t 
GR
GR
GS
[0.75 0 0 0.75 282.59999 284.50001] CT
0.149 GC
/Helvetica 13 F
GS
[1 0 0 1 0 0] CT
-7.5 14 moveto 
1 -1 scale
(70) t 
GR
GR
GS
[0.75 0 0 0.75 315.15001 284.50001] CT
0.149 GC
/Helvetica 13 F
GS
[1 0 0 1 0 0] CT
-7.5 14 moveto 
1 -1 scale
(80) t 
GR
GR
GS
[0.75 0 0 0.75 347.7 284.50001] CT
0.149 GC
/Helvetica 13 F
GS
[1 0 0 1 0 0] CT
-7.5 14 moveto 
1 -1 scale
(90) t 
GR
GR
GS
[0.75 0 0 0.75 380.25 284.50001] CT
0.149 GC
/Helvetica 13 F
GS
[1 0 0 1 0 0] CT
-11 14 moveto 
1 -1 scale
(100) t 
GR
GR
GS
[0 -0.75 0.75 0 33.5 151.87489] CT
0.149 GC
/Helvetica 15 F
GS
[1 0 0 1 0 0] CT
-61.5 -4 moveto 
1 -1 scale
(|P\(f\)| MAgnitud dB) t 
GR
GR
GS
[0.75 0 0 0.75 0 0] CT
0.149 GC
2 setlinecap
10.0 ML
N
73 374 M
73 31 L
S
GR
GS
[0.75 0 0 0.75 0 0] CT
0.149 GC
2 setlinecap
10.0 ML
N
507 374 M
507 31 L
S
GR
GS
[0.75 0 0 0.75 0 0] CT
0.149 GC
2 setlinecap
10.0 ML
N
73 374 M
77.34 374 L
S
GR
GS
[0.75 0 0 0.75 0 0] CT
0.149 GC
2 setlinecap
10.0 ML
N
73 325 M
77.34 325 L
S
GR
GS
[0.75 0 0 0.75 0 0] CT
0.149 GC
2 setlinecap
10.0 ML
N
73 276 M
77.34 276 L
S
GR
GS
[0.75 0 0 0.75 0 0] CT
0.149 GC
2 setlinecap
10.0 ML
N
73 227 M
77.34 227 L
S
GR
GS
[0.75 0 0 0.75 0 0] CT
0.149 GC
2 setlinecap
10.0 ML
N
73 178 M
77.34 178 L
S
GR
GS
[0.75 0 0 0.75 0 0] CT
0.149 GC
2 setlinecap
10.0 ML
N
73 129 M
77.34 129 L
S
GR
GS
[0.75 0 0 0.75 0 0] CT
0.149 GC
2 setlinecap
10.0 ML
N
73 80 M
77.34 80 L
S
GR
GS
[0.75 0 0 0.75 0 0] CT
0.149 GC
2 setlinecap
10.0 ML
N
73 31 M
77.34 31 L
S
GR
GS
[0.75 0 0 0.75 0 0] CT
0.149 GC
2 setlinecap
10.0 ML
N
507 374 M
502.66 374 L
S
GR
GS
[0.75 0 0 0.75 0 0] CT
0.149 GC
2 setlinecap
10.0 ML
N
507 325 M
502.66 325 L
S
GR
GS
[0.75 0 0 0.75 0 0] CT
0.149 GC
2 setlinecap
10.0 ML
N
507 276 M
502.66 276 L
S
GR
GS
[0.75 0 0 0.75 0 0] CT
0.149 GC
2 setlinecap
10.0 ML
N
507 227 M
502.66 227 L
S
GR
GS
[0.75 0 0 0.75 0 0] CT
0.149 GC
2 setlinecap
10.0 ML
N
507 178 M
502.66 178 L
S
GR
GS
[0.75 0 0 0.75 0 0] CT
0.149 GC
2 setlinecap
10.0 ML
N
507 129 M
502.66 129 L
S
GR
GS
[0.75 0 0 0.75 0 0] CT
0.149 GC
2 setlinecap
10.0 ML
N
507 80 M
502.66 80 L
S
GR
GS
[0.75 0 0 0.75 0 0] CT
0.149 GC
2 setlinecap
10.0 ML
N
507 31 M
502.66 31 L
S
GR
GS
[0.75 0 0 0.75 50.75 280.5] CT
0.149 GC
/Helvetica 13 F
GS
[1 0 0 1 0 0] CT
-8 5.5 moveto 
1 -1 scale
(0) t 
GR
GR
GS
[0.75 0 0 0.75 50.75 243.75] CT
0.149 GC
/Helvetica 13 F
GS
[1 0 0 1 0 0] CT
-19 5.5 moveto 
1 -1 scale
(0.2) t 
GR
GR
GS
[0.75 0 0 0.75 50.75 207] CT
0.149 GC
/Helvetica 13 F
GS
[1 0 0 1 0 0] CT
-19 5.5 moveto 
1 -1 scale
(0.4) t 
GR
GR
GS
[0.75 0 0 0.75 50.75 170.25] CT
0.149 GC
/Helvetica 13 F
GS
[1 0 0 1 0 0] CT
-19 5.5 moveto 
1 -1 scale
(0.6) t 
GR
GR
GS
[0.75 0 0 0.75 50.75 133.5] CT
0.149 GC
/Helvetica 13 F
GS
[1 0 0 1 0 0] CT
-19 5.5 moveto 
1 -1 scale
(0.8) t 
GR
GR
GS
[0.75 0 0 0.75 50.75 96.75] CT
0.149 GC
/Helvetica 13 F
GS
[1 0 0 1 0 0] CT
-8 5.5 moveto 
1 -1 scale
(1) t 
GR
GR
GS
[0.75 0 0 0.75 50.75 59.99999] CT
0.149 GC
/Helvetica 13 F
GS
[1 0 0 1 0 0] CT
-19 5.5 moveto 
1 -1 scale
(1.2) t 
GR
GR
GS
[0.75 0 0 0.75 50.75 23.25] CT
0.149 GC
/Helvetica 13 F
GS
[1 0 0 1 0 0] CT
-19 5.5 moveto 
1 -1 scale
(1.4) t 
GR
GR
GS
[0.75 0 0 0.75 0 0] CT
0 0.447 0.741 RC
2 setlinecap
10.0 ML
N
81.5 32.5 M
80.736 30.149 L
78.736 28.696 L
76.264 28.696 L
74.264 30.149 L
73.5 32.5 L
74.264 34.851 L
76.264 36.304 L
78.736 36.304 L
80.736 34.851 L
81.5 32.5 L
S
GR
GS
[0.75 0 0 0.75 0 0] CT
0 0.447 0.741 RC
2 setlinecap
10.0 ML
N
87.5 267.5 M
86.736 265.149 L
84.736 263.696 L
82.264 263.696 L
80.264 265.149 L
79.5 267.5 L
80.264 269.851 L
82.264 271.304 L
84.736 271.304 L
86.736 269.851 L
87.5 267.5 L
S
GR
GS
[0.75 0 0 0.75 0 0] CT
0 0.447 0.741 RC
2 setlinecap
10.0 ML
N
93.5 325.5 M
92.736 323.149 L
90.736 321.696 L
88.264 321.696 L
86.264 323.149 L
85.5 325.5 L
86.264 327.851 L
88.264 329.304 L
90.736 329.304 L
92.736 327.851 L
93.5 325.5 L
S
GR
GS
[0.75 0 0 0.75 0 0] CT
0 0.447 0.741 RC
2 setlinecap
10.0 ML
N
99.5 353.5 M
98.736 351.149 L
96.736 349.696 L
94.264 349.696 L
92.264 351.149 L
91.5 353.5 L
92.264 355.851 L
94.264 357.304 L
96.736 357.304 L
98.736 355.851 L
99.5 353.5 L
S
GR
GS
[0.75 0 0 0.75 0 0] CT
0 0.447 0.741 RC
2 setlinecap
10.0 ML
N
105.5 279.5 M
104.736 277.149 L
102.736 275.696 L
100.264 275.696 L
98.264 277.149 L
97.5 279.5 L
98.264 281.851 L
100.264 283.304 L
102.736 283.304 L
104.736 281.851 L
105.5 279.5 L
S
GR
GS
[0.75 0 0 0.75 0 0] CT
0 0.447 0.741 RC
2 setlinecap
10.0 ML
N
111.5 321.5 M
110.736 319.149 L
108.736 317.696 L
106.264 317.696 L
104.264 319.149 L
103.5 321.5 L
104.264 323.851 L
106.264 325.304 L
108.736 325.304 L
110.736 323.851 L
111.5 321.5 L
S
GR
GS
[0.75 0 0 0.75 0 0] CT
0 0.447 0.741 RC
2 setlinecap
10.0 ML
N
117.5 351.5 M
116.736 349.149 L
114.736 347.696 L
112.264 347.696 L
110.264 349.149 L
109.5 351.5 L
110.264 353.851 L
112.264 355.304 L
114.736 355.304 L
116.736 353.851 L
117.5 351.5 L
S
GR
GS
[0.75 0 0 0.75 0 0] CT
0 0.447 0.741 RC
2 setlinecap
10.0 ML
N
123.5 319.5 M
122.736 317.149 L
120.736 315.696 L
118.264 315.696 L
116.264 317.149 L
115.5 319.5 L
116.264 321.851 L
118.264 323.304 L
120.736 323.304 L
122.736 321.851 L
123.5 319.5 L
S
GR
GS
[0.75 0 0 0.75 0 0] CT
0 0.447 0.741 RC
2 setlinecap
10.0 ML
N
130.5 352.5 M
129.736 350.149 L
127.736 348.696 L
125.264 348.696 L
123.264 350.149 L
122.5 352.5 L
123.264 354.851 L
125.264 356.304 L
127.736 356.304 L
129.736 354.851 L
130.5 352.5 L
S
GR
GS
[0.75 0 0 0.75 0 0] CT
0 0.447 0.741 RC
2 setlinecap
10.0 ML
N
136.5 354.5 M
135.736 352.149 L
133.736 350.696 L
131.264 350.696 L
129.264 352.149 L
128.5 354.5 L
129.264 356.851 L
131.264 358.304 L
133.736 358.304 L
135.736 356.851 L
136.5 354.5 L
S
GR
GS
[0.75 0 0 0.75 0 0] CT
0 0.447 0.741 RC
2 setlinecap
10.0 ML
N
142.5 319.5 M
141.736 317.149 L
139.736 315.696 L
137.264 315.696 L
135.264 317.149 L
134.5 319.5 L
135.264 321.851 L
137.264 323.304 L
139.736 323.304 L
141.736 321.851 L
142.5 319.5 L
S
GR
GS
[0.75 0 0 0.75 0 0] CT
0 0.447 0.741 RC
2 setlinecap
10.0 ML
N
148.5 333.5 M
147.736 331.149 L
145.736 329.696 L
143.264 329.696 L
141.264 331.149 L
140.5 333.5 L
141.264 335.851 L
143.264 337.304 L
145.736 337.304 L
147.736 335.851 L
148.5 333.5 L
S
GR
GS
[0.75 0 0 0.75 0 0] CT
0 0.447 0.741 RC
2 setlinecap
10.0 ML
N
154.5 337.5 M
153.736 335.149 L
151.736 333.696 L
149.264 333.696 L
147.264 335.149 L
146.5 337.5 L
147.264 339.851 L
149.264 341.304 L
151.736 341.304 L
153.736 339.851 L
154.5 337.5 L
S
GR
GS
[0.75 0 0 0.75 0 0] CT
0 0.447 0.741 RC
2 setlinecap
10.0 ML
N
160.5 350.5 M
159.736 348.149 L
157.736 346.696 L
155.264 346.696 L
153.264 348.149 L
152.5 350.5 L
153.264 352.851 L
155.264 354.304 L
157.736 354.304 L
159.736 352.851 L
160.5 350.5 L
S
GR
GS
[0.75 0 0 0.75 0 0] CT
0 0.447 0.741 RC
2 setlinecap
10.0 ML
N
166.5 348.5 M
165.736 346.149 L
163.736 344.696 L
161.264 344.696 L
159.264 346.149 L
158.5 348.5 L
159.264 350.851 L
161.264 352.304 L
163.736 352.304 L
165.736 350.851 L
166.5 348.5 L
S
GR
GS
[0.75 0 0 0.75 0 0] CT
0 0.447 0.741 RC
2 setlinecap
10.0 ML
N
172.5 348.5 M
171.736 346.149 L
169.736 344.696 L
167.264 344.696 L
165.264 346.149 L
164.5 348.5 L
165.264 350.851 L
167.264 352.304 L
169.736 352.304 L
171.736 350.851 L
172.5 348.5 L
S
GR
GS
[0.75 0 0 0.75 0 0] CT
0 0.447 0.741 RC
2 setlinecap
10.0 ML
N
178.5 364.5 M
177.736 362.149 L
175.736 360.696 L
173.264 360.696 L
171.264 362.149 L
170.5 364.5 L
171.264 366.851 L
173.264 368.304 L
175.736 368.304 L
177.736 366.851 L
178.5 364.5 L
S
GR
GS
[0.75 0 0 0.75 0 0] CT
0 0.447 0.741 RC
2 setlinecap
10.0 ML
N
184.5 358.5 M
183.736 356.149 L
181.736 354.696 L
179.264 354.696 L
177.264 356.149 L
176.5 358.5 L
177.264 360.851 L
179.264 362.304 L
181.736 362.304 L
183.736 360.851 L
184.5 358.5 L
S
GR
GS
[0.75 0 0 0.75 0 0] CT
0 0.447 0.741 RC
2 setlinecap
10.0 ML
N
190.5 335.5 M
189.736 333.149 L
187.736 331.696 L
185.264 331.696 L
183.264 333.149 L
182.5 335.5 L
183.264 337.851 L
185.264 339.304 L
187.736 339.304 L
189.736 337.851 L
190.5 335.5 L
S
GR
GS
[0.75 0 0 0.75 0 0] CT
0 0.447 0.741 RC
2 setlinecap
10.0 ML
N
196.5 334.5 M
195.736 332.149 L
193.736 330.696 L
191.264 330.696 L
189.264 332.149 L
188.5 334.5 L
189.264 336.851 L
191.264 338.304 L
193.736 338.304 L
195.736 336.851 L
196.5 334.5 L
S
GR
GS
[0.75 0 0 0.75 0 0] CT
0 0.447 0.741 RC
2 setlinecap
10.0 ML
N
202.5 330.5 M
201.736 328.149 L
199.736 326.696 L
197.264 326.696 L
195.264 328.149 L
194.5 330.5 L
195.264 332.851 L
197.264 334.304 L
199.736 334.304 L
201.736 332.851 L
202.5 330.5 L
S
GR
GS
[0.75 0 0 0.75 0 0] CT
0 0.447 0.741 RC
2 setlinecap
10.0 ML
N
208.5 349.5 M
207.736 347.149 L
205.736 345.696 L
203.264 345.696 L
201.264 347.149 L
200.5 349.5 L
201.264 351.851 L
203.264 353.304 L
205.736 353.304 L
207.736 351.851 L
208.5 349.5 L
S
GR
GS
[0.75 0 0 0.75 0 0] CT
0 0.447 0.741 RC
2 setlinecap
10.0 ML
N
214.5 360.5 M
213.736 358.149 L
211.736 356.696 L
209.264 356.696 L
207.264 358.149 L
206.5 360.5 L
207.264 362.851 L
209.264 364.304 L
211.736 364.304 L
213.736 362.851 L
214.5 360.5 L
S
GR
GS
[0.75 0 0 0.75 0 0] CT
0 0.447 0.741 RC
2 setlinecap
10.0 ML
N
220.5 360.5 M
219.736 358.149 L
217.736 356.696 L
215.264 356.696 L
213.264 358.149 L
212.5 360.5 L
213.264 362.851 L
215.264 364.304 L
217.736 364.304 L
219.736 362.851 L
220.5 360.5 L
S
GR
GS
[0.75 0 0 0.75 0 0] CT
0 0.447 0.741 RC
2 setlinecap
10.0 ML
N
226.5 364.5 M
225.736 362.149 L
223.736 360.696 L
221.264 360.696 L
219.264 362.149 L
218.5 364.5 L
219.264 366.851 L
221.264 368.304 L
223.736 368.304 L
225.736 366.851 L
226.5 364.5 L
S
GR
GS
[0.75 0 0 0.75 0 0] CT
0 0.447 0.741 RC
2 setlinecap
10.0 ML
N
233.5 362.5 M
232.736 360.149 L
230.736 358.696 L
228.264 358.696 L
226.264 360.149 L
225.5 362.5 L
226.264 364.851 L
228.264 366.304 L
230.736 366.304 L
232.736 364.851 L
233.5 362.5 L
S
GR
GS
[0.75 0 0 0.75 0 0] CT
0 0.447 0.741 RC
2 setlinecap
10.0 ML
N
239.5 355.5 M
238.736 353.149 L
236.736 351.696 L
234.264 351.696 L
232.264 353.149 L
231.5 355.5 L
232.264 357.851 L
234.264 359.304 L
236.736 359.304 L
238.736 357.851 L
239.5 355.5 L
S
GR
GS
[0.75 0 0 0.75 0 0] CT
0 0.447 0.741 RC
2 setlinecap
10.0 ML
N
245.5 346.5 M
244.736 344.149 L
242.736 342.696 L
240.264 342.696 L
238.264 344.149 L
237.5 346.5 L
238.264 348.851 L
240.264 350.304 L
242.736 350.304 L
244.736 348.851 L
245.5 346.5 L
S
GR
GS
[0.75 0 0 0.75 0 0] CT
0 0.447 0.741 RC
2 setlinecap
10.0 ML
N
251.5 338.5 M
250.736 336.149 L
248.736 334.696 L
246.264 334.696 L
244.264 336.149 L
243.5 338.5 L
244.264 340.851 L
246.264 342.304 L
248.736 342.304 L
250.736 340.851 L
251.5 338.5 L
S
GR
GS
[0.75 0 0 0.75 0 0] CT
0 0.447 0.741 RC
2 setlinecap
10.0 ML
N
257.5 341.5 M
256.736 339.149 L
254.736 337.696 L
252.264 337.696 L
250.264 339.149 L
249.5 341.5 L
250.264 343.851 L
252.264 345.304 L
254.736 345.304 L
256.736 343.851 L
257.5 341.5 L
S
GR
GS
[0.75 0 0 0.75 0 0] CT
0 0.447 0.741 RC
2 setlinecap
10.0 ML
N
263.5 342.5 M
262.736 340.149 L
260.736 338.696 L
258.264 338.696 L
256.264 340.149 L
255.5 342.5 L
256.264 344.851 L
258.264 346.304 L
260.736 346.304 L
262.736 344.851 L
263.5 342.5 L
S
GR
GS
[0.75 0 0 0.75 0 0] CT
0 0.447 0.741 RC
2 setlinecap
10.0 ML
N
269.5 331.5 M
268.736 329.149 L
266.736 327.696 L
264.264 327.696 L
262.264 329.149 L
261.5 331.5 L
262.264 333.851 L
264.264 335.304 L
266.736 335.304 L
268.736 333.851 L
269.5 331.5 L
S
GR
GS
[0.75 0 0 0.75 0 0] CT
0 0.447 0.741 RC
2 setlinecap
10.0 ML
N
275.5 334.5 M
274.736 332.149 L
272.736 330.696 L
270.264 330.696 L
268.264 332.149 L
267.5 334.5 L
268.264 336.851 L
270.264 338.304 L
272.736 338.304 L
274.736 336.851 L
275.5 334.5 L
S
GR
GS
[0.75 0 0 0.75 0 0] CT
0 0.447 0.741 RC
2 setlinecap
10.0 ML
N
281.5 327.5 M
280.736 325.149 L
278.736 323.696 L
276.264 323.696 L
274.264 325.149 L
273.5 327.5 L
274.264 329.851 L
276.264 331.304 L
278.736 331.304 L
280.736 329.851 L
281.5 327.5 L
S
GR
GS
[0.75 0 0 0.75 0 0] CT
0 0.447 0.741 RC
2 setlinecap
10.0 ML
N
287.5 338.5 M
286.736 336.149 L
284.736 334.696 L
282.264 334.696 L
280.264 336.149 L
279.5 338.5 L
280.264 340.851 L
282.264 342.304 L
284.736 342.304 L
286.736 340.851 L
287.5 338.5 L
S
GR
GS
[0.75 0 0 0.75 0 0] CT
0 0.447 0.741 RC
2 setlinecap
10.0 ML
N
293.5 327.5 M
292.736 325.149 L
290.736 323.696 L
288.264 323.696 L
286.264 325.149 L
285.5 327.5 L
286.264 329.851 L
288.264 331.304 L
290.736 331.304 L
292.736 329.851 L
293.5 327.5 L
S
GR
GS
[0.75 0 0 0.75 0 0] CT
0 0.447 0.741 RC
2 setlinecap
10.0 ML
N
299.5 322.5 M
298.736 320.149 L
296.736 318.696 L
294.264 318.696 L
292.264 320.149 L
291.5 322.5 L
292.264 324.851 L
294.264 326.304 L
296.736 326.304 L
298.736 324.851 L
299.5 322.5 L
S
GR
GS
[0.75 0 0 0.75 0 0] CT
0 0.447 0.741 RC
2 setlinecap
10.0 ML
N
305.5 320.5 M
304.736 318.149 L
302.736 316.696 L
300.264 316.696 L
298.264 318.149 L
297.5 320.5 L
298.264 322.851 L
300.264 324.304 L
302.736 324.304 L
304.736 322.851 L
305.5 320.5 L
S
GR
GS
[0.75 0 0 0.75 0 0] CT
0 0.447 0.741 RC
2 setlinecap
10.0 ML
N
311.5 309.5 M
310.736 307.149 L
308.736 305.696 L
306.264 305.696 L
304.264 307.149 L
303.5 309.5 L
304.264 311.851 L
306.264 313.304 L
308.736 313.304 L
310.736 311.851 L
311.5 309.5 L
S
GR
GS
[0.75 0 0 0.75 0 0] CT
0 0.447 0.741 RC
2 setlinecap
10.0 ML
N
317.5 307.5 M
316.736 305.149 L
314.736 303.696 L
312.264 303.696 L
310.264 305.149 L
309.5 307.5 L
310.264 309.851 L
312.264 311.304 L
314.736 311.304 L
316.736 309.851 L
317.5 307.5 L
S
GR
GS
[0.75 0 0 0.75 0 0] CT
0 0.447 0.741 RC
2 setlinecap
10.0 ML
N
323.5 274.5 M
322.736 272.149 L
320.736 270.696 L
318.264 270.696 L
316.264 272.149 L
315.5 274.5 L
316.264 276.851 L
318.264 278.304 L
320.736 278.304 L
322.736 276.851 L
323.5 274.5 L
S
GR
GS
[0.75 0 0 0.75 0 0] CT
0 0.447 0.741 RC
2 setlinecap
10.0 ML
N
329.5 207.5 M
328.736 205.149 L
326.736 203.696 L
324.264 203.696 L
322.264 205.149 L
321.5 207.5 L
322.264 209.851 L
324.264 211.304 L
326.736 211.304 L
328.736 209.851 L
329.5 207.5 L
S
GR
GS
[0.75 0 0 0.75 0 0] CT
0 0.447 0.741 RC
2 setlinecap
10.0 ML
N
336.5 33.5 M
335.736 31.149 L
333.736 29.696 L
331.264 29.696 L
329.264 31.149 L
328.5 33.5 L
329.264 35.851 L
331.264 37.304 L
333.736 37.304 L
335.736 35.851 L
336.5 33.5 L
S
GR
GS
[0.75 0 0 0.75 0 0] CT
0 0.447 0.741 RC
2 setlinecap
10.0 ML
N
342.5 161.5 M
341.736 159.149 L
339.736 157.696 L
337.264 157.696 L
335.264 159.149 L
334.5 161.5 L
335.264 163.851 L
337.264 165.304 L
339.736 165.304 L
341.736 163.851 L
342.5 161.5 L
S
GR
GS
[0.75 0 0 0.75 0 0] CT
0 0.447 0.741 RC
2 setlinecap
10.0 ML
N
348.5 268.5 M
347.736 266.149 L
345.736 264.696 L
343.264 264.696 L
341.264 266.149 L
340.5 268.5 L
341.264 270.851 L
343.264 272.304 L
345.736 272.304 L
347.736 270.851 L
348.5 268.5 L
S
GR
GS
[0.75 0 0 0.75 0 0] CT
0 0.447 0.741 RC
2 setlinecap
10.0 ML
N
354.5 303.5 M
353.736 301.149 L
351.736 299.696 L
349.264 299.696 L
347.264 301.149 L
346.5 303.5 L
347.264 305.851 L
349.264 307.304 L
351.736 307.304 L
353.736 305.851 L
354.5 303.5 L
S
GR
GS
[0.75 0 0 0.75 0 0] CT
0 0.447 0.741 RC
2 setlinecap
10.0 ML
N
360.5 321.5 M
359.736 319.149 L
357.736 317.696 L
355.264 317.696 L
353.264 319.149 L
352.5 321.5 L
353.264 323.851 L
355.264 325.304 L
357.736 325.304 L
359.736 323.851 L
360.5 321.5 L
S
GR
GS
[0.75 0 0 0.75 0 0] CT
0 0.447 0.741 RC
2 setlinecap
10.0 ML
N
366.5 338.5 M
365.736 336.149 L
363.736 334.696 L
361.264 334.696 L
359.264 336.149 L
358.5 338.5 L
359.264 340.851 L
361.264 342.304 L
363.736 342.304 L
365.736 340.851 L
366.5 338.5 L
S
GR
GS
[0.75 0 0 0.75 0 0] CT
0 0.447 0.741 RC
2 setlinecap
10.0 ML
N
372.5 341.5 M
371.736 339.149 L
369.736 337.696 L
367.264 337.696 L
365.264 339.149 L
364.5 341.5 L
365.264 343.851 L
367.264 345.304 L
369.736 345.304 L
371.736 343.851 L
372.5 341.5 L
S
GR
GS
[0.75 0 0 0.75 0 0] CT
0 0.447 0.741 RC
2 setlinecap
10.0 ML
N
378.5 345.5 M
377.736 343.149 L
375.736 341.696 L
373.264 341.696 L
371.264 343.149 L
370.5 345.5 L
371.264 347.851 L
373.264 349.304 L
375.736 349.304 L
377.736 347.851 L
378.5 345.5 L
S
GR
GS
[0.75 0 0 0.75 0 0] CT
0 0.447 0.741 RC
2 setlinecap
10.0 ML
N
384.5 351.5 M
383.736 349.149 L
381.736 347.696 L
379.264 347.696 L
377.264 349.149 L
376.5 351.5 L
377.264 353.851 L
379.264 355.304 L
381.736 355.304 L
383.736 353.851 L
384.5 351.5 L
S
GR
GS
[0.75 0 0 0.75 0 0] CT
0 0.447 0.741 RC
2 setlinecap
10.0 ML
N
390.5 357.5 M
389.736 355.149 L
387.736 353.696 L
385.264 353.696 L
383.264 355.149 L
382.5 357.5 L
383.264 359.851 L
385.264 361.304 L
387.736 361.304 L
389.736 359.851 L
390.5 357.5 L
S
GR
GS
[0.75 0 0 0.75 0 0] CT
0 0.447 0.741 RC
2 setlinecap
10.0 ML
N
396.5 363.5 M
395.736 361.149 L
393.736 359.696 L
391.264 359.696 L
389.264 361.149 L
388.5 363.5 L
389.264 365.851 L
391.264 367.304 L
393.736 367.304 L
395.736 365.851 L
396.5 363.5 L
S
GR
GS
[0.75 0 0 0.75 0 0] CT
0 0.447 0.741 RC
2 setlinecap
10.0 ML
N
402.5 356.5 M
401.736 354.149 L
399.736 352.696 L
397.264 352.696 L
395.264 354.149 L
394.5 356.5 L
395.264 358.851 L
397.264 360.304 L
399.736 360.304 L
401.736 358.851 L
402.5 356.5 L
S
GR
GS
[0.75 0 0 0.75 0 0] CT
0 0.447 0.741 RC
2 setlinecap
10.0 ML
N
408.5 361.5 M
407.736 359.149 L
405.736 357.696 L
403.264 357.696 L
401.264 359.149 L
400.5 361.5 L
401.264 363.851 L
403.264 365.304 L
405.736 365.304 L
407.736 363.851 L
408.5 361.5 L
S
GR
GS
[0.75 0 0 0.75 0 0] CT
0 0.447 0.741 RC
2 setlinecap
10.0 ML
N
414.5 365.5 M
413.736 363.149 L
411.736 361.696 L
409.264 361.696 L
407.264 363.149 L
406.5 365.5 L
407.264 367.851 L
409.264 369.304 L
411.736 369.304 L
413.736 367.851 L
414.5 365.5 L
S
GR
GS
[0.75 0 0 0.75 0 0] CT
0 0.447 0.741 RC
2 setlinecap
10.0 ML
N
420.5 368.5 M
419.736 366.149 L
417.736 364.696 L
415.264 364.696 L
413.264 366.149 L
412.5 368.5 L
413.264 370.851 L
415.264 372.304 L
417.736 372.304 L
419.736 370.851 L
420.5 368.5 L
S
GR
GS
[0.75 0 0 0.75 0 0] CT
0 0.447 0.741 RC
2 setlinecap
10.0 ML
N
426.5 366.5 M
425.736 364.149 L
423.736 362.696 L
421.264 362.696 L
419.264 364.149 L
418.5 366.5 L
419.264 368.851 L
421.264 370.304 L
423.736 370.304 L
425.736 368.851 L
426.5 366.5 L
S
GR
GS
[0.75 0 0 0.75 0 0] CT
0 0.447 0.741 RC
2 setlinecap
10.0 ML
N
432.5 365.5 M
431.736 363.149 L
429.736 361.696 L
427.264 361.696 L
425.264 363.149 L
424.5 365.5 L
425.264 367.851 L
427.264 369.304 L
429.736 369.304 L
431.736 367.851 L
432.5 365.5 L
S
GR
GS
[0.75 0 0 0.75 0 0] CT
0 0.447 0.741 RC
2 setlinecap
10.0 ML
N
439.5 365.5 M
438.736 363.149 L
436.736 361.696 L
434.264 361.696 L
432.264 363.149 L
431.5 365.5 L
432.264 367.851 L
434.264 369.304 L
436.736 369.304 L
438.736 367.851 L
439.5 365.5 L
S
GR
GS
[0.75 0 0 0.75 0 0] CT
0 0.447 0.741 RC
2 setlinecap
10.0 ML
N
445.5 364.5 M
444.736 362.149 L
442.736 360.696 L
440.264 360.696 L
438.264 362.149 L
437.5 364.5 L
438.264 366.851 L
440.264 368.304 L
442.736 368.304 L
444.736 366.851 L
445.5 364.5 L
S
GR
GS
[0.75 0 0 0.75 0 0] CT
0 0.447 0.741 RC
2 setlinecap
10.0 ML
N
451.5 368.5 M
450.736 366.149 L
448.736 364.696 L
446.264 364.696 L
444.264 366.149 L
443.5 368.5 L
444.264 370.851 L
446.264 372.304 L
448.736 372.304 L
450.736 370.851 L
451.5 368.5 L
S
GR
GS
[0.75 0 0 0.75 0 0] CT
0 0.447 0.741 RC
2 setlinecap
10.0 ML
N
457.5 367.5 M
456.736 365.149 L
454.736 363.696 L
452.264 363.696 L
450.264 365.149 L
449.5 367.5 L
450.264 369.851 L
452.264 371.304 L
454.736 371.304 L
456.736 369.851 L
457.5 367.5 L
S
GR
GS
[0.75 0 0 0.75 0 0] CT
0 0.447 0.741 RC
2 setlinecap
10.0 ML
N
463.5 367.5 M
462.736 365.149 L
460.736 363.696 L
458.264 363.696 L
456.264 365.149 L
455.5 367.5 L
456.264 369.851 L
458.264 371.304 L
460.736 371.304 L
462.736 369.851 L
463.5 367.5 L
S
GR
GS
[0.75 0 0 0.75 0 0] CT
0 0.447 0.741 RC
2 setlinecap
10.0 ML
N
469.5 367.5 M
468.736 365.149 L
466.736 363.696 L
464.264 363.696 L
462.264 365.149 L
461.5 367.5 L
462.264 369.851 L
464.264 371.304 L
466.736 371.304 L
468.736 369.851 L
469.5 367.5 L
S
GR
GS
[0.75 0 0 0.75 0 0] CT
0 0.447 0.741 RC
2 setlinecap
10.0 ML
N
475.5 368.5 M
474.736 366.149 L
472.736 364.696 L
470.264 364.696 L
468.264 366.149 L
467.5 368.5 L
468.264 370.851 L
470.264 372.304 L
472.736 372.304 L
474.736 370.851 L
475.5 368.5 L
S
GR
GS
[0.75 0 0 0.75 0 0] CT
0 0.447 0.741 RC
2 setlinecap
10.0 ML
N
481.5 370.5 M
480.736 368.149 L
478.736 366.696 L
476.264 366.696 L
474.264 368.149 L
473.5 370.5 L
474.264 372.851 L
476.264 374.304 L
478.736 374.304 L
480.736 372.851 L
481.5 370.5 L
S
GR
GS
[0.75 0 0 0.75 0 0] CT
0 0.447 0.741 RC
2 setlinecap
10.0 ML
N
487.5 371.5 M
486.736 369.149 L
484.736 367.696 L
482.264 367.696 L
480.264 369.149 L
479.5 371.5 L
480.264 373.851 L
482.264 375.304 L
484.736 375.304 L
486.736 373.851 L
487.5 371.5 L
S
GR
GS
[0.75 0 0 0.75 0 0] CT
0 0.447 0.741 RC
2 setlinecap
10.0 ML
N
493.5 371.5 M
492.736 369.149 L
490.736 367.696 L
488.264 367.696 L
486.264 369.149 L
485.5 371.5 L
486.264 373.851 L
488.264 375.304 L
490.736 375.304 L
492.736 373.851 L
493.5 371.5 L
S
GR
GS
[0.75 0 0 0.75 0 0] CT
0 0.447 0.741 RC
2 setlinecap
10.0 ML
N
499.5 370.5 M
498.736 368.149 L
496.736 366.696 L
494.264 366.696 L
492.264 368.149 L
491.5 370.5 L
492.264 372.851 L
494.264 374.304 L
496.736 374.304 L
498.736 372.851 L
499.5 370.5 L
S
GR
GS
[0.75 0 0 0.75 0 0] CT
0 0.447 0.741 RC
2 setlinecap
10.0 ML
N
505.5 372.5 M
504.736 370.149 L
502.736 368.696 L
500.264 368.696 L
498.264 370.149 L
497.5 372.5 L
498.264 374.851 L
500.264 376.304 L
502.736 376.304 L
504.736 374.851 L
505.5 372.5 L
S
GR
GS
[0.75 0 0 0.75 0 0] CT
0 0.447 0.741 RC
2 setlinecap
10.0 ML
N
77.545 374 M
77.545 32.81 L
S
GR
GS
[0.75 0 0 0.75 0 0] CT
0 0.447 0.741 RC
2 setlinecap
10.0 ML
N
83.604 374 M
83.604 267.37 L
S
GR
GS
[0.75 0 0 0.75 0 0] CT
0 0.447 0.741 RC
2 setlinecap
10.0 ML
N
89.663 374 M
89.663 325.31 L
S
GR
GS
[0.75 0 0 0.75 0 0] CT
0 0.447 0.741 RC
2 setlinecap
10.0 ML
N
95.723 374 M
95.723 353.068 L
S
GR
GS
[0.75 0 0 0.75 0 0] CT
0 0.447 0.741 RC
2 setlinecap
10.0 ML
N
101.782 374 M
101.782 279.805 L
S
GR
GS
[0.75 0 0 0.75 0 0] CT
0 0.447 0.741 RC
2 setlinecap
10.0 ML
N
107.841 374 M
107.841 321.484 L
S
GR
GS
[0.75 0 0 0.75 0 0] CT
0 0.447 0.741 RC
2 setlinecap
10.0 ML
N
113.901 374 M
113.901 351.056 L
S
GR
GS
[0.75 0 0 0.75 0 0] CT
0 0.447 0.741 RC
2 setlinecap
10.0 ML
N
119.96 374 M
119.96 319.219 L
S
GR
GS
[0.75 0 0 0.75 0 0] CT
0 0.447 0.741 RC
2 setlinecap
10.0 ML
N
126.019 374 M
126.019 352.445 L
S
GR
GS
[0.75 0 0 0.75 0 0] CT
0 0.447 0.741 RC
2 setlinecap
10.0 ML
N
132.079 374 M
132.079 354.732 L
S
GR
GS
[0.75 0 0 0.75 0 0] CT
0 0.447 0.741 RC
2 setlinecap
10.0 ML
N
138.138 374 M
138.138 319.958 L
S
GR
GS
[0.75 0 0 0.75 0 0] CT
0 0.447 0.741 RC
2 setlinecap
10.0 ML
N
144.197 374 M
144.197 333.235 L
S
GR
GS
[0.75 0 0 0.75 0 0] CT
0 0.447 0.741 RC
2 setlinecap
10.0 ML
N
150.257 374 M
150.257 337.397 L
S
GR
GS
[0.75 0 0 0.75 0 0] CT
0 0.447 0.741 RC
2 setlinecap
10.0 ML
N
156.316 374 M
156.316 350.389 L
S
GR
GS
[0.75 0 0 0.75 0 0] CT
0 0.447 0.741 RC
2 setlinecap
10.0 ML
N
162.375 374 M
162.375 348.682 L
S
GR
GS
[0.75 0 0 0.75 0 0] CT
0 0.447 0.741 RC
2 setlinecap
10.0 ML
N
168.435 374 M
168.435 348.231 L
S
GR
GS
[0.75 0 0 0.75 0 0] CT
0 0.447 0.741 RC
2 setlinecap
10.0 ML
N
174.494 374 M
174.494 364.032 L
S
GR
GS
[0.75 0 0 0.75 0 0] CT
0 0.447 0.741 RC
2 setlinecap
10.0 ML
N
180.553 374 M
180.553 358.996 L
S
GR
GS
[0.75 0 0 0.75 0 0] CT
0 0.447 0.741 RC
2 setlinecap
10.0 ML
N
186.613 374 M
186.613 335.57 L
S
GR
GS
[0.75 0 0 0.75 0 0] CT
0 0.447 0.741 RC
2 setlinecap
10.0 ML
N
192.672 374 M
192.672 334.001 L
S
GR
GS
[0.75 0 0 0.75 0 0] CT
0 0.447 0.741 RC
2 setlinecap
10.0 ML
N
198.731 374 M
198.731 330.751 L
S
GR
GS
[0.75 0 0 0.75 0 0] CT
0 0.447 0.741 RC
2 setlinecap
10.0 ML
N
204.791 374 M
204.791 349.05 L
S
GR
GS
[0.75 0 0 0.75 0 0] CT
0 0.447 0.741 RC
2 setlinecap
10.0 ML
N
210.85 374 M
210.85 360.646 L
S
GR
GS
[0.75 0 0 0.75 0 0] CT
0 0.447 0.741 RC
2 setlinecap
10.0 ML
N
216.909 374 M
216.909 360.418 L
S
GR
GS
[0.75 0 0 0.75 0 0] CT
0 0.447 0.741 RC
2 setlinecap
10.0 ML
N
222.969 374 M
222.969 364.421 L
S
GR
GS
[0.75 0 0 0.75 0 0] CT
0 0.447 0.741 RC
2 setlinecap
10.0 ML
N
229.028 374 M
229.028 362.638 L
S
GR
GS
[0.75 0 0 0.75 0 0] CT
0 0.447 0.741 RC
2 setlinecap
10.0 ML
N
235.087 374 M
235.087 355.569 L
S
GR
GS
[0.75 0 0 0.75 0 0] CT
0 0.447 0.741 RC
2 setlinecap
10.0 ML
N
241.147 374 M
241.147 346.249 L
S
GR
GS
[0.75 0 0 0.75 0 0] CT
0 0.447 0.741 RC
2 setlinecap
10.0 ML
N
247.206 374 M
247.206 338.98 L
S
GR
GS
[0.75 0 0 0.75 0 0] CT
0 0.447 0.741 RC
2 setlinecap
10.0 ML
N
253.265 374 M
253.265 341.883 L
S
GR
GS
[0.75 0 0 0.75 0 0] CT
0 0.447 0.741 RC
2 setlinecap
10.0 ML
N
259.325 374 M
259.325 342.552 L
S
GR
GS
[0.75 0 0 0.75 0 0] CT
0 0.447 0.741 RC
2 setlinecap
10.0 ML
N
265.384 374 M
265.384 331.006 L
S
GR
GS
[0.75 0 0 0.75 0 0] CT
0 0.447 0.741 RC
2 setlinecap
10.0 ML
N
271.443 374 M
271.443 334.402 L
S
GR
GS
[0.75 0 0 0.75 0 0] CT
0 0.447 0.741 RC
2 setlinecap
10.0 ML
N
277.503 374 M
277.503 327.023 L
S
GR
GS
[0.75 0 0 0.75 0 0] CT
0 0.447 0.741 RC
2 setlinecap
10.0 ML
N
283.562 374 M
283.562 338.644 L
S
GR
GS
[0.75 0 0 0.75 0 0] CT
0 0.447 0.741 RC
2 setlinecap
10.0 ML
N
289.621 374 M
289.621 327.83 L
S
GR
GS
[0.75 0 0 0.75 0 0] CT
0 0.447 0.741 RC
2 setlinecap
10.0 ML
N
295.681 374 M
295.681 322.145 L
S
GR
GS
[0.75 0 0 0.75 0 0] CT
0 0.447 0.741 RC
2 setlinecap
10.0 ML
N
301.74 374 M
301.74 320.178 L
S
GR
GS
[0.75 0 0 0.75 0 0] CT
0 0.447 0.741 RC
2 setlinecap
10.0 ML
N
307.799 374 M
307.799 309.597 L
S
GR
GS
[0.75 0 0 0.75 0 0] CT
0 0.447 0.741 RC
2 setlinecap
10.0 ML
N
313.859 374 M
313.859 307.194 L
S
GR
GS
[0.75 0 0 0.75 0 0] CT
0 0.447 0.741 RC
2 setlinecap
10.0 ML
N
319.918 374 M
319.918 274.399 L
S
GR
GS
[0.75 0 0 0.75 0 0] CT
0 0.447 0.741 RC
2 setlinecap
10.0 ML
N
325.977 374 M
325.977 207.786 L
S
GR
GS
[0.75 0 0 0.75 0 0] CT
0 0.447 0.741 RC
2 setlinecap
10.0 ML
N
332.037 374 M
332.037 33.401 L
S
GR
GS
[0.75 0 0 0.75 0 0] CT
0 0.447 0.741 RC
2 setlinecap
10.0 ML
N
338.096 374 M
338.096 161.508 L
S
GR
GS
[0.75 0 0 0.75 0 0] CT
0 0.447 0.741 RC
2 setlinecap
10.0 ML
N
344.155 374 M
344.155 268.566 L
S
GR
GS
[0.75 0 0 0.75 0 0] CT
0 0.447 0.741 RC
2 setlinecap
10.0 ML
N
350.215 374 M
350.215 303.695 L
S
GR
GS
[0.75 0 0 0.75 0 0] CT
0 0.447 0.741 RC
2 setlinecap
10.0 ML
N
356.274 374 M
356.274 321.523 L
S
GR
GS
[0.75 0 0 0.75 0 0] CT
0 0.447 0.741 RC
2 setlinecap
10.0 ML
N
362.333 374 M
362.333 338.674 L
S
GR
GS
[0.75 0 0 0.75 0 0] CT
0 0.447 0.741 RC
2 setlinecap
10.0 ML
N
368.393 374 M
368.393 341.246 L
S
GR
GS
[0.75 0 0 0.75 0 0] CT
0 0.447 0.741 RC
2 setlinecap
10.0 ML
N
374.452 374 M
374.452 345.954 L
S
GR
GS
[0.75 0 0 0.75 0 0] CT
0 0.447 0.741 RC
2 setlinecap
10.0 ML
N
380.511 374 M
380.511 351.033 L
S
GR
GS
[0.75 0 0 0.75 0 0] CT
0 0.447 0.741 RC
2 setlinecap
10.0 ML
N
386.571 374 M
386.571 357.81 L
S
GR
GS
[0.75 0 0 0.75 0 0] CT
0 0.447 0.741 RC
2 setlinecap
10.0 ML
N
392.63 374 M
392.63 363.073 L
S
GR
GS
[0.75 0 0 0.75 0 0] CT
0 0.447 0.741 RC
2 setlinecap
10.0 ML
N
398.689 374 M
398.689 356.911 L
S
GR
GS
[0.75 0 0 0.75 0 0] CT
0 0.447 0.741 RC
2 setlinecap
10.0 ML
N
404.749 374 M
404.749 361.112 L
S
GR
GS
[0.75 0 0 0.75 0 0] CT
0 0.447 0.741 RC
2 setlinecap
10.0 ML
N
410.808 374 M
410.808 365.391 L
S
GR
GS
[0.75 0 0 0.75 0 0] CT
0 0.447 0.741 RC
2 setlinecap
10.0 ML
N
416.867 374 M
416.867 368.356 L
S
GR
GS
[0.75 0 0 0.75 0 0] CT
0 0.447 0.741 RC
2 setlinecap
10.0 ML
N
422.927 374 M
422.927 366.317 L
S
GR
GS
[0.75 0 0 0.75 0 0] CT
0 0.447 0.741 RC
2 setlinecap
10.0 ML
N
428.986 374 M
428.986 365.802 L
S
GR
GS
[0.75 0 0 0.75 0 0] CT
0 0.447 0.741 RC
2 setlinecap
10.0 ML
N
435.045 374 M
435.045 365.735 L
S
GR
GS
[0.75 0 0 0.75 0 0] CT
0 0.447 0.741 RC
2 setlinecap
10.0 ML
N
441.105 374 M
441.105 364.467 L
S
GR
GS
[0.75 0 0 0.75 0 0] CT
0 0.447 0.741 RC
2 setlinecap
10.0 ML
N
447.164 374 M
447.164 368.916 L
S
GR
GS
[0.75 0 0 0.75 0 0] CT
0 0.447 0.741 RC
2 setlinecap
10.0 ML
N
453.223 374 M
453.223 367.298 L
S
GR
GS
[0.75 0 0 0.75 0 0] CT
0 0.447 0.741 RC
2 setlinecap
10.0 ML
N
459.283 374 M
459.283 367.064 L
S
GR
GS
[0.75 0 0 0.75 0 0] CT
0 0.447 0.741 RC
2 setlinecap
10.0 ML
N
465.342 374 M
465.342 367.59 L
S
GR
GS
[0.75 0 0 0.75 0 0] CT
0 0.447 0.741 RC
2 setlinecap
10.0 ML
N
471.401 374 M
471.401 368.999 L
S
GR
GS
[0.75 0 0 0.75 0 0] CT
0 0.447 0.741 RC
2 setlinecap
10.0 ML
N
477.461 374 M
477.461 370.774 L
S
GR
GS
[0.75 0 0 0.75 0 0] CT
0 0.447 0.741 RC
2 setlinecap
10.0 ML
N
483.52 374 M
483.52 371.117 L
S
GR
GS
[0.75 0 0 0.75 0 0] CT
0 0.447 0.741 RC
2 setlinecap
10.0 ML
N
489.579 374 M
489.579 371.611 L
S
GR
GS
[0.75 0 0 0.75 0 0] CT
0 0.447 0.741 RC
2 setlinecap
10.0 ML
N
495.639 374 M
495.639 370.837 L
S
GR
GS
[0.75 0 0 0.75 0 0] CT
0 0.447 0.741 RC
2 setlinecap
10.0 ML
N
501.698 374 M
501.698 372.465 L
S
GR
GS
[0.75 0 0 0.75 217.50021 21.1875] CT
/Helvetica-Bold 15 F
GS
[1 0 0 1 0 0] CT
-144 -4 moveto 
1 -1 scale
(Single-Sided Amplitude Spectrum of y\(t\)) t 
GR
GR
GS
[0.75 0 0 0.75 0 0] CT
0.149 GC
2 setlinecap
10.0 ML
N
73 374 M
507 374 L
S
GR
%%Trailer
%%Pages: 1
%%EOF
