%!PS-Adobe-3.0 EPSF-3.0
%%Creator: (MATLAB, The Mathworks, Inc. Version 8.5.0.197613 \(R2015a\). Operating System: Windows 8)
%%Title: (C:/Users/aleja/Desktop/TFG/Documentaci\363n/Obtenci\363n de datos/matlab_plot/stems/jota11-46.eps)
%%CreationDate: 2019-05-21T23:46:30
%%Pages: (atend)
%%BoundingBox: 0 0 420 315
%%LanguageLevel: 2
%%EndComments
%%BeginProlog
%%BeginResource: procset (Apache XML Graphics Std ProcSet) 1.2 0
%%Version: 1.2 0
%%Copyright: (Copyright 2001-2003,2010 The Apache Software Foundation. License terms: http://www.apache.org/licenses/LICENSE-2.0)
/bd{bind def}bind def
/ld{load def}bd
/GR/grestore ld
/M/moveto ld
/LJ/setlinejoin ld
/C/curveto ld
/f/fill ld
/LW/setlinewidth ld
/GC/setgray ld
/t/show ld
/N/newpath ld
/CT/concat ld
/cp/closepath ld
/S/stroke ld
/L/lineto ld
/CC/setcmykcolor ld
/A/ashow ld
/GS/gsave ld
/RC/setrgbcolor ld
/RM/rmoveto ld
/ML/setmiterlimit ld
/re {4 2 roll M
1 index 0 rlineto
0 exch rlineto
neg 0 rlineto
cp } bd
/_ctm matrix def
/_tm matrix def
/BT { _ctm currentmatrix pop matrix _tm copy pop 0 0 moveto } bd
/ET { _ctm setmatrix } bd
/iTm { _ctm setmatrix _tm concat } bd
/Tm { _tm astore pop iTm 0 0 moveto } bd
/ux 0.0 def
/uy 0.0 def
/F {
  /Tp exch def
  /Tf exch def
  Tf findfont Tp scalefont setfont
  /cf Tf def  /cs Tp def
} bd
/ULS {currentpoint /uy exch def /ux exch def} bd
/ULE {
  /Tcx currentpoint pop def
  gsave
  newpath
  cf findfont cs scalefont dup
  /FontMatrix get 0 get /Ts exch def /FontInfo get dup
  /UnderlinePosition get Ts mul /To exch def
  /UnderlineThickness get Ts mul /Tt exch def
  ux uy To add moveto  Tcx uy To add lineto
  Tt setlinewidth stroke
  grestore
} bd
/OLE {
  /Tcx currentpoint pop def
  gsave
  newpath
  cf findfont cs scalefont dup
  /FontMatrix get 0 get /Ts exch def /FontInfo get dup
  /UnderlinePosition get Ts mul /To exch def
  /UnderlineThickness get Ts mul /Tt exch def
  ux uy To add cs add moveto Tcx uy To add cs add lineto
  Tt setlinewidth stroke
  grestore
} bd
/SOE {
  /Tcx currentpoint pop def
  gsave
  newpath
  cf findfont cs scalefont dup
  /FontMatrix get 0 get /Ts exch def /FontInfo get dup
  /UnderlinePosition get Ts mul /To exch def
  /UnderlineThickness get Ts mul /Tt exch def
  ux uy To add cs 10 mul 26 idiv add moveto Tcx uy To add cs 10 mul 26 idiv add lineto
  Tt setlinewidth stroke
  grestore
} bd
/QT {
/Y22 exch store
/X22 exch store
/Y21 exch store
/X21 exch store
currentpoint
/Y21 load 2 mul add 3 div exch
/X21 load 2 mul add 3 div exch
/X21 load 2 mul /X22 load add 3 div
/Y21 load 2 mul /Y22 load add 3 div
/X22 load /Y22 load curveto
} bd
/SSPD {
dup length /d exch dict def
{
/v exch def
/k exch def
currentpagedevice k known {
/cpdv currentpagedevice k get def
v cpdv ne {
/upd false def
/nullv v type /nulltype eq def
/nullcpdv cpdv type /nulltype eq def
nullv nullcpdv or
{
/upd true def
} {
/sametype v type cpdv type eq def
sametype {
v type /arraytype eq {
/vlen v length def
/cpdvlen cpdv length def
vlen cpdvlen eq {
0 1 vlen 1 sub {
/i exch def
/obj v i get def
/cpdobj cpdv i get def
obj cpdobj ne {
/upd true def
exit
} if
} for
} {
/upd true def
} ifelse
} {
v type /dicttype eq {
v {
/dv exch def
/dk exch def
/cpddv cpdv dk get def
dv cpddv ne {
/upd true def
exit
} if
} forall
} {
/upd true def
} ifelse
} ifelse
} if
} ifelse
upd true eq {
d k v put
} if
} if
} if
} forall
d length 0 gt {
d setpagedevice
} if
} bd
%%EndResource
%%BeginResource: procset (Apache XML Graphics EPS ProcSet) 1.0 0
%%Version: 1.0 0
%%Copyright: (Copyright 2002-2003 The Apache Software Foundation. License terms: http://www.apache.org/licenses/LICENSE-2.0)
/BeginEPSF { %def
/b4_Inc_state save def         % Save state for cleanup
/dict_count countdictstack def % Count objects on dict stack
/op_count count 1 sub def      % Count objects on operand stack
userdict begin                 % Push userdict on dict stack
/showpage { } def              % Redefine showpage, { } = null proc
0 setgray 0 setlinecap         % Prepare graphics state
1 setlinewidth 0 setlinejoin
10 setmiterlimit [ ] 0 setdash newpath
/languagelevel where           % If level not equal to 1 then
{pop languagelevel             % set strokeadjust and
1 ne                           % overprint to their defaults.
{false setstrokeadjust false setoverprint
} if
} if
} bd
/EndEPSF { %def
count op_count sub {pop} repeat            % Clean up stacks
countdictstack dict_count sub {end} repeat
b4_Inc_state restore
} bd
%%EndResource
%FOPBeginFontDict
%%IncludeResource: font Courier-Bold
%%IncludeResource: font Helvetica
%%IncludeResource: font Courier-BoldOblique
%%IncludeResource: font Courier-Oblique
%%IncludeResource: font Times-Roman
%%IncludeResource: font Helvetica-BoldOblique
%%IncludeResource: font Helvetica-Bold
%%IncludeResource: font Helvetica-Oblique
%%IncludeResource: font Times-BoldItalic
%%IncludeResource: font Courier
%%IncludeResource: font Times-Italic
%%IncludeResource: font Times-Bold
%%IncludeResource: font Symbol
%%IncludeResource: font ZapfDingbats
%FOPEndFontDict
%%BeginResource: encoding WinAnsiEncoding
/WinAnsiEncoding [
/.notdef /.notdef /.notdef /.notdef /.notdef
/.notdef /.notdef /.notdef /.notdef /.notdef
/.notdef /.notdef /.notdef /.notdef /.notdef
/.notdef /.notdef /.notdef /.notdef /.notdef
/.notdef /.notdef /.notdef /.notdef /.notdef
/.notdef /.notdef /.notdef /.notdef /.notdef
/.notdef /.notdef /space /exclam /quotedbl
/numbersign /dollar /percent /ampersand /quotesingle
/parenleft /parenright /asterisk /plus /comma
/hyphen /period /slash /zero /one
/two /three /four /five /six
/seven /eight /nine /colon /semicolon
/less /equal /greater /question /at
/A /B /C /D /E
/F /G /H /I /J
/K /L /M /N /O
/P /Q /R /S /T
/U /V /W /X /Y
/Z /bracketleft /backslash /bracketright /asciicircum
/underscore /quoteleft /a /b /c
/d /e /f /g /h
/i /j /k /l /m
/n /o /p /q /r
/s /t /u /v /w
/x /y /z /braceleft /bar
/braceright /asciitilde /bullet /Euro /bullet
/quotesinglbase /florin /quotedblbase /ellipsis /dagger
/daggerdbl /circumflex /perthousand /Scaron /guilsinglleft
/OE /bullet /Zcaron /bullet /bullet
/quoteleft /quoteright /quotedblleft /quotedblright /bullet
/endash /emdash /asciitilde /trademark /scaron
/guilsinglright /oe /bullet /zcaron /Ydieresis
/space /exclamdown /cent /sterling /currency
/yen /brokenbar /section /dieresis /copyright
/ordfeminine /guillemotleft /logicalnot /sfthyphen /registered
/macron /degree /plusminus /twosuperior /threesuperior
/acute /mu /paragraph /middot /cedilla
/onesuperior /ordmasculine /guillemotright /onequarter /onehalf
/threequarters /questiondown /Agrave /Aacute /Acircumflex
/Atilde /Adieresis /Aring /AE /Ccedilla
/Egrave /Eacute /Ecircumflex /Edieresis /Igrave
/Iacute /Icircumflex /Idieresis /Eth /Ntilde
/Ograve /Oacute /Ocircumflex /Otilde /Odieresis
/multiply /Oslash /Ugrave /Uacute /Ucircumflex
/Udieresis /Yacute /Thorn /germandbls /agrave
/aacute /acircumflex /atilde /adieresis /aring
/ae /ccedilla /egrave /eacute /ecircumflex
/edieresis /igrave /iacute /icircumflex /idieresis
/eth /ntilde /ograve /oacute /ocircumflex
/otilde /odieresis /divide /oslash /ugrave
/uacute /ucircumflex /udieresis /yacute /thorn
/ydieresis
] def
%%EndResource
%FOPBeginFontReencode
/Courier-Bold findfont
dup length dict begin
  {1 index /FID ne {def} {pop pop} ifelse} forall
  /Encoding WinAnsiEncoding def
  currentdict
end
/Courier-Bold exch definefont pop
/Helvetica findfont
dup length dict begin
  {1 index /FID ne {def} {pop pop} ifelse} forall
  /Encoding WinAnsiEncoding def
  currentdict
end
/Helvetica exch definefont pop
/Courier-BoldOblique findfont
dup length dict begin
  {1 index /FID ne {def} {pop pop} ifelse} forall
  /Encoding WinAnsiEncoding def
  currentdict
end
/Courier-BoldOblique exch definefont pop
/Courier-Oblique findfont
dup length dict begin
  {1 index /FID ne {def} {pop pop} ifelse} forall
  /Encoding WinAnsiEncoding def
  currentdict
end
/Courier-Oblique exch definefont pop
/Times-Roman findfont
dup length dict begin
  {1 index /FID ne {def} {pop pop} ifelse} forall
  /Encoding WinAnsiEncoding def
  currentdict
end
/Times-Roman exch definefont pop
/Helvetica-BoldOblique findfont
dup length dict begin
  {1 index /FID ne {def} {pop pop} ifelse} forall
  /Encoding WinAnsiEncoding def
  currentdict
end
/Helvetica-BoldOblique exch definefont pop
/Helvetica-Bold findfont
dup length dict begin
  {1 index /FID ne {def} {pop pop} ifelse} forall
  /Encoding WinAnsiEncoding def
  currentdict
end
/Helvetica-Bold exch definefont pop
/Helvetica-Oblique findfont
dup length dict begin
  {1 index /FID ne {def} {pop pop} ifelse} forall
  /Encoding WinAnsiEncoding def
  currentdict
end
/Helvetica-Oblique exch definefont pop
/Times-BoldItalic findfont
dup length dict begin
  {1 index /FID ne {def} {pop pop} ifelse} forall
  /Encoding WinAnsiEncoding def
  currentdict
end
/Times-BoldItalic exch definefont pop
/Courier findfont
dup length dict begin
  {1 index /FID ne {def} {pop pop} ifelse} forall
  /Encoding WinAnsiEncoding def
  currentdict
end
/Courier exch definefont pop
/Times-Italic findfont
dup length dict begin
  {1 index /FID ne {def} {pop pop} ifelse} forall
  /Encoding WinAnsiEncoding def
  currentdict
end
/Times-Italic exch definefont pop
/Times-Bold findfont
dup length dict begin
  {1 index /FID ne {def} {pop pop} ifelse} forall
  /Encoding WinAnsiEncoding def
  currentdict
end
/Times-Bold exch definefont pop
%FOPEndFontReencode
%%EndProlog
%%Page: 1 1
%%PageBoundingBox: 0 0 420 315
%%BeginPageSetup
[1 0 0 -1 0 315] CT
%%EndPageSetup
GS
[0.75 0 0 0.75 0 0] CT
1 GC
N
0 0 560 420 re
f
GR
GS
[0.75 0 0 0.75 0 0] CT
1 GC
N
0 0 560 420 re
f
GR
GS
[0.75 0 0 0.75 0 0] CT
1 GC
N
73 374 M
507 374 L
507 31 L
73 31 L
cp
f
GR
GS
[0.75 0 0 0.75 217.50016 298.24999] CT
0.149 GC
/Helvetica 15 F
GS
[1 0 0 1 0 0] CT
-52 16 moveto 
1 -1 scale
(Frequency \(Hz\)) t 
GR
GR
GS
[0.75 0 0 0.75 0 0] CT
0.149 GC
2 setlinecap
10.0 ML
N
73 374 M
507 374 L
S
GR
GS
[0.75 0 0 0.75 0 0] CT
0.149 GC
2 setlinecap
10.0 ML
N
73 31 M
507 31 L
S
GR
GS
[0.75 0 0 0.75 0 0] CT
0.149 GC
2 setlinecap
10.0 ML
N
73 374 M
73 369.66 L
S
GR
GS
[0.75 0 0 0.75 0 0] CT
0.149 GC
2 setlinecap
10.0 ML
N
116.4 374 M
116.4 369.66 L
S
GR
GS
[0.75 0 0 0.75 0 0] CT
0.149 GC
2 setlinecap
10.0 ML
N
159.8 374 M
159.8 369.66 L
S
GR
GS
[0.75 0 0 0.75 0 0] CT
0.149 GC
2 setlinecap
10.0 ML
N
203.2 374 M
203.2 369.66 L
S
GR
GS
[0.75 0 0 0.75 0 0] CT
0.149 GC
2 setlinecap
10.0 ML
N
246.6 374 M
246.6 369.66 L
S
GR
GS
[0.75 0 0 0.75 0 0] CT
0.149 GC
2 setlinecap
10.0 ML
N
290 374 M
290 369.66 L
S
GR
GS
[0.75 0 0 0.75 0 0] CT
0.149 GC
2 setlinecap
10.0 ML
N
333.4 374 M
333.4 369.66 L
S
GR
GS
[0.75 0 0 0.75 0 0] CT
0.149 GC
2 setlinecap
10.0 ML
N
376.8 374 M
376.8 369.66 L
S
GR
GS
[0.75 0 0 0.75 0 0] CT
0.149 GC
2 setlinecap
10.0 ML
N
420.2 374 M
420.2 369.66 L
S
GR
GS
[0.75 0 0 0.75 0 0] CT
0.149 GC
2 setlinecap
10.0 ML
N
463.6 374 M
463.6 369.66 L
S
GR
GS
[0.75 0 0 0.75 0 0] CT
0.149 GC
2 setlinecap
10.0 ML
N
507 374 M
507 369.66 L
S
GR
GS
[0.75 0 0 0.75 0 0] CT
0.149 GC
2 setlinecap
10.0 ML
N
73 31 M
73 35.34 L
S
GR
GS
[0.75 0 0 0.75 0 0] CT
0.149 GC
2 setlinecap
10.0 ML
N
116.4 31 M
116.4 35.34 L
S
GR
GS
[0.75 0 0 0.75 0 0] CT
0.149 GC
2 setlinecap
10.0 ML
N
159.8 31 M
159.8 35.34 L
S
GR
GS
[0.75 0 0 0.75 0 0] CT
0.149 GC
2 setlinecap
10.0 ML
N
203.2 31 M
203.2 35.34 L
S
GR
GS
[0.75 0 0 0.75 0 0] CT
0.149 GC
2 setlinecap
10.0 ML
N
246.6 31 M
246.6 35.34 L
S
GR
GS
[0.75 0 0 0.75 0 0] CT
0.149 GC
2 setlinecap
10.0 ML
N
290 31 M
290 35.34 L
S
GR
GS
[0.75 0 0 0.75 0 0] CT
0.149 GC
2 setlinecap
10.0 ML
N
333.4 31 M
333.4 35.34 L
S
GR
GS
[0.75 0 0 0.75 0 0] CT
0.149 GC
2 setlinecap
10.0 ML
N
376.8 31 M
376.8 35.34 L
S
GR
GS
[0.75 0 0 0.75 0 0] CT
0.149 GC
2 setlinecap
10.0 ML
N
420.2 31 M
420.2 35.34 L
S
GR
GS
[0.75 0 0 0.75 0 0] CT
0.149 GC
2 setlinecap
10.0 ML
N
463.6 31 M
463.6 35.34 L
S
GR
GS
[0.75 0 0 0.75 0 0] CT
0.149 GC
2 setlinecap
10.0 ML
N
507 31 M
507 35.34 L
S
GR
GS
[0.75 0 0 0.75 54.75 284.50001] CT
0.149 GC
/Helvetica 13 F
GS
[1 0 0 1 0 0] CT
-4 14 moveto 
1 -1 scale
(0) t 
GR
GR
GS
[0.75 0 0 0.75 87.3 284.50001] CT
0.149 GC
/Helvetica 13 F
GS
[1 0 0 1 0 0] CT
-7.5 14 moveto 
1 -1 scale
(10) t 
GR
GR
GS
[0.75 0 0 0.75 119.85 284.50001] CT
0.149 GC
/Helvetica 13 F
GS
[1 0 0 1 0 0] CT
-7.5 14 moveto 
1 -1 scale
(20) t 
GR
GR
GS
[0.75 0 0 0.75 152.4 284.50001] CT
0.149 GC
/Helvetica 13 F
GS
[1 0 0 1 0 0] CT
-7.5 14 moveto 
1 -1 scale
(30) t 
GR
GR
GS
[0.75 0 0 0.75 184.95 284.50001] CT
0.149 GC
/Helvetica 13 F
GS
[1 0 0 1 0 0] CT
-7.5 14 moveto 
1 -1 scale
(40) t 
GR
GR
GS
[0.75 0 0 0.75 217.5 284.50001] CT
0.149 GC
/Helvetica 13 F
GS
[1 0 0 1 0 0] CT
-7.5 14 moveto 
1 -1 scale
(50) t 
GR
GR
GS
[0.75 0 0 0.75 250.05 284.50001] CT
0.149 GC
/Helvetica 13 F
GS
[1 0 0 1 0 0] CT
-7.5 14 moveto 
1 -1 scale
(60) t 
GR
GR
GS
[0.75 0 0 0.75 282.59999 284.50001] CT
0.149 GC
/Helvetica 13 F
GS
[1 0 0 1 0 0] CT
-7.5 14 moveto 
1 -1 scale
(70) t 
GR
GR
GS
[0.75 0 0 0.75 315.15001 284.50001] CT
0.149 GC
/Helvetica 13 F
GS
[1 0 0 1 0 0] CT
-7.5 14 moveto 
1 -1 scale
(80) t 
GR
GR
GS
[0.75 0 0 0.75 347.7 284.50001] CT
0.149 GC
/Helvetica 13 F
GS
[1 0 0 1 0 0] CT
-7.5 14 moveto 
1 -1 scale
(90) t 
GR
GR
GS
[0.75 0 0 0.75 380.25 284.50001] CT
0.149 GC
/Helvetica 13 F
GS
[1 0 0 1 0 0] CT
-11 14 moveto 
1 -1 scale
(100) t 
GR
GR
GS
[0 -0.75 0.75 0 41.75 151.87487] CT
0.149 GC
/Helvetica 15 F
GS
[1 0 0 1 0 0] CT
-61.5 -4 moveto 
1 -1 scale
(|P\(f\)| MAgnitud dB) t 
GR
GR
GS
[0.75 0 0 0.75 0 0] CT
0.149 GC
2 setlinecap
10.0 ML
N
73 374 M
73 31 L
S
GR
GS
[0.75 0 0 0.75 0 0] CT
0.149 GC
2 setlinecap
10.0 ML
N
507 374 M
507 31 L
S
GR
GS
[0.75 0 0 0.75 0 0] CT
0.149 GC
2 setlinecap
10.0 ML
N
73 374 M
77.34 374 L
S
GR
GS
[0.75 0 0 0.75 0 0] CT
0.149 GC
2 setlinecap
10.0 ML
N
73 335.889 M
77.34 335.889 L
S
GR
GS
[0.75 0 0 0.75 0 0] CT
0.149 GC
2 setlinecap
10.0 ML
N
73 297.778 M
77.34 297.778 L
S
GR
GS
[0.75 0 0 0.75 0 0] CT
0.149 GC
2 setlinecap
10.0 ML
N
73 259.667 M
77.34 259.667 L
S
GR
GS
[0.75 0 0 0.75 0 0] CT
0.149 GC
2 setlinecap
10.0 ML
N
73 221.556 M
77.34 221.556 L
S
GR
GS
[0.75 0 0 0.75 0 0] CT
0.149 GC
2 setlinecap
10.0 ML
N
73 183.444 M
77.34 183.444 L
S
GR
GS
[0.75 0 0 0.75 0 0] CT
0.149 GC
2 setlinecap
10.0 ML
N
73 145.333 M
77.34 145.333 L
S
GR
GS
[0.75 0 0 0.75 0 0] CT
0.149 GC
2 setlinecap
10.0 ML
N
73 107.222 M
77.34 107.222 L
S
GR
GS
[0.75 0 0 0.75 0 0] CT
0.149 GC
2 setlinecap
10.0 ML
N
73 69.111 M
77.34 69.111 L
S
GR
GS
[0.75 0 0 0.75 0 0] CT
0.149 GC
2 setlinecap
10.0 ML
N
73 31 M
77.34 31 L
S
GR
GS
[0.75 0 0 0.75 0 0] CT
0.149 GC
2 setlinecap
10.0 ML
N
507 374 M
502.66 374 L
S
GR
GS
[0.75 0 0 0.75 0 0] CT
0.149 GC
2 setlinecap
10.0 ML
N
507 335.889 M
502.66 335.889 L
S
GR
GS
[0.75 0 0 0.75 0 0] CT
0.149 GC
2 setlinecap
10.0 ML
N
507 297.778 M
502.66 297.778 L
S
GR
GS
[0.75 0 0 0.75 0 0] CT
0.149 GC
2 setlinecap
10.0 ML
N
507 259.667 M
502.66 259.667 L
S
GR
GS
[0.75 0 0 0.75 0 0] CT
0.149 GC
2 setlinecap
10.0 ML
N
507 221.556 M
502.66 221.556 L
S
GR
GS
[0.75 0 0 0.75 0 0] CT
0.149 GC
2 setlinecap
10.0 ML
N
507 183.444 M
502.66 183.444 L
S
GR
GS
[0.75 0 0 0.75 0 0] CT
0.149 GC
2 setlinecap
10.0 ML
N
507 145.333 M
502.66 145.333 L
S
GR
GS
[0.75 0 0 0.75 0 0] CT
0.149 GC
2 setlinecap
10.0 ML
N
507 107.222 M
502.66 107.222 L
S
GR
GS
[0.75 0 0 0.75 0 0] CT
0.149 GC
2 setlinecap
10.0 ML
N
507 69.111 M
502.66 69.111 L
S
GR
GS
[0.75 0 0 0.75 0 0] CT
0.149 GC
2 setlinecap
10.0 ML
N
507 31 M
502.66 31 L
S
GR
GS
[0.75 0 0 0.75 50.75 280.5] CT
0.149 GC
/Helvetica 13 F
GS
[1 0 0 1 0 0] CT
-8 5.5 moveto 
1 -1 scale
(0) t 
GR
GR
GS
[0.75 0 0 0.75 50.75 251.91666] CT
0.149 GC
/Helvetica 13 F
GS
[1 0 0 1 0 0] CT
-8 5.5 moveto 
1 -1 scale
(1) t 
GR
GR
GS
[0.75 0 0 0.75 50.75 223.33333] CT
0.149 GC
/Helvetica 13 F
GS
[1 0 0 1 0 0] CT
-8 5.5 moveto 
1 -1 scale
(2) t 
GR
GR
GS
[0.75 0 0 0.75 50.75 194.74999] CT
0.149 GC
/Helvetica 13 F
GS
[1 0 0 1 0 0] CT
-8 5.5 moveto 
1 -1 scale
(3) t 
GR
GR
GS
[0.75 0 0 0.75 50.75 166.16667] CT
0.149 GC
/Helvetica 13 F
GS
[1 0 0 1 0 0] CT
-8 5.5 moveto 
1 -1 scale
(4) t 
GR
GR
GS
[0.75 0 0 0.75 50.75 137.58333] CT
0.149 GC
/Helvetica 13 F
GS
[1 0 0 1 0 0] CT
-8 5.5 moveto 
1 -1 scale
(5) t 
GR
GR
GS
[0.75 0 0 0.75 50.75 109] CT
0.149 GC
/Helvetica 13 F
GS
[1 0 0 1 0 0] CT
-8 5.5 moveto 
1 -1 scale
(6) t 
GR
GR
GS
[0.75 0 0 0.75 50.75 80.41667] CT
0.149 GC
/Helvetica 13 F
GS
[1 0 0 1 0 0] CT
-8 5.5 moveto 
1 -1 scale
(7) t 
GR
GR
GS
[0.75 0 0 0.75 50.75 51.83334] CT
0.149 GC
/Helvetica 13 F
GS
[1 0 0 1 0 0] CT
-8 5.5 moveto 
1 -1 scale
(8) t 
GR
GR
GS
[0.75 0 0 0.75 50.75 23.25] CT
0.149 GC
/Helvetica 13 F
GS
[1 0 0 1 0 0] CT
-8 5.5 moveto 
1 -1 scale
(9) t 
GR
GR
GS
[0.75 0 0 0.75 0 0] CT
0 0.447 0.741 RC
2 setlinecap
10.0 ML
N
79.5 67.5 M
78.736 65.149 L
76.736 63.696 L
74.264 63.696 L
72.264 65.149 L
71.5 67.5 L
72.264 69.851 L
74.264 71.304 L
76.736 71.304 L
78.736 69.851 L
79.5 67.5 L
S
GR
GS
[0.75 0 0 0.75 0 0] CT
0 0.447 0.741 RC
2 setlinecap
10.0 ML
N
82.5 311.5 M
81.736 309.149 L
79.736 307.696 L
77.264 307.696 L
75.264 309.149 L
74.5 311.5 L
75.264 313.851 L
77.264 315.304 L
79.736 315.304 L
81.736 313.851 L
82.5 311.5 L
S
GR
GS
[0.75 0 0 0.75 0 0] CT
0 0.447 0.741 RC
2 setlinecap
10.0 ML
N
85.5 321.5 M
84.736 319.149 L
82.736 317.696 L
80.264 317.696 L
78.264 319.149 L
77.5 321.5 L
78.264 323.851 L
80.264 325.304 L
82.736 325.304 L
84.736 323.851 L
85.5 321.5 L
S
GR
GS
[0.75 0 0 0.75 0 0] CT
0 0.447 0.741 RC
2 setlinecap
10.0 ML
N
88.5 310.5 M
87.736 308.149 L
85.736 306.696 L
83.264 306.696 L
81.264 308.149 L
80.5 310.5 L
81.264 312.851 L
83.264 314.304 L
85.736 314.304 L
87.736 312.851 L
88.5 310.5 L
S
GR
GS
[0.75 0 0 0.75 0 0] CT
0 0.447 0.741 RC
2 setlinecap
10.0 ML
N
91.5 298.5 M
90.736 296.149 L
88.736 294.696 L
86.264 294.696 L
84.264 296.149 L
83.5 298.5 L
84.264 300.851 L
86.264 302.304 L
88.736 302.304 L
90.736 300.851 L
91.5 298.5 L
S
GR
GS
[0.75 0 0 0.75 0 0] CT
0 0.447 0.741 RC
2 setlinecap
10.0 ML
N
94.5 366.5 M
93.736 364.149 L
91.736 362.696 L
89.264 362.696 L
87.264 364.149 L
86.5 366.5 L
87.264 368.851 L
89.264 370.304 L
91.736 370.304 L
93.736 368.851 L
94.5 366.5 L
S
GR
GS
[0.75 0 0 0.75 0 0] CT
0 0.447 0.741 RC
2 setlinecap
10.0 ML
N
97.5 301.5 M
96.736 299.149 L
94.736 297.696 L
92.264 297.696 L
90.264 299.149 L
89.5 301.5 L
90.264 303.851 L
92.264 305.304 L
94.736 305.304 L
96.736 303.851 L
97.5 301.5 L
S
GR
GS
[0.75 0 0 0.75 0 0] CT
0 0.447 0.741 RC
2 setlinecap
10.0 ML
N
100.5 347.5 M
99.736 345.149 L
97.736 343.696 L
95.264 343.696 L
93.264 345.149 L
92.5 347.5 L
93.264 349.851 L
95.264 351.304 L
97.736 351.304 L
99.736 349.851 L
100.5 347.5 L
S
GR
GS
[0.75 0 0 0.75 0 0] CT
0 0.447 0.741 RC
2 setlinecap
10.0 ML
N
103.5 369.5 M
102.736 367.149 L
100.736 365.696 L
98.264 365.696 L
96.264 367.149 L
95.5 369.5 L
96.264 371.851 L
98.264 373.304 L
100.736 373.304 L
102.736 371.851 L
103.5 369.5 L
S
GR
GS
[0.75 0 0 0.75 0 0] CT
0 0.447 0.741 RC
2 setlinecap
10.0 ML
N
107.5 333.5 M
106.736 331.149 L
104.736 329.696 L
102.264 329.696 L
100.264 331.149 L
99.5 333.5 L
100.264 335.851 L
102.264 337.304 L
104.736 337.304 L
106.736 335.851 L
107.5 333.5 L
S
GR
GS
[0.75 0 0 0.75 0 0] CT
0 0.447 0.741 RC
2 setlinecap
10.0 ML
N
110.5 360.5 M
109.736 358.149 L
107.736 356.696 L
105.264 356.696 L
103.264 358.149 L
102.5 360.5 L
103.264 362.851 L
105.264 364.304 L
107.736 364.304 L
109.736 362.851 L
110.5 360.5 L
S
GR
GS
[0.75 0 0 0.75 0 0] CT
0 0.447 0.741 RC
2 setlinecap
10.0 ML
N
113.5 358.5 M
112.736 356.149 L
110.736 354.696 L
108.264 354.696 L
106.264 356.149 L
105.5 358.5 L
106.264 360.851 L
108.264 362.304 L
110.736 362.304 L
112.736 360.851 L
113.5 358.5 L
S
GR
GS
[0.75 0 0 0.75 0 0] CT
0 0.447 0.741 RC
2 setlinecap
10.0 ML
N
116.5 372.5 M
115.736 370.149 L
113.736 368.696 L
111.264 368.696 L
109.264 370.149 L
108.5 372.5 L
109.264 374.851 L
111.264 376.304 L
113.736 376.304 L
115.736 374.851 L
116.5 372.5 L
S
GR
GS
[0.75 0 0 0.75 0 0] CT
0 0.447 0.741 RC
2 setlinecap
10.0 ML
N
119.5 366.5 M
118.736 364.149 L
116.736 362.696 L
114.264 362.696 L
112.264 364.149 L
111.5 366.5 L
112.264 368.851 L
114.264 370.304 L
116.736 370.304 L
118.736 368.851 L
119.5 366.5 L
S
GR
GS
[0.75 0 0 0.75 0 0] CT
0 0.447 0.741 RC
2 setlinecap
10.0 ML
N
122.5 355.5 M
121.736 353.149 L
119.736 351.696 L
117.264 351.696 L
115.264 353.149 L
114.5 355.5 L
115.264 357.851 L
117.264 359.304 L
119.736 359.304 L
121.736 357.851 L
122.5 355.5 L
S
GR
GS
[0.75 0 0 0.75 0 0] CT
0 0.447 0.741 RC
2 setlinecap
10.0 ML
N
125.5 364.5 M
124.736 362.149 L
122.736 360.696 L
120.264 360.696 L
118.264 362.149 L
117.5 364.5 L
118.264 366.851 L
120.264 368.304 L
122.736 368.304 L
124.736 366.851 L
125.5 364.5 L
S
GR
GS
[0.75 0 0 0.75 0 0] CT
0 0.447 0.741 RC
2 setlinecap
10.0 ML
N
128.5 345.5 M
127.736 343.149 L
125.736 341.696 L
123.264 341.696 L
121.264 343.149 L
120.5 345.5 L
121.264 347.851 L
123.264 349.304 L
125.736 349.304 L
127.736 347.851 L
128.5 345.5 L
S
GR
GS
[0.75 0 0 0.75 0 0] CT
0 0.447 0.741 RC
2 setlinecap
10.0 ML
N
131.5 301.5 M
130.736 299.149 L
128.736 297.696 L
126.264 297.696 L
124.264 299.149 L
123.5 301.5 L
124.264 303.851 L
126.264 305.304 L
128.736 305.304 L
130.736 303.851 L
131.5 301.5 L
S
GR
GS
[0.75 0 0 0.75 0 0] CT
0 0.447 0.741 RC
2 setlinecap
10.0 ML
N
134.5 331.5 M
133.736 329.149 L
131.736 327.696 L
129.264 327.696 L
127.264 329.149 L
126.5 331.5 L
127.264 333.851 L
129.264 335.304 L
131.736 335.304 L
133.736 333.851 L
134.5 331.5 L
S
GR
GS
[0.75 0 0 0.75 0 0] CT
0 0.447 0.741 RC
2 setlinecap
10.0 ML
N
137.5 367.5 M
136.736 365.149 L
134.736 363.696 L
132.264 363.696 L
130.264 365.149 L
129.5 367.5 L
130.264 369.851 L
132.264 371.304 L
134.736 371.304 L
136.736 369.851 L
137.5 367.5 L
S
GR
GS
[0.75 0 0 0.75 0 0] CT
0 0.447 0.741 RC
2 setlinecap
10.0 ML
N
140.5 339.5 M
139.736 337.149 L
137.736 335.696 L
135.264 335.696 L
133.264 337.149 L
132.5 339.5 L
133.264 341.851 L
135.264 343.304 L
137.736 343.304 L
139.736 341.851 L
140.5 339.5 L
S
GR
GS
[0.75 0 0 0.75 0 0] CT
0 0.447 0.741 RC
2 setlinecap
10.0 ML
N
144.5 343.5 M
143.736 341.149 L
141.736 339.696 L
139.264 339.696 L
137.264 341.149 L
136.5 343.5 L
137.264 345.851 L
139.264 347.304 L
141.736 347.304 L
143.736 345.851 L
144.5 343.5 L
S
GR
GS
[0.75 0 0 0.75 0 0] CT
0 0.447 0.741 RC
2 setlinecap
10.0 ML
N
147.5 343.5 M
146.736 341.149 L
144.736 339.696 L
142.264 339.696 L
140.264 341.149 L
139.5 343.5 L
140.264 345.851 L
142.264 347.304 L
144.736 347.304 L
146.736 345.851 L
147.5 343.5 L
S
GR
GS
[0.75 0 0 0.75 0 0] CT
0 0.447 0.741 RC
2 setlinecap
10.0 ML
N
150.5 358.5 M
149.736 356.149 L
147.736 354.696 L
145.264 354.696 L
143.264 356.149 L
142.5 358.5 L
143.264 360.851 L
145.264 362.304 L
147.736 362.304 L
149.736 360.851 L
150.5 358.5 L
S
GR
GS
[0.75 0 0 0.75 0 0] CT
0 0.447 0.741 RC
2 setlinecap
10.0 ML
N
153.5 346.5 M
152.736 344.149 L
150.736 342.696 L
148.264 342.696 L
146.264 344.149 L
145.5 346.5 L
146.264 348.851 L
148.264 350.304 L
150.736 350.304 L
152.736 348.851 L
153.5 346.5 L
S
GR
GS
[0.75 0 0 0.75 0 0] CT
0 0.447 0.741 RC
2 setlinecap
10.0 ML
N
156.5 369.5 M
155.736 367.149 L
153.736 365.696 L
151.264 365.696 L
149.264 367.149 L
148.5 369.5 L
149.264 371.851 L
151.264 373.304 L
153.736 373.304 L
155.736 371.851 L
156.5 369.5 L
S
GR
GS
[0.75 0 0 0.75 0 0] CT
0 0.447 0.741 RC
2 setlinecap
10.0 ML
N
159.5 348.5 M
158.736 346.149 L
156.736 344.696 L
154.264 344.696 L
152.264 346.149 L
151.5 348.5 L
152.264 350.851 L
154.264 352.304 L
156.736 352.304 L
158.736 350.851 L
159.5 348.5 L
S
GR
GS
[0.75 0 0 0.75 0 0] CT
0 0.447 0.741 RC
2 setlinecap
10.0 ML
N
162.5 362.5 M
161.736 360.149 L
159.736 358.696 L
157.264 358.696 L
155.264 360.149 L
154.5 362.5 L
155.264 364.851 L
157.264 366.304 L
159.736 366.304 L
161.736 364.851 L
162.5 362.5 L
S
GR
GS
[0.75 0 0 0.75 0 0] CT
0 0.447 0.741 RC
2 setlinecap
10.0 ML
N
165.5 361.5 M
164.736 359.149 L
162.736 357.696 L
160.264 357.696 L
158.264 359.149 L
157.5 361.5 L
158.264 363.851 L
160.264 365.304 L
162.736 365.304 L
164.736 363.851 L
165.5 361.5 L
S
GR
GS
[0.75 0 0 0.75 0 0] CT
0 0.447 0.741 RC
2 setlinecap
10.0 ML
N
168.5 360.5 M
167.736 358.149 L
165.736 356.696 L
163.264 356.696 L
161.264 358.149 L
160.5 360.5 L
161.264 362.851 L
163.264 364.304 L
165.736 364.304 L
167.736 362.851 L
168.5 360.5 L
S
GR
GS
[0.75 0 0 0.75 0 0] CT
0 0.447 0.741 RC
2 setlinecap
10.0 ML
N
171.5 356.5 M
170.736 354.149 L
168.736 352.696 L
166.264 352.696 L
164.264 354.149 L
163.5 356.5 L
164.264 358.851 L
166.264 360.304 L
168.736 360.304 L
170.736 358.851 L
171.5 356.5 L
S
GR
GS
[0.75 0 0 0.75 0 0] CT
0 0.447 0.741 RC
2 setlinecap
10.0 ML
N
174.5 347.5 M
173.736 345.149 L
171.736 343.696 L
169.264 343.696 L
167.264 345.149 L
166.5 347.5 L
167.264 349.851 L
169.264 351.304 L
171.736 351.304 L
173.736 349.851 L
174.5 347.5 L
S
GR
GS
[0.75 0 0 0.75 0 0] CT
0 0.447 0.741 RC
2 setlinecap
10.0 ML
N
177.5 346.5 M
176.736 344.149 L
174.736 342.696 L
172.264 342.696 L
170.264 344.149 L
169.5 346.5 L
170.264 348.851 L
172.264 350.304 L
174.736 350.304 L
176.736 348.851 L
177.5 346.5 L
S
GR
GS
[0.75 0 0 0.75 0 0] CT
0 0.447 0.741 RC
2 setlinecap
10.0 ML
N
180.5 344.5 M
179.736 342.149 L
177.736 340.696 L
175.264 340.696 L
173.264 342.149 L
172.5 344.5 L
173.264 346.851 L
175.264 348.304 L
177.736 348.304 L
179.736 346.851 L
180.5 344.5 L
S
GR
GS
[0.75 0 0 0.75 0 0] CT
0 0.447 0.741 RC
2 setlinecap
10.0 ML
N
184.5 324.5 M
183.736 322.149 L
181.736 320.696 L
179.264 320.696 L
177.264 322.149 L
176.5 324.5 L
177.264 326.851 L
179.264 328.304 L
181.736 328.304 L
183.736 326.851 L
184.5 324.5 L
S
GR
GS
[0.75 0 0 0.75 0 0] CT
0 0.447 0.741 RC
2 setlinecap
10.0 ML
N
187.5 356.5 M
186.736 354.149 L
184.736 352.696 L
182.264 352.696 L
180.264 354.149 L
179.5 356.5 L
180.264 358.851 L
182.264 360.304 L
184.736 360.304 L
186.736 358.851 L
187.5 356.5 L
S
GR
GS
[0.75 0 0 0.75 0 0] CT
0 0.447 0.741 RC
2 setlinecap
10.0 ML
N
190.5 348.5 M
189.736 346.149 L
187.736 344.696 L
185.264 344.696 L
183.264 346.149 L
182.5 348.5 L
183.264 350.851 L
185.264 352.304 L
187.736 352.304 L
189.736 350.851 L
190.5 348.5 L
S
GR
GS
[0.75 0 0 0.75 0 0] CT
0 0.447 0.741 RC
2 setlinecap
10.0 ML
N
193.5 342.5 M
192.736 340.149 L
190.736 338.696 L
188.264 338.696 L
186.264 340.149 L
185.5 342.5 L
186.264 344.851 L
188.264 346.304 L
190.736 346.304 L
192.736 344.851 L
193.5 342.5 L
S
GR
GS
[0.75 0 0 0.75 0 0] CT
0 0.447 0.741 RC
2 setlinecap
10.0 ML
N
196.5 350.5 M
195.736 348.149 L
193.736 346.696 L
191.264 346.696 L
189.264 348.149 L
188.5 350.5 L
189.264 352.851 L
191.264 354.304 L
193.736 354.304 L
195.736 352.851 L
196.5 350.5 L
S
GR
GS
[0.75 0 0 0.75 0 0] CT
0 0.447 0.741 RC
2 setlinecap
10.0 ML
N
199.5 341.5 M
198.736 339.149 L
196.736 337.696 L
194.264 337.696 L
192.264 339.149 L
191.5 341.5 L
192.264 343.851 L
194.264 345.304 L
196.736 345.304 L
198.736 343.851 L
199.5 341.5 L
S
GR
GS
[0.75 0 0 0.75 0 0] CT
0 0.447 0.741 RC
2 setlinecap
10.0 ML
N
202.5 333.5 M
201.736 331.149 L
199.736 329.696 L
197.264 329.696 L
195.264 331.149 L
194.5 333.5 L
195.264 335.851 L
197.264 337.304 L
199.736 337.304 L
201.736 335.851 L
202.5 333.5 L
S
GR
GS
[0.75 0 0 0.75 0 0] CT
0 0.447 0.741 RC
2 setlinecap
10.0 ML
N
205.5 361.5 M
204.736 359.149 L
202.736 357.696 L
200.264 357.696 L
198.264 359.149 L
197.5 361.5 L
198.264 363.851 L
200.264 365.304 L
202.736 365.304 L
204.736 363.851 L
205.5 361.5 L
S
GR
GS
[0.75 0 0 0.75 0 0] CT
0 0.447 0.741 RC
2 setlinecap
10.0 ML
N
208.5 355.5 M
207.736 353.149 L
205.736 351.696 L
203.264 351.696 L
201.264 353.149 L
200.5 355.5 L
201.264 357.851 L
203.264 359.304 L
205.736 359.304 L
207.736 357.851 L
208.5 355.5 L
S
GR
GS
[0.75 0 0 0.75 0 0] CT
0 0.447 0.741 RC
2 setlinecap
10.0 ML
N
211.5 340.5 M
210.736 338.149 L
208.736 336.696 L
206.264 336.696 L
204.264 338.149 L
203.5 340.5 L
204.264 342.851 L
206.264 344.304 L
208.736 344.304 L
210.736 342.851 L
211.5 340.5 L
S
GR
GS
[0.75 0 0 0.75 0 0] CT
0 0.447 0.741 RC
2 setlinecap
10.0 ML
N
214.5 349.5 M
213.736 347.149 L
211.736 345.696 L
209.264 345.696 L
207.264 347.149 L
206.5 349.5 L
207.264 351.851 L
209.264 353.304 L
211.736 353.304 L
213.736 351.851 L
214.5 349.5 L
S
GR
GS
[0.75 0 0 0.75 0 0] CT
0 0.447 0.741 RC
2 setlinecap
10.0 ML
N
217.5 366.5 M
216.736 364.149 L
214.736 362.696 L
212.264 362.696 L
210.264 364.149 L
209.5 366.5 L
210.264 368.851 L
212.264 370.304 L
214.736 370.304 L
216.736 368.851 L
217.5 366.5 L
S
GR
GS
[0.75 0 0 0.75 0 0] CT
0 0.447 0.741 RC
2 setlinecap
10.0 ML
N
221.5 364.5 M
220.736 362.149 L
218.736 360.696 L
216.264 360.696 L
214.264 362.149 L
213.5 364.5 L
214.264 366.851 L
216.264 368.304 L
218.736 368.304 L
220.736 366.851 L
221.5 364.5 L
S
GR
GS
[0.75 0 0 0.75 0 0] CT
0 0.447 0.741 RC
2 setlinecap
10.0 ML
N
224.5 368.5 M
223.736 366.149 L
221.736 364.696 L
219.264 364.696 L
217.264 366.149 L
216.5 368.5 L
217.264 370.851 L
219.264 372.304 L
221.736 372.304 L
223.736 370.851 L
224.5 368.5 L
S
GR
GS
[0.75 0 0 0.75 0 0] CT
0 0.447 0.741 RC
2 setlinecap
10.0 ML
N
227.5 355.5 M
226.736 353.149 L
224.736 351.696 L
222.264 351.696 L
220.264 353.149 L
219.5 355.5 L
220.264 357.851 L
222.264 359.304 L
224.736 359.304 L
226.736 357.851 L
227.5 355.5 L
S
GR
GS
[0.75 0 0 0.75 0 0] CT
0 0.447 0.741 RC
2 setlinecap
10.0 ML
N
230.5 359.5 M
229.736 357.149 L
227.736 355.696 L
225.264 355.696 L
223.264 357.149 L
222.5 359.5 L
223.264 361.851 L
225.264 363.304 L
227.736 363.304 L
229.736 361.851 L
230.5 359.5 L
S
GR
GS
[0.75 0 0 0.75 0 0] CT
0 0.447 0.741 RC
2 setlinecap
10.0 ML
N
233.5 362.5 M
232.736 360.149 L
230.736 358.696 L
228.264 358.696 L
226.264 360.149 L
225.5 362.5 L
226.264 364.851 L
228.264 366.304 L
230.736 366.304 L
232.736 364.851 L
233.5 362.5 L
S
GR
GS
[0.75 0 0 0.75 0 0] CT
0 0.447 0.741 RC
2 setlinecap
10.0 ML
N
236.5 366.5 M
235.736 364.149 L
233.736 362.696 L
231.264 362.696 L
229.264 364.149 L
228.5 366.5 L
229.264 368.851 L
231.264 370.304 L
233.736 370.304 L
235.736 368.851 L
236.5 366.5 L
S
GR
GS
[0.75 0 0 0.75 0 0] CT
0 0.447 0.741 RC
2 setlinecap
10.0 ML
N
239.5 362.5 M
238.736 360.149 L
236.736 358.696 L
234.264 358.696 L
232.264 360.149 L
231.5 362.5 L
232.264 364.851 L
234.264 366.304 L
236.736 366.304 L
238.736 364.851 L
239.5 362.5 L
S
GR
GS
[0.75 0 0 0.75 0 0] CT
0 0.447 0.741 RC
2 setlinecap
10.0 ML
N
242.5 368.5 M
241.736 366.149 L
239.736 364.696 L
237.264 364.696 L
235.264 366.149 L
234.5 368.5 L
235.264 370.851 L
237.264 372.304 L
239.736 372.304 L
241.736 370.851 L
242.5 368.5 L
S
GR
GS
[0.75 0 0 0.75 0 0] CT
0 0.447 0.741 RC
2 setlinecap
10.0 ML
N
245.5 367.5 M
244.736 365.149 L
242.736 363.696 L
240.264 363.696 L
238.264 365.149 L
237.5 367.5 L
238.264 369.851 L
240.264 371.304 L
242.736 371.304 L
244.736 369.851 L
245.5 367.5 L
S
GR
GS
[0.75 0 0 0.75 0 0] CT
0 0.447 0.741 RC
2 setlinecap
10.0 ML
N
248.5 354.5 M
247.736 352.149 L
245.736 350.696 L
243.264 350.696 L
241.264 352.149 L
240.5 354.5 L
241.264 356.851 L
243.264 358.304 L
245.736 358.304 L
247.736 356.851 L
248.5 354.5 L
S
GR
GS
[0.75 0 0 0.75 0 0] CT
0 0.447 0.741 RC
2 setlinecap
10.0 ML
N
251.5 349.5 M
250.736 347.149 L
248.736 345.696 L
246.264 345.696 L
244.264 347.149 L
243.5 349.5 L
244.264 351.851 L
246.264 353.304 L
248.736 353.304 L
250.736 351.851 L
251.5 349.5 L
S
GR
GS
[0.75 0 0 0.75 0 0] CT
0 0.447 0.741 RC
2 setlinecap
10.0 ML
N
254.5 366.5 M
253.736 364.149 L
251.736 362.696 L
249.264 362.696 L
247.264 364.149 L
246.5 366.5 L
247.264 368.851 L
249.264 370.304 L
251.736 370.304 L
253.736 368.851 L
254.5 366.5 L
S
GR
GS
[0.75 0 0 0.75 0 0] CT
0 0.447 0.741 RC
2 setlinecap
10.0 ML
N
257.5 367.5 M
256.736 365.149 L
254.736 363.696 L
252.264 363.696 L
250.264 365.149 L
249.5 367.5 L
250.264 369.851 L
252.264 371.304 L
254.736 371.304 L
256.736 369.851 L
257.5 367.5 L
S
GR
GS
[0.75 0 0 0.75 0 0] CT
0 0.447 0.741 RC
2 setlinecap
10.0 ML
N
261.5 362.5 M
260.736 360.149 L
258.736 358.696 L
256.264 358.696 L
254.264 360.149 L
253.5 362.5 L
254.264 364.851 L
256.264 366.304 L
258.736 366.304 L
260.736 364.851 L
261.5 362.5 L
S
GR
GS
[0.75 0 0 0.75 0 0] CT
0 0.447 0.741 RC
2 setlinecap
10.0 ML
N
264.5 355.5 M
263.736 353.149 L
261.736 351.696 L
259.264 351.696 L
257.264 353.149 L
256.5 355.5 L
257.264 357.851 L
259.264 359.304 L
261.736 359.304 L
263.736 357.851 L
264.5 355.5 L
S
GR
GS
[0.75 0 0 0.75 0 0] CT
0 0.447 0.741 RC
2 setlinecap
10.0 ML
N
267.5 365.5 M
266.736 363.149 L
264.736 361.696 L
262.264 361.696 L
260.264 363.149 L
259.5 365.5 L
260.264 367.851 L
262.264 369.304 L
264.736 369.304 L
266.736 367.851 L
267.5 365.5 L
S
GR
GS
[0.75 0 0 0.75 0 0] CT
0 0.447 0.741 RC
2 setlinecap
10.0 ML
N
270.5 348.5 M
269.736 346.149 L
267.736 344.696 L
265.264 344.696 L
263.264 346.149 L
262.5 348.5 L
263.264 350.851 L
265.264 352.304 L
267.736 352.304 L
269.736 350.851 L
270.5 348.5 L
S
GR
GS
[0.75 0 0 0.75 0 0] CT
0 0.447 0.741 RC
2 setlinecap
10.0 ML
N
273.5 363.5 M
272.736 361.149 L
270.736 359.696 L
268.264 359.696 L
266.264 361.149 L
265.5 363.5 L
266.264 365.851 L
268.264 367.304 L
270.736 367.304 L
272.736 365.851 L
273.5 363.5 L
S
GR
GS
[0.75 0 0 0.75 0 0] CT
0 0.447 0.741 RC
2 setlinecap
10.0 ML
N
276.5 360.5 M
275.736 358.149 L
273.736 356.696 L
271.264 356.696 L
269.264 358.149 L
268.5 360.5 L
269.264 362.851 L
271.264 364.304 L
273.736 364.304 L
275.736 362.851 L
276.5 360.5 L
S
GR
GS
[0.75 0 0 0.75 0 0] CT
0 0.447 0.741 RC
2 setlinecap
10.0 ML
N
279.5 357.5 M
278.736 355.149 L
276.736 353.696 L
274.264 353.696 L
272.264 355.149 L
271.5 357.5 L
272.264 359.851 L
274.264 361.304 L
276.736 361.304 L
278.736 359.851 L
279.5 357.5 L
S
GR
GS
[0.75 0 0 0.75 0 0] CT
0 0.447 0.741 RC
2 setlinecap
10.0 ML
N
282.5 356.5 M
281.736 354.149 L
279.736 352.696 L
277.264 352.696 L
275.264 354.149 L
274.5 356.5 L
275.264 358.851 L
277.264 360.304 L
279.736 360.304 L
281.736 358.851 L
282.5 356.5 L
S
GR
GS
[0.75 0 0 0.75 0 0] CT
0 0.447 0.741 RC
2 setlinecap
10.0 ML
N
285.5 367.5 M
284.736 365.149 L
282.736 363.696 L
280.264 363.696 L
278.264 365.149 L
277.5 367.5 L
278.264 369.851 L
280.264 371.304 L
282.736 371.304 L
284.736 369.851 L
285.5 367.5 L
S
GR
GS
[0.75 0 0 0.75 0 0] CT
0 0.447 0.741 RC
2 setlinecap
10.0 ML
N
288.5 357.5 M
287.736 355.149 L
285.736 353.696 L
283.264 353.696 L
281.264 355.149 L
280.5 357.5 L
281.264 359.851 L
283.264 361.304 L
285.736 361.304 L
287.736 359.851 L
288.5 357.5 L
S
GR
GS
[0.75 0 0 0.75 0 0] CT
0 0.447 0.741 RC
2 setlinecap
10.0 ML
N
291.5 371.5 M
290.736 369.149 L
288.736 367.696 L
286.264 367.696 L
284.264 369.149 L
283.5 371.5 L
284.264 373.851 L
286.264 375.304 L
288.736 375.304 L
290.736 373.851 L
291.5 371.5 L
S
GR
GS
[0.75 0 0 0.75 0 0] CT
0 0.447 0.741 RC
2 setlinecap
10.0 ML
N
294.5 361.5 M
293.736 359.149 L
291.736 357.696 L
289.264 357.696 L
287.264 359.149 L
286.5 361.5 L
287.264 363.851 L
289.264 365.304 L
291.736 365.304 L
293.736 363.851 L
294.5 361.5 L
S
GR
GS
[0.75 0 0 0.75 0 0] CT
0 0.447 0.741 RC
2 setlinecap
10.0 ML
N
298.5 357.5 M
297.736 355.149 L
295.736 353.696 L
293.264 353.696 L
291.264 355.149 L
290.5 357.5 L
291.264 359.851 L
293.264 361.304 L
295.736 361.304 L
297.736 359.851 L
298.5 357.5 L
S
GR
GS
[0.75 0 0 0.75 0 0] CT
0 0.447 0.741 RC
2 setlinecap
10.0 ML
N
301.5 360.5 M
300.736 358.149 L
298.736 356.696 L
296.264 356.696 L
294.264 358.149 L
293.5 360.5 L
294.264 362.851 L
296.264 364.304 L
298.736 364.304 L
300.736 362.851 L
301.5 360.5 L
S
GR
GS
[0.75 0 0 0.75 0 0] CT
0 0.447 0.741 RC
2 setlinecap
10.0 ML
N
304.5 368.5 M
303.736 366.149 L
301.736 364.696 L
299.264 364.696 L
297.264 366.149 L
296.5 368.5 L
297.264 370.851 L
299.264 372.304 L
301.736 372.304 L
303.736 370.851 L
304.5 368.5 L
S
GR
GS
[0.75 0 0 0.75 0 0] CT
0 0.447 0.741 RC
2 setlinecap
10.0 ML
N
307.5 362.5 M
306.736 360.149 L
304.736 358.696 L
302.264 358.696 L
300.264 360.149 L
299.5 362.5 L
300.264 364.851 L
302.264 366.304 L
304.736 366.304 L
306.736 364.851 L
307.5 362.5 L
S
GR
GS
[0.75 0 0 0.75 0 0] CT
0 0.447 0.741 RC
2 setlinecap
10.0 ML
N
310.5 361.5 M
309.736 359.149 L
307.736 357.696 L
305.264 357.696 L
303.264 359.149 L
302.5 361.5 L
303.264 363.851 L
305.264 365.304 L
307.736 365.304 L
309.736 363.851 L
310.5 361.5 L
S
GR
GS
[0.75 0 0 0.75 0 0] CT
0 0.447 0.741 RC
2 setlinecap
10.0 ML
N
313.5 360.5 M
312.736 358.149 L
310.736 356.696 L
308.264 356.696 L
306.264 358.149 L
305.5 360.5 L
306.264 362.851 L
308.264 364.304 L
310.736 364.304 L
312.736 362.851 L
313.5 360.5 L
S
GR
GS
[0.75 0 0 0.75 0 0] CT
0 0.447 0.741 RC
2 setlinecap
10.0 ML
N
316.5 370.5 M
315.736 368.149 L
313.736 366.696 L
311.264 366.696 L
309.264 368.149 L
308.5 370.5 L
309.264 372.851 L
311.264 374.304 L
313.736 374.304 L
315.736 372.851 L
316.5 370.5 L
S
GR
GS
[0.75 0 0 0.75 0 0] CT
0 0.447 0.741 RC
2 setlinecap
10.0 ML
N
319.5 353.5 M
318.736 351.149 L
316.736 349.696 L
314.264 349.696 L
312.264 351.149 L
311.5 353.5 L
312.264 355.851 L
314.264 357.304 L
316.736 357.304 L
318.736 355.851 L
319.5 353.5 L
S
GR
GS
[0.75 0 0 0.75 0 0] CT
0 0.447 0.741 RC
2 setlinecap
10.0 ML
N
322.5 363.5 M
321.736 361.149 L
319.736 359.696 L
317.264 359.696 L
315.264 361.149 L
314.5 363.5 L
315.264 365.851 L
317.264 367.304 L
319.736 367.304 L
321.736 365.851 L
322.5 363.5 L
S
GR
GS
[0.75 0 0 0.75 0 0] CT
0 0.447 0.741 RC
2 setlinecap
10.0 ML
N
325.5 369.5 M
324.736 367.149 L
322.736 365.696 L
320.264 365.696 L
318.264 367.149 L
317.5 369.5 L
318.264 371.851 L
320.264 373.304 L
322.736 373.304 L
324.736 371.851 L
325.5 369.5 L
S
GR
GS
[0.75 0 0 0.75 0 0] CT
0 0.447 0.741 RC
2 setlinecap
10.0 ML
N
328.5 361.5 M
327.736 359.149 L
325.736 357.696 L
323.264 357.696 L
321.264 359.149 L
320.5 361.5 L
321.264 363.851 L
323.264 365.304 L
325.736 365.304 L
327.736 363.851 L
328.5 361.5 L
S
GR
GS
[0.75 0 0 0.75 0 0] CT
0 0.447 0.741 RC
2 setlinecap
10.0 ML
N
331.5 359.5 M
330.736 357.149 L
328.736 355.696 L
326.264 355.696 L
324.264 357.149 L
323.5 359.5 L
324.264 361.851 L
326.264 363.304 L
328.736 363.304 L
330.736 361.851 L
331.5 359.5 L
S
GR
GS
[0.75 0 0 0.75 0 0] CT
0 0.447 0.741 RC
2 setlinecap
10.0 ML
N
335.5 358.5 M
334.736 356.149 L
332.736 354.696 L
330.264 354.696 L
328.264 356.149 L
327.5 358.5 L
328.264 360.851 L
330.264 362.304 L
332.736 362.304 L
334.736 360.851 L
335.5 358.5 L
S
GR
GS
[0.75 0 0 0.75 0 0] CT
0 0.447 0.741 RC
2 setlinecap
10.0 ML
N
338.5 352.5 M
337.736 350.149 L
335.736 348.696 L
333.264 348.696 L
331.264 350.149 L
330.5 352.5 L
331.264 354.851 L
333.264 356.304 L
335.736 356.304 L
337.736 354.851 L
338.5 352.5 L
S
GR
GS
[0.75 0 0 0.75 0 0] CT
0 0.447 0.741 RC
2 setlinecap
10.0 ML
N
341.5 344.5 M
340.736 342.149 L
338.736 340.696 L
336.264 340.696 L
334.264 342.149 L
333.5 344.5 L
334.264 346.851 L
336.264 348.304 L
338.736 348.304 L
340.736 346.851 L
341.5 344.5 L
S
GR
GS
[0.75 0 0 0.75 0 0] CT
0 0.447 0.741 RC
2 setlinecap
10.0 ML
N
344.5 358.5 M
343.736 356.149 L
341.736 354.696 L
339.264 354.696 L
337.264 356.149 L
336.5 358.5 L
337.264 360.851 L
339.264 362.304 L
341.736 362.304 L
343.736 360.851 L
344.5 358.5 L
S
GR
GS
[0.75 0 0 0.75 0 0] CT
0 0.447 0.741 RC
2 setlinecap
10.0 ML
N
347.5 366.5 M
346.736 364.149 L
344.736 362.696 L
342.264 362.696 L
340.264 364.149 L
339.5 366.5 L
340.264 368.851 L
342.264 370.304 L
344.736 370.304 L
346.736 368.851 L
347.5 366.5 L
S
GR
GS
[0.75 0 0 0.75 0 0] CT
0 0.447 0.741 RC
2 setlinecap
10.0 ML
N
350.5 358.5 M
349.736 356.149 L
347.736 354.696 L
345.264 354.696 L
343.264 356.149 L
342.5 358.5 L
343.264 360.851 L
345.264 362.304 L
347.736 362.304 L
349.736 360.851 L
350.5 358.5 L
S
GR
GS
[0.75 0 0 0.75 0 0] CT
0 0.447 0.741 RC
2 setlinecap
10.0 ML
N
353.5 361.5 M
352.736 359.149 L
350.736 357.696 L
348.264 357.696 L
346.264 359.149 L
345.5 361.5 L
346.264 363.851 L
348.264 365.304 L
350.736 365.304 L
352.736 363.851 L
353.5 361.5 L
S
GR
GS
[0.75 0 0 0.75 0 0] CT
0 0.447 0.741 RC
2 setlinecap
10.0 ML
N
356.5 368.5 M
355.736 366.149 L
353.736 364.696 L
351.264 364.696 L
349.264 366.149 L
348.5 368.5 L
349.264 370.851 L
351.264 372.304 L
353.736 372.304 L
355.736 370.851 L
356.5 368.5 L
S
GR
GS
[0.75 0 0 0.75 0 0] CT
0 0.447 0.741 RC
2 setlinecap
10.0 ML
N
359.5 363.5 M
358.736 361.149 L
356.736 359.696 L
354.264 359.696 L
352.264 361.149 L
351.5 363.5 L
352.264 365.851 L
354.264 367.304 L
356.736 367.304 L
358.736 365.851 L
359.5 363.5 L
S
GR
GS
[0.75 0 0 0.75 0 0] CT
0 0.447 0.741 RC
2 setlinecap
10.0 ML
N
362.5 359.5 M
361.736 357.149 L
359.736 355.696 L
357.264 355.696 L
355.264 357.149 L
354.5 359.5 L
355.264 361.851 L
357.264 363.304 L
359.736 363.304 L
361.736 361.851 L
362.5 359.5 L
S
GR
GS
[0.75 0 0 0.75 0 0] CT
0 0.447 0.741 RC
2 setlinecap
10.0 ML
N
365.5 362.5 M
364.736 360.149 L
362.736 358.696 L
360.264 358.696 L
358.264 360.149 L
357.5 362.5 L
358.264 364.851 L
360.264 366.304 L
362.736 366.304 L
364.736 364.851 L
365.5 362.5 L
S
GR
GS
[0.75 0 0 0.75 0 0] CT
0 0.447 0.741 RC
2 setlinecap
10.0 ML
N
368.5 368.5 M
367.736 366.149 L
365.736 364.696 L
363.264 364.696 L
361.264 366.149 L
360.5 368.5 L
361.264 370.851 L
363.264 372.304 L
365.736 372.304 L
367.736 370.851 L
368.5 368.5 L
S
GR
GS
[0.75 0 0 0.75 0 0] CT
0 0.447 0.741 RC
2 setlinecap
10.0 ML
N
371.5 356.5 M
370.736 354.149 L
368.736 352.696 L
366.264 352.696 L
364.264 354.149 L
363.5 356.5 L
364.264 358.851 L
366.264 360.304 L
368.736 360.304 L
370.736 358.851 L
371.5 356.5 L
S
GR
GS
[0.75 0 0 0.75 0 0] CT
0 0.447 0.741 RC
2 setlinecap
10.0 ML
N
375.5 345.5 M
374.736 343.149 L
372.736 341.696 L
370.264 341.696 L
368.264 343.149 L
367.5 345.5 L
368.264 347.851 L
370.264 349.304 L
372.736 349.304 L
374.736 347.851 L
375.5 345.5 L
S
GR
GS
[0.75 0 0 0.75 0 0] CT
0 0.447 0.741 RC
2 setlinecap
10.0 ML
N
378.5 366.5 M
377.736 364.149 L
375.736 362.696 L
373.264 362.696 L
371.264 364.149 L
370.5 366.5 L
371.264 368.851 L
373.264 370.304 L
375.736 370.304 L
377.736 368.851 L
378.5 366.5 L
S
GR
GS
[0.75 0 0 0.75 0 0] CT
0 0.447 0.741 RC
2 setlinecap
10.0 ML
N
381.5 367.5 M
380.736 365.149 L
378.736 363.696 L
376.264 363.696 L
374.264 365.149 L
373.5 367.5 L
374.264 369.851 L
376.264 371.304 L
378.736 371.304 L
380.736 369.851 L
381.5 367.5 L
S
GR
GS
[0.75 0 0 0.75 0 0] CT
0 0.447 0.741 RC
2 setlinecap
10.0 ML
N
384.5 353.5 M
383.736 351.149 L
381.736 349.696 L
379.264 349.696 L
377.264 351.149 L
376.5 353.5 L
377.264 355.851 L
379.264 357.304 L
381.736 357.304 L
383.736 355.851 L
384.5 353.5 L
S
GR
GS
[0.75 0 0 0.75 0 0] CT
0 0.447 0.741 RC
2 setlinecap
10.0 ML
N
387.5 346.5 M
386.736 344.149 L
384.736 342.696 L
382.264 342.696 L
380.264 344.149 L
379.5 346.5 L
380.264 348.851 L
382.264 350.304 L
384.736 350.304 L
386.736 348.851 L
387.5 346.5 L
S
GR
GS
[0.75 0 0 0.75 0 0] CT
0 0.447 0.741 RC
2 setlinecap
10.0 ML
N
390.5 365.5 M
389.736 363.149 L
387.736 361.696 L
385.264 361.696 L
383.264 363.149 L
382.5 365.5 L
383.264 367.851 L
385.264 369.304 L
387.736 369.304 L
389.736 367.851 L
390.5 365.5 L
S
GR
GS
[0.75 0 0 0.75 0 0] CT
0 0.447 0.741 RC
2 setlinecap
10.0 ML
N
393.5 361.5 M
392.736 359.149 L
390.736 357.696 L
388.264 357.696 L
386.264 359.149 L
385.5 361.5 L
386.264 363.851 L
388.264 365.304 L
390.736 365.304 L
392.736 363.851 L
393.5 361.5 L
S
GR
GS
[0.75 0 0 0.75 0 0] CT
0 0.447 0.741 RC
2 setlinecap
10.0 ML
N
396.5 356.5 M
395.736 354.149 L
393.736 352.696 L
391.264 352.696 L
389.264 354.149 L
388.5 356.5 L
389.264 358.851 L
391.264 360.304 L
393.736 360.304 L
395.736 358.851 L
396.5 356.5 L
S
GR
GS
[0.75 0 0 0.75 0 0] CT
0 0.447 0.741 RC
2 setlinecap
10.0 ML
N
399.5 358.5 M
398.736 356.149 L
396.736 354.696 L
394.264 354.696 L
392.264 356.149 L
391.5 358.5 L
392.264 360.851 L
394.264 362.304 L
396.736 362.304 L
398.736 360.851 L
399.5 358.5 L
S
GR
GS
[0.75 0 0 0.75 0 0] CT
0 0.447 0.741 RC
2 setlinecap
10.0 ML
N
402.5 350.5 M
401.736 348.149 L
399.736 346.696 L
397.264 346.696 L
395.264 348.149 L
394.5 350.5 L
395.264 352.851 L
397.264 354.304 L
399.736 354.304 L
401.736 352.851 L
402.5 350.5 L
S
GR
GS
[0.75 0 0 0.75 0 0] CT
0 0.447 0.741 RC
2 setlinecap
10.0 ML
N
405.5 360.5 M
404.736 358.149 L
402.736 356.696 L
400.264 356.696 L
398.264 358.149 L
397.5 360.5 L
398.264 362.851 L
400.264 364.304 L
402.736 364.304 L
404.736 362.851 L
405.5 360.5 L
S
GR
GS
[0.75 0 0 0.75 0 0] CT
0 0.447 0.741 RC
2 setlinecap
10.0 ML
N
408.5 354.5 M
407.736 352.149 L
405.736 350.696 L
403.264 350.696 L
401.264 352.149 L
400.5 354.5 L
401.264 356.851 L
403.264 358.304 L
405.736 358.304 L
407.736 356.851 L
408.5 354.5 L
S
GR
GS
[0.75 0 0 0.75 0 0] CT
0 0.447 0.741 RC
2 setlinecap
10.0 ML
N
412.5 351.5 M
411.736 349.149 L
409.736 347.696 L
407.264 347.696 L
405.264 349.149 L
404.5 351.5 L
405.264 353.851 L
407.264 355.304 L
409.736 355.304 L
411.736 353.851 L
412.5 351.5 L
S
GR
GS
[0.75 0 0 0.75 0 0] CT
0 0.447 0.741 RC
2 setlinecap
10.0 ML
N
415.5 366.5 M
414.736 364.149 L
412.736 362.696 L
410.264 362.696 L
408.264 364.149 L
407.5 366.5 L
408.264 368.851 L
410.264 370.304 L
412.736 370.304 L
414.736 368.851 L
415.5 366.5 L
S
GR
GS
[0.75 0 0 0.75 0 0] CT
0 0.447 0.741 RC
2 setlinecap
10.0 ML
N
418.5 364.5 M
417.736 362.149 L
415.736 360.696 L
413.264 360.696 L
411.264 362.149 L
410.5 364.5 L
411.264 366.851 L
413.264 368.304 L
415.736 368.304 L
417.736 366.851 L
418.5 364.5 L
S
GR
GS
[0.75 0 0 0.75 0 0] CT
0 0.447 0.741 RC
2 setlinecap
10.0 ML
N
421.5 370.5 M
420.736 368.149 L
418.736 366.696 L
416.264 366.696 L
414.264 368.149 L
413.5 370.5 L
414.264 372.851 L
416.264 374.304 L
418.736 374.304 L
420.736 372.851 L
421.5 370.5 L
S
GR
GS
[0.75 0 0 0.75 0 0] CT
0 0.447 0.741 RC
2 setlinecap
10.0 ML
N
424.5 354.5 M
423.736 352.149 L
421.736 350.696 L
419.264 350.696 L
417.264 352.149 L
416.5 354.5 L
417.264 356.851 L
419.264 358.304 L
421.736 358.304 L
423.736 356.851 L
424.5 354.5 L
S
GR
GS
[0.75 0 0 0.75 0 0] CT
0 0.447 0.741 RC
2 setlinecap
10.0 ML
N
427.5 367.5 M
426.736 365.149 L
424.736 363.696 L
422.264 363.696 L
420.264 365.149 L
419.5 367.5 L
420.264 369.851 L
422.264 371.304 L
424.736 371.304 L
426.736 369.851 L
427.5 367.5 L
S
GR
GS
[0.75 0 0 0.75 0 0] CT
0 0.447 0.741 RC
2 setlinecap
10.0 ML
N
430.5 366.5 M
429.736 364.149 L
427.736 362.696 L
425.264 362.696 L
423.264 364.149 L
422.5 366.5 L
423.264 368.851 L
425.264 370.304 L
427.736 370.304 L
429.736 368.851 L
430.5 366.5 L
S
GR
GS
[0.75 0 0 0.75 0 0] CT
0 0.447 0.741 RC
2 setlinecap
10.0 ML
N
433.5 359.5 M
432.736 357.149 L
430.736 355.696 L
428.264 355.696 L
426.264 357.149 L
425.5 359.5 L
426.264 361.851 L
428.264 363.304 L
430.736 363.304 L
432.736 361.851 L
433.5 359.5 L
S
GR
GS
[0.75 0 0 0.75 0 0] CT
0 0.447 0.741 RC
2 setlinecap
10.0 ML
N
436.5 364.5 M
435.736 362.149 L
433.736 360.696 L
431.264 360.696 L
429.264 362.149 L
428.5 364.5 L
429.264 366.851 L
431.264 368.304 L
433.736 368.304 L
435.736 366.851 L
436.5 364.5 L
S
GR
GS
[0.75 0 0 0.75 0 0] CT
0 0.447 0.741 RC
2 setlinecap
10.0 ML
N
439.5 361.5 M
438.736 359.149 L
436.736 357.696 L
434.264 357.696 L
432.264 359.149 L
431.5 361.5 L
432.264 363.851 L
434.264 365.304 L
436.736 365.304 L
438.736 363.851 L
439.5 361.5 L
S
GR
GS
[0.75 0 0 0.75 0 0] CT
0 0.447 0.741 RC
2 setlinecap
10.0 ML
N
442.5 365.5 M
441.736 363.149 L
439.736 361.696 L
437.264 361.696 L
435.264 363.149 L
434.5 365.5 L
435.264 367.851 L
437.264 369.304 L
439.736 369.304 L
441.736 367.851 L
442.5 365.5 L
S
GR
GS
[0.75 0 0 0.75 0 0] CT
0 0.447 0.741 RC
2 setlinecap
10.0 ML
N
445.5 355.5 M
444.736 353.149 L
442.736 351.696 L
440.264 351.696 L
438.264 353.149 L
437.5 355.5 L
438.264 357.851 L
440.264 359.304 L
442.736 359.304 L
444.736 357.851 L
445.5 355.5 L
S
GR
GS
[0.75 0 0 0.75 0 0] CT
0 0.447 0.741 RC
2 setlinecap
10.0 ML
N
449.5 368.5 M
448.736 366.149 L
446.736 364.696 L
444.264 364.696 L
442.264 366.149 L
441.5 368.5 L
442.264 370.851 L
444.264 372.304 L
446.736 372.304 L
448.736 370.851 L
449.5 368.5 L
S
GR
GS
[0.75 0 0 0.75 0 0] CT
0 0.447 0.741 RC
2 setlinecap
10.0 ML
N
452.5 366.5 M
451.736 364.149 L
449.736 362.696 L
447.264 362.696 L
445.264 364.149 L
444.5 366.5 L
445.264 368.851 L
447.264 370.304 L
449.736 370.304 L
451.736 368.851 L
452.5 366.5 L
S
GR
GS
[0.75 0 0 0.75 0 0] CT
0 0.447 0.741 RC
2 setlinecap
10.0 ML
N
455.5 361.5 M
454.736 359.149 L
452.736 357.696 L
450.264 357.696 L
448.264 359.149 L
447.5 361.5 L
448.264 363.851 L
450.264 365.304 L
452.736 365.304 L
454.736 363.851 L
455.5 361.5 L
S
GR
GS
[0.75 0 0 0.75 0 0] CT
0 0.447 0.741 RC
2 setlinecap
10.0 ML
N
458.5 350.5 M
457.736 348.149 L
455.736 346.696 L
453.264 346.696 L
451.264 348.149 L
450.5 350.5 L
451.264 352.851 L
453.264 354.304 L
455.736 354.304 L
457.736 352.851 L
458.5 350.5 L
S
GR
GS
[0.75 0 0 0.75 0 0] CT
0 0.447 0.741 RC
2 setlinecap
10.0 ML
N
461.5 371.5 M
460.736 369.149 L
458.736 367.696 L
456.264 367.696 L
454.264 369.149 L
453.5 371.5 L
454.264 373.851 L
456.264 375.304 L
458.736 375.304 L
460.736 373.851 L
461.5 371.5 L
S
GR
GS
[0.75 0 0 0.75 0 0] CT
0 0.447 0.741 RC
2 setlinecap
10.0 ML
N
464.5 365.5 M
463.736 363.149 L
461.736 361.696 L
459.264 361.696 L
457.264 363.149 L
456.5 365.5 L
457.264 367.851 L
459.264 369.304 L
461.736 369.304 L
463.736 367.851 L
464.5 365.5 L
S
GR
GS
[0.75 0 0 0.75 0 0] CT
0 0.447 0.741 RC
2 setlinecap
10.0 ML
N
467.5 356.5 M
466.736 354.149 L
464.736 352.696 L
462.264 352.696 L
460.264 354.149 L
459.5 356.5 L
460.264 358.851 L
462.264 360.304 L
464.736 360.304 L
466.736 358.851 L
467.5 356.5 L
S
GR
GS
[0.75 0 0 0.75 0 0] CT
0 0.447 0.741 RC
2 setlinecap
10.0 ML
N
470.5 363.5 M
469.736 361.149 L
467.736 359.696 L
465.264 359.696 L
463.264 361.149 L
462.5 363.5 L
463.264 365.851 L
465.264 367.304 L
467.736 367.304 L
469.736 365.851 L
470.5 363.5 L
S
GR
GS
[0.75 0 0 0.75 0 0] CT
0 0.447 0.741 RC
2 setlinecap
10.0 ML
N
473.5 359.5 M
472.736 357.149 L
470.736 355.696 L
468.264 355.696 L
466.264 357.149 L
465.5 359.5 L
466.264 361.851 L
468.264 363.304 L
470.736 363.304 L
472.736 361.851 L
473.5 359.5 L
S
GR
GS
[0.75 0 0 0.75 0 0] CT
0 0.447 0.741 RC
2 setlinecap
10.0 ML
N
476.5 354.5 M
475.736 352.149 L
473.736 350.696 L
471.264 350.696 L
469.264 352.149 L
468.5 354.5 L
469.264 356.851 L
471.264 358.304 L
473.736 358.304 L
475.736 356.851 L
476.5 354.5 L
S
GR
GS
[0.75 0 0 0.75 0 0] CT
0 0.447 0.741 RC
2 setlinecap
10.0 ML
N
479.5 356.5 M
478.736 354.149 L
476.736 352.696 L
474.264 352.696 L
472.264 354.149 L
471.5 356.5 L
472.264 358.851 L
474.264 360.304 L
476.736 360.304 L
478.736 358.851 L
479.5 356.5 L
S
GR
GS
[0.75 0 0 0.75 0 0] CT
0 0.447 0.741 RC
2 setlinecap
10.0 ML
N
482.5 365.5 M
481.736 363.149 L
479.736 361.696 L
477.264 361.696 L
475.264 363.149 L
474.5 365.5 L
475.264 367.851 L
477.264 369.304 L
479.736 369.304 L
481.736 367.851 L
482.5 365.5 L
S
GR
GS
[0.75 0 0 0.75 0 0] CT
0 0.447 0.741 RC
2 setlinecap
10.0 ML
N
485.5 368.5 M
484.736 366.149 L
482.736 364.696 L
480.264 364.696 L
478.264 366.149 L
477.5 368.5 L
478.264 370.851 L
480.264 372.304 L
482.736 372.304 L
484.736 370.851 L
485.5 368.5 L
S
GR
GS
[0.75 0 0 0.75 0 0] CT
0 0.447 0.741 RC
2 setlinecap
10.0 ML
N
489.5 363.5 M
488.736 361.149 L
486.736 359.696 L
484.264 359.696 L
482.264 361.149 L
481.5 363.5 L
482.264 365.851 L
484.264 367.304 L
486.736 367.304 L
488.736 365.851 L
489.5 363.5 L
S
GR
GS
[0.75 0 0 0.75 0 0] CT
0 0.447 0.741 RC
2 setlinecap
10.0 ML
N
492.5 368.5 M
491.736 366.149 L
489.736 364.696 L
487.264 364.696 L
485.264 366.149 L
484.5 368.5 L
485.264 370.851 L
487.264 372.304 L
489.736 372.304 L
491.736 370.851 L
492.5 368.5 L
S
GR
GS
[0.75 0 0 0.75 0 0] CT
0 0.447 0.741 RC
2 setlinecap
10.0 ML
N
495.5 368.5 M
494.736 366.149 L
492.736 364.696 L
490.264 364.696 L
488.264 366.149 L
487.5 368.5 L
488.264 370.851 L
490.264 372.304 L
492.736 372.304 L
494.736 370.851 L
495.5 368.5 L
S
GR
GS
[0.75 0 0 0.75 0 0] CT
0 0.447 0.741 RC
2 setlinecap
10.0 ML
N
498.5 365.5 M
497.736 363.149 L
495.736 361.696 L
493.264 361.696 L
491.264 363.149 L
490.5 365.5 L
491.264 367.851 L
493.264 369.304 L
495.736 369.304 L
497.736 367.851 L
498.5 365.5 L
S
GR
GS
[0.75 0 0 0.75 0 0] CT
0 0.447 0.741 RC
2 setlinecap
10.0 ML
N
501.5 365.5 M
500.736 363.149 L
498.736 361.696 L
496.264 361.696 L
494.264 363.149 L
493.5 365.5 L
494.264 367.851 L
496.264 369.304 L
498.736 369.304 L
500.736 367.851 L
501.5 365.5 L
S
GR
GS
[0.75 0 0 0.75 0 0] CT
0 0.447 0.741 RC
2 setlinecap
10.0 ML
N
504.5 368.5 M
503.736 366.149 L
501.736 364.696 L
499.264 364.696 L
497.264 366.149 L
496.5 368.5 L
497.264 370.851 L
499.264 372.304 L
501.736 372.304 L
503.736 370.851 L
504.5 368.5 L
S
GR
GS
[0.75 0 0 0.75 0 0] CT
0 0.447 0.741 RC
2 setlinecap
10.0 ML
N
507.5 372.5 M
506.736 370.149 L
504.736 368.696 L
502.264 368.696 L
500.264 370.149 L
499.5 372.5 L
500.264 374.851 L
502.264 376.304 L
504.736 376.304 L
506.736 374.851 L
507.5 372.5 L
S
GR
GS
[0.75 0 0 0.75 0 0] CT
0 0.447 0.741 RC
2 setlinecap
10.0 ML
N
510.5 366.5 M
509.736 364.149 L
507.736 362.696 L
505.264 362.696 L
503.264 364.149 L
502.5 366.5 L
503.264 368.851 L
505.264 370.304 L
507.736 370.304 L
509.736 368.851 L
510.5 366.5 L
S
GR
GS
[0.75 0 0 0.75 0 0] CT
0 0.447 0.741 RC
2 setlinecap
10.0 ML
N
75.311 374 M
75.311 67.972 L
S
GR
GS
[0.75 0 0 0.75 0 0] CT
0 0.447 0.741 RC
2 setlinecap
10.0 ML
N
78.391 374 M
78.391 311.482 L
S
GR
GS
[0.75 0 0 0.75 0 0] CT
0 0.447 0.741 RC
2 setlinecap
10.0 ML
N
81.472 374 M
81.472 321.34 L
S
GR
GS
[0.75 0 0 0.75 0 0] CT
0 0.447 0.741 RC
2 setlinecap
10.0 ML
N
84.553 374 M
84.553 310.752 L
S
GR
GS
[0.75 0 0 0.75 0 0] CT
0 0.447 0.741 RC
2 setlinecap
10.0 ML
N
87.634 374 M
87.634 298.858 L
S
GR
GS
[0.75 0 0 0.75 0 0] CT
0 0.447 0.741 RC
2 setlinecap
10.0 ML
N
90.714 374 M
90.714 366.698 L
S
GR
GS
[0.75 0 0 0.75 0 0] CT
0 0.447 0.741 RC
2 setlinecap
10.0 ML
N
93.795 374 M
93.795 301.345 L
S
GR
GS
[0.75 0 0 0.75 0 0] CT
0 0.447 0.741 RC
2 setlinecap
10.0 ML
N
96.876 374 M
96.876 347.847 L
S
GR
GS
[0.75 0 0 0.75 0 0] CT
0 0.447 0.741 RC
2 setlinecap
10.0 ML
N
99.957 374 M
99.957 369.202 L
S
GR
GS
[0.75 0 0 0.75 0 0] CT
0 0.447 0.741 RC
2 setlinecap
10.0 ML
N
103.037 374 M
103.037 333.084 L
S
GR
GS
[0.75 0 0 0.75 0 0] CT
0 0.447 0.741 RC
2 setlinecap
10.0 ML
N
106.118 374 M
106.118 360.683 L
S
GR
GS
[0.75 0 0 0.75 0 0] CT
0 0.447 0.741 RC
2 setlinecap
10.0 ML
N
109.199 374 M
109.199 358.973 L
S
GR
GS
[0.75 0 0 0.75 0 0] CT
0 0.447 0.741 RC
2 setlinecap
10.0 ML
N
112.28 374 M
112.28 372.533 L
S
GR
GS
[0.75 0 0 0.75 0 0] CT
0 0.447 0.741 RC
2 setlinecap
10.0 ML
N
115.36 374 M
115.36 366.063 L
S
GR
GS
[0.75 0 0 0.75 0 0] CT
0 0.447 0.741 RC
2 setlinecap
10.0 ML
N
118.441 374 M
118.441 355.379 L
S
GR
GS
[0.75 0 0 0.75 0 0] CT
0 0.447 0.741 RC
2 setlinecap
10.0 ML
N
121.522 374 M
121.522 364.289 L
S
GR
GS
[0.75 0 0 0.75 0 0] CT
0 0.447 0.741 RC
2 setlinecap
10.0 ML
N
124.602 374 M
124.602 345.222 L
S
GR
GS
[0.75 0 0 0.75 0 0] CT
0 0.447 0.741 RC
2 setlinecap
10.0 ML
N
127.683 374 M
127.683 301.017 L
S
GR
GS
[0.75 0 0 0.75 0 0] CT
0 0.447 0.741 RC
2 setlinecap
10.0 ML
N
130.764 374 M
130.764 331.435 L
S
GR
GS
[0.75 0 0 0.75 0 0] CT
0 0.447 0.741 RC
2 setlinecap
10.0 ML
N
133.845 374 M
133.845 367.289 L
S
GR
GS
[0.75 0 0 0.75 0 0] CT
0 0.447 0.741 RC
2 setlinecap
10.0 ML
N
136.925 374 M
136.925 339.025 L
S
GR
GS
[0.75 0 0 0.75 0 0] CT
0 0.447 0.741 RC
2 setlinecap
10.0 ML
N
140.006 374 M
140.006 343.273 L
S
GR
GS
[0.75 0 0 0.75 0 0] CT
0 0.447 0.741 RC
2 setlinecap
10.0 ML
N
143.087 374 M
143.087 343.702 L
S
GR
GS
[0.75 0 0 0.75 0 0] CT
0 0.447 0.741 RC
2 setlinecap
10.0 ML
N
146.168 374 M
146.168 358.544 L
S
GR
GS
[0.75 0 0 0.75 0 0] CT
0 0.447 0.741 RC
2 setlinecap
10.0 ML
N
149.248 374 M
149.248 346.857 L
S
GR
GS
[0.75 0 0 0.75 0 0] CT
0 0.447 0.741 RC
2 setlinecap
10.0 ML
N
152.329 374 M
152.329 369.872 L
S
GR
GS
[0.75 0 0 0.75 0 0] CT
0 0.447 0.741 RC
2 setlinecap
10.0 ML
N
155.41 374 M
155.41 348.05 L
S
GR
GS
[0.75 0 0 0.75 0 0] CT
0 0.447 0.741 RC
2 setlinecap
10.0 ML
N
158.491 374 M
158.491 362.605 L
S
GR
GS
[0.75 0 0 0.75 0 0] CT
0 0.447 0.741 RC
2 setlinecap
10.0 ML
N
161.571 374 M
161.571 361.572 L
S
GR
GS
[0.75 0 0 0.75 0 0] CT
0 0.447 0.741 RC
2 setlinecap
10.0 ML
N
164.652 374 M
164.652 360.121 L
S
GR
GS
[0.75 0 0 0.75 0 0] CT
0 0.447 0.741 RC
2 setlinecap
10.0 ML
N
167.733 374 M
167.733 356.858 L
S
GR
GS
[0.75 0 0 0.75 0 0] CT
0 0.447 0.741 RC
2 setlinecap
10.0 ML
N
170.814 374 M
170.814 347.769 L
S
GR
GS
[0.75 0 0 0.75 0 0] CT
0 0.447 0.741 RC
2 setlinecap
10.0 ML
N
173.894 374 M
173.894 346.158 L
S
GR
GS
[0.75 0 0 0.75 0 0] CT
0 0.447 0.741 RC
2 setlinecap
10.0 ML
N
176.975 374 M
176.975 344.67 L
S
GR
GS
[0.75 0 0 0.75 0 0] CT
0 0.447 0.741 RC
2 setlinecap
10.0 ML
N
180.056 374 M
180.056 324.476 L
S
GR
GS
[0.75 0 0 0.75 0 0] CT
0 0.447 0.741 RC
2 setlinecap
10.0 ML
N
183.137 374 M
183.137 356.116 L
S
GR
GS
[0.75 0 0 0.75 0 0] CT
0 0.447 0.741 RC
2 setlinecap
10.0 ML
N
186.217 374 M
186.217 348.098 L
S
GR
GS
[0.75 0 0 0.75 0 0] CT
0 0.447 0.741 RC
2 setlinecap
10.0 ML
N
189.298 374 M
189.298 342.75 L
S
GR
GS
[0.75 0 0 0.75 0 0] CT
0 0.447 0.741 RC
2 setlinecap
10.0 ML
N
192.379 374 M
192.379 350.3 L
S
GR
GS
[0.75 0 0 0.75 0 0] CT
0 0.447 0.741 RC
2 setlinecap
10.0 ML
N
195.46 374 M
195.46 341.552 L
S
GR
GS
[0.75 0 0 0.75 0 0] CT
0 0.447 0.741 RC
2 setlinecap
10.0 ML
N
198.54 374 M
198.54 333.3 L
S
GR
GS
[0.75 0 0 0.75 0 0] CT
0 0.447 0.741 RC
2 setlinecap
10.0 ML
N
201.621 374 M
201.621 361.026 L
S
GR
GS
[0.75 0 0 0.75 0 0] CT
0 0.447 0.741 RC
2 setlinecap
10.0 ML
N
204.702 374 M
204.702 355.176 L
S
GR
GS
[0.75 0 0 0.75 0 0] CT
0 0.447 0.741 RC
2 setlinecap
10.0 ML
N
207.783 374 M
207.783 340.221 L
S
GR
GS
[0.75 0 0 0.75 0 0] CT
0 0.447 0.741 RC
2 setlinecap
10.0 ML
N
210.863 374 M
210.863 349.297 L
S
GR
GS
[0.75 0 0 0.75 0 0] CT
0 0.447 0.741 RC
2 setlinecap
10.0 ML
N
213.944 374 M
213.944 366.326 L
S
GR
GS
[0.75 0 0 0.75 0 0] CT
0 0.447 0.741 RC
2 setlinecap
10.0 ML
N
217.025 374 M
217.025 364.25 L
S
GR
GS
[0.75 0 0 0.75 0 0] CT
0 0.447 0.741 RC
2 setlinecap
10.0 ML
N
220.106 374 M
220.106 368.294 L
S
GR
GS
[0.75 0 0 0.75 0 0] CT
0 0.447 0.741 RC
2 setlinecap
10.0 ML
N
223.186 374 M
223.186 355.938 L
S
GR
GS
[0.75 0 0 0.75 0 0] CT
0 0.447 0.741 RC
2 setlinecap
10.0 ML
N
226.267 374 M
226.267 359.563 L
S
GR
GS
[0.75 0 0 0.75 0 0] CT
0 0.447 0.741 RC
2 setlinecap
10.0 ML
N
229.348 374 M
229.348 362.519 L
S
GR
GS
[0.75 0 0 0.75 0 0] CT
0 0.447 0.741 RC
2 setlinecap
10.0 ML
N
232.429 374 M
232.429 366.321 L
S
GR
GS
[0.75 0 0 0.75 0 0] CT
0 0.447 0.741 RC
2 setlinecap
10.0 ML
N
235.509 374 M
235.509 362.585 L
S
GR
GS
[0.75 0 0 0.75 0 0] CT
0 0.447 0.741 RC
2 setlinecap
10.0 ML
N
238.59 374 M
238.59 368.134 L
S
GR
GS
[0.75 0 0 0.75 0 0] CT
0 0.447 0.741 RC
2 setlinecap
10.0 ML
N
241.671 374 M
241.671 367.257 L
S
GR
GS
[0.75 0 0 0.75 0 0] CT
0 0.447 0.741 RC
2 setlinecap
10.0 ML
N
244.752 374 M
244.752 354.051 L
S
GR
GS
[0.75 0 0 0.75 0 0] CT
0 0.447 0.741 RC
2 setlinecap
10.0 ML
N
247.832 374 M
247.832 349.917 L
S
GR
GS
[0.75 0 0 0.75 0 0] CT
0 0.447 0.741 RC
2 setlinecap
10.0 ML
N
250.913 374 M
250.913 366.114 L
S
GR
GS
[0.75 0 0 0.75 0 0] CT
0 0.447 0.741 RC
2 setlinecap
10.0 ML
N
253.994 374 M
253.994 367.771 L
S
GR
GS
[0.75 0 0 0.75 0 0] CT
0 0.447 0.741 RC
2 setlinecap
10.0 ML
N
257.075 374 M
257.075 362.67 L
S
GR
GS
[0.75 0 0 0.75 0 0] CT
0 0.447 0.741 RC
2 setlinecap
10.0 ML
N
260.155 374 M
260.155 355.046 L
S
GR
GS
[0.75 0 0 0.75 0 0] CT
0 0.447 0.741 RC
2 setlinecap
10.0 ML
N
263.236 374 M
263.236 365.271 L
S
GR
GS
[0.75 0 0 0.75 0 0] CT
0 0.447 0.741 RC
2 setlinecap
10.0 ML
N
266.317 374 M
266.317 348.454 L
S
GR
GS
[0.75 0 0 0.75 0 0] CT
0 0.447 0.741 RC
2 setlinecap
10.0 ML
N
269.398 374 M
269.398 363.874 L
S
GR
GS
[0.75 0 0 0.75 0 0] CT
0 0.447 0.741 RC
2 setlinecap
10.0 ML
N
272.478 374 M
272.478 360.038 L
S
GR
GS
[0.75 0 0 0.75 0 0] CT
0 0.447 0.741 RC
2 setlinecap
10.0 ML
N
275.559 374 M
275.559 357.307 L
S
GR
GS
[0.75 0 0 0.75 0 0] CT
0 0.447 0.741 RC
2 setlinecap
10.0 ML
N
278.64 374 M
278.64 356.293 L
S
GR
GS
[0.75 0 0 0.75 0 0] CT
0 0.447 0.741 RC
2 setlinecap
10.0 ML
N
281.72 374 M
281.72 367.305 L
S
GR
GS
[0.75 0 0 0.75 0 0] CT
0 0.447 0.741 RC
2 setlinecap
10.0 ML
N
284.801 374 M
284.801 357.018 L
S
GR
GS
[0.75 0 0 0.75 0 0] CT
0 0.447 0.741 RC
2 setlinecap
10.0 ML
N
287.882 374 M
287.882 371.033 L
S
GR
GS
[0.75 0 0 0.75 0 0] CT
0 0.447 0.741 RC
2 setlinecap
10.0 ML
N
290.963 374 M
290.963 361.303 L
S
GR
GS
[0.75 0 0 0.75 0 0] CT
0 0.447 0.741 RC
2 setlinecap
10.0 ML
N
294.043 374 M
294.043 357.537 L
S
GR
GS
[0.75 0 0 0.75 0 0] CT
0 0.447 0.741 RC
2 setlinecap
10.0 ML
N
297.124 374 M
297.124 360.689 L
S
GR
GS
[0.75 0 0 0.75 0 0] CT
0 0.447 0.741 RC
2 setlinecap
10.0 ML
N
300.205 374 M
300.205 368.967 L
S
GR
GS
[0.75 0 0 0.75 0 0] CT
0 0.447 0.741 RC
2 setlinecap
10.0 ML
N
303.286 374 M
303.286 362.107 L
S
GR
GS
[0.75 0 0 0.75 0 0] CT
0 0.447 0.741 RC
2 setlinecap
10.0 ML
N
306.366 374 M
306.366 361.06 L
S
GR
GS
[0.75 0 0 0.75 0 0] CT
0 0.447 0.741 RC
2 setlinecap
10.0 ML
N
309.447 374 M
309.447 360.237 L
S
GR
GS
[0.75 0 0 0.75 0 0] CT
0 0.447 0.741 RC
2 setlinecap
10.0 ML
N
312.528 374 M
312.528 370.009 L
S
GR
GS
[0.75 0 0 0.75 0 0] CT
0 0.447 0.741 RC
2 setlinecap
10.0 ML
N
315.609 374 M
315.609 353.234 L
S
GR
GS
[0.75 0 0 0.75 0 0] CT
0 0.447 0.741 RC
2 setlinecap
10.0 ML
N
318.689 374 M
318.689 363.165 L
S
GR
GS
[0.75 0 0 0.75 0 0] CT
0 0.447 0.741 RC
2 setlinecap
10.0 ML
N
321.77 374 M
321.77 369.867 L
S
GR
GS
[0.75 0 0 0.75 0 0] CT
0 0.447 0.741 RC
2 setlinecap
10.0 ML
N
324.851 374 M
324.851 361.806 L
S
GR
GS
[0.75 0 0 0.75 0 0] CT
0 0.447 0.741 RC
2 setlinecap
10.0 ML
N
327.932 374 M
327.932 359.32 L
S
GR
GS
[0.75 0 0 0.75 0 0] CT
0 0.447 0.741 RC
2 setlinecap
10.0 ML
N
331.012 374 M
331.012 358.94 L
S
GR
GS
[0.75 0 0 0.75 0 0] CT
0 0.447 0.741 RC
2 setlinecap
10.0 ML
N
334.093 374 M
334.093 352.379 L
S
GR
GS
[0.75 0 0 0.75 0 0] CT
0 0.447 0.741 RC
2 setlinecap
10.0 ML
N
337.174 374 M
337.174 344.607 L
S
GR
GS
[0.75 0 0 0.75 0 0] CT
0 0.447 0.741 RC
2 setlinecap
10.0 ML
N
340.255 374 M
340.255 358.261 L
S
GR
GS
[0.75 0 0 0.75 0 0] CT
0 0.447 0.741 RC
2 setlinecap
10.0 ML
N
343.335 374 M
343.335 366.672 L
S
GR
GS
[0.75 0 0 0.75 0 0] CT
0 0.447 0.741 RC
2 setlinecap
10.0 ML
N
346.416 374 M
346.416 358.805 L
S
GR
GS
[0.75 0 0 0.75 0 0] CT
0 0.447 0.741 RC
2 setlinecap
10.0 ML
N
349.497 374 M
349.497 361.152 L
S
GR
GS
[0.75 0 0 0.75 0 0] CT
0 0.447 0.741 RC
2 setlinecap
10.0 ML
N
352.578 374 M
352.578 368.397 L
S
GR
GS
[0.75 0 0 0.75 0 0] CT
0 0.447 0.741 RC
2 setlinecap
10.0 ML
N
355.658 374 M
355.658 363.099 L
S
GR
GS
[0.75 0 0 0.75 0 0] CT
0 0.447 0.741 RC
2 setlinecap
10.0 ML
N
358.739 374 M
358.739 359.134 L
S
GR
GS
[0.75 0 0 0.75 0 0] CT
0 0.447 0.741 RC
2 setlinecap
10.0 ML
N
361.82 374 M
361.82 362.564 L
S
GR
GS
[0.75 0 0 0.75 0 0] CT
0 0.447 0.741 RC
2 setlinecap
10.0 ML
N
364.901 374 M
364.901 368.081 L
S
GR
GS
[0.75 0 0 0.75 0 0] CT
0 0.447 0.741 RC
2 setlinecap
10.0 ML
N
367.981 374 M
367.981 356.332 L
S
GR
GS
[0.75 0 0 0.75 0 0] CT
0 0.447 0.741 RC
2 setlinecap
10.0 ML
N
371.062 374 M
371.062 345.36 L
S
GR
GS
[0.75 0 0 0.75 0 0] CT
0 0.447 0.741 RC
2 setlinecap
10.0 ML
N
374.143 374 M
374.143 366.395 L
S
GR
GS
[0.75 0 0 0.75 0 0] CT
0 0.447 0.741 RC
2 setlinecap
10.0 ML
N
377.224 374 M
377.224 367.72 L
S
GR
GS
[0.75 0 0 0.75 0 0] CT
0 0.447 0.741 RC
2 setlinecap
10.0 ML
N
380.304 374 M
380.304 353.681 L
S
GR
GS
[0.75 0 0 0.75 0 0] CT
0 0.447 0.741 RC
2 setlinecap
10.0 ML
N
383.385 374 M
383.385 346.057 L
S
GR
GS
[0.75 0 0 0.75 0 0] CT
0 0.447 0.741 RC
2 setlinecap
10.0 ML
N
386.466 374 M
386.466 365.125 L
S
GR
GS
[0.75 0 0 0.75 0 0] CT
0 0.447 0.741 RC
2 setlinecap
10.0 ML
N
389.547 374 M
389.547 361.46 L
S
GR
GS
[0.75 0 0 0.75 0 0] CT
0 0.447 0.741 RC
2 setlinecap
10.0 ML
N
392.627 374 M
392.627 356.54 L
S
GR
GS
[0.75 0 0 0.75 0 0] CT
0 0.447 0.741 RC
2 setlinecap
10.0 ML
N
395.708 374 M
395.708 358.268 L
S
GR
GS
[0.75 0 0 0.75 0 0] CT
0 0.447 0.741 RC
2 setlinecap
10.0 ML
N
398.789 374 M
398.789 350.566 L
S
GR
GS
[0.75 0 0 0.75 0 0] CT
0 0.447 0.741 RC
2 setlinecap
10.0 ML
N
401.87 374 M
401.87 360.588 L
S
GR
GS
[0.75 0 0 0.75 0 0] CT
0 0.447 0.741 RC
2 setlinecap
10.0 ML
N
404.95 374 M
404.95 354.27 L
S
GR
GS
[0.75 0 0 0.75 0 0] CT
0 0.447 0.741 RC
2 setlinecap
10.0 ML
N
408.031 374 M
408.031 351.721 L
S
GR
GS
[0.75 0 0 0.75 0 0] CT
0 0.447 0.741 RC
2 setlinecap
10.0 ML
N
411.112 374 M
411.112 366.222 L
S
GR
GS
[0.75 0 0 0.75 0 0] CT
0 0.447 0.741 RC
2 setlinecap
10.0 ML
N
414.193 374 M
414.193 364.789 L
S
GR
GS
[0.75 0 0 0.75 0 0] CT
0 0.447 0.741 RC
2 setlinecap
10.0 ML
N
417.273 374 M
417.273 370.228 L
S
GR
GS
[0.75 0 0 0.75 0 0] CT
0 0.447 0.741 RC
2 setlinecap
10.0 ML
N
420.354 374 M
420.354 354.569 L
S
GR
GS
[0.75 0 0 0.75 0 0] CT
0 0.447 0.741 RC
2 setlinecap
10.0 ML
N
423.435 374 M
423.435 367.656 L
S
GR
GS
[0.75 0 0 0.75 0 0] CT
0 0.447 0.741 RC
2 setlinecap
10.0 ML
N
426.516 374 M
426.516 366.863 L
S
GR
GS
[0.75 0 0 0.75 0 0] CT
0 0.447 0.741 RC
2 setlinecap
10.0 ML
N
429.596 374 M
429.596 359.932 L
S
GR
GS
[0.75 0 0 0.75 0 0] CT
0 0.447 0.741 RC
2 setlinecap
10.0 ML
N
432.677 374 M
432.677 364.113 L
S
GR
GS
[0.75 0 0 0.75 0 0] CT
0 0.447 0.741 RC
2 setlinecap
10.0 ML
N
435.758 374 M
435.758 361.175 L
S
GR
GS
[0.75 0 0 0.75 0 0] CT
0 0.447 0.741 RC
2 setlinecap
10.0 ML
N
438.839 374 M
438.839 365.406 L
S
GR
GS
[0.75 0 0 0.75 0 0] CT
0 0.447 0.741 RC
2 setlinecap
10.0 ML
N
441.919 374 M
441.919 355.621 L
S
GR
GS
[0.75 0 0 0.75 0 0] CT
0 0.447 0.741 RC
2 setlinecap
10.0 ML
N
445 374 M
445 368.323 L
S
GR
GS
[0.75 0 0 0.75 0 0] CT
0 0.447 0.741 RC
2 setlinecap
10.0 ML
N
448.081 374 M
448.081 366.359 L
S
GR
GS
[0.75 0 0 0.75 0 0] CT
0 0.447 0.741 RC
2 setlinecap
10.0 ML
N
451.161 374 M
451.161 361.01 L
S
GR
GS
[0.75 0 0 0.75 0 0] CT
0 0.447 0.741 RC
2 setlinecap
10.0 ML
N
454.242 374 M
454.242 350.847 L
S
GR
GS
[0.75 0 0 0.75 0 0] CT
0 0.447 0.741 RC
2 setlinecap
10.0 ML
N
457.323 374 M
457.323 371.052 L
S
GR
GS
[0.75 0 0 0.75 0 0] CT
0 0.447 0.741 RC
2 setlinecap
10.0 ML
N
460.404 374 M
460.404 365.867 L
S
GR
GS
[0.75 0 0 0.75 0 0] CT
0 0.447 0.741 RC
2 setlinecap
10.0 ML
N
463.484 374 M
463.484 356.362 L
S
GR
GS
[0.75 0 0 0.75 0 0] CT
0 0.447 0.741 RC
2 setlinecap
10.0 ML
N
466.565 374 M
466.565 363.168 L
S
GR
GS
[0.75 0 0 0.75 0 0] CT
0 0.447 0.741 RC
2 setlinecap
10.0 ML
N
469.646 374 M
469.646 359.459 L
S
GR
GS
[0.75 0 0 0.75 0 0] CT
0 0.447 0.741 RC
2 setlinecap
10.0 ML
N
472.727 374 M
472.727 354.694 L
S
GR
GS
[0.75 0 0 0.75 0 0] CT
0 0.447 0.741 RC
2 setlinecap
10.0 ML
N
475.807 374 M
475.807 356.054 L
S
GR
GS
[0.75 0 0 0.75 0 0] CT
0 0.447 0.741 RC
2 setlinecap
10.0 ML
N
478.888 374 M
478.888 365.097 L
S
GR
GS
[0.75 0 0 0.75 0 0] CT
0 0.447 0.741 RC
2 setlinecap
10.0 ML
N
481.969 374 M
481.969 368.55 L
S
GR
GS
[0.75 0 0 0.75 0 0] CT
0 0.447 0.741 RC
2 setlinecap
10.0 ML
N
485.05 374 M
485.05 363.928 L
S
GR
GS
[0.75 0 0 0.75 0 0] CT
0 0.447 0.741 RC
2 setlinecap
10.0 ML
N
488.13 374 M
488.13 368.744 L
S
GR
GS
[0.75 0 0 0.75 0 0] CT
0 0.447 0.741 RC
2 setlinecap
10.0 ML
N
491.211 374 M
491.211 368.543 L
S
GR
GS
[0.75 0 0 0.75 0 0] CT
0 0.447 0.741 RC
2 setlinecap
10.0 ML
N
494.292 374 M
494.292 365.453 L
S
GR
GS
[0.75 0 0 0.75 0 0] CT
0 0.447 0.741 RC
2 setlinecap
10.0 ML
N
497.373 374 M
497.373 365.47 L
S
GR
GS
[0.75 0 0 0.75 0 0] CT
0 0.447 0.741 RC
2 setlinecap
10.0 ML
N
500.453 374 M
500.453 368.75 L
S
GR
GS
[0.75 0 0 0.75 0 0] CT
0 0.447 0.741 RC
2 setlinecap
10.0 ML
N
503.534 374 M
503.534 372.773 L
S
GR
GS
[0.75 0 0 0.75 0 0] CT
0 0.447 0.741 RC
2 setlinecap
10.0 ML
N
506.615 374 M
506.615 366.082 L
S
GR
GS
[0.75 0 0 0.75 217.50021 21.18749] CT
/Helvetica-Bold 15 F
GS
[1 0 0 1 0 0] CT
-144 -4 moveto 
1 -1 scale
(Single-Sided Amplitude Spectrum of y\(t\)) t 
GR
GR
GS
[0.75 0 0 0.75 0 0] CT
0.149 GC
2 setlinecap
10.0 ML
N
73 374 M
507 374 L
S
GR
%%Trailer
%%Pages: 1
%%EOF
