%!PS-Adobe-3.0 EPSF-3.0
%%Creator: (MATLAB, The Mathworks, Inc. Version 8.5.0.197613 \(R2015a\). Operating System: Windows 8)
%%Title: (C:/Users/aleja/Desktop/TFG/Documentaci\363n/Obtenci\363n de datos/matlab_plot/stems/jota11-55.eps)
%%CreationDate: 2019-05-22T00:28:29
%%Pages: (atend)
%%BoundingBox: 0 0 420 315
%%LanguageLevel: 2
%%EndComments
%%BeginProlog
%%BeginResource: procset (Apache XML Graphics Std ProcSet) 1.2 0
%%Version: 1.2 0
%%Copyright: (Copyright 2001-2003,2010 The Apache Software Foundation. License terms: http://www.apache.org/licenses/LICENSE-2.0)
/bd{bind def}bind def
/ld{load def}bd
/GR/grestore ld
/M/moveto ld
/LJ/setlinejoin ld
/C/curveto ld
/f/fill ld
/LW/setlinewidth ld
/GC/setgray ld
/t/show ld
/N/newpath ld
/CT/concat ld
/cp/closepath ld
/S/stroke ld
/L/lineto ld
/CC/setcmykcolor ld
/A/ashow ld
/GS/gsave ld
/RC/setrgbcolor ld
/RM/rmoveto ld
/ML/setmiterlimit ld
/re {4 2 roll M
1 index 0 rlineto
0 exch rlineto
neg 0 rlineto
cp } bd
/_ctm matrix def
/_tm matrix def
/BT { _ctm currentmatrix pop matrix _tm copy pop 0 0 moveto } bd
/ET { _ctm setmatrix } bd
/iTm { _ctm setmatrix _tm concat } bd
/Tm { _tm astore pop iTm 0 0 moveto } bd
/ux 0.0 def
/uy 0.0 def
/F {
  /Tp exch def
  /Tf exch def
  Tf findfont Tp scalefont setfont
  /cf Tf def  /cs Tp def
} bd
/ULS {currentpoint /uy exch def /ux exch def} bd
/ULE {
  /Tcx currentpoint pop def
  gsave
  newpath
  cf findfont cs scalefont dup
  /FontMatrix get 0 get /Ts exch def /FontInfo get dup
  /UnderlinePosition get Ts mul /To exch def
  /UnderlineThickness get Ts mul /Tt exch def
  ux uy To add moveto  Tcx uy To add lineto
  Tt setlinewidth stroke
  grestore
} bd
/OLE {
  /Tcx currentpoint pop def
  gsave
  newpath
  cf findfont cs scalefont dup
  /FontMatrix get 0 get /Ts exch def /FontInfo get dup
  /UnderlinePosition get Ts mul /To exch def
  /UnderlineThickness get Ts mul /Tt exch def
  ux uy To add cs add moveto Tcx uy To add cs add lineto
  Tt setlinewidth stroke
  grestore
} bd
/SOE {
  /Tcx currentpoint pop def
  gsave
  newpath
  cf findfont cs scalefont dup
  /FontMatrix get 0 get /Ts exch def /FontInfo get dup
  /UnderlinePosition get Ts mul /To exch def
  /UnderlineThickness get Ts mul /Tt exch def
  ux uy To add cs 10 mul 26 idiv add moveto Tcx uy To add cs 10 mul 26 idiv add lineto
  Tt setlinewidth stroke
  grestore
} bd
/QT {
/Y22 exch store
/X22 exch store
/Y21 exch store
/X21 exch store
currentpoint
/Y21 load 2 mul add 3 div exch
/X21 load 2 mul add 3 div exch
/X21 load 2 mul /X22 load add 3 div
/Y21 load 2 mul /Y22 load add 3 div
/X22 load /Y22 load curveto
} bd
/SSPD {
dup length /d exch dict def
{
/v exch def
/k exch def
currentpagedevice k known {
/cpdv currentpagedevice k get def
v cpdv ne {
/upd false def
/nullv v type /nulltype eq def
/nullcpdv cpdv type /nulltype eq def
nullv nullcpdv or
{
/upd true def
} {
/sametype v type cpdv type eq def
sametype {
v type /arraytype eq {
/vlen v length def
/cpdvlen cpdv length def
vlen cpdvlen eq {
0 1 vlen 1 sub {
/i exch def
/obj v i get def
/cpdobj cpdv i get def
obj cpdobj ne {
/upd true def
exit
} if
} for
} {
/upd true def
} ifelse
} {
v type /dicttype eq {
v {
/dv exch def
/dk exch def
/cpddv cpdv dk get def
dv cpddv ne {
/upd true def
exit
} if
} forall
} {
/upd true def
} ifelse
} ifelse
} if
} ifelse
upd true eq {
d k v put
} if
} if
} if
} forall
d length 0 gt {
d setpagedevice
} if
} bd
%%EndResource
%%BeginResource: procset (Apache XML Graphics EPS ProcSet) 1.0 0
%%Version: 1.0 0
%%Copyright: (Copyright 2002-2003 The Apache Software Foundation. License terms: http://www.apache.org/licenses/LICENSE-2.0)
/BeginEPSF { %def
/b4_Inc_state save def         % Save state for cleanup
/dict_count countdictstack def % Count objects on dict stack
/op_count count 1 sub def      % Count objects on operand stack
userdict begin                 % Push userdict on dict stack
/showpage { } def              % Redefine showpage, { } = null proc
0 setgray 0 setlinecap         % Prepare graphics state
1 setlinewidth 0 setlinejoin
10 setmiterlimit [ ] 0 setdash newpath
/languagelevel where           % If level not equal to 1 then
{pop languagelevel             % set strokeadjust and
1 ne                           % overprint to their defaults.
{false setstrokeadjust false setoverprint
} if
} if
} bd
/EndEPSF { %def
count op_count sub {pop} repeat            % Clean up stacks
countdictstack dict_count sub {end} repeat
b4_Inc_state restore
} bd
%%EndResource
%FOPBeginFontDict
%%IncludeResource: font Courier-Bold
%%IncludeResource: font Helvetica
%%IncludeResource: font Courier-BoldOblique
%%IncludeResource: font Courier-Oblique
%%IncludeResource: font Times-Roman
%%IncludeResource: font Helvetica-BoldOblique
%%IncludeResource: font Helvetica-Bold
%%IncludeResource: font Helvetica-Oblique
%%IncludeResource: font Times-BoldItalic
%%IncludeResource: font Courier
%%IncludeResource: font Times-Italic
%%IncludeResource: font Times-Bold
%%IncludeResource: font Symbol
%%IncludeResource: font ZapfDingbats
%FOPEndFontDict
%%BeginResource: encoding WinAnsiEncoding
/WinAnsiEncoding [
/.notdef /.notdef /.notdef /.notdef /.notdef
/.notdef /.notdef /.notdef /.notdef /.notdef
/.notdef /.notdef /.notdef /.notdef /.notdef
/.notdef /.notdef /.notdef /.notdef /.notdef
/.notdef /.notdef /.notdef /.notdef /.notdef
/.notdef /.notdef /.notdef /.notdef /.notdef
/.notdef /.notdef /space /exclam /quotedbl
/numbersign /dollar /percent /ampersand /quotesingle
/parenleft /parenright /asterisk /plus /comma
/hyphen /period /slash /zero /one
/two /three /four /five /six
/seven /eight /nine /colon /semicolon
/less /equal /greater /question /at
/A /B /C /D /E
/F /G /H /I /J
/K /L /M /N /O
/P /Q /R /S /T
/U /V /W /X /Y
/Z /bracketleft /backslash /bracketright /asciicircum
/underscore /quoteleft /a /b /c
/d /e /f /g /h
/i /j /k /l /m
/n /o /p /q /r
/s /t /u /v /w
/x /y /z /braceleft /bar
/braceright /asciitilde /bullet /Euro /bullet
/quotesinglbase /florin /quotedblbase /ellipsis /dagger
/daggerdbl /circumflex /perthousand /Scaron /guilsinglleft
/OE /bullet /Zcaron /bullet /bullet
/quoteleft /quoteright /quotedblleft /quotedblright /bullet
/endash /emdash /asciitilde /trademark /scaron
/guilsinglright /oe /bullet /zcaron /Ydieresis
/space /exclamdown /cent /sterling /currency
/yen /brokenbar /section /dieresis /copyright
/ordfeminine /guillemotleft /logicalnot /sfthyphen /registered
/macron /degree /plusminus /twosuperior /threesuperior
/acute /mu /paragraph /middot /cedilla
/onesuperior /ordmasculine /guillemotright /onequarter /onehalf
/threequarters /questiondown /Agrave /Aacute /Acircumflex
/Atilde /Adieresis /Aring /AE /Ccedilla
/Egrave /Eacute /Ecircumflex /Edieresis /Igrave
/Iacute /Icircumflex /Idieresis /Eth /Ntilde
/Ograve /Oacute /Ocircumflex /Otilde /Odieresis
/multiply /Oslash /Ugrave /Uacute /Ucircumflex
/Udieresis /Yacute /Thorn /germandbls /agrave
/aacute /acircumflex /atilde /adieresis /aring
/ae /ccedilla /egrave /eacute /ecircumflex
/edieresis /igrave /iacute /icircumflex /idieresis
/eth /ntilde /ograve /oacute /ocircumflex
/otilde /odieresis /divide /oslash /ugrave
/uacute /ucircumflex /udieresis /yacute /thorn
/ydieresis
] def
%%EndResource
%FOPBeginFontReencode
/Courier-Bold findfont
dup length dict begin
  {1 index /FID ne {def} {pop pop} ifelse} forall
  /Encoding WinAnsiEncoding def
  currentdict
end
/Courier-Bold exch definefont pop
/Helvetica findfont
dup length dict begin
  {1 index /FID ne {def} {pop pop} ifelse} forall
  /Encoding WinAnsiEncoding def
  currentdict
end
/Helvetica exch definefont pop
/Courier-BoldOblique findfont
dup length dict begin
  {1 index /FID ne {def} {pop pop} ifelse} forall
  /Encoding WinAnsiEncoding def
  currentdict
end
/Courier-BoldOblique exch definefont pop
/Courier-Oblique findfont
dup length dict begin
  {1 index /FID ne {def} {pop pop} ifelse} forall
  /Encoding WinAnsiEncoding def
  currentdict
end
/Courier-Oblique exch definefont pop
/Times-Roman findfont
dup length dict begin
  {1 index /FID ne {def} {pop pop} ifelse} forall
  /Encoding WinAnsiEncoding def
  currentdict
end
/Times-Roman exch definefont pop
/Helvetica-BoldOblique findfont
dup length dict begin
  {1 index /FID ne {def} {pop pop} ifelse} forall
  /Encoding WinAnsiEncoding def
  currentdict
end
/Helvetica-BoldOblique exch definefont pop
/Helvetica-Bold findfont
dup length dict begin
  {1 index /FID ne {def} {pop pop} ifelse} forall
  /Encoding WinAnsiEncoding def
  currentdict
end
/Helvetica-Bold exch definefont pop
/Helvetica-Oblique findfont
dup length dict begin
  {1 index /FID ne {def} {pop pop} ifelse} forall
  /Encoding WinAnsiEncoding def
  currentdict
end
/Helvetica-Oblique exch definefont pop
/Times-BoldItalic findfont
dup length dict begin
  {1 index /FID ne {def} {pop pop} ifelse} forall
  /Encoding WinAnsiEncoding def
  currentdict
end
/Times-BoldItalic exch definefont pop
/Courier findfont
dup length dict begin
  {1 index /FID ne {def} {pop pop} ifelse} forall
  /Encoding WinAnsiEncoding def
  currentdict
end
/Courier exch definefont pop
/Times-Italic findfont
dup length dict begin
  {1 index /FID ne {def} {pop pop} ifelse} forall
  /Encoding WinAnsiEncoding def
  currentdict
end
/Times-Italic exch definefont pop
/Times-Bold findfont
dup length dict begin
  {1 index /FID ne {def} {pop pop} ifelse} forall
  /Encoding WinAnsiEncoding def
  currentdict
end
/Times-Bold exch definefont pop
%FOPEndFontReencode
%%EndProlog
%%Page: 1 1
%%PageBoundingBox: 0 0 420 315
%%BeginPageSetup
[1 0 0 -1 0 315] CT
%%EndPageSetup
GS
[0.75 0 0 0.75 0 0] CT
1 GC
N
0 0 560 420 re
f
GR
GS
[0.75 0 0 0.75 0 0] CT
1 GC
N
0 0 560 420 re
f
GR
GS
[0.75 0 0 0.75 0 0] CT
1 GC
N
73 374 M
507 374 L
507 31 L
73 31 L
cp
f
GR
GS
[0.75 0 0 0.75 217.50016 298.24999] CT
0.149 GC
/Helvetica 15 F
GS
[1 0 0 1 0 0] CT
-52 16 moveto 
1 -1 scale
(Frequency \(Hz\)) t 
GR
GR
GS
[0.75 0 0 0.75 0 0] CT
0.149 GC
2 setlinecap
10.0 ML
N
73 374 M
507 374 L
S
GR
GS
[0.75 0 0 0.75 0 0] CT
0.149 GC
2 setlinecap
10.0 ML
N
73 31 M
507 31 L
S
GR
GS
[0.75 0 0 0.75 0 0] CT
0.149 GC
2 setlinecap
10.0 ML
N
73 374 M
73 369.66 L
S
GR
GS
[0.75 0 0 0.75 0 0] CT
0.149 GC
2 setlinecap
10.0 ML
N
116.4 374 M
116.4 369.66 L
S
GR
GS
[0.75 0 0 0.75 0 0] CT
0.149 GC
2 setlinecap
10.0 ML
N
159.8 374 M
159.8 369.66 L
S
GR
GS
[0.75 0 0 0.75 0 0] CT
0.149 GC
2 setlinecap
10.0 ML
N
203.2 374 M
203.2 369.66 L
S
GR
GS
[0.75 0 0 0.75 0 0] CT
0.149 GC
2 setlinecap
10.0 ML
N
246.6 374 M
246.6 369.66 L
S
GR
GS
[0.75 0 0 0.75 0 0] CT
0.149 GC
2 setlinecap
10.0 ML
N
290 374 M
290 369.66 L
S
GR
GS
[0.75 0 0 0.75 0 0] CT
0.149 GC
2 setlinecap
10.0 ML
N
333.4 374 M
333.4 369.66 L
S
GR
GS
[0.75 0 0 0.75 0 0] CT
0.149 GC
2 setlinecap
10.0 ML
N
376.8 374 M
376.8 369.66 L
S
GR
GS
[0.75 0 0 0.75 0 0] CT
0.149 GC
2 setlinecap
10.0 ML
N
420.2 374 M
420.2 369.66 L
S
GR
GS
[0.75 0 0 0.75 0 0] CT
0.149 GC
2 setlinecap
10.0 ML
N
463.6 374 M
463.6 369.66 L
S
GR
GS
[0.75 0 0 0.75 0 0] CT
0.149 GC
2 setlinecap
10.0 ML
N
507 374 M
507 369.66 L
S
GR
GS
[0.75 0 0 0.75 0 0] CT
0.149 GC
2 setlinecap
10.0 ML
N
73 31 M
73 35.34 L
S
GR
GS
[0.75 0 0 0.75 0 0] CT
0.149 GC
2 setlinecap
10.0 ML
N
116.4 31 M
116.4 35.34 L
S
GR
GS
[0.75 0 0 0.75 0 0] CT
0.149 GC
2 setlinecap
10.0 ML
N
159.8 31 M
159.8 35.34 L
S
GR
GS
[0.75 0 0 0.75 0 0] CT
0.149 GC
2 setlinecap
10.0 ML
N
203.2 31 M
203.2 35.34 L
S
GR
GS
[0.75 0 0 0.75 0 0] CT
0.149 GC
2 setlinecap
10.0 ML
N
246.6 31 M
246.6 35.34 L
S
GR
GS
[0.75 0 0 0.75 0 0] CT
0.149 GC
2 setlinecap
10.0 ML
N
290 31 M
290 35.34 L
S
GR
GS
[0.75 0 0 0.75 0 0] CT
0.149 GC
2 setlinecap
10.0 ML
N
333.4 31 M
333.4 35.34 L
S
GR
GS
[0.75 0 0 0.75 0 0] CT
0.149 GC
2 setlinecap
10.0 ML
N
376.8 31 M
376.8 35.34 L
S
GR
GS
[0.75 0 0 0.75 0 0] CT
0.149 GC
2 setlinecap
10.0 ML
N
420.2 31 M
420.2 35.34 L
S
GR
GS
[0.75 0 0 0.75 0 0] CT
0.149 GC
2 setlinecap
10.0 ML
N
463.6 31 M
463.6 35.34 L
S
GR
GS
[0.75 0 0 0.75 0 0] CT
0.149 GC
2 setlinecap
10.0 ML
N
507 31 M
507 35.34 L
S
GR
GS
[0.75 0 0 0.75 54.75 284.50001] CT
0.149 GC
/Helvetica 13 F
GS
[1 0 0 1 0 0] CT
-4 14 moveto 
1 -1 scale
(0) t 
GR
GR
GS
[0.75 0 0 0.75 87.3 284.50001] CT
0.149 GC
/Helvetica 13 F
GS
[1 0 0 1 0 0] CT
-7.5 14 moveto 
1 -1 scale
(10) t 
GR
GR
GS
[0.75 0 0 0.75 119.85 284.50001] CT
0.149 GC
/Helvetica 13 F
GS
[1 0 0 1 0 0] CT
-7.5 14 moveto 
1 -1 scale
(20) t 
GR
GR
GS
[0.75 0 0 0.75 152.4 284.50001] CT
0.149 GC
/Helvetica 13 F
GS
[1 0 0 1 0 0] CT
-7.5 14 moveto 
1 -1 scale
(30) t 
GR
GR
GS
[0.75 0 0 0.75 184.95 284.50001] CT
0.149 GC
/Helvetica 13 F
GS
[1 0 0 1 0 0] CT
-7.5 14 moveto 
1 -1 scale
(40) t 
GR
GR
GS
[0.75 0 0 0.75 217.5 284.50001] CT
0.149 GC
/Helvetica 13 F
GS
[1 0 0 1 0 0] CT
-7.5 14 moveto 
1 -1 scale
(50) t 
GR
GR
GS
[0.75 0 0 0.75 250.05 284.50001] CT
0.149 GC
/Helvetica 13 F
GS
[1 0 0 1 0 0] CT
-7.5 14 moveto 
1 -1 scale
(60) t 
GR
GR
GS
[0.75 0 0 0.75 282.59999 284.50001] CT
0.149 GC
/Helvetica 13 F
GS
[1 0 0 1 0 0] CT
-7.5 14 moveto 
1 -1 scale
(70) t 
GR
GR
GS
[0.75 0 0 0.75 315.15001 284.50001] CT
0.149 GC
/Helvetica 13 F
GS
[1 0 0 1 0 0] CT
-7.5 14 moveto 
1 -1 scale
(80) t 
GR
GR
GS
[0.75 0 0 0.75 347.7 284.50001] CT
0.149 GC
/Helvetica 13 F
GS
[1 0 0 1 0 0] CT
-7.5 14 moveto 
1 -1 scale
(90) t 
GR
GR
GS
[0.75 0 0 0.75 380.25 284.50001] CT
0.149 GC
/Helvetica 13 F
GS
[1 0 0 1 0 0] CT
-11 14 moveto 
1 -1 scale
(100) t 
GR
GR
GS
[0 -0.75 0.75 0 41.75 151.87487] CT
0.149 GC
/Helvetica 15 F
GS
[1 0 0 1 0 0] CT
-61.5 -4 moveto 
1 -1 scale
(|P\(f\)| MAgnitud dB) t 
GR
GR
GS
[0.75 0 0 0.75 0 0] CT
0.149 GC
2 setlinecap
10.0 ML
N
73 374 M
73 31 L
S
GR
GS
[0.75 0 0 0.75 0 0] CT
0.149 GC
2 setlinecap
10.0 ML
N
507 374 M
507 31 L
S
GR
GS
[0.75 0 0 0.75 0 0] CT
0.149 GC
2 setlinecap
10.0 ML
N
73 374 M
77.34 374 L
S
GR
GS
[0.75 0 0 0.75 0 0] CT
0.149 GC
2 setlinecap
10.0 ML
N
73 331.125 M
77.34 331.125 L
S
GR
GS
[0.75 0 0 0.75 0 0] CT
0.149 GC
2 setlinecap
10.0 ML
N
73 288.25 M
77.34 288.25 L
S
GR
GS
[0.75 0 0 0.75 0 0] CT
0.149 GC
2 setlinecap
10.0 ML
N
73 245.375 M
77.34 245.375 L
S
GR
GS
[0.75 0 0 0.75 0 0] CT
0.149 GC
2 setlinecap
10.0 ML
N
73 202.5 M
77.34 202.5 L
S
GR
GS
[0.75 0 0 0.75 0 0] CT
0.149 GC
2 setlinecap
10.0 ML
N
73 159.625 M
77.34 159.625 L
S
GR
GS
[0.75 0 0 0.75 0 0] CT
0.149 GC
2 setlinecap
10.0 ML
N
73 116.75 M
77.34 116.75 L
S
GR
GS
[0.75 0 0 0.75 0 0] CT
0.149 GC
2 setlinecap
10.0 ML
N
73 73.875 M
77.34 73.875 L
S
GR
GS
[0.75 0 0 0.75 0 0] CT
0.149 GC
2 setlinecap
10.0 ML
N
73 31 M
77.34 31 L
S
GR
GS
[0.75 0 0 0.75 0 0] CT
0.149 GC
2 setlinecap
10.0 ML
N
507 374 M
502.66 374 L
S
GR
GS
[0.75 0 0 0.75 0 0] CT
0.149 GC
2 setlinecap
10.0 ML
N
507 331.125 M
502.66 331.125 L
S
GR
GS
[0.75 0 0 0.75 0 0] CT
0.149 GC
2 setlinecap
10.0 ML
N
507 288.25 M
502.66 288.25 L
S
GR
GS
[0.75 0 0 0.75 0 0] CT
0.149 GC
2 setlinecap
10.0 ML
N
507 245.375 M
502.66 245.375 L
S
GR
GS
[0.75 0 0 0.75 0 0] CT
0.149 GC
2 setlinecap
10.0 ML
N
507 202.5 M
502.66 202.5 L
S
GR
GS
[0.75 0 0 0.75 0 0] CT
0.149 GC
2 setlinecap
10.0 ML
N
507 159.625 M
502.66 159.625 L
S
GR
GS
[0.75 0 0 0.75 0 0] CT
0.149 GC
2 setlinecap
10.0 ML
N
507 116.75 M
502.66 116.75 L
S
GR
GS
[0.75 0 0 0.75 0 0] CT
0.149 GC
2 setlinecap
10.0 ML
N
507 73.875 M
502.66 73.875 L
S
GR
GS
[0.75 0 0 0.75 0 0] CT
0.149 GC
2 setlinecap
10.0 ML
N
507 31 M
502.66 31 L
S
GR
GS
[0.75 0 0 0.75 50.75 280.5] CT
0.149 GC
/Helvetica 13 F
GS
[1 0 0 1 0 0] CT
-8 5.5 moveto 
1 -1 scale
(0) t 
GR
GR
GS
[0.75 0 0 0.75 50.75 248.34375] CT
0.149 GC
/Helvetica 13 F
GS
[1 0 0 1 0 0] CT
-8 5.5 moveto 
1 -1 scale
(1) t 
GR
GR
GS
[0.75 0 0 0.75 50.75 216.1875] CT
0.149 GC
/Helvetica 13 F
GS
[1 0 0 1 0 0] CT
-8 5.5 moveto 
1 -1 scale
(2) t 
GR
GR
GS
[0.75 0 0 0.75 50.75 184.03125] CT
0.149 GC
/Helvetica 13 F
GS
[1 0 0 1 0 0] CT
-8 5.5 moveto 
1 -1 scale
(3) t 
GR
GR
GS
[0.75 0 0 0.75 50.75 151.875] CT
0.149 GC
/Helvetica 13 F
GS
[1 0 0 1 0 0] CT
-8 5.5 moveto 
1 -1 scale
(4) t 
GR
GR
GS
[0.75 0 0 0.75 50.75 119.71875] CT
0.149 GC
/Helvetica 13 F
GS
[1 0 0 1 0 0] CT
-8 5.5 moveto 
1 -1 scale
(5) t 
GR
GR
GS
[0.75 0 0 0.75 50.75 87.5625] CT
0.149 GC
/Helvetica 13 F
GS
[1 0 0 1 0 0] CT
-8 5.5 moveto 
1 -1 scale
(6) t 
GR
GR
GS
[0.75 0 0 0.75 50.75 55.40625] CT
0.149 GC
/Helvetica 13 F
GS
[1 0 0 1 0 0] CT
-8 5.5 moveto 
1 -1 scale
(7) t 
GR
GR
GS
[0.75 0 0 0.75 50.75 23.25] CT
0.149 GC
/Helvetica 13 F
GS
[1 0 0 1 0 0] CT
-8 5.5 moveto 
1 -1 scale
(8) t 
GR
GR
GS
[0.75 0 0 0.75 0 0] CT
0 0.447 0.741 RC
2 setlinecap
10.0 ML
N
79.5 72.5 M
78.736 70.149 L
76.736 68.696 L
74.264 68.696 L
72.264 70.149 L
71.5 72.5 L
72.264 74.851 L
74.264 76.304 L
76.736 76.304 L
78.736 74.851 L
79.5 72.5 L
S
GR
GS
[0.75 0 0 0.75 0 0] CT
0 0.447 0.741 RC
2 setlinecap
10.0 ML
N
82.5 88.5 M
81.736 86.149 L
79.736 84.696 L
77.264 84.696 L
75.264 86.149 L
74.5 88.5 L
75.264 90.851 L
77.264 92.304 L
79.736 92.304 L
81.736 90.851 L
82.5 88.5 L
S
GR
GS
[0.75 0 0 0.75 0 0] CT
0 0.447 0.741 RC
2 setlinecap
10.0 ML
N
85.5 321.5 M
84.736 319.149 L
82.736 317.696 L
80.264 317.696 L
78.264 319.149 L
77.5 321.5 L
78.264 323.851 L
80.264 325.304 L
82.736 325.304 L
84.736 323.851 L
85.5 321.5 L
S
GR
GS
[0.75 0 0 0.75 0 0] CT
0 0.447 0.741 RC
2 setlinecap
10.0 ML
N
88.5 162.5 M
87.736 160.149 L
85.736 158.696 L
83.264 158.696 L
81.264 160.149 L
80.5 162.5 L
81.264 164.851 L
83.264 166.304 L
85.736 166.304 L
87.736 164.851 L
88.5 162.5 L
S
GR
GS
[0.75 0 0 0.75 0 0] CT
0 0.447 0.741 RC
2 setlinecap
10.0 ML
N
91.5 145.5 M
90.736 143.149 L
88.736 141.696 L
86.264 141.696 L
84.264 143.149 L
83.5 145.5 L
84.264 147.851 L
86.264 149.304 L
88.736 149.304 L
90.736 147.851 L
91.5 145.5 L
S
GR
GS
[0.75 0 0 0.75 0 0] CT
0 0.447 0.741 RC
2 setlinecap
10.0 ML
N
94.5 308.5 M
93.736 306.149 L
91.736 304.696 L
89.264 304.696 L
87.264 306.149 L
86.5 308.5 L
87.264 310.851 L
89.264 312.304 L
91.736 312.304 L
93.736 310.851 L
94.5 308.5 L
S
GR
GS
[0.75 0 0 0.75 0 0] CT
0 0.447 0.741 RC
2 setlinecap
10.0 ML
N
97.5 176.5 M
96.736 174.149 L
94.736 172.696 L
92.264 172.696 L
90.264 174.149 L
89.5 176.5 L
90.264 178.851 L
92.264 180.304 L
94.736 180.304 L
96.736 178.851 L
97.5 176.5 L
S
GR
GS
[0.75 0 0 0.75 0 0] CT
0 0.447 0.741 RC
2 setlinecap
10.0 ML
N
100.5 199.5 M
99.736 197.149 L
97.736 195.696 L
95.264 195.696 L
93.264 197.149 L
92.5 199.5 L
93.264 201.851 L
95.264 203.304 L
97.736 203.304 L
99.736 201.851 L
100.5 199.5 L
S
GR
GS
[0.75 0 0 0.75 0 0] CT
0 0.447 0.741 RC
2 setlinecap
10.0 ML
N
104.5 310.5 M
103.736 308.149 L
101.736 306.696 L
99.264 306.696 L
97.264 308.149 L
96.5 310.5 L
97.264 312.851 L
99.264 314.304 L
101.736 314.304 L
103.736 312.851 L
104.5 310.5 L
S
GR
GS
[0.75 0 0 0.75 0 0] CT
0 0.447 0.741 RC
2 setlinecap
10.0 ML
N
107.5 195.5 M
106.736 193.149 L
104.736 191.696 L
102.264 191.696 L
100.264 193.149 L
99.5 195.5 L
100.264 197.851 L
102.264 199.304 L
104.736 199.304 L
106.736 197.851 L
107.5 195.5 L
S
GR
GS
[0.75 0 0 0.75 0 0] CT
0 0.447 0.741 RC
2 setlinecap
10.0 ML
N
110.5 242.5 M
109.736 240.149 L
107.736 238.696 L
105.264 238.696 L
103.264 240.149 L
102.5 242.5 L
103.264 244.851 L
105.264 246.304 L
107.736 246.304 L
109.736 244.851 L
110.5 242.5 L
S
GR
GS
[0.75 0 0 0.75 0 0] CT
0 0.447 0.741 RC
2 setlinecap
10.0 ML
N
113.5 324.5 M
112.736 322.149 L
110.736 320.696 L
108.264 320.696 L
106.264 322.149 L
105.5 324.5 L
106.264 326.851 L
108.264 328.304 L
110.736 328.304 L
112.736 326.851 L
113.5 324.5 L
S
GR
GS
[0.75 0 0 0.75 0 0] CT
0 0.447 0.741 RC
2 setlinecap
10.0 ML
N
116.5 216.5 M
115.736 214.149 L
113.736 212.696 L
111.264 212.696 L
109.264 214.149 L
108.5 216.5 L
109.264 218.851 L
111.264 220.304 L
113.736 220.304 L
115.736 218.851 L
116.5 216.5 L
S
GR
GS
[0.75 0 0 0.75 0 0] CT
0 0.447 0.741 RC
2 setlinecap
10.0 ML
N
119.5 277.5 M
118.736 275.149 L
116.736 273.696 L
114.264 273.696 L
112.264 275.149 L
111.5 277.5 L
112.264 279.851 L
114.264 281.304 L
116.736 281.304 L
118.736 279.851 L
119.5 277.5 L
S
GR
GS
[0.75 0 0 0.75 0 0] CT
0 0.447 0.741 RC
2 setlinecap
10.0 ML
N
122.5 321.5 M
121.736 319.149 L
119.736 317.696 L
117.264 317.696 L
115.264 319.149 L
114.5 321.5 L
115.264 323.851 L
117.264 325.304 L
119.736 325.304 L
121.736 323.851 L
122.5 321.5 L
S
GR
GS
[0.75 0 0 0.75 0 0] CT
0 0.447 0.741 RC
2 setlinecap
10.0 ML
N
125.5 236.5 M
124.736 234.149 L
122.736 232.696 L
120.264 232.696 L
118.264 234.149 L
117.5 236.5 L
118.264 238.851 L
120.264 240.304 L
122.736 240.304 L
124.736 238.851 L
125.5 236.5 L
S
GR
GS
[0.75 0 0 0.75 0 0] CT
0 0.447 0.741 RC
2 setlinecap
10.0 ML
N
128.5 304.5 M
127.736 302.149 L
125.736 300.696 L
123.264 300.696 L
121.264 302.149 L
120.5 304.5 L
121.264 306.851 L
123.264 308.304 L
125.736 308.304 L
127.736 306.851 L
128.5 304.5 L
S
GR
GS
[0.75 0 0 0.75 0 0] CT
0 0.447 0.741 RC
2 setlinecap
10.0 ML
N
131.5 330.5 M
130.736 328.149 L
128.736 326.696 L
126.264 326.696 L
124.264 328.149 L
123.5 330.5 L
124.264 332.851 L
126.264 334.304 L
128.736 334.304 L
130.736 332.851 L
131.5 330.5 L
S
GR
GS
[0.75 0 0 0.75 0 0] CT
0 0.447 0.741 RC
2 setlinecap
10.0 ML
N
135.5 253.5 M
134.736 251.149 L
132.736 249.696 L
130.264 249.696 L
128.264 251.149 L
127.5 253.5 L
128.264 255.851 L
130.264 257.304 L
132.736 257.304 L
134.736 255.851 L
135.5 253.5 L
S
GR
GS
[0.75 0 0 0.75 0 0] CT
0 0.447 0.741 RC
2 setlinecap
10.0 ML
N
138.5 309.5 M
137.736 307.149 L
135.736 305.696 L
133.264 305.696 L
131.264 307.149 L
130.5 309.5 L
131.264 311.851 L
133.264 313.304 L
135.736 313.304 L
137.736 311.851 L
138.5 309.5 L
S
GR
GS
[0.75 0 0 0.75 0 0] CT
0 0.447 0.741 RC
2 setlinecap
10.0 ML
N
141.5 333.5 M
140.736 331.149 L
138.736 329.696 L
136.264 329.696 L
134.264 331.149 L
133.5 333.5 L
134.264 335.851 L
136.264 337.304 L
138.736 337.304 L
140.736 335.851 L
141.5 333.5 L
S
GR
GS
[0.75 0 0 0.75 0 0] CT
0 0.447 0.741 RC
2 setlinecap
10.0 ML
N
144.5 277.5 M
143.736 275.149 L
141.736 273.696 L
139.264 273.696 L
137.264 275.149 L
136.5 277.5 L
137.264 279.851 L
139.264 281.304 L
141.736 281.304 L
143.736 279.851 L
144.5 277.5 L
S
GR
GS
[0.75 0 0 0.75 0 0] CT
0 0.447 0.741 RC
2 setlinecap
10.0 ML
N
147.5 320.5 M
146.736 318.149 L
144.736 316.696 L
142.264 316.696 L
140.264 318.149 L
139.5 320.5 L
140.264 322.851 L
142.264 324.304 L
144.736 324.304 L
146.736 322.851 L
147.5 320.5 L
S
GR
GS
[0.75 0 0 0.75 0 0] CT
0 0.447 0.741 RC
2 setlinecap
10.0 ML
N
150.5 342.5 M
149.736 340.149 L
147.736 338.696 L
145.264 338.696 L
143.264 340.149 L
142.5 342.5 L
143.264 344.851 L
145.264 346.304 L
147.736 346.304 L
149.736 344.851 L
150.5 342.5 L
S
GR
GS
[0.75 0 0 0.75 0 0] CT
0 0.447 0.741 RC
2 setlinecap
10.0 ML
N
153.5 289.5 M
152.736 287.149 L
150.736 285.696 L
148.264 285.696 L
146.264 287.149 L
145.5 289.5 L
146.264 291.851 L
148.264 293.304 L
150.736 293.304 L
152.736 291.851 L
153.5 289.5 L
S
GR
GS
[0.75 0 0 0.75 0 0] CT
0 0.447 0.741 RC
2 setlinecap
10.0 ML
N
156.5 318.5 M
155.736 316.149 L
153.736 314.696 L
151.264 314.696 L
149.264 316.149 L
148.5 318.5 L
149.264 320.851 L
151.264 322.304 L
153.736 322.304 L
155.736 320.851 L
156.5 318.5 L
S
GR
GS
[0.75 0 0 0.75 0 0] CT
0 0.447 0.741 RC
2 setlinecap
10.0 ML
N
159.5 337.5 M
158.736 335.149 L
156.736 333.696 L
154.264 333.696 L
152.264 335.149 L
151.5 337.5 L
152.264 339.851 L
154.264 341.304 L
156.736 341.304 L
158.736 339.851 L
159.5 337.5 L
S
GR
GS
[0.75 0 0 0.75 0 0] CT
0 0.447 0.741 RC
2 setlinecap
10.0 ML
N
162.5 295.5 M
161.736 293.149 L
159.736 291.696 L
157.264 291.696 L
155.264 293.149 L
154.5 295.5 L
155.264 297.851 L
157.264 299.304 L
159.736 299.304 L
161.736 297.851 L
162.5 295.5 L
S
GR
GS
[0.75 0 0 0.75 0 0] CT
0 0.447 0.741 RC
2 setlinecap
10.0 ML
N
165.5 324.5 M
164.736 322.149 L
162.736 320.696 L
160.264 320.696 L
158.264 322.149 L
157.5 324.5 L
158.264 326.851 L
160.264 328.304 L
162.736 328.304 L
164.736 326.851 L
165.5 324.5 L
S
GR
GS
[0.75 0 0 0.75 0 0] CT
0 0.447 0.741 RC
2 setlinecap
10.0 ML
N
169.5 341.5 M
168.736 339.149 L
166.736 337.696 L
164.264 337.696 L
162.264 339.149 L
161.5 341.5 L
162.264 343.851 L
164.264 345.304 L
166.736 345.304 L
168.736 343.851 L
169.5 341.5 L
S
GR
GS
[0.75 0 0 0.75 0 0] CT
0 0.447 0.741 RC
2 setlinecap
10.0 ML
N
172.5 305.5 M
171.736 303.149 L
169.736 301.696 L
167.264 301.696 L
165.264 303.149 L
164.5 305.5 L
165.264 307.851 L
167.264 309.304 L
169.736 309.304 L
171.736 307.851 L
172.5 305.5 L
S
GR
GS
[0.75 0 0 0.75 0 0] CT
0 0.447 0.741 RC
2 setlinecap
10.0 ML
N
175.5 328.5 M
174.736 326.149 L
172.736 324.696 L
170.264 324.696 L
168.264 326.149 L
167.5 328.5 L
168.264 330.851 L
170.264 332.304 L
172.736 332.304 L
174.736 330.851 L
175.5 328.5 L
S
GR
GS
[0.75 0 0 0.75 0 0] CT
0 0.447 0.741 RC
2 setlinecap
10.0 ML
N
178.5 342.5 M
177.736 340.149 L
175.736 338.696 L
173.264 338.696 L
171.264 340.149 L
170.5 342.5 L
171.264 344.851 L
173.264 346.304 L
175.736 346.304 L
177.736 344.851 L
178.5 342.5 L
S
GR
GS
[0.75 0 0 0.75 0 0] CT
0 0.447 0.741 RC
2 setlinecap
10.0 ML
N
181.5 316.5 M
180.736 314.149 L
178.736 312.696 L
176.264 312.696 L
174.264 314.149 L
173.5 316.5 L
174.264 318.851 L
176.264 320.304 L
178.736 320.304 L
180.736 318.851 L
181.5 316.5 L
S
GR
GS
[0.75 0 0 0.75 0 0] CT
0 0.447 0.741 RC
2 setlinecap
10.0 ML
N
184.5 342.5 M
183.736 340.149 L
181.736 338.696 L
179.264 338.696 L
177.264 340.149 L
176.5 342.5 L
177.264 344.851 L
179.264 346.304 L
181.736 346.304 L
183.736 344.851 L
184.5 342.5 L
S
GR
GS
[0.75 0 0 0.75 0 0] CT
0 0.447 0.741 RC
2 setlinecap
10.0 ML
N
187.5 344.5 M
186.736 342.149 L
184.736 340.696 L
182.264 340.696 L
180.264 342.149 L
179.5 344.5 L
180.264 346.851 L
182.264 348.304 L
184.736 348.304 L
186.736 346.851 L
187.5 344.5 L
S
GR
GS
[0.75 0 0 0.75 0 0] CT
0 0.447 0.741 RC
2 setlinecap
10.0 ML
N
190.5 328.5 M
189.736 326.149 L
187.736 324.696 L
185.264 324.696 L
183.264 326.149 L
182.5 328.5 L
183.264 330.851 L
185.264 332.304 L
187.736 332.304 L
189.736 330.851 L
190.5 328.5 L
S
GR
GS
[0.75 0 0 0.75 0 0] CT
0 0.447 0.741 RC
2 setlinecap
10.0 ML
N
193.5 349.5 M
192.736 347.149 L
190.736 345.696 L
188.264 345.696 L
186.264 347.149 L
185.5 349.5 L
186.264 351.851 L
188.264 353.304 L
190.736 353.304 L
192.736 351.851 L
193.5 349.5 L
S
GR
GS
[0.75 0 0 0.75 0 0] CT
0 0.447 0.741 RC
2 setlinecap
10.0 ML
N
196.5 346.5 M
195.736 344.149 L
193.736 342.696 L
191.264 342.696 L
189.264 344.149 L
188.5 346.5 L
189.264 348.851 L
191.264 350.304 L
193.736 350.304 L
195.736 348.851 L
196.5 346.5 L
S
GR
GS
[0.75 0 0 0.75 0 0] CT
0 0.447 0.741 RC
2 setlinecap
10.0 ML
N
200.5 337.5 M
199.736 335.149 L
197.736 333.696 L
195.264 333.696 L
193.264 335.149 L
192.5 337.5 L
193.264 339.851 L
195.264 341.304 L
197.736 341.304 L
199.736 339.851 L
200.5 337.5 L
S
GR
GS
[0.75 0 0 0.75 0 0] CT
0 0.447 0.741 RC
2 setlinecap
10.0 ML
N
203.5 356.5 M
202.736 354.149 L
200.736 352.696 L
198.264 352.696 L
196.264 354.149 L
195.5 356.5 L
196.264 358.851 L
198.264 360.304 L
200.736 360.304 L
202.736 358.851 L
203.5 356.5 L
S
GR
GS
[0.75 0 0 0.75 0 0] CT
0 0.447 0.741 RC
2 setlinecap
10.0 ML
N
206.5 356.5 M
205.736 354.149 L
203.736 352.696 L
201.264 352.696 L
199.264 354.149 L
198.5 356.5 L
199.264 358.851 L
201.264 360.304 L
203.736 360.304 L
205.736 358.851 L
206.5 356.5 L
S
GR
GS
[0.75 0 0 0.75 0 0] CT
0 0.447 0.741 RC
2 setlinecap
10.0 ML
N
209.5 348.5 M
208.736 346.149 L
206.736 344.696 L
204.264 344.696 L
202.264 346.149 L
201.5 348.5 L
202.264 350.851 L
204.264 352.304 L
206.736 352.304 L
208.736 350.851 L
209.5 348.5 L
S
GR
GS
[0.75 0 0 0.75 0 0] CT
0 0.447 0.741 RC
2 setlinecap
10.0 ML
N
212.5 353.5 M
211.736 351.149 L
209.736 349.696 L
207.264 349.696 L
205.264 351.149 L
204.5 353.5 L
205.264 355.851 L
207.264 357.304 L
209.736 357.304 L
211.736 355.851 L
212.5 353.5 L
S
GR
GS
[0.75 0 0 0.75 0 0] CT
0 0.447 0.741 RC
2 setlinecap
10.0 ML
N
215.5 366.5 M
214.736 364.149 L
212.736 362.696 L
210.264 362.696 L
208.264 364.149 L
207.5 366.5 L
208.264 368.851 L
210.264 370.304 L
212.736 370.304 L
214.736 368.851 L
215.5 366.5 L
S
GR
GS
[0.75 0 0 0.75 0 0] CT
0 0.447 0.741 RC
2 setlinecap
10.0 ML
N
218.5 350.5 M
217.736 348.149 L
215.736 346.696 L
213.264 346.696 L
211.264 348.149 L
210.5 350.5 L
211.264 352.851 L
213.264 354.304 L
215.736 354.304 L
217.736 352.851 L
218.5 350.5 L
S
GR
GS
[0.75 0 0 0.75 0 0] CT
0 0.447 0.741 RC
2 setlinecap
10.0 ML
N
221.5 348.5 M
220.736 346.149 L
218.736 344.696 L
216.264 344.696 L
214.264 346.149 L
213.5 348.5 L
214.264 350.851 L
216.264 352.304 L
218.736 352.304 L
220.736 350.851 L
221.5 348.5 L
S
GR
GS
[0.75 0 0 0.75 0 0] CT
0 0.447 0.741 RC
2 setlinecap
10.0 ML
N
224.5 367.5 M
223.736 365.149 L
221.736 363.696 L
219.264 363.696 L
217.264 365.149 L
216.5 367.5 L
217.264 369.851 L
219.264 371.304 L
221.736 371.304 L
223.736 369.851 L
224.5 367.5 L
S
GR
GS
[0.75 0 0 0.75 0 0] CT
0 0.447 0.741 RC
2 setlinecap
10.0 ML
N
227.5 349.5 M
226.736 347.149 L
224.736 345.696 L
222.264 345.696 L
220.264 347.149 L
219.5 349.5 L
220.264 351.851 L
222.264 353.304 L
224.736 353.304 L
226.736 351.851 L
227.5 349.5 L
S
GR
GS
[0.75 0 0 0.75 0 0] CT
0 0.447 0.741 RC
2 setlinecap
10.0 ML
N
230.5 342.5 M
229.736 340.149 L
227.736 338.696 L
225.264 338.696 L
223.264 340.149 L
222.5 342.5 L
223.264 344.851 L
225.264 346.304 L
227.736 346.304 L
229.736 344.851 L
230.5 342.5 L
S
GR
GS
[0.75 0 0 0.75 0 0] CT
0 0.447 0.741 RC
2 setlinecap
10.0 ML
N
234.5 357.5 M
233.736 355.149 L
231.736 353.696 L
229.264 353.696 L
227.264 355.149 L
226.5 357.5 L
227.264 359.851 L
229.264 361.304 L
231.736 361.304 L
233.736 359.851 L
234.5 357.5 L
S
GR
GS
[0.75 0 0 0.75 0 0] CT
0 0.447 0.741 RC
2 setlinecap
10.0 ML
N
237.5 345.5 M
236.736 343.149 L
234.736 341.696 L
232.264 341.696 L
230.264 343.149 L
229.5 345.5 L
230.264 347.851 L
232.264 349.304 L
234.736 349.304 L
236.736 347.851 L
237.5 345.5 L
S
GR
GS
[0.75 0 0 0.75 0 0] CT
0 0.447 0.741 RC
2 setlinecap
10.0 ML
N
240.5 339.5 M
239.736 337.149 L
237.736 335.696 L
235.264 335.696 L
233.264 337.149 L
232.5 339.5 L
233.264 341.851 L
235.264 343.304 L
237.736 343.304 L
239.736 341.851 L
240.5 339.5 L
S
GR
GS
[0.75 0 0 0.75 0 0] CT
0 0.447 0.741 RC
2 setlinecap
10.0 ML
N
243.5 350.5 M
242.736 348.149 L
240.736 346.696 L
238.264 346.696 L
236.264 348.149 L
235.5 350.5 L
236.264 352.851 L
238.264 354.304 L
240.736 354.304 L
242.736 352.851 L
243.5 350.5 L
S
GR
GS
[0.75 0 0 0.75 0 0] CT
0 0.447 0.741 RC
2 setlinecap
10.0 ML
N
246.5 343.5 M
245.736 341.149 L
243.736 339.696 L
241.264 339.696 L
239.264 341.149 L
238.5 343.5 L
239.264 345.851 L
241.264 347.304 L
243.736 347.304 L
245.736 345.851 L
246.5 343.5 L
S
GR
GS
[0.75 0 0 0.75 0 0] CT
0 0.447 0.741 RC
2 setlinecap
10.0 ML
N
249.5 338.5 M
248.736 336.149 L
246.736 334.696 L
244.264 334.696 L
242.264 336.149 L
241.5 338.5 L
242.264 340.851 L
244.264 342.304 L
246.736 342.304 L
248.736 340.851 L
249.5 338.5 L
S
GR
GS
[0.75 0 0 0.75 0 0] CT
0 0.447 0.741 RC
2 setlinecap
10.0 ML
N
252.5 346.5 M
251.736 344.149 L
249.736 342.696 L
247.264 342.696 L
245.264 344.149 L
244.5 346.5 L
245.264 348.851 L
247.264 350.304 L
249.736 350.304 L
251.736 348.851 L
252.5 346.5 L
S
GR
GS
[0.75 0 0 0.75 0 0] CT
0 0.447 0.741 RC
2 setlinecap
10.0 ML
N
255.5 339.5 M
254.736 337.149 L
252.736 335.696 L
250.264 335.696 L
248.264 337.149 L
247.5 339.5 L
248.264 341.851 L
250.264 343.304 L
252.736 343.304 L
254.736 341.851 L
255.5 339.5 L
S
GR
GS
[0.75 0 0 0.75 0 0] CT
0 0.447 0.741 RC
2 setlinecap
10.0 ML
N
258.5 335.5 M
257.736 333.149 L
255.736 331.696 L
253.264 331.696 L
251.264 333.149 L
250.5 335.5 L
251.264 337.851 L
253.264 339.304 L
255.736 339.304 L
257.736 337.851 L
258.5 335.5 L
S
GR
GS
[0.75 0 0 0.75 0 0] CT
0 0.447 0.741 RC
2 setlinecap
10.0 ML
N
261.5 346.5 M
260.736 344.149 L
258.736 342.696 L
256.264 342.696 L
254.264 344.149 L
253.5 346.5 L
254.264 348.851 L
256.264 350.304 L
258.736 350.304 L
260.736 348.851 L
261.5 346.5 L
S
GR
GS
[0.75 0 0 0.75 0 0] CT
0 0.447 0.741 RC
2 setlinecap
10.0 ML
N
264.5 338.5 M
263.736 336.149 L
261.736 334.696 L
259.264 334.696 L
257.264 336.149 L
256.5 338.5 L
257.264 340.851 L
259.264 342.304 L
261.736 342.304 L
263.736 340.851 L
264.5 338.5 L
S
GR
GS
[0.75 0 0 0.75 0 0] CT
0 0.447 0.741 RC
2 setlinecap
10.0 ML
N
268.5 335.5 M
267.736 333.149 L
265.736 331.696 L
263.264 331.696 L
261.264 333.149 L
260.5 335.5 L
261.264 337.851 L
263.264 339.304 L
265.736 339.304 L
267.736 337.851 L
268.5 335.5 L
S
GR
GS
[0.75 0 0 0.75 0 0] CT
0 0.447 0.741 RC
2 setlinecap
10.0 ML
N
271.5 349.5 M
270.736 347.149 L
268.736 345.696 L
266.264 345.696 L
264.264 347.149 L
263.5 349.5 L
264.264 351.851 L
266.264 353.304 L
268.736 353.304 L
270.736 351.851 L
271.5 349.5 L
S
GR
GS
[0.75 0 0 0.75 0 0] CT
0 0.447 0.741 RC
2 setlinecap
10.0 ML
N
274.5 337.5 M
273.736 335.149 L
271.736 333.696 L
269.264 333.696 L
267.264 335.149 L
266.5 337.5 L
267.264 339.851 L
269.264 341.304 L
271.736 341.304 L
273.736 339.851 L
274.5 337.5 L
S
GR
GS
[0.75 0 0 0.75 0 0] CT
0 0.447 0.741 RC
2 setlinecap
10.0 ML
N
277.5 337.5 M
276.736 335.149 L
274.736 333.696 L
272.264 333.696 L
270.264 335.149 L
269.5 337.5 L
270.264 339.851 L
272.264 341.304 L
274.736 341.304 L
276.736 339.851 L
277.5 337.5 L
S
GR
GS
[0.75 0 0 0.75 0 0] CT
0 0.447 0.741 RC
2 setlinecap
10.0 ML
N
280.5 352.5 M
279.736 350.149 L
277.736 348.696 L
275.264 348.696 L
273.264 350.149 L
272.5 352.5 L
273.264 354.851 L
275.264 356.304 L
277.736 356.304 L
279.736 354.851 L
280.5 352.5 L
S
GR
GS
[0.75 0 0 0.75 0 0] CT
0 0.447 0.741 RC
2 setlinecap
10.0 ML
N
283.5 341.5 M
282.736 339.149 L
280.736 337.696 L
278.264 337.696 L
276.264 339.149 L
275.5 341.5 L
276.264 343.851 L
278.264 345.304 L
280.736 345.304 L
282.736 343.851 L
283.5 341.5 L
S
GR
GS
[0.75 0 0 0.75 0 0] CT
0 0.447 0.741 RC
2 setlinecap
10.0 ML
N
286.5 342.5 M
285.736 340.149 L
283.736 338.696 L
281.264 338.696 L
279.264 340.149 L
278.5 342.5 L
279.264 344.851 L
281.264 346.304 L
283.736 346.304 L
285.736 344.851 L
286.5 342.5 L
S
GR
GS
[0.75 0 0 0.75 0 0] CT
0 0.447 0.741 RC
2 setlinecap
10.0 ML
N
289.5 356.5 M
288.736 354.149 L
286.736 352.696 L
284.264 352.696 L
282.264 354.149 L
281.5 356.5 L
282.264 358.851 L
284.264 360.304 L
286.736 360.304 L
288.736 358.851 L
289.5 356.5 L
S
GR
GS
[0.75 0 0 0.75 0 0] CT
0 0.447 0.741 RC
2 setlinecap
10.0 ML
N
292.5 347.5 M
291.736 345.149 L
289.736 343.696 L
287.264 343.696 L
285.264 345.149 L
284.5 347.5 L
285.264 349.851 L
287.264 351.304 L
289.736 351.304 L
291.736 349.851 L
292.5 347.5 L
S
GR
GS
[0.75 0 0 0.75 0 0] CT
0 0.447 0.741 RC
2 setlinecap
10.0 ML
N
295.5 345.5 M
294.736 343.149 L
292.736 341.696 L
290.264 341.696 L
288.264 343.149 L
287.5 345.5 L
288.264 347.851 L
290.264 349.304 L
292.736 349.304 L
294.736 347.851 L
295.5 345.5 L
S
GR
GS
[0.75 0 0 0.75 0 0] CT
0 0.447 0.741 RC
2 setlinecap
10.0 ML
N
299.5 361.5 M
298.736 359.149 L
296.736 357.696 L
294.264 357.696 L
292.264 359.149 L
291.5 361.5 L
292.264 363.851 L
294.264 365.304 L
296.736 365.304 L
298.736 363.851 L
299.5 361.5 L
S
GR
GS
[0.75 0 0 0.75 0 0] CT
0 0.447 0.741 RC
2 setlinecap
10.0 ML
N
302.5 350.5 M
301.736 348.149 L
299.736 346.696 L
297.264 346.696 L
295.264 348.149 L
294.5 350.5 L
295.264 352.851 L
297.264 354.304 L
299.736 354.304 L
301.736 352.851 L
302.5 350.5 L
S
GR
GS
[0.75 0 0 0.75 0 0] CT
0 0.447 0.741 RC
2 setlinecap
10.0 ML
N
305.5 349.5 M
304.736 347.149 L
302.736 345.696 L
300.264 345.696 L
298.264 347.149 L
297.5 349.5 L
298.264 351.851 L
300.264 353.304 L
302.736 353.304 L
304.736 351.851 L
305.5 349.5 L
S
GR
GS
[0.75 0 0 0.75 0 0] CT
0 0.447 0.741 RC
2 setlinecap
10.0 ML
N
308.5 368.5 M
307.736 366.149 L
305.736 364.696 L
303.264 364.696 L
301.264 366.149 L
300.5 368.5 L
301.264 370.851 L
303.264 372.304 L
305.736 372.304 L
307.736 370.851 L
308.5 368.5 L
S
GR
GS
[0.75 0 0 0.75 0 0] CT
0 0.447 0.741 RC
2 setlinecap
10.0 ML
N
311.5 357.5 M
310.736 355.149 L
308.736 353.696 L
306.264 353.696 L
304.264 355.149 L
303.5 357.5 L
304.264 359.851 L
306.264 361.304 L
308.736 361.304 L
310.736 359.851 L
311.5 357.5 L
S
GR
GS
[0.75 0 0 0.75 0 0] CT
0 0.447 0.741 RC
2 setlinecap
10.0 ML
N
314.5 353.5 M
313.736 351.149 L
311.736 349.696 L
309.264 349.696 L
307.264 351.149 L
306.5 353.5 L
307.264 355.851 L
309.264 357.304 L
311.736 357.304 L
313.736 355.851 L
314.5 353.5 L
S
GR
GS
[0.75 0 0 0.75 0 0] CT
0 0.447 0.741 RC
2 setlinecap
10.0 ML
N
317.5 373.5 M
316.736 371.149 L
314.736 369.696 L
312.264 369.696 L
310.264 371.149 L
309.5 373.5 L
310.264 375.851 L
312.264 377.304 L
314.736 377.304 L
316.736 375.851 L
317.5 373.5 L
S
GR
GS
[0.75 0 0 0.75 0 0] CT
0 0.447 0.741 RC
2 setlinecap
10.0 ML
N
320.5 361.5 M
319.736 359.149 L
317.736 357.696 L
315.264 357.696 L
313.264 359.149 L
312.5 361.5 L
313.264 363.851 L
315.264 365.304 L
317.736 365.304 L
319.736 363.851 L
320.5 361.5 L
S
GR
GS
[0.75 0 0 0.75 0 0] CT
0 0.447 0.741 RC
2 setlinecap
10.0 ML
N
323.5 353.5 M
322.736 351.149 L
320.736 349.696 L
318.264 349.696 L
316.264 351.149 L
315.5 353.5 L
316.264 355.851 L
318.264 357.304 L
320.736 357.304 L
322.736 355.851 L
323.5 353.5 L
S
GR
GS
[0.75 0 0 0.75 0 0] CT
0 0.447 0.741 RC
2 setlinecap
10.0 ML
N
326.5 369.5 M
325.736 367.149 L
323.736 365.696 L
321.264 365.696 L
319.264 367.149 L
318.5 369.5 L
319.264 371.851 L
321.264 373.304 L
323.736 373.304 L
325.736 371.851 L
326.5 369.5 L
S
GR
GS
[0.75 0 0 0.75 0 0] CT
0 0.447 0.741 RC
2 setlinecap
10.0 ML
N
329.5 360.5 M
328.736 358.149 L
326.736 356.696 L
324.264 356.696 L
322.264 358.149 L
321.5 360.5 L
322.264 362.851 L
324.264 364.304 L
326.736 364.304 L
328.736 362.851 L
329.5 360.5 L
S
GR
GS
[0.75 0 0 0.75 0 0] CT
0 0.447 0.741 RC
2 setlinecap
10.0 ML
N
333.5 346.5 M
332.736 344.149 L
330.736 342.696 L
328.264 342.696 L
326.264 344.149 L
325.5 346.5 L
326.264 348.851 L
328.264 350.304 L
330.736 350.304 L
332.736 348.851 L
333.5 346.5 L
S
GR
GS
[0.75 0 0 0.75 0 0] CT
0 0.447 0.741 RC
2 setlinecap
10.0 ML
N
336.5 349.5 M
335.736 347.149 L
333.736 345.696 L
331.264 345.696 L
329.264 347.149 L
328.5 349.5 L
329.264 351.851 L
331.264 353.304 L
333.736 353.304 L
335.736 351.851 L
336.5 349.5 L
S
GR
GS
[0.75 0 0 0.75 0 0] CT
0 0.447 0.741 RC
2 setlinecap
10.0 ML
N
339.5 347.5 M
338.736 345.149 L
336.736 343.696 L
334.264 343.696 L
332.264 345.149 L
331.5 347.5 L
332.264 349.851 L
334.264 351.304 L
336.736 351.304 L
338.736 349.851 L
339.5 347.5 L
S
GR
GS
[0.75 0 0 0.75 0 0] CT
0 0.447 0.741 RC
2 setlinecap
10.0 ML
N
342.5 366.5 M
341.736 364.149 L
339.736 362.696 L
337.264 362.696 L
335.264 364.149 L
334.5 366.5 L
335.264 368.851 L
337.264 370.304 L
339.736 370.304 L
341.736 368.851 L
342.5 366.5 L
S
GR
GS
[0.75 0 0 0.75 0 0] CT
0 0.447 0.741 RC
2 setlinecap
10.0 ML
N
345.5 352.5 M
344.736 350.149 L
342.736 348.696 L
340.264 348.696 L
338.264 350.149 L
337.5 352.5 L
338.264 354.851 L
340.264 356.304 L
342.736 356.304 L
344.736 354.851 L
345.5 352.5 L
S
GR
GS
[0.75 0 0 0.75 0 0] CT
0 0.447 0.741 RC
2 setlinecap
10.0 ML
N
348.5 359.5 M
347.736 357.149 L
345.736 355.696 L
343.264 355.696 L
341.264 357.149 L
340.5 359.5 L
341.264 361.851 L
343.264 363.304 L
345.736 363.304 L
347.736 361.851 L
348.5 359.5 L
S
GR
GS
[0.75 0 0 0.75 0 0] CT
0 0.447 0.741 RC
2 setlinecap
10.0 ML
N
351.5 368.5 M
350.736 366.149 L
348.736 364.696 L
346.264 364.696 L
344.264 366.149 L
343.5 368.5 L
344.264 370.851 L
346.264 372.304 L
348.736 372.304 L
350.736 370.851 L
351.5 368.5 L
S
GR
GS
[0.75 0 0 0.75 0 0] CT
0 0.447 0.741 RC
2 setlinecap
10.0 ML
N
354.5 355.5 M
353.736 353.149 L
351.736 351.696 L
349.264 351.696 L
347.264 353.149 L
346.5 355.5 L
347.264 357.851 L
349.264 359.304 L
351.736 359.304 L
353.736 357.851 L
354.5 355.5 L
S
GR
GS
[0.75 0 0 0.75 0 0] CT
0 0.447 0.741 RC
2 setlinecap
10.0 ML
N
357.5 361.5 M
356.736 359.149 L
354.736 357.696 L
352.264 357.696 L
350.264 359.149 L
349.5 361.5 L
350.264 363.851 L
352.264 365.304 L
354.736 365.304 L
356.736 363.851 L
357.5 361.5 L
S
GR
GS
[0.75 0 0 0.75 0 0] CT
0 0.447 0.741 RC
2 setlinecap
10.0 ML
N
360.5 363.5 M
359.736 361.149 L
357.736 359.696 L
355.264 359.696 L
353.264 361.149 L
352.5 363.5 L
353.264 365.851 L
355.264 367.304 L
357.736 367.304 L
359.736 365.851 L
360.5 363.5 L
S
GR
GS
[0.75 0 0 0.75 0 0] CT
0 0.447 0.741 RC
2 setlinecap
10.0 ML
N
364.5 357.5 M
363.736 355.149 L
361.736 353.696 L
359.264 353.696 L
357.264 355.149 L
356.5 357.5 L
357.264 359.851 L
359.264 361.304 L
361.736 361.304 L
363.736 359.851 L
364.5 357.5 L
S
GR
GS
[0.75 0 0 0.75 0 0] CT
0 0.447 0.741 RC
2 setlinecap
10.0 ML
N
367.5 359.5 M
366.736 357.149 L
364.736 355.696 L
362.264 355.696 L
360.264 357.149 L
359.5 359.5 L
360.264 361.851 L
362.264 363.304 L
364.736 363.304 L
366.736 361.851 L
367.5 359.5 L
S
GR
GS
[0.75 0 0 0.75 0 0] CT
0 0.447 0.741 RC
2 setlinecap
10.0 ML
N
370.5 360.5 M
369.736 358.149 L
367.736 356.696 L
365.264 356.696 L
363.264 358.149 L
362.5 360.5 L
363.264 362.851 L
365.264 364.304 L
367.736 364.304 L
369.736 362.851 L
370.5 360.5 L
S
GR
GS
[0.75 0 0 0.75 0 0] CT
0 0.447 0.741 RC
2 setlinecap
10.0 ML
N
373.5 358.5 M
372.736 356.149 L
370.736 354.696 L
368.264 354.696 L
366.264 356.149 L
365.5 358.5 L
366.264 360.851 L
368.264 362.304 L
370.736 362.304 L
372.736 360.851 L
373.5 358.5 L
S
GR
GS
[0.75 0 0 0.75 0 0] CT
0 0.447 0.741 RC
2 setlinecap
10.0 ML
N
376.5 360.5 M
375.736 358.149 L
373.736 356.696 L
371.264 356.696 L
369.264 358.149 L
368.5 360.5 L
369.264 362.851 L
371.264 364.304 L
373.736 364.304 L
375.736 362.851 L
376.5 360.5 L
S
GR
GS
[0.75 0 0 0.75 0 0] CT
0 0.447 0.741 RC
2 setlinecap
10.0 ML
N
379.5 359.5 M
378.736 357.149 L
376.736 355.696 L
374.264 355.696 L
372.264 357.149 L
371.5 359.5 L
372.264 361.851 L
374.264 363.304 L
376.736 363.304 L
378.736 361.851 L
379.5 359.5 L
S
GR
GS
[0.75 0 0 0.75 0 0] CT
0 0.447 0.741 RC
2 setlinecap
10.0 ML
N
382.5 359.5 M
381.736 357.149 L
379.736 355.696 L
377.264 355.696 L
375.264 357.149 L
374.5 359.5 L
375.264 361.851 L
377.264 363.304 L
379.736 363.304 L
381.736 361.851 L
382.5 359.5 L
S
GR
GS
[0.75 0 0 0.75 0 0] CT
0 0.447 0.741 RC
2 setlinecap
10.0 ML
N
385.5 359.5 M
384.736 357.149 L
382.736 355.696 L
380.264 355.696 L
378.264 357.149 L
377.5 359.5 L
378.264 361.851 L
380.264 363.304 L
382.736 363.304 L
384.736 361.851 L
385.5 359.5 L
S
GR
GS
[0.75 0 0 0.75 0 0] CT
0 0.447 0.741 RC
2 setlinecap
10.0 ML
N
388.5 359.5 M
387.736 357.149 L
385.736 355.696 L
383.264 355.696 L
381.264 357.149 L
380.5 359.5 L
381.264 361.851 L
383.264 363.304 L
385.736 363.304 L
387.736 361.851 L
388.5 359.5 L
S
GR
GS
[0.75 0 0 0.75 0 0] CT
0 0.447 0.741 RC
2 setlinecap
10.0 ML
N
391.5 359.5 M
390.736 357.149 L
388.736 355.696 L
386.264 355.696 L
384.264 357.149 L
383.5 359.5 L
384.264 361.851 L
386.264 363.304 L
388.736 363.304 L
390.736 361.851 L
391.5 359.5 L
S
GR
GS
[0.75 0 0 0.75 0 0] CT
0 0.447 0.741 RC
2 setlinecap
10.0 ML
N
394.5 360.5 M
393.736 358.149 L
391.736 356.696 L
389.264 356.696 L
387.264 358.149 L
386.5 360.5 L
387.264 362.851 L
389.264 364.304 L
391.736 364.304 L
393.736 362.851 L
394.5 360.5 L
S
GR
GS
[0.75 0 0 0.75 0 0] CT
0 0.447 0.741 RC
2 setlinecap
10.0 ML
N
398.5 359.5 M
397.736 357.149 L
395.736 355.696 L
393.264 355.696 L
391.264 357.149 L
390.5 359.5 L
391.264 361.851 L
393.264 363.304 L
395.736 363.304 L
397.736 361.851 L
398.5 359.5 L
S
GR
GS
[0.75 0 0 0.75 0 0] CT
0 0.447 0.741 RC
2 setlinecap
10.0 ML
N
401.5 361.5 M
400.736 359.149 L
398.736 357.696 L
396.264 357.696 L
394.264 359.149 L
393.5 361.5 L
394.264 363.851 L
396.264 365.304 L
398.736 365.304 L
400.736 363.851 L
401.5 361.5 L
S
GR
GS
[0.75 0 0 0.75 0 0] CT
0 0.447 0.741 RC
2 setlinecap
10.0 ML
N
404.5 362.5 M
403.736 360.149 L
401.736 358.696 L
399.264 358.696 L
397.264 360.149 L
396.5 362.5 L
397.264 364.851 L
399.264 366.304 L
401.736 366.304 L
403.736 364.851 L
404.5 362.5 L
S
GR
GS
[0.75 0 0 0.75 0 0] CT
0 0.447 0.741 RC
2 setlinecap
10.0 ML
N
407.5 361.5 M
406.736 359.149 L
404.736 357.696 L
402.264 357.696 L
400.264 359.149 L
399.5 361.5 L
400.264 363.851 L
402.264 365.304 L
404.736 365.304 L
406.736 363.851 L
407.5 361.5 L
S
GR
GS
[0.75 0 0 0.75 0 0] CT
0 0.447 0.741 RC
2 setlinecap
10.0 ML
N
410.5 362.5 M
409.736 360.149 L
407.736 358.696 L
405.264 358.696 L
403.264 360.149 L
402.5 362.5 L
403.264 364.851 L
405.264 366.304 L
407.736 366.304 L
409.736 364.851 L
410.5 362.5 L
S
GR
GS
[0.75 0 0 0.75 0 0] CT
0 0.447 0.741 RC
2 setlinecap
10.0 ML
N
413.5 363.5 M
412.736 361.149 L
410.736 359.696 L
408.264 359.696 L
406.264 361.149 L
405.5 363.5 L
406.264 365.851 L
408.264 367.304 L
410.736 367.304 L
412.736 365.851 L
413.5 363.5 L
S
GR
GS
[0.75 0 0 0.75 0 0] CT
0 0.447 0.741 RC
2 setlinecap
10.0 ML
N
416.5 361.5 M
415.736 359.149 L
413.736 357.696 L
411.264 357.696 L
409.264 359.149 L
408.5 361.5 L
409.264 363.851 L
411.264 365.304 L
413.736 365.304 L
415.736 363.851 L
416.5 361.5 L
S
GR
GS
[0.75 0 0 0.75 0 0] CT
0 0.447 0.741 RC
2 setlinecap
10.0 ML
N
419.5 363.5 M
418.736 361.149 L
416.736 359.696 L
414.264 359.696 L
412.264 361.149 L
411.5 363.5 L
412.264 365.851 L
414.264 367.304 L
416.736 367.304 L
418.736 365.851 L
419.5 363.5 L
S
GR
GS
[0.75 0 0 0.75 0 0] CT
0 0.447 0.741 RC
2 setlinecap
10.0 ML
N
422.5 365.5 M
421.736 363.149 L
419.736 361.696 L
417.264 361.696 L
415.264 363.149 L
414.5 365.5 L
415.264 367.851 L
417.264 369.304 L
419.736 369.304 L
421.736 367.851 L
422.5 365.5 L
S
GR
GS
[0.75 0 0 0.75 0 0] CT
0 0.447 0.741 RC
2 setlinecap
10.0 ML
N
425.5 363.5 M
424.736 361.149 L
422.736 359.696 L
420.264 359.696 L
418.264 361.149 L
417.5 363.5 L
418.264 365.851 L
420.264 367.304 L
422.736 367.304 L
424.736 365.851 L
425.5 363.5 L
S
GR
GS
[0.75 0 0 0.75 0 0] CT
0 0.447 0.741 RC
2 setlinecap
10.0 ML
N
428.5 365.5 M
427.736 363.149 L
425.736 361.696 L
423.264 361.696 L
421.264 363.149 L
420.5 365.5 L
421.264 367.851 L
423.264 369.304 L
425.736 369.304 L
427.736 367.851 L
428.5 365.5 L
S
GR
GS
[0.75 0 0 0.75 0 0] CT
0 0.447 0.741 RC
2 setlinecap
10.0 ML
N
432.5 367.5 M
431.736 365.149 L
429.736 363.696 L
427.264 363.696 L
425.264 365.149 L
424.5 367.5 L
425.264 369.851 L
427.264 371.304 L
429.736 371.304 L
431.736 369.851 L
432.5 367.5 L
S
GR
GS
[0.75 0 0 0.75 0 0] CT
0 0.447 0.741 RC
2 setlinecap
10.0 ML
N
435.5 364.5 M
434.736 362.149 L
432.736 360.696 L
430.264 360.696 L
428.264 362.149 L
427.5 364.5 L
428.264 366.851 L
430.264 368.304 L
432.736 368.304 L
434.736 366.851 L
435.5 364.5 L
S
GR
GS
[0.75 0 0 0.75 0 0] CT
0 0.447 0.741 RC
2 setlinecap
10.0 ML
N
438.5 366.5 M
437.736 364.149 L
435.736 362.696 L
433.264 362.696 L
431.264 364.149 L
430.5 366.5 L
431.264 368.851 L
433.264 370.304 L
435.736 370.304 L
437.736 368.851 L
438.5 366.5 L
S
GR
GS
[0.75 0 0 0.75 0 0] CT
0 0.447 0.741 RC
2 setlinecap
10.0 ML
N
441.5 369.5 M
440.736 367.149 L
438.736 365.696 L
436.264 365.696 L
434.264 367.149 L
433.5 369.5 L
434.264 371.851 L
436.264 373.304 L
438.736 373.304 L
440.736 371.851 L
441.5 369.5 L
S
GR
GS
[0.75 0 0 0.75 0 0] CT
0 0.447 0.741 RC
2 setlinecap
10.0 ML
N
444.5 366.5 M
443.736 364.149 L
441.736 362.696 L
439.264 362.696 L
437.264 364.149 L
436.5 366.5 L
437.264 368.851 L
439.264 370.304 L
441.736 370.304 L
443.736 368.851 L
444.5 366.5 L
S
GR
GS
[0.75 0 0 0.75 0 0] CT
0 0.447 0.741 RC
2 setlinecap
10.0 ML
N
447.5 368.5 M
446.736 366.149 L
444.736 364.696 L
442.264 364.696 L
440.264 366.149 L
439.5 368.5 L
440.264 370.851 L
442.264 372.304 L
444.736 372.304 L
446.736 370.851 L
447.5 368.5 L
S
GR
GS
[0.75 0 0 0.75 0 0] CT
0 0.447 0.741 RC
2 setlinecap
10.0 ML
N
450.5 371.5 M
449.736 369.149 L
447.736 367.696 L
445.264 367.696 L
443.264 369.149 L
442.5 371.5 L
443.264 373.851 L
445.264 375.304 L
447.736 375.304 L
449.736 373.851 L
450.5 371.5 L
S
GR
GS
[0.75 0 0 0.75 0 0] CT
0 0.447 0.741 RC
2 setlinecap
10.0 ML
N
453.5 368.5 M
452.736 366.149 L
450.736 364.696 L
448.264 364.696 L
446.264 366.149 L
445.5 368.5 L
446.264 370.851 L
448.264 372.304 L
450.736 372.304 L
452.736 370.851 L
453.5 368.5 L
S
GR
GS
[0.75 0 0 0.75 0 0] CT
0 0.447 0.741 RC
2 setlinecap
10.0 ML
N
456.5 369.5 M
455.736 367.149 L
453.736 365.696 L
451.264 365.696 L
449.264 367.149 L
448.5 369.5 L
449.264 371.851 L
451.264 373.304 L
453.736 373.304 L
455.736 371.851 L
456.5 369.5 L
S
GR
GS
[0.75 0 0 0.75 0 0] CT
0 0.447 0.741 RC
2 setlinecap
10.0 ML
N
459.5 372.5 M
458.736 370.149 L
456.736 368.696 L
454.264 368.696 L
452.264 370.149 L
451.5 372.5 L
452.264 374.851 L
454.264 376.304 L
456.736 376.304 L
458.736 374.851 L
459.5 372.5 L
S
GR
GS
[0.75 0 0 0.75 0 0] CT
0 0.447 0.741 RC
2 setlinecap
10.0 ML
N
463.5 370.5 M
462.736 368.149 L
460.736 366.696 L
458.264 366.696 L
456.264 368.149 L
455.5 370.5 L
456.264 372.851 L
458.264 374.304 L
460.736 374.304 L
462.736 372.851 L
463.5 370.5 L
S
GR
GS
[0.75 0 0 0.75 0 0] CT
0 0.447 0.741 RC
2 setlinecap
10.0 ML
N
466.5 369.5 M
465.736 367.149 L
463.736 365.696 L
461.264 365.696 L
459.264 367.149 L
458.5 369.5 L
459.264 371.851 L
461.264 373.304 L
463.736 373.304 L
465.736 371.851 L
466.5 369.5 L
S
GR
GS
[0.75 0 0 0.75 0 0] CT
0 0.447 0.741 RC
2 setlinecap
10.0 ML
N
469.5 372.5 M
468.736 370.149 L
466.736 368.696 L
464.264 368.696 L
462.264 370.149 L
461.5 372.5 L
462.264 374.851 L
464.264 376.304 L
466.736 376.304 L
468.736 374.851 L
469.5 372.5 L
S
GR
GS
[0.75 0 0 0.75 0 0] CT
0 0.447 0.741 RC
2 setlinecap
10.0 ML
N
472.5 373.5 M
471.736 371.149 L
469.736 369.696 L
467.264 369.696 L
465.264 371.149 L
464.5 373.5 L
465.264 375.851 L
467.264 377.304 L
469.736 377.304 L
471.736 375.851 L
472.5 373.5 L
S
GR
GS
[0.75 0 0 0.75 0 0] CT
0 0.447 0.741 RC
2 setlinecap
10.0 ML
N
475.5 370.5 M
474.736 368.149 L
472.736 366.696 L
470.264 366.696 L
468.264 368.149 L
467.5 370.5 L
468.264 372.851 L
470.264 374.304 L
472.736 374.304 L
474.736 372.851 L
475.5 370.5 L
S
GR
GS
[0.75 0 0 0.75 0 0] CT
0 0.447 0.741 RC
2 setlinecap
10.0 ML
N
478.5 372.5 M
477.736 370.149 L
475.736 368.696 L
473.264 368.696 L
471.264 370.149 L
470.5 372.5 L
471.264 374.851 L
473.264 376.304 L
475.736 376.304 L
477.736 374.851 L
478.5 372.5 L
S
GR
GS
[0.75 0 0 0.75 0 0] CT
0 0.447 0.741 RC
2 setlinecap
10.0 ML
N
481.5 372.5 M
480.736 370.149 L
478.736 368.696 L
476.264 368.696 L
474.264 370.149 L
473.5 372.5 L
474.264 374.851 L
476.264 376.304 L
478.736 376.304 L
480.736 374.851 L
481.5 372.5 L
S
GR
GS
[0.75 0 0 0.75 0 0] CT
0 0.447 0.741 RC
2 setlinecap
10.0 ML
N
484.5 370.5 M
483.736 368.149 L
481.736 366.696 L
479.264 366.696 L
477.264 368.149 L
476.5 370.5 L
477.264 372.851 L
479.264 374.304 L
481.736 374.304 L
483.736 372.851 L
484.5 370.5 L
S
GR
GS
[0.75 0 0 0.75 0 0] CT
0 0.447 0.741 RC
2 setlinecap
10.0 ML
N
487.5 372.5 M
486.736 370.149 L
484.736 368.696 L
482.264 368.696 L
480.264 370.149 L
479.5 372.5 L
480.264 374.851 L
482.264 376.304 L
484.736 376.304 L
486.736 374.851 L
487.5 372.5 L
S
GR
GS
[0.75 0 0 0.75 0 0] CT
0 0.447 0.741 RC
2 setlinecap
10.0 ML
N
490.5 372.5 M
489.736 370.149 L
487.736 368.696 L
485.264 368.696 L
483.264 370.149 L
482.5 372.5 L
483.264 374.851 L
485.264 376.304 L
487.736 376.304 L
489.736 374.851 L
490.5 372.5 L
S
GR
GS
[0.75 0 0 0.75 0 0] CT
0 0.447 0.741 RC
2 setlinecap
10.0 ML
N
493.5 371.5 M
492.736 369.149 L
490.736 367.696 L
488.264 367.696 L
486.264 369.149 L
485.5 371.5 L
486.264 373.851 L
488.264 375.304 L
490.736 375.304 L
492.736 373.851 L
493.5 371.5 L
S
GR
GS
[0.75 0 0 0.75 0 0] CT
0 0.447 0.741 RC
2 setlinecap
10.0 ML
N
497.5 372.5 M
496.736 370.149 L
494.736 368.696 L
492.264 368.696 L
490.264 370.149 L
489.5 372.5 L
490.264 374.851 L
492.264 376.304 L
494.736 376.304 L
496.736 374.851 L
497.5 372.5 L
S
GR
GS
[0.75 0 0 0.75 0 0] CT
0 0.447 0.741 RC
2 setlinecap
10.0 ML
N
500.5 372.5 M
499.736 370.149 L
497.736 368.696 L
495.264 368.696 L
493.264 370.149 L
492.5 372.5 L
493.264 374.851 L
495.264 376.304 L
497.736 376.304 L
499.736 374.851 L
500.5 372.5 L
S
GR
GS
[0.75 0 0 0.75 0 0] CT
0 0.447 0.741 RC
2 setlinecap
10.0 ML
N
503.5 371.5 M
502.736 369.149 L
500.736 367.696 L
498.264 367.696 L
496.264 369.149 L
495.5 371.5 L
496.264 373.851 L
498.264 375.304 L
500.736 375.304 L
502.736 373.851 L
503.5 371.5 L
S
GR
GS
[0.75 0 0 0.75 0 0] CT
0 0.447 0.741 RC
2 setlinecap
10.0 ML
N
506.5 373.5 M
505.736 371.149 L
503.736 369.696 L
501.264 369.696 L
499.264 371.149 L
498.5 373.5 L
499.264 375.851 L
501.264 377.304 L
503.736 377.304 L
505.736 375.851 L
506.5 373.5 L
S
GR
GS
[0.75 0 0 0.75 0 0] CT
0 0.447 0.741 RC
2 setlinecap
10.0 ML
N
509.5 372.5 M
508.736 370.149 L
506.736 368.696 L
504.264 368.696 L
502.264 370.149 L
501.5 372.5 L
502.264 374.851 L
504.264 376.304 L
506.736 376.304 L
508.736 374.851 L
509.5 372.5 L
S
GR
GS
[0.75 0 0 0.75 0 0] CT
0 0.447 0.741 RC
2 setlinecap
10.0 ML
N
75.321 374 M
75.321 72.407 L
S
GR
GS
[0.75 0 0 0.75 0 0] CT
0 0.447 0.741 RC
2 setlinecap
10.0 ML
N
78.415 374 M
78.415 88.196 L
S
GR
GS
[0.75 0 0 0.75 0 0] CT
0 0.447 0.741 RC
2 setlinecap
10.0 ML
N
81.51 374 M
81.51 321.587 L
S
GR
GS
[0.75 0 0 0.75 0 0] CT
0 0.447 0.741 RC
2 setlinecap
10.0 ML
N
84.604 374 M
84.604 162.327 L
S
GR
GS
[0.75 0 0 0.75 0 0] CT
0 0.447 0.741 RC
2 setlinecap
10.0 ML
N
87.699 374 M
87.699 145.691 L
S
GR
GS
[0.75 0 0 0.75 0 0] CT
0 0.447 0.741 RC
2 setlinecap
10.0 ML
N
90.793 374 M
90.793 308.312 L
S
GR
GS
[0.75 0 0 0.75 0 0] CT
0 0.447 0.741 RC
2 setlinecap
10.0 ML
N
93.888 374 M
93.888 176.256 L
S
GR
GS
[0.75 0 0 0.75 0 0] CT
0 0.447 0.741 RC
2 setlinecap
10.0 ML
N
96.982 374 M
96.982 199.674 L
S
GR
GS
[0.75 0 0 0.75 0 0] CT
0 0.447 0.741 RC
2 setlinecap
10.0 ML
N
100.077 374 M
100.077 310.749 L
S
GR
GS
[0.75 0 0 0.75 0 0] CT
0 0.447 0.741 RC
2 setlinecap
10.0 ML
N
103.171 374 M
103.171 195.369 L
S
GR
GS
[0.75 0 0 0.75 0 0] CT
0 0.447 0.741 RC
2 setlinecap
10.0 ML
N
106.266 374 M
106.266 242.198 L
S
GR
GS
[0.75 0 0 0.75 0 0] CT
0 0.447 0.741 RC
2 setlinecap
10.0 ML
N
109.36 374 M
109.36 324.992 L
S
GR
GS
[0.75 0 0 0.75 0 0] CT
0 0.447 0.741 RC
2 setlinecap
10.0 ML
N
112.455 374 M
112.455 216.68 L
S
GR
GS
[0.75 0 0 0.75 0 0] CT
0 0.447 0.741 RC
2 setlinecap
10.0 ML
N
115.549 374 M
115.549 277.108 L
S
GR
GS
[0.75 0 0 0.75 0 0] CT
0 0.447 0.741 RC
2 setlinecap
10.0 ML
N
118.643 374 M
118.643 321.252 L
S
GR
GS
[0.75 0 0 0.75 0 0] CT
0 0.447 0.741 RC
2 setlinecap
10.0 ML
N
121.738 374 M
121.738 236.444 L
S
GR
GS
[0.75 0 0 0.75 0 0] CT
0 0.447 0.741 RC
2 setlinecap
10.0 ML
N
124.832 374 M
124.832 304.403 L
S
GR
GS
[0.75 0 0 0.75 0 0] CT
0 0.447 0.741 RC
2 setlinecap
10.0 ML
N
127.927 374 M
127.927 330.165 L
S
GR
GS
[0.75 0 0 0.75 0 0] CT
0 0.447 0.741 RC
2 setlinecap
10.0 ML
N
131.021 374 M
131.021 253.372 L
S
GR
GS
[0.75 0 0 0.75 0 0] CT
0 0.447 0.741 RC
2 setlinecap
10.0 ML
N
134.116 374 M
134.116 309.927 L
S
GR
GS
[0.75 0 0 0.75 0 0] CT
0 0.447 0.741 RC
2 setlinecap
10.0 ML
N
137.21 374 M
137.21 333.342 L
S
GR
GS
[0.75 0 0 0.75 0 0] CT
0 0.447 0.741 RC
2 setlinecap
10.0 ML
N
140.305 374 M
140.305 277.145 L
S
GR
GS
[0.75 0 0 0.75 0 0] CT
0 0.447 0.741 RC
2 setlinecap
10.0 ML
N
143.399 374 M
143.399 320.881 L
S
GR
GS
[0.75 0 0 0.75 0 0] CT
0 0.447 0.741 RC
2 setlinecap
10.0 ML
N
146.494 374 M
146.494 342.037 L
S
GR
GS
[0.75 0 0 0.75 0 0] CT
0 0.447 0.741 RC
2 setlinecap
10.0 ML
N
149.588 374 M
149.588 289.689 L
S
GR
GS
[0.75 0 0 0.75 0 0] CT
0 0.447 0.741 RC
2 setlinecap
10.0 ML
N
152.683 374 M
152.683 318.671 L
S
GR
GS
[0.75 0 0 0.75 0 0] CT
0 0.447 0.741 RC
2 setlinecap
10.0 ML
N
155.777 374 M
155.777 337.106 L
S
GR
GS
[0.75 0 0 0.75 0 0] CT
0 0.447 0.741 RC
2 setlinecap
10.0 ML
N
158.872 374 M
158.872 295.578 L
S
GR
GS
[0.75 0 0 0.75 0 0] CT
0 0.447 0.741 RC
2 setlinecap
10.0 ML
N
161.966 374 M
161.966 324.973 L
S
GR
GS
[0.75 0 0 0.75 0 0] CT
0 0.447 0.741 RC
2 setlinecap
10.0 ML
N
165.061 374 M
165.061 341.786 L
S
GR
GS
[0.75 0 0 0.75 0 0] CT
0 0.447 0.741 RC
2 setlinecap
10.0 ML
N
168.155 374 M
168.155 305.312 L
S
GR
GS
[0.75 0 0 0.75 0 0] CT
0 0.447 0.741 RC
2 setlinecap
10.0 ML
N
171.25 374 M
171.25 328.12 L
S
GR
GS
[0.75 0 0 0.75 0 0] CT
0 0.447 0.741 RC
2 setlinecap
10.0 ML
N
174.344 374 M
174.344 342.171 L
S
GR
GS
[0.75 0 0 0.75 0 0] CT
0 0.447 0.741 RC
2 setlinecap
10.0 ML
N
177.439 374 M
177.439 316.378 L
S
GR
GS
[0.75 0 0 0.75 0 0] CT
0 0.447 0.741 RC
2 setlinecap
10.0 ML
N
180.533 374 M
180.533 342.201 L
S
GR
GS
[0.75 0 0 0.75 0 0] CT
0 0.447 0.741 RC
2 setlinecap
10.0 ML
N
183.627 374 M
183.627 344.612 L
S
GR
GS
[0.75 0 0 0.75 0 0] CT
0 0.447 0.741 RC
2 setlinecap
10.0 ML
N
186.722 374 M
186.722 328.152 L
S
GR
GS
[0.75 0 0 0.75 0 0] CT
0 0.447 0.741 RC
2 setlinecap
10.0 ML
N
189.816 374 M
189.816 349.525 L
S
GR
GS
[0.75 0 0 0.75 0 0] CT
0 0.447 0.741 RC
2 setlinecap
10.0 ML
N
192.911 374 M
192.911 346.88 L
S
GR
GS
[0.75 0 0 0.75 0 0] CT
0 0.447 0.741 RC
2 setlinecap
10.0 ML
N
196.005 374 M
196.005 337.024 L
S
GR
GS
[0.75 0 0 0.75 0 0] CT
0 0.447 0.741 RC
2 setlinecap
10.0 ML
N
199.1 374 M
199.1 356.232 L
S
GR
GS
[0.75 0 0 0.75 0 0] CT
0 0.447 0.741 RC
2 setlinecap
10.0 ML
N
202.194 374 M
202.194 356.866 L
S
GR
GS
[0.75 0 0 0.75 0 0] CT
0 0.447 0.741 RC
2 setlinecap
10.0 ML
N
205.289 374 M
205.289 348.362 L
S
GR
GS
[0.75 0 0 0.75 0 0] CT
0 0.447 0.741 RC
2 setlinecap
10.0 ML
N
208.383 374 M
208.383 353.397 L
S
GR
GS
[0.75 0 0 0.75 0 0] CT
0 0.447 0.741 RC
2 setlinecap
10.0 ML
N
211.478 374 M
211.478 366.051 L
S
GR
GS
[0.75 0 0 0.75 0 0] CT
0 0.447 0.741 RC
2 setlinecap
10.0 ML
N
214.572 374 M
214.572 350.162 L
S
GR
GS
[0.75 0 0 0.75 0 0] CT
0 0.447 0.741 RC
2 setlinecap
10.0 ML
N
217.667 374 M
217.667 348.434 L
S
GR
GS
[0.75 0 0 0.75 0 0] CT
0 0.447 0.741 RC
2 setlinecap
10.0 ML
N
220.761 374 M
220.761 367.276 L
S
GR
GS
[0.75 0 0 0.75 0 0] CT
0 0.447 0.741 RC
2 setlinecap
10.0 ML
N
223.856 374 M
223.856 349.808 L
S
GR
GS
[0.75 0 0 0.75 0 0] CT
0 0.447 0.741 RC
2 setlinecap
10.0 ML
N
226.95 374 M
226.95 342.591 L
S
GR
GS
[0.75 0 0 0.75 0 0] CT
0 0.447 0.741 RC
2 setlinecap
10.0 ML
N
230.045 374 M
230.045 357.489 L
S
GR
GS
[0.75 0 0 0.75 0 0] CT
0 0.447 0.741 RC
2 setlinecap
10.0 ML
N
233.139 374 M
233.139 345.74 L
S
GR
GS
[0.75 0 0 0.75 0 0] CT
0 0.447 0.741 RC
2 setlinecap
10.0 ML
N
236.234 374 M
236.234 339.59 L
S
GR
GS
[0.75 0 0 0.75 0 0] CT
0 0.447 0.741 RC
2 setlinecap
10.0 ML
N
239.328 374 M
239.328 350.233 L
S
GR
GS
[0.75 0 0 0.75 0 0] CT
0 0.447 0.741 RC
2 setlinecap
10.0 ML
N
242.422 374 M
242.422 343.216 L
S
GR
GS
[0.75 0 0 0.75 0 0] CT
0 0.447 0.741 RC
2 setlinecap
10.0 ML
N
245.517 374 M
245.517 338.268 L
S
GR
GS
[0.75 0 0 0.75 0 0] CT
0 0.447 0.741 RC
2 setlinecap
10.0 ML
N
248.611 374 M
248.611 346.815 L
S
GR
GS
[0.75 0 0 0.75 0 0] CT
0 0.447 0.741 RC
2 setlinecap
10.0 ML
N
251.706 374 M
251.706 339.911 L
S
GR
GS
[0.75 0 0 0.75 0 0] CT
0 0.447 0.741 RC
2 setlinecap
10.0 ML
N
254.8 374 M
254.8 335.226 L
S
GR
GS
[0.75 0 0 0.75 0 0] CT
0 0.447 0.741 RC
2 setlinecap
10.0 ML
N
257.895 374 M
257.895 346.792 L
S
GR
GS
[0.75 0 0 0.75 0 0] CT
0 0.447 0.741 RC
2 setlinecap
10.0 ML
N
260.989 374 M
260.989 338.331 L
S
GR
GS
[0.75 0 0 0.75 0 0] CT
0 0.447 0.741 RC
2 setlinecap
10.0 ML
N
264.084 374 M
264.084 335.862 L
S
GR
GS
[0.75 0 0 0.75 0 0] CT
0 0.447 0.741 RC
2 setlinecap
10.0 ML
N
267.178 374 M
267.178 349.736 L
S
GR
GS
[0.75 0 0 0.75 0 0] CT
0 0.447 0.741 RC
2 setlinecap
10.0 ML
N
270.273 374 M
270.273 337.695 L
S
GR
GS
[0.75 0 0 0.75 0 0] CT
0 0.447 0.741 RC
2 setlinecap
10.0 ML
N
273.367 374 M
273.367 337.502 L
S
GR
GS
[0.75 0 0 0.75 0 0] CT
0 0.447 0.741 RC
2 setlinecap
10.0 ML
N
276.462 374 M
276.462 352.32 L
S
GR
GS
[0.75 0 0 0.75 0 0] CT
0 0.447 0.741 RC
2 setlinecap
10.0 ML
N
279.556 374 M
279.556 341.585 L
S
GR
GS
[0.75 0 0 0.75 0 0] CT
0 0.447 0.741 RC
2 setlinecap
10.0 ML
N
282.651 374 M
282.651 342.465 L
S
GR
GS
[0.75 0 0 0.75 0 0] CT
0 0.447 0.741 RC
2 setlinecap
10.0 ML
N
285.745 374 M
285.745 356.668 L
S
GR
GS
[0.75 0 0 0.75 0 0] CT
0 0.447 0.741 RC
2 setlinecap
10.0 ML
N
288.84 374 M
288.84 347.344 L
S
GR
GS
[0.75 0 0 0.75 0 0] CT
0 0.447 0.741 RC
2 setlinecap
10.0 ML
N
291.934 374 M
291.934 345.714 L
S
GR
GS
[0.75 0 0 0.75 0 0] CT
0 0.447 0.741 RC
2 setlinecap
10.0 ML
N
295.029 374 M
295.029 361.385 L
S
GR
GS
[0.75 0 0 0.75 0 0] CT
0 0.447 0.741 RC
2 setlinecap
10.0 ML
N
298.123 374 M
298.123 350.652 L
S
GR
GS
[0.75 0 0 0.75 0 0] CT
0 0.447 0.741 RC
2 setlinecap
10.0 ML
N
301.217 374 M
301.217 349.913 L
S
GR
GS
[0.75 0 0 0.75 0 0] CT
0 0.447 0.741 RC
2 setlinecap
10.0 ML
N
304.312 374 M
304.312 368.05 L
S
GR
GS
[0.75 0 0 0.75 0 0] CT
0 0.447 0.741 RC
2 setlinecap
10.0 ML
N
307.406 374 M
307.406 357.643 L
S
GR
GS
[0.75 0 0 0.75 0 0] CT
0 0.447 0.741 RC
2 setlinecap
10.0 ML
N
310.501 374 M
310.501 353.698 L
S
GR
GS
[0.75 0 0 0.75 0 0] CT
0 0.447 0.741 RC
2 setlinecap
10.0 ML
N
313.595 374 M
313.595 373.004 L
S
GR
GS
[0.75 0 0 0.75 0 0] CT
0 0.447 0.741 RC
2 setlinecap
10.0 ML
N
316.69 374 M
316.69 361.672 L
S
GR
GS
[0.75 0 0 0.75 0 0] CT
0 0.447 0.741 RC
2 setlinecap
10.0 ML
N
319.784 374 M
319.784 353.452 L
S
GR
GS
[0.75 0 0 0.75 0 0] CT
0 0.447 0.741 RC
2 setlinecap
10.0 ML
N
322.879 374 M
322.879 369.994 L
S
GR
GS
[0.75 0 0 0.75 0 0] CT
0 0.447 0.741 RC
2 setlinecap
10.0 ML
N
325.973 374 M
325.973 360.735 L
S
GR
GS
[0.75 0 0 0.75 0 0] CT
0 0.447 0.741 RC
2 setlinecap
10.0 ML
N
329.068 374 M
329.068 346.525 L
S
GR
GS
[0.75 0 0 0.75 0 0] CT
0 0.447 0.741 RC
2 setlinecap
10.0 ML
N
332.162 374 M
332.162 349.421 L
S
GR
GS
[0.75 0 0 0.75 0 0] CT
0 0.447 0.741 RC
2 setlinecap
10.0 ML
N
335.257 374 M
335.257 347.444 L
S
GR
GS
[0.75 0 0 0.75 0 0] CT
0 0.447 0.741 RC
2 setlinecap
10.0 ML
N
338.351 374 M
338.351 366.376 L
S
GR
GS
[0.75 0 0 0.75 0 0] CT
0 0.447 0.741 RC
2 setlinecap
10.0 ML
N
341.446 374 M
341.446 352.038 L
S
GR
GS
[0.75 0 0 0.75 0 0] CT
0 0.447 0.741 RC
2 setlinecap
10.0 ML
N
344.54 374 M
344.54 359.886 L
S
GR
GS
[0.75 0 0 0.75 0 0] CT
0 0.447 0.741 RC
2 setlinecap
10.0 ML
N
347.635 374 M
347.635 368.34 L
S
GR
GS
[0.75 0 0 0.75 0 0] CT
0 0.447 0.741 RC
2 setlinecap
10.0 ML
N
350.729 374 M
350.729 355.246 L
S
GR
GS
[0.75 0 0 0.75 0 0] CT
0 0.447 0.741 RC
2 setlinecap
10.0 ML
N
353.824 374 M
353.824 361.184 L
S
GR
GS
[0.75 0 0 0.75 0 0] CT
0 0.447 0.741 RC
2 setlinecap
10.0 ML
N
356.918 374 M
356.918 363.237 L
S
GR
GS
[0.75 0 0 0.75 0 0] CT
0 0.447 0.741 RC
2 setlinecap
10.0 ML
N
360.012 374 M
360.012 357.398 L
S
GR
GS
[0.75 0 0 0.75 0 0] CT
0 0.447 0.741 RC
2 setlinecap
10.0 ML
N
363.107 374 M
363.107 359.33 L
S
GR
GS
[0.75 0 0 0.75 0 0] CT
0 0.447 0.741 RC
2 setlinecap
10.0 ML
N
366.201 374 M
366.201 360.909 L
S
GR
GS
[0.75 0 0 0.75 0 0] CT
0 0.447 0.741 RC
2 setlinecap
10.0 ML
N
369.296 374 M
369.296 358.917 L
S
GR
GS
[0.75 0 0 0.75 0 0] CT
0 0.447 0.741 RC
2 setlinecap
10.0 ML
N
372.39 374 M
372.39 360.247 L
S
GR
GS
[0.75 0 0 0.75 0 0] CT
0 0.447 0.741 RC
2 setlinecap
10.0 ML
N
375.485 374 M
375.485 359.691 L
S
GR
GS
[0.75 0 0 0.75 0 0] CT
0 0.447 0.741 RC
2 setlinecap
10.0 ML
N
378.579 374 M
378.579 359.615 L
S
GR
GS
[0.75 0 0 0.75 0 0] CT
0 0.447 0.741 RC
2 setlinecap
10.0 ML
N
381.674 374 M
381.674 359.874 L
S
GR
GS
[0.75 0 0 0.75 0 0] CT
0 0.447 0.741 RC
2 setlinecap
10.0 ML
N
384.768 374 M
384.768 359.18 L
S
GR
GS
[0.75 0 0 0.75 0 0] CT
0 0.447 0.741 RC
2 setlinecap
10.0 ML
N
387.863 374 M
387.863 359.966 L
S
GR
GS
[0.75 0 0 0.75 0 0] CT
0 0.447 0.741 RC
2 setlinecap
10.0 ML
N
390.957 374 M
390.957 360.619 L
S
GR
GS
[0.75 0 0 0.75 0 0] CT
0 0.447 0.741 RC
2 setlinecap
10.0 ML
N
394.052 374 M
394.052 359.269 L
S
GR
GS
[0.75 0 0 0.75 0 0] CT
0 0.447 0.741 RC
2 setlinecap
10.0 ML
N
397.146 374 M
397.146 361.618 L
S
GR
GS
[0.75 0 0 0.75 0 0] CT
0 0.447 0.741 RC
2 setlinecap
10.0 ML
N
400.241 374 M
400.241 362.466 L
S
GR
GS
[0.75 0 0 0.75 0 0] CT
0 0.447 0.741 RC
2 setlinecap
10.0 ML
N
403.335 374 M
403.335 361.388 L
S
GR
GS
[0.75 0 0 0.75 0 0] CT
0 0.447 0.741 RC
2 setlinecap
10.0 ML
N
406.43 374 M
406.43 362.531 L
S
GR
GS
[0.75 0 0 0.75 0 0] CT
0 0.447 0.741 RC
2 setlinecap
10.0 ML
N
409.524 374 M
409.524 363.61 L
S
GR
GS
[0.75 0 0 0.75 0 0] CT
0 0.447 0.741 RC
2 setlinecap
10.0 ML
N
412.619 374 M
412.619 361.914 L
S
GR
GS
[0.75 0 0 0.75 0 0] CT
0 0.447 0.741 RC
2 setlinecap
10.0 ML
N
415.713 374 M
415.713 363.951 L
S
GR
GS
[0.75 0 0 0.75 0 0] CT
0 0.447 0.741 RC
2 setlinecap
10.0 ML
N
418.807 374 M
418.807 365.311 L
S
GR
GS
[0.75 0 0 0.75 0 0] CT
0 0.447 0.741 RC
2 setlinecap
10.0 ML
N
421.902 374 M
421.902 363.594 L
S
GR
GS
[0.75 0 0 0.75 0 0] CT
0 0.447 0.741 RC
2 setlinecap
10.0 ML
N
424.996 374 M
424.996 365.044 L
S
GR
GS
[0.75 0 0 0.75 0 0] CT
0 0.447 0.741 RC
2 setlinecap
10.0 ML
N
428.091 374 M
428.091 367.6 L
S
GR
GS
[0.75 0 0 0.75 0 0] CT
0 0.447 0.741 RC
2 setlinecap
10.0 ML
N
431.185 374 M
431.185 364.84 L
S
GR
GS
[0.75 0 0 0.75 0 0] CT
0 0.447 0.741 RC
2 setlinecap
10.0 ML
N
434.28 374 M
434.28 366.087 L
S
GR
GS
[0.75 0 0 0.75 0 0] CT
0 0.447 0.741 RC
2 setlinecap
10.0 ML
N
437.374 374 M
437.374 369.89 L
S
GR
GS
[0.75 0 0 0.75 0 0] CT
0 0.447 0.741 RC
2 setlinecap
10.0 ML
N
440.469 374 M
440.469 366.348 L
S
GR
GS
[0.75 0 0 0.75 0 0] CT
0 0.447 0.741 RC
2 setlinecap
10.0 ML
N
443.563 374 M
443.563 368.015 L
S
GR
GS
[0.75 0 0 0.75 0 0] CT
0 0.447 0.741 RC
2 setlinecap
10.0 ML
N
446.658 374 M
446.658 371.045 L
S
GR
GS
[0.75 0 0 0.75 0 0] CT
0 0.447 0.741 RC
2 setlinecap
10.0 ML
N
449.752 374 M
449.752 368.761 L
S
GR
GS
[0.75 0 0 0.75 0 0] CT
0 0.447 0.741 RC
2 setlinecap
10.0 ML
N
452.847 374 M
452.847 369.336 L
S
GR
GS
[0.75 0 0 0.75 0 0] CT
0 0.447 0.741 RC
2 setlinecap
10.0 ML
N
455.941 374 M
455.941 372.547 L
S
GR
GS
[0.75 0 0 0.75 0 0] CT
0 0.447 0.741 RC
2 setlinecap
10.0 ML
N
459.036 374 M
459.036 370.869 L
S
GR
GS
[0.75 0 0 0.75 0 0] CT
0 0.447 0.741 RC
2 setlinecap
10.0 ML
N
462.13 374 M
462.13 369.858 L
S
GR
GS
[0.75 0 0 0.75 0 0] CT
0 0.447 0.741 RC
2 setlinecap
10.0 ML
N
465.225 374 M
465.225 372.881 L
S
GR
GS
[0.75 0 0 0.75 0 0] CT
0 0.447 0.741 RC
2 setlinecap
10.0 ML
N
468.319 374 M
468.319 373.347 L
S
GR
GS
[0.75 0 0 0.75 0 0] CT
0 0.447 0.741 RC
2 setlinecap
10.0 ML
N
471.414 374 M
471.414 370.062 L
S
GR
GS
[0.75 0 0 0.75 0 0] CT
0 0.447 0.741 RC
2 setlinecap
10.0 ML
N
474.508 374 M
474.508 372.697 L
S
GR
GS
[0.75 0 0 0.75 0 0] CT
0 0.447 0.741 RC
2 setlinecap
10.0 ML
N
477.602 374 M
477.602 372.817 L
S
GR
GS
[0.75 0 0 0.75 0 0] CT
0 0.447 0.741 RC
2 setlinecap
10.0 ML
N
480.697 374 M
480.697 370.787 L
S
GR
GS
[0.75 0 0 0.75 0 0] CT
0 0.447 0.741 RC
2 setlinecap
10.0 ML
N
483.791 374 M
483.791 372.706 L
S
GR
GS
[0.75 0 0 0.75 0 0] CT
0 0.447 0.741 RC
2 setlinecap
10.0 ML
N
486.886 374 M
486.886 372.517 L
S
GR
GS
[0.75 0 0 0.75 0 0] CT
0 0.447 0.741 RC
2 setlinecap
10.0 ML
N
489.98 374 M
489.98 371.294 L
S
GR
GS
[0.75 0 0 0.75 0 0] CT
0 0.447 0.741 RC
2 setlinecap
10.0 ML
N
493.075 374 M
493.075 372.208 L
S
GR
GS
[0.75 0 0 0.75 0 0] CT
0 0.447 0.741 RC
2 setlinecap
10.0 ML
N
496.169 374 M
496.169 372.501 L
S
GR
GS
[0.75 0 0 0.75 0 0] CT
0 0.447 0.741 RC
2 setlinecap
10.0 ML
N
499.264 374 M
499.264 371.695 L
S
GR
GS
[0.75 0 0 0.75 0 0] CT
0 0.447 0.741 RC
2 setlinecap
10.0 ML
N
502.358 374 M
502.358 373.553 L
S
GR
GS
[0.75 0 0 0.75 0 0] CT
0 0.447 0.741 RC
2 setlinecap
10.0 ML
N
505.453 374 M
505.453 372.69 L
S
GR
GS
[0.75 0 0 0.75 217.50021 21.18749] CT
/Helvetica-Bold 15 F
GS
[1 0 0 1 0 0] CT
-144 -4 moveto 
1 -1 scale
(Single-Sided Amplitude Spectrum of y\(t\)) t 
GR
GR
GS
[0.75 0 0 0.75 0 0] CT
0.149 GC
2 setlinecap
10.0 ML
N
73 374 M
507 374 L
S
GR
%%Trailer
%%Pages: 1
%%EOF
