%!PS-Adobe-3.0 EPSF-3.0
%%Creator: (MATLAB, The Mathworks, Inc. Version 8.5.0.197613 \(R2015a\). Operating System: Windows 8)
%%Title: (C:/Users/aleja/Desktop/TFG/Documentaci\363n/Obtenci\363n de datos/matlab_plot/stems/jota12-01.eps)
%%CreationDate: 2019-05-22T11:22:43
%%Pages: (atend)
%%BoundingBox: 0 0 420 315
%%LanguageLevel: 2
%%EndComments
%%BeginProlog
%%BeginResource: procset (Apache XML Graphics Std ProcSet) 1.2 0
%%Version: 1.2 0
%%Copyright: (Copyright 2001-2003,2010 The Apache Software Foundation. License terms: http://www.apache.org/licenses/LICENSE-2.0)
/bd{bind def}bind def
/ld{load def}bd
/GR/grestore ld
/M/moveto ld
/LJ/setlinejoin ld
/C/curveto ld
/f/fill ld
/LW/setlinewidth ld
/GC/setgray ld
/t/show ld
/N/newpath ld
/CT/concat ld
/cp/closepath ld
/S/stroke ld
/L/lineto ld
/CC/setcmykcolor ld
/A/ashow ld
/GS/gsave ld
/RC/setrgbcolor ld
/RM/rmoveto ld
/ML/setmiterlimit ld
/re {4 2 roll M
1 index 0 rlineto
0 exch rlineto
neg 0 rlineto
cp } bd
/_ctm matrix def
/_tm matrix def
/BT { _ctm currentmatrix pop matrix _tm copy pop 0 0 moveto } bd
/ET { _ctm setmatrix } bd
/iTm { _ctm setmatrix _tm concat } bd
/Tm { _tm astore pop iTm 0 0 moveto } bd
/ux 0.0 def
/uy 0.0 def
/F {
  /Tp exch def
  /Tf exch def
  Tf findfont Tp scalefont setfont
  /cf Tf def  /cs Tp def
} bd
/ULS {currentpoint /uy exch def /ux exch def} bd
/ULE {
  /Tcx currentpoint pop def
  gsave
  newpath
  cf findfont cs scalefont dup
  /FontMatrix get 0 get /Ts exch def /FontInfo get dup
  /UnderlinePosition get Ts mul /To exch def
  /UnderlineThickness get Ts mul /Tt exch def
  ux uy To add moveto  Tcx uy To add lineto
  Tt setlinewidth stroke
  grestore
} bd
/OLE {
  /Tcx currentpoint pop def
  gsave
  newpath
  cf findfont cs scalefont dup
  /FontMatrix get 0 get /Ts exch def /FontInfo get dup
  /UnderlinePosition get Ts mul /To exch def
  /UnderlineThickness get Ts mul /Tt exch def
  ux uy To add cs add moveto Tcx uy To add cs add lineto
  Tt setlinewidth stroke
  grestore
} bd
/SOE {
  /Tcx currentpoint pop def
  gsave
  newpath
  cf findfont cs scalefont dup
  /FontMatrix get 0 get /Ts exch def /FontInfo get dup
  /UnderlinePosition get Ts mul /To exch def
  /UnderlineThickness get Ts mul /Tt exch def
  ux uy To add cs 10 mul 26 idiv add moveto Tcx uy To add cs 10 mul 26 idiv add lineto
  Tt setlinewidth stroke
  grestore
} bd
/QT {
/Y22 exch store
/X22 exch store
/Y21 exch store
/X21 exch store
currentpoint
/Y21 load 2 mul add 3 div exch
/X21 load 2 mul add 3 div exch
/X21 load 2 mul /X22 load add 3 div
/Y21 load 2 mul /Y22 load add 3 div
/X22 load /Y22 load curveto
} bd
/SSPD {
dup length /d exch dict def
{
/v exch def
/k exch def
currentpagedevice k known {
/cpdv currentpagedevice k get def
v cpdv ne {
/upd false def
/nullv v type /nulltype eq def
/nullcpdv cpdv type /nulltype eq def
nullv nullcpdv or
{
/upd true def
} {
/sametype v type cpdv type eq def
sametype {
v type /arraytype eq {
/vlen v length def
/cpdvlen cpdv length def
vlen cpdvlen eq {
0 1 vlen 1 sub {
/i exch def
/obj v i get def
/cpdobj cpdv i get def
obj cpdobj ne {
/upd true def
exit
} if
} for
} {
/upd true def
} ifelse
} {
v type /dicttype eq {
v {
/dv exch def
/dk exch def
/cpddv cpdv dk get def
dv cpddv ne {
/upd true def
exit
} if
} forall
} {
/upd true def
} ifelse
} ifelse
} if
} ifelse
upd true eq {
d k v put
} if
} if
} if
} forall
d length 0 gt {
d setpagedevice
} if
} bd
%%EndResource
%%BeginResource: procset (Apache XML Graphics EPS ProcSet) 1.0 0
%%Version: 1.0 0
%%Copyright: (Copyright 2002-2003 The Apache Software Foundation. License terms: http://www.apache.org/licenses/LICENSE-2.0)
/BeginEPSF { %def
/b4_Inc_state save def         % Save state for cleanup
/dict_count countdictstack def % Count objects on dict stack
/op_count count 1 sub def      % Count objects on operand stack
userdict begin                 % Push userdict on dict stack
/showpage { } def              % Redefine showpage, { } = null proc
0 setgray 0 setlinecap         % Prepare graphics state
1 setlinewidth 0 setlinejoin
10 setmiterlimit [ ] 0 setdash newpath
/languagelevel where           % If level not equal to 1 then
{pop languagelevel             % set strokeadjust and
1 ne                           % overprint to their defaults.
{false setstrokeadjust false setoverprint
} if
} if
} bd
/EndEPSF { %def
count op_count sub {pop} repeat            % Clean up stacks
countdictstack dict_count sub {end} repeat
b4_Inc_state restore
} bd
%%EndResource
%FOPBeginFontDict
%%IncludeResource: font Courier-Bold
%%IncludeResource: font Helvetica
%%IncludeResource: font Courier-BoldOblique
%%IncludeResource: font Courier-Oblique
%%IncludeResource: font Times-Roman
%%IncludeResource: font Helvetica-BoldOblique
%%IncludeResource: font Helvetica-Bold
%%IncludeResource: font Helvetica-Oblique
%%IncludeResource: font Times-BoldItalic
%%IncludeResource: font Courier
%%IncludeResource: font Times-Italic
%%IncludeResource: font Times-Bold
%%IncludeResource: font Symbol
%%IncludeResource: font ZapfDingbats
%FOPEndFontDict
%%BeginResource: encoding WinAnsiEncoding
/WinAnsiEncoding [
/.notdef /.notdef /.notdef /.notdef /.notdef
/.notdef /.notdef /.notdef /.notdef /.notdef
/.notdef /.notdef /.notdef /.notdef /.notdef
/.notdef /.notdef /.notdef /.notdef /.notdef
/.notdef /.notdef /.notdef /.notdef /.notdef
/.notdef /.notdef /.notdef /.notdef /.notdef
/.notdef /.notdef /space /exclam /quotedbl
/numbersign /dollar /percent /ampersand /quotesingle
/parenleft /parenright /asterisk /plus /comma
/hyphen /period /slash /zero /one
/two /three /four /five /six
/seven /eight /nine /colon /semicolon
/less /equal /greater /question /at
/A /B /C /D /E
/F /G /H /I /J
/K /L /M /N /O
/P /Q /R /S /T
/U /V /W /X /Y
/Z /bracketleft /backslash /bracketright /asciicircum
/underscore /quoteleft /a /b /c
/d /e /f /g /h
/i /j /k /l /m
/n /o /p /q /r
/s /t /u /v /w
/x /y /z /braceleft /bar
/braceright /asciitilde /bullet /Euro /bullet
/quotesinglbase /florin /quotedblbase /ellipsis /dagger
/daggerdbl /circumflex /perthousand /Scaron /guilsinglleft
/OE /bullet /Zcaron /bullet /bullet
/quoteleft /quoteright /quotedblleft /quotedblright /bullet
/endash /emdash /asciitilde /trademark /scaron
/guilsinglright /oe /bullet /zcaron /Ydieresis
/space /exclamdown /cent /sterling /currency
/yen /brokenbar /section /dieresis /copyright
/ordfeminine /guillemotleft /logicalnot /sfthyphen /registered
/macron /degree /plusminus /twosuperior /threesuperior
/acute /mu /paragraph /middot /cedilla
/onesuperior /ordmasculine /guillemotright /onequarter /onehalf
/threequarters /questiondown /Agrave /Aacute /Acircumflex
/Atilde /Adieresis /Aring /AE /Ccedilla
/Egrave /Eacute /Ecircumflex /Edieresis /Igrave
/Iacute /Icircumflex /Idieresis /Eth /Ntilde
/Ograve /Oacute /Ocircumflex /Otilde /Odieresis
/multiply /Oslash /Ugrave /Uacute /Ucircumflex
/Udieresis /Yacute /Thorn /germandbls /agrave
/aacute /acircumflex /atilde /adieresis /aring
/ae /ccedilla /egrave /eacute /ecircumflex
/edieresis /igrave /iacute /icircumflex /idieresis
/eth /ntilde /ograve /oacute /ocircumflex
/otilde /odieresis /divide /oslash /ugrave
/uacute /ucircumflex /udieresis /yacute /thorn
/ydieresis
] def
%%EndResource
%FOPBeginFontReencode
/Courier-Bold findfont
dup length dict begin
  {1 index /FID ne {def} {pop pop} ifelse} forall
  /Encoding WinAnsiEncoding def
  currentdict
end
/Courier-Bold exch definefont pop
/Helvetica findfont
dup length dict begin
  {1 index /FID ne {def} {pop pop} ifelse} forall
  /Encoding WinAnsiEncoding def
  currentdict
end
/Helvetica exch definefont pop
/Courier-BoldOblique findfont
dup length dict begin
  {1 index /FID ne {def} {pop pop} ifelse} forall
  /Encoding WinAnsiEncoding def
  currentdict
end
/Courier-BoldOblique exch definefont pop
/Courier-Oblique findfont
dup length dict begin
  {1 index /FID ne {def} {pop pop} ifelse} forall
  /Encoding WinAnsiEncoding def
  currentdict
end
/Courier-Oblique exch definefont pop
/Times-Roman findfont
dup length dict begin
  {1 index /FID ne {def} {pop pop} ifelse} forall
  /Encoding WinAnsiEncoding def
  currentdict
end
/Times-Roman exch definefont pop
/Helvetica-BoldOblique findfont
dup length dict begin
  {1 index /FID ne {def} {pop pop} ifelse} forall
  /Encoding WinAnsiEncoding def
  currentdict
end
/Helvetica-BoldOblique exch definefont pop
/Helvetica-Bold findfont
dup length dict begin
  {1 index /FID ne {def} {pop pop} ifelse} forall
  /Encoding WinAnsiEncoding def
  currentdict
end
/Helvetica-Bold exch definefont pop
/Helvetica-Oblique findfont
dup length dict begin
  {1 index /FID ne {def} {pop pop} ifelse} forall
  /Encoding WinAnsiEncoding def
  currentdict
end
/Helvetica-Oblique exch definefont pop
/Times-BoldItalic findfont
dup length dict begin
  {1 index /FID ne {def} {pop pop} ifelse} forall
  /Encoding WinAnsiEncoding def
  currentdict
end
/Times-BoldItalic exch definefont pop
/Courier findfont
dup length dict begin
  {1 index /FID ne {def} {pop pop} ifelse} forall
  /Encoding WinAnsiEncoding def
  currentdict
end
/Courier exch definefont pop
/Times-Italic findfont
dup length dict begin
  {1 index /FID ne {def} {pop pop} ifelse} forall
  /Encoding WinAnsiEncoding def
  currentdict
end
/Times-Italic exch definefont pop
/Times-Bold findfont
dup length dict begin
  {1 index /FID ne {def} {pop pop} ifelse} forall
  /Encoding WinAnsiEncoding def
  currentdict
end
/Times-Bold exch definefont pop
%FOPEndFontReencode
%%EndProlog
%%Page: 1 1
%%PageBoundingBox: 0 0 420 315
%%BeginPageSetup
[1 0 0 -1 0 315] CT
%%EndPageSetup
GS
[0.75 0 0 0.75 0 0] CT
1 GC
N
0 0 560 420 re
f
GR
GS
[0.75 0 0 0.75 0 0] CT
1 GC
N
0 0 560 420 re
f
GR
GS
[0.75 0 0 0.75 0 0] CT
1 GC
N
73 374 M
507 374 L
507 31 L
73 31 L
cp
f
GR
GS
[0.75 0 0 0.75 217.50016 298.24999] CT
0.149 GC
/Helvetica 15 F
GS
[1 0 0 1 0 0] CT
-52 16 moveto 
1 -1 scale
(Frequency \(Hz\)) t 
GR
GR
GS
[0.75 0 0 0.75 0 0] CT
0.149 GC
2 setlinecap
10.0 ML
N
73 374 M
507 374 L
S
GR
GS
[0.75 0 0 0.75 0 0] CT
0.149 GC
2 setlinecap
10.0 ML
N
73 31 M
507 31 L
S
GR
GS
[0.75 0 0 0.75 0 0] CT
0.149 GC
2 setlinecap
10.0 ML
N
73 374 M
73 369.66 L
S
GR
GS
[0.75 0 0 0.75 0 0] CT
0.149 GC
2 setlinecap
10.0 ML
N
116.4 374 M
116.4 369.66 L
S
GR
GS
[0.75 0 0 0.75 0 0] CT
0.149 GC
2 setlinecap
10.0 ML
N
159.8 374 M
159.8 369.66 L
S
GR
GS
[0.75 0 0 0.75 0 0] CT
0.149 GC
2 setlinecap
10.0 ML
N
203.2 374 M
203.2 369.66 L
S
GR
GS
[0.75 0 0 0.75 0 0] CT
0.149 GC
2 setlinecap
10.0 ML
N
246.6 374 M
246.6 369.66 L
S
GR
GS
[0.75 0 0 0.75 0 0] CT
0.149 GC
2 setlinecap
10.0 ML
N
290 374 M
290 369.66 L
S
GR
GS
[0.75 0 0 0.75 0 0] CT
0.149 GC
2 setlinecap
10.0 ML
N
333.4 374 M
333.4 369.66 L
S
GR
GS
[0.75 0 0 0.75 0 0] CT
0.149 GC
2 setlinecap
10.0 ML
N
376.8 374 M
376.8 369.66 L
S
GR
GS
[0.75 0 0 0.75 0 0] CT
0.149 GC
2 setlinecap
10.0 ML
N
420.2 374 M
420.2 369.66 L
S
GR
GS
[0.75 0 0 0.75 0 0] CT
0.149 GC
2 setlinecap
10.0 ML
N
463.6 374 M
463.6 369.66 L
S
GR
GS
[0.75 0 0 0.75 0 0] CT
0.149 GC
2 setlinecap
10.0 ML
N
507 374 M
507 369.66 L
S
GR
GS
[0.75 0 0 0.75 0 0] CT
0.149 GC
2 setlinecap
10.0 ML
N
73 31 M
73 35.34 L
S
GR
GS
[0.75 0 0 0.75 0 0] CT
0.149 GC
2 setlinecap
10.0 ML
N
116.4 31 M
116.4 35.34 L
S
GR
GS
[0.75 0 0 0.75 0 0] CT
0.149 GC
2 setlinecap
10.0 ML
N
159.8 31 M
159.8 35.34 L
S
GR
GS
[0.75 0 0 0.75 0 0] CT
0.149 GC
2 setlinecap
10.0 ML
N
203.2 31 M
203.2 35.34 L
S
GR
GS
[0.75 0 0 0.75 0 0] CT
0.149 GC
2 setlinecap
10.0 ML
N
246.6 31 M
246.6 35.34 L
S
GR
GS
[0.75 0 0 0.75 0 0] CT
0.149 GC
2 setlinecap
10.0 ML
N
290 31 M
290 35.34 L
S
GR
GS
[0.75 0 0 0.75 0 0] CT
0.149 GC
2 setlinecap
10.0 ML
N
333.4 31 M
333.4 35.34 L
S
GR
GS
[0.75 0 0 0.75 0 0] CT
0.149 GC
2 setlinecap
10.0 ML
N
376.8 31 M
376.8 35.34 L
S
GR
GS
[0.75 0 0 0.75 0 0] CT
0.149 GC
2 setlinecap
10.0 ML
N
420.2 31 M
420.2 35.34 L
S
GR
GS
[0.75 0 0 0.75 0 0] CT
0.149 GC
2 setlinecap
10.0 ML
N
463.6 31 M
463.6 35.34 L
S
GR
GS
[0.75 0 0 0.75 0 0] CT
0.149 GC
2 setlinecap
10.0 ML
N
507 31 M
507 35.34 L
S
GR
GS
[0.75 0 0 0.75 54.75 284.50001] CT
0.149 GC
/Helvetica 13 F
GS
[1 0 0 1 0 0] CT
-4 14 moveto 
1 -1 scale
(0) t 
GR
GR
GS
[0.75 0 0 0.75 87.3 284.50001] CT
0.149 GC
/Helvetica 13 F
GS
[1 0 0 1 0 0] CT
-7.5 14 moveto 
1 -1 scale
(10) t 
GR
GR
GS
[0.75 0 0 0.75 119.85 284.50001] CT
0.149 GC
/Helvetica 13 F
GS
[1 0 0 1 0 0] CT
-7.5 14 moveto 
1 -1 scale
(20) t 
GR
GR
GS
[0.75 0 0 0.75 152.4 284.50001] CT
0.149 GC
/Helvetica 13 F
GS
[1 0 0 1 0 0] CT
-7.5 14 moveto 
1 -1 scale
(30) t 
GR
GR
GS
[0.75 0 0 0.75 184.95 284.50001] CT
0.149 GC
/Helvetica 13 F
GS
[1 0 0 1 0 0] CT
-7.5 14 moveto 
1 -1 scale
(40) t 
GR
GR
GS
[0.75 0 0 0.75 217.5 284.50001] CT
0.149 GC
/Helvetica 13 F
GS
[1 0 0 1 0 0] CT
-7.5 14 moveto 
1 -1 scale
(50) t 
GR
GR
GS
[0.75 0 0 0.75 250.05 284.50001] CT
0.149 GC
/Helvetica 13 F
GS
[1 0 0 1 0 0] CT
-7.5 14 moveto 
1 -1 scale
(60) t 
GR
GR
GS
[0.75 0 0 0.75 282.59999 284.50001] CT
0.149 GC
/Helvetica 13 F
GS
[1 0 0 1 0 0] CT
-7.5 14 moveto 
1 -1 scale
(70) t 
GR
GR
GS
[0.75 0 0 0.75 315.15001 284.50001] CT
0.149 GC
/Helvetica 13 F
GS
[1 0 0 1 0 0] CT
-7.5 14 moveto 
1 -1 scale
(80) t 
GR
GR
GS
[0.75 0 0 0.75 347.7 284.50001] CT
0.149 GC
/Helvetica 13 F
GS
[1 0 0 1 0 0] CT
-7.5 14 moveto 
1 -1 scale
(90) t 
GR
GR
GS
[0.75 0 0 0.75 380.25 284.50001] CT
0.149 GC
/Helvetica 13 F
GS
[1 0 0 1 0 0] CT
-11 14 moveto 
1 -1 scale
(100) t 
GR
GR
GS
[0 -0.75 0.75 0 33.5 151.87489] CT
0.149 GC
/Helvetica 15 F
GS
[1 0 0 1 0 0] CT
-61.5 -4 moveto 
1 -1 scale
(|P\(f\)| MAgnitud dB) t 
GR
GR
GS
[0.75 0 0 0.75 0 0] CT
0.149 GC
2 setlinecap
10.0 ML
N
73 374 M
73 31 L
S
GR
GS
[0.75 0 0 0.75 0 0] CT
0.149 GC
2 setlinecap
10.0 ML
N
507 374 M
507 31 L
S
GR
GS
[0.75 0 0 0.75 0 0] CT
0.149 GC
2 setlinecap
10.0 ML
N
73 374 M
77.34 374 L
S
GR
GS
[0.75 0 0 0.75 0 0] CT
0.149 GC
2 setlinecap
10.0 ML
N
73 325 M
77.34 325 L
S
GR
GS
[0.75 0 0 0.75 0 0] CT
0.149 GC
2 setlinecap
10.0 ML
N
73 276 M
77.34 276 L
S
GR
GS
[0.75 0 0 0.75 0 0] CT
0.149 GC
2 setlinecap
10.0 ML
N
73 227 M
77.34 227 L
S
GR
GS
[0.75 0 0 0.75 0 0] CT
0.149 GC
2 setlinecap
10.0 ML
N
73 178 M
77.34 178 L
S
GR
GS
[0.75 0 0 0.75 0 0] CT
0.149 GC
2 setlinecap
10.0 ML
N
73 129 M
77.34 129 L
S
GR
GS
[0.75 0 0 0.75 0 0] CT
0.149 GC
2 setlinecap
10.0 ML
N
73 80 M
77.34 80 L
S
GR
GS
[0.75 0 0 0.75 0 0] CT
0.149 GC
2 setlinecap
10.0 ML
N
73 31 M
77.34 31 L
S
GR
GS
[0.75 0 0 0.75 0 0] CT
0.149 GC
2 setlinecap
10.0 ML
N
507 374 M
502.66 374 L
S
GR
GS
[0.75 0 0 0.75 0 0] CT
0.149 GC
2 setlinecap
10.0 ML
N
507 325 M
502.66 325 L
S
GR
GS
[0.75 0 0 0.75 0 0] CT
0.149 GC
2 setlinecap
10.0 ML
N
507 276 M
502.66 276 L
S
GR
GS
[0.75 0 0 0.75 0 0] CT
0.149 GC
2 setlinecap
10.0 ML
N
507 227 M
502.66 227 L
S
GR
GS
[0.75 0 0 0.75 0 0] CT
0.149 GC
2 setlinecap
10.0 ML
N
507 178 M
502.66 178 L
S
GR
GS
[0.75 0 0 0.75 0 0] CT
0.149 GC
2 setlinecap
10.0 ML
N
507 129 M
502.66 129 L
S
GR
GS
[0.75 0 0 0.75 0 0] CT
0.149 GC
2 setlinecap
10.0 ML
N
507 80 M
502.66 80 L
S
GR
GS
[0.75 0 0 0.75 0 0] CT
0.149 GC
2 setlinecap
10.0 ML
N
507 31 M
502.66 31 L
S
GR
GS
[0.75 0 0 0.75 50.75 280.5] CT
0.149 GC
/Helvetica 13 F
GS
[1 0 0 1 0 0] CT
-8 5.5 moveto 
1 -1 scale
(0) t 
GR
GR
GS
[0.75 0 0 0.75 50.75 243.75] CT
0.149 GC
/Helvetica 13 F
GS
[1 0 0 1 0 0] CT
-19 5.5 moveto 
1 -1 scale
(0.2) t 
GR
GR
GS
[0.75 0 0 0.75 50.75 207] CT
0.149 GC
/Helvetica 13 F
GS
[1 0 0 1 0 0] CT
-19 5.5 moveto 
1 -1 scale
(0.4) t 
GR
GR
GS
[0.75 0 0 0.75 50.75 170.25] CT
0.149 GC
/Helvetica 13 F
GS
[1 0 0 1 0 0] CT
-19 5.5 moveto 
1 -1 scale
(0.6) t 
GR
GR
GS
[0.75 0 0 0.75 50.75 133.5] CT
0.149 GC
/Helvetica 13 F
GS
[1 0 0 1 0 0] CT
-19 5.5 moveto 
1 -1 scale
(0.8) t 
GR
GR
GS
[0.75 0 0 0.75 50.75 96.75] CT
0.149 GC
/Helvetica 13 F
GS
[1 0 0 1 0 0] CT
-8 5.5 moveto 
1 -1 scale
(1) t 
GR
GR
GS
[0.75 0 0 0.75 50.75 59.99999] CT
0.149 GC
/Helvetica 13 F
GS
[1 0 0 1 0 0] CT
-19 5.5 moveto 
1 -1 scale
(1.2) t 
GR
GR
GS
[0.75 0 0 0.75 50.75 23.25] CT
0.149 GC
/Helvetica 13 F
GS
[1 0 0 1 0 0] CT
-19 5.5 moveto 
1 -1 scale
(1.4) t 
GR
GR
GS
[0.75 0 0 0.75 0 0] CT
0 0.447 0.741 RC
2 setlinecap
10.0 ML
N
81.5 189.5 M
80.736 187.149 L
78.736 185.696 L
76.264 185.696 L
74.264 187.149 L
73.5 189.5 L
74.264 191.851 L
76.264 193.304 L
78.736 193.304 L
80.736 191.851 L
81.5 189.5 L
S
GR
GS
[0.75 0 0 0.75 0 0] CT
0 0.447 0.741 RC
2 setlinecap
10.0 ML
N
86.5 322.5 M
85.736 320.149 L
83.736 318.696 L
81.264 318.696 L
79.264 320.149 L
78.5 322.5 L
79.264 324.851 L
81.264 326.304 L
83.736 326.304 L
85.736 324.851 L
86.5 322.5 L
S
GR
GS
[0.75 0 0 0.75 0 0] CT
0 0.447 0.741 RC
2 setlinecap
10.0 ML
N
91.5 324.5 M
90.736 322.149 L
88.736 320.696 L
86.264 320.696 L
84.264 322.149 L
83.5 324.5 L
84.264 326.851 L
86.264 328.304 L
88.736 328.304 L
90.736 326.851 L
91.5 324.5 L
S
GR
GS
[0.75 0 0 0.75 0 0] CT
0 0.447 0.741 RC
2 setlinecap
10.0 ML
N
97.5 260.5 M
96.736 258.149 L
94.736 256.696 L
92.264 256.696 L
90.264 258.149 L
89.5 260.5 L
90.264 262.851 L
92.264 264.304 L
94.736 264.304 L
96.736 262.851 L
97.5 260.5 L
S
GR
GS
[0.75 0 0 0.75 0 0] CT
0 0.447 0.741 RC
2 setlinecap
10.0 ML
N
102.5 313.5 M
101.736 311.149 L
99.736 309.696 L
97.264 309.696 L
95.264 311.149 L
94.5 313.5 L
95.264 315.851 L
97.264 317.304 L
99.736 317.304 L
101.736 315.851 L
102.5 313.5 L
S
GR
GS
[0.75 0 0 0.75 0 0] CT
0 0.447 0.741 RC
2 setlinecap
10.0 ML
N
108.5 345.5 M
107.736 343.149 L
105.736 341.696 L
103.264 341.696 L
101.264 343.149 L
100.5 345.5 L
101.264 347.851 L
103.264 349.304 L
105.736 349.304 L
107.736 347.851 L
108.5 345.5 L
S
GR
GS
[0.75 0 0 0.75 0 0] CT
0 0.447 0.741 RC
2 setlinecap
10.0 ML
N
113.5 294.5 M
112.736 292.149 L
110.736 290.696 L
108.264 290.696 L
106.264 292.149 L
105.5 294.5 L
106.264 296.851 L
108.264 298.304 L
110.736 298.304 L
112.736 296.851 L
113.5 294.5 L
S
GR
GS
[0.75 0 0 0.75 0 0] CT
0 0.447 0.741 RC
2 setlinecap
10.0 ML
N
119.5 296.5 M
118.736 294.149 L
116.736 292.696 L
114.264 292.696 L
112.264 294.149 L
111.5 296.5 L
112.264 298.851 L
114.264 300.304 L
116.736 300.304 L
118.736 298.851 L
119.5 296.5 L
S
GR
GS
[0.75 0 0 0.75 0 0] CT
0 0.447 0.741 RC
2 setlinecap
10.0 ML
N
124.5 329.5 M
123.736 327.149 L
121.736 325.696 L
119.264 325.696 L
117.264 327.149 L
116.5 329.5 L
117.264 331.851 L
119.264 333.304 L
121.736 333.304 L
123.736 331.851 L
124.5 329.5 L
S
GR
GS
[0.75 0 0 0.75 0 0] CT
0 0.447 0.741 RC
2 setlinecap
10.0 ML
N
129.5 354.5 M
128.736 352.149 L
126.736 350.696 L
124.264 350.696 L
122.264 352.149 L
121.5 354.5 L
122.264 356.851 L
124.264 358.304 L
126.736 358.304 L
128.736 356.851 L
129.5 354.5 L
S
GR
GS
[0.75 0 0 0.75 0 0] CT
0 0.447 0.741 RC
2 setlinecap
10.0 ML
N
135.5 311.5 M
134.736 309.149 L
132.736 307.696 L
130.264 307.696 L
128.264 309.149 L
127.5 311.5 L
128.264 313.851 L
130.264 315.304 L
132.736 315.304 L
134.736 313.851 L
135.5 311.5 L
S
GR
GS
[0.75 0 0 0.75 0 0] CT
0 0.447 0.741 RC
2 setlinecap
10.0 ML
N
140.5 301.5 M
139.736 299.149 L
137.736 297.696 L
135.264 297.696 L
133.264 299.149 L
132.5 301.5 L
133.264 303.851 L
135.264 305.304 L
137.736 305.304 L
139.736 303.851 L
140.5 301.5 L
S
GR
GS
[0.75 0 0 0.75 0 0] CT
0 0.447 0.741 RC
2 setlinecap
10.0 ML
N
146.5 338.5 M
145.736 336.149 L
143.736 334.696 L
141.264 334.696 L
139.264 336.149 L
138.5 338.5 L
139.264 340.851 L
141.264 342.304 L
143.736 342.304 L
145.736 340.851 L
146.5 338.5 L
S
GR
GS
[0.75 0 0 0.75 0 0] CT
0 0.447 0.741 RC
2 setlinecap
10.0 ML
N
151.5 306.5 M
150.736 304.149 L
148.736 302.696 L
146.264 302.696 L
144.264 304.149 L
143.5 306.5 L
144.264 308.851 L
146.264 310.304 L
148.736 310.304 L
150.736 308.851 L
151.5 306.5 L
S
GR
GS
[0.75 0 0 0.75 0 0] CT
0 0.447 0.741 RC
2 setlinecap
10.0 ML
N
157.5 317.5 M
156.736 315.149 L
154.736 313.696 L
152.264 313.696 L
150.264 315.149 L
149.5 317.5 L
150.264 319.851 L
152.264 321.304 L
154.736 321.304 L
156.736 319.851 L
157.5 317.5 L
S
GR
GS
[0.75 0 0 0.75 0 0] CT
0 0.447 0.741 RC
2 setlinecap
10.0 ML
N
162.5 347.5 M
161.736 345.149 L
159.736 343.696 L
157.264 343.696 L
155.264 345.149 L
154.5 347.5 L
155.264 349.851 L
157.264 351.304 L
159.736 351.304 L
161.736 349.851 L
162.5 347.5 L
S
GR
GS
[0.75 0 0 0.75 0 0] CT
0 0.447 0.741 RC
2 setlinecap
10.0 ML
N
168.5 295.5 M
167.736 293.149 L
165.736 291.696 L
163.264 291.696 L
161.264 293.149 L
160.5 295.5 L
161.264 297.851 L
163.264 299.304 L
165.736 299.304 L
167.736 297.851 L
168.5 295.5 L
S
GR
GS
[0.75 0 0 0.75 0 0] CT
0 0.447 0.741 RC
2 setlinecap
10.0 ML
N
173.5 297.5 M
172.736 295.149 L
170.736 293.696 L
168.264 293.696 L
166.264 295.149 L
165.5 297.5 L
166.264 299.851 L
168.264 301.304 L
170.736 301.304 L
172.736 299.851 L
173.5 297.5 L
S
GR
GS
[0.75 0 0 0.75 0 0] CT
0 0.447 0.741 RC
2 setlinecap
10.0 ML
N
178.5 319.5 M
177.736 317.149 L
175.736 315.696 L
173.264 315.696 L
171.264 317.149 L
170.5 319.5 L
171.264 321.851 L
173.264 323.304 L
175.736 323.304 L
177.736 321.851 L
178.5 319.5 L
S
GR
GS
[0.75 0 0 0.75 0 0] CT
0 0.447 0.741 RC
2 setlinecap
10.0 ML
N
184.5 309.5 M
183.736 307.149 L
181.736 305.696 L
179.264 305.696 L
177.264 307.149 L
176.5 309.5 L
177.264 311.851 L
179.264 313.304 L
181.736 313.304 L
183.736 311.851 L
184.5 309.5 L
S
GR
GS
[0.75 0 0 0.75 0 0] CT
0 0.447 0.741 RC
2 setlinecap
10.0 ML
N
189.5 322.5 M
188.736 320.149 L
186.736 318.696 L
184.264 318.696 L
182.264 320.149 L
181.5 322.5 L
182.264 324.851 L
184.264 326.304 L
186.736 326.304 L
188.736 324.851 L
189.5 322.5 L
S
GR
GS
[0.75 0 0 0.75 0 0] CT
0 0.447 0.741 RC
2 setlinecap
10.0 ML
N
195.5 324.5 M
194.736 322.149 L
192.736 320.696 L
190.264 320.696 L
188.264 322.149 L
187.5 324.5 L
188.264 326.851 L
190.264 328.304 L
192.736 328.304 L
194.736 326.851 L
195.5 324.5 L
S
GR
GS
[0.75 0 0 0.75 0 0] CT
0 0.447 0.741 RC
2 setlinecap
10.0 ML
N
200.5 353.5 M
199.736 351.149 L
197.736 349.696 L
195.264 349.696 L
193.264 351.149 L
192.5 353.5 L
193.264 355.851 L
195.264 357.304 L
197.736 357.304 L
199.736 355.851 L
200.5 353.5 L
S
GR
GS
[0.75 0 0 0.75 0 0] CT
0 0.447 0.741 RC
2 setlinecap
10.0 ML
N
206.5 321.5 M
205.736 319.149 L
203.736 317.696 L
201.264 317.696 L
199.264 319.149 L
198.5 321.5 L
199.264 323.851 L
201.264 325.304 L
203.736 325.304 L
205.736 323.851 L
206.5 321.5 L
S
GR
GS
[0.75 0 0 0.75 0 0] CT
0 0.447 0.741 RC
2 setlinecap
10.0 ML
N
211.5 297.5 M
210.736 295.149 L
208.736 293.696 L
206.264 293.696 L
204.264 295.149 L
203.5 297.5 L
204.264 299.851 L
206.264 301.304 L
208.736 301.304 L
210.736 299.851 L
211.5 297.5 L
S
GR
GS
[0.75 0 0 0.75 0 0] CT
0 0.447 0.741 RC
2 setlinecap
10.0 ML
N
216.5 343.5 M
215.736 341.149 L
213.736 339.696 L
211.264 339.696 L
209.264 341.149 L
208.5 343.5 L
209.264 345.851 L
211.264 347.304 L
213.736 347.304 L
215.736 345.851 L
216.5 343.5 L
S
GR
GS
[0.75 0 0 0.75 0 0] CT
0 0.447 0.741 RC
2 setlinecap
10.0 ML
N
222.5 316.5 M
221.736 314.149 L
219.736 312.696 L
217.264 312.696 L
215.264 314.149 L
214.5 316.5 L
215.264 318.851 L
217.264 320.304 L
219.736 320.304 L
221.736 318.851 L
222.5 316.5 L
S
GR
GS
[0.75 0 0 0.75 0 0] CT
0 0.447 0.741 RC
2 setlinecap
10.0 ML
N
227.5 309.5 M
226.736 307.149 L
224.736 305.696 L
222.264 305.696 L
220.264 307.149 L
219.5 309.5 L
220.264 311.851 L
222.264 313.304 L
224.736 313.304 L
226.736 311.851 L
227.5 309.5 L
S
GR
GS
[0.75 0 0 0.75 0 0] CT
0 0.447 0.741 RC
2 setlinecap
10.0 ML
N
233.5 346.5 M
232.736 344.149 L
230.736 342.696 L
228.264 342.696 L
226.264 344.149 L
225.5 346.5 L
226.264 348.851 L
228.264 350.304 L
230.736 350.304 L
232.736 348.851 L
233.5 346.5 L
S
GR
GS
[0.75 0 0 0.75 0 0] CT
0 0.447 0.741 RC
2 setlinecap
10.0 ML
N
238.5 313.5 M
237.736 311.149 L
235.736 309.696 L
233.264 309.696 L
231.264 311.149 L
230.5 313.5 L
231.264 315.851 L
233.264 317.304 L
235.736 317.304 L
237.736 315.851 L
238.5 313.5 L
S
GR
GS
[0.75 0 0 0.75 0 0] CT
0 0.447 0.741 RC
2 setlinecap
10.0 ML
N
244.5 338.5 M
243.736 336.149 L
241.736 334.696 L
239.264 334.696 L
237.264 336.149 L
236.5 338.5 L
237.264 340.851 L
239.264 342.304 L
241.736 342.304 L
243.736 340.851 L
244.5 338.5 L
S
GR
GS
[0.75 0 0 0.75 0 0] CT
0 0.447 0.741 RC
2 setlinecap
10.0 ML
N
249.5 338.5 M
248.736 336.149 L
246.736 334.696 L
244.264 334.696 L
242.264 336.149 L
241.5 338.5 L
242.264 340.851 L
244.264 342.304 L
246.736 342.304 L
248.736 340.851 L
249.5 338.5 L
S
GR
GS
[0.75 0 0 0.75 0 0] CT
0 0.447 0.741 RC
2 setlinecap
10.0 ML
N
254.5 317.5 M
253.736 315.149 L
251.736 313.696 L
249.264 313.696 L
247.264 315.149 L
246.5 317.5 L
247.264 319.851 L
249.264 321.304 L
251.736 321.304 L
253.736 319.851 L
254.5 317.5 L
S
GR
GS
[0.75 0 0 0.75 0 0] CT
0 0.447 0.741 RC
2 setlinecap
10.0 ML
N
260.5 337.5 M
259.736 335.149 L
257.736 333.696 L
255.264 333.696 L
253.264 335.149 L
252.5 337.5 L
253.264 339.851 L
255.264 341.304 L
257.736 341.304 L
259.736 339.851 L
260.5 337.5 L
S
GR
GS
[0.75 0 0 0.75 0 0] CT
0 0.447 0.741 RC
2 setlinecap
10.0 ML
N
265.5 299.5 M
264.736 297.149 L
262.736 295.696 L
260.264 295.696 L
258.264 297.149 L
257.5 299.5 L
258.264 301.851 L
260.264 303.304 L
262.736 303.304 L
264.736 301.851 L
265.5 299.5 L
S
GR
GS
[0.75 0 0 0.75 0 0] CT
0 0.447 0.741 RC
2 setlinecap
10.0 ML
N
271.5 305.5 M
270.736 303.149 L
268.736 301.696 L
266.264 301.696 L
264.264 303.149 L
263.5 305.5 L
264.264 307.851 L
266.264 309.304 L
268.736 309.304 L
270.736 307.851 L
271.5 305.5 L
S
GR
GS
[0.75 0 0 0.75 0 0] CT
0 0.447 0.741 RC
2 setlinecap
10.0 ML
N
276.5 338.5 M
275.736 336.149 L
273.736 334.696 L
271.264 334.696 L
269.264 336.149 L
268.5 338.5 L
269.264 340.851 L
271.264 342.304 L
273.736 342.304 L
275.736 340.851 L
276.5 338.5 L
S
GR
GS
[0.75 0 0 0.75 0 0] CT
0 0.447 0.741 RC
2 setlinecap
10.0 ML
N
282.5 298.5 M
281.736 296.149 L
279.736 294.696 L
277.264 294.696 L
275.264 296.149 L
274.5 298.5 L
275.264 300.851 L
277.264 302.304 L
279.736 302.304 L
281.736 300.851 L
282.5 298.5 L
S
GR
GS
[0.75 0 0 0.75 0 0] CT
0 0.447 0.741 RC
2 setlinecap
10.0 ML
N
287.5 338.5 M
286.736 336.149 L
284.736 334.696 L
282.264 334.696 L
280.264 336.149 L
279.5 338.5 L
280.264 340.851 L
282.264 342.304 L
284.736 342.304 L
286.736 340.851 L
287.5 338.5 L
S
GR
GS
[0.75 0 0 0.75 0 0] CT
0 0.447 0.741 RC
2 setlinecap
10.0 ML
N
292.5 308.5 M
291.736 306.149 L
289.736 304.696 L
287.264 304.696 L
285.264 306.149 L
284.5 308.5 L
285.264 310.851 L
287.264 312.304 L
289.736 312.304 L
291.736 310.851 L
292.5 308.5 L
S
GR
GS
[0.75 0 0 0.75 0 0] CT
0 0.447 0.741 RC
2 setlinecap
10.0 ML
N
298.5 306.5 M
297.736 304.149 L
295.736 302.696 L
293.264 302.696 L
291.264 304.149 L
290.5 306.5 L
291.264 308.851 L
293.264 310.304 L
295.736 310.304 L
297.736 308.851 L
298.5 306.5 L
S
GR
GS
[0.75 0 0 0.75 0 0] CT
0 0.447 0.741 RC
2 setlinecap
10.0 ML
N
303.5 347.5 M
302.736 345.149 L
300.736 343.696 L
298.264 343.696 L
296.264 345.149 L
295.5 347.5 L
296.264 349.851 L
298.264 351.304 L
300.736 351.304 L
302.736 349.851 L
303.5 347.5 L
S
GR
GS
[0.75 0 0 0.75 0 0] CT
0 0.447 0.741 RC
2 setlinecap
10.0 ML
N
309.5 277.5 M
308.736 275.149 L
306.736 273.696 L
304.264 273.696 L
302.264 275.149 L
301.5 277.5 L
302.264 279.851 L
304.264 281.304 L
306.736 281.304 L
308.736 279.851 L
309.5 277.5 L
S
GR
GS
[0.75 0 0 0.75 0 0] CT
0 0.447 0.741 RC
2 setlinecap
10.0 ML
N
314.5 315.5 M
313.736 313.149 L
311.736 311.696 L
309.264 311.696 L
307.264 313.149 L
306.5 315.5 L
307.264 317.851 L
309.264 319.304 L
311.736 319.304 L
313.736 317.851 L
314.5 315.5 L
S
GR
GS
[0.75 0 0 0.75 0 0] CT
0 0.447 0.741 RC
2 setlinecap
10.0 ML
N
320.5 320.5 M
319.736 318.149 L
317.736 316.696 L
315.264 316.696 L
313.264 318.149 L
312.5 320.5 L
313.264 322.851 L
315.264 324.304 L
317.736 324.304 L
319.736 322.851 L
320.5 320.5 L
S
GR
GS
[0.75 0 0 0.75 0 0] CT
0 0.447 0.741 RC
2 setlinecap
10.0 ML
N
325.5 247.5 M
324.736 245.149 L
322.736 243.696 L
320.264 243.696 L
318.264 245.149 L
317.5 247.5 L
318.264 249.851 L
320.264 251.304 L
322.736 251.304 L
324.736 249.851 L
325.5 247.5 L
S
GR
GS
[0.75 0 0 0.75 0 0] CT
0 0.447 0.741 RC
2 setlinecap
10.0 ML
N
331.5 244.5 M
330.736 242.149 L
328.736 240.696 L
326.264 240.696 L
324.264 242.149 L
323.5 244.5 L
324.264 246.851 L
326.264 248.304 L
328.736 248.304 L
330.736 246.851 L
331.5 244.5 L
S
GR
GS
[0.75 0 0 0.75 0 0] CT
0 0.447 0.741 RC
2 setlinecap
10.0 ML
N
336.5 75.5 M
335.736 73.149 L
333.736 71.696 L
331.264 71.696 L
329.264 73.149 L
328.5 75.5 L
329.264 77.851 L
331.264 79.304 L
333.736 79.304 L
335.736 77.851 L
336.5 75.5 L
S
GR
GS
[0.75 0 0 0.75 0 0] CT
0 0.447 0.741 RC
2 setlinecap
10.0 ML
N
341.5 177.5 M
340.736 175.149 L
338.736 173.696 L
336.264 173.696 L
334.264 175.149 L
333.5 177.5 L
334.264 179.851 L
336.264 181.304 L
338.736 181.304 L
340.736 179.851 L
341.5 177.5 L
S
GR
GS
[0.75 0 0 0.75 0 0] CT
0 0.447 0.741 RC
2 setlinecap
10.0 ML
N
347.5 245.5 M
346.736 243.149 L
344.736 241.696 L
342.264 241.696 L
340.264 243.149 L
339.5 245.5 L
340.264 247.851 L
342.264 249.304 L
344.736 249.304 L
346.736 247.851 L
347.5 245.5 L
S
GR
GS
[0.75 0 0 0.75 0 0] CT
0 0.447 0.741 RC
2 setlinecap
10.0 ML
N
352.5 350.5 M
351.736 348.149 L
349.736 346.696 L
347.264 346.696 L
345.264 348.149 L
344.5 350.5 L
345.264 352.851 L
347.264 354.304 L
349.736 354.304 L
351.736 352.851 L
352.5 350.5 L
S
GR
GS
[0.75 0 0 0.75 0 0] CT
0 0.447 0.741 RC
2 setlinecap
10.0 ML
N
358.5 283.5 M
357.736 281.149 L
355.736 279.696 L
353.264 279.696 L
351.264 281.149 L
350.5 283.5 L
351.264 285.851 L
353.264 287.304 L
355.736 287.304 L
357.736 285.851 L
358.5 283.5 L
S
GR
GS
[0.75 0 0 0.75 0 0] CT
0 0.447 0.741 RC
2 setlinecap
10.0 ML
N
363.5 328.5 M
362.736 326.149 L
360.736 324.696 L
358.264 324.696 L
356.264 326.149 L
355.5 328.5 L
356.264 330.851 L
358.264 332.304 L
360.736 332.304 L
362.736 330.851 L
363.5 328.5 L
S
GR
GS
[0.75 0 0 0.75 0 0] CT
0 0.447 0.741 RC
2 setlinecap
10.0 ML
N
369.5 344.5 M
368.736 342.149 L
366.736 340.696 L
364.264 340.696 L
362.264 342.149 L
361.5 344.5 L
362.264 346.851 L
364.264 348.304 L
366.736 348.304 L
368.736 346.851 L
369.5 344.5 L
S
GR
GS
[0.75 0 0 0.75 0 0] CT
0 0.447 0.741 RC
2 setlinecap
10.0 ML
N
374.5 312.5 M
373.736 310.149 L
371.736 308.696 L
369.264 308.696 L
367.264 310.149 L
366.5 312.5 L
367.264 314.851 L
369.264 316.304 L
371.736 316.304 L
373.736 314.851 L
374.5 312.5 L
S
GR
GS
[0.75 0 0 0.75 0 0] CT
0 0.447 0.741 RC
2 setlinecap
10.0 ML
N
379.5 365.5 M
378.736 363.149 L
376.736 361.696 L
374.264 361.696 L
372.264 363.149 L
371.5 365.5 L
372.264 367.851 L
374.264 369.304 L
376.736 369.304 L
378.736 367.851 L
379.5 365.5 L
S
GR
GS
[0.75 0 0 0.75 0 0] CT
0 0.447 0.741 RC
2 setlinecap
10.0 ML
N
385.5 325.5 M
384.736 323.149 L
382.736 321.696 L
380.264 321.696 L
378.264 323.149 L
377.5 325.5 L
378.264 327.851 L
380.264 329.304 L
382.736 329.304 L
384.736 327.851 L
385.5 325.5 L
S
GR
GS
[0.75 0 0 0.75 0 0] CT
0 0.447 0.741 RC
2 setlinecap
10.0 ML
N
390.5 333.5 M
389.736 331.149 L
387.736 329.696 L
385.264 329.696 L
383.264 331.149 L
382.5 333.5 L
383.264 335.851 L
385.264 337.304 L
387.736 337.304 L
389.736 335.851 L
390.5 333.5 L
S
GR
GS
[0.75 0 0 0.75 0 0] CT
0 0.447 0.741 RC
2 setlinecap
10.0 ML
N
396.5 334.5 M
395.736 332.149 L
393.736 330.696 L
391.264 330.696 L
389.264 332.149 L
388.5 334.5 L
389.264 336.851 L
391.264 338.304 L
393.736 338.304 L
395.736 336.851 L
396.5 334.5 L
S
GR
GS
[0.75 0 0 0.75 0 0] CT
0 0.447 0.741 RC
2 setlinecap
10.0 ML
N
401.5 312.5 M
400.736 310.149 L
398.736 308.696 L
396.264 308.696 L
394.264 310.149 L
393.5 312.5 L
394.264 314.851 L
396.264 316.304 L
398.736 316.304 L
400.736 314.851 L
401.5 312.5 L
S
GR
GS
[0.75 0 0 0.75 0 0] CT
0 0.447 0.741 RC
2 setlinecap
10.0 ML
N
407.5 327.5 M
406.736 325.149 L
404.736 323.696 L
402.264 323.696 L
400.264 325.149 L
399.5 327.5 L
400.264 329.851 L
402.264 331.304 L
404.736 331.304 L
406.736 329.851 L
407.5 327.5 L
S
GR
GS
[0.75 0 0 0.75 0 0] CT
0 0.447 0.741 RC
2 setlinecap
10.0 ML
N
412.5 332.5 M
411.736 330.149 L
409.736 328.696 L
407.264 328.696 L
405.264 330.149 L
404.5 332.5 L
405.264 334.851 L
407.264 336.304 L
409.736 336.304 L
411.736 334.851 L
412.5 332.5 L
S
GR
GS
[0.75 0 0 0.75 0 0] CT
0 0.447 0.741 RC
2 setlinecap
10.0 ML
N
417.5 332.5 M
416.736 330.149 L
414.736 328.696 L
412.264 328.696 L
410.264 330.149 L
409.5 332.5 L
410.264 334.851 L
412.264 336.304 L
414.736 336.304 L
416.736 334.851 L
417.5 332.5 L
S
GR
GS
[0.75 0 0 0.75 0 0] CT
0 0.447 0.741 RC
2 setlinecap
10.0 ML
N
423.5 350.5 M
422.736 348.149 L
420.736 346.696 L
418.264 346.696 L
416.264 348.149 L
415.5 350.5 L
416.264 352.851 L
418.264 354.304 L
420.736 354.304 L
422.736 352.851 L
423.5 350.5 L
S
GR
GS
[0.75 0 0 0.75 0 0] CT
0 0.447 0.741 RC
2 setlinecap
10.0 ML
N
428.5 337.5 M
427.736 335.149 L
425.736 333.696 L
423.264 333.696 L
421.264 335.149 L
420.5 337.5 L
421.264 339.851 L
423.264 341.304 L
425.736 341.304 L
427.736 339.851 L
428.5 337.5 L
S
GR
GS
[0.75 0 0 0.75 0 0] CT
0 0.447 0.741 RC
2 setlinecap
10.0 ML
N
434.5 336.5 M
433.736 334.149 L
431.736 332.696 L
429.264 332.696 L
427.264 334.149 L
426.5 336.5 L
427.264 338.851 L
429.264 340.304 L
431.736 340.304 L
433.736 338.851 L
434.5 336.5 L
S
GR
GS
[0.75 0 0 0.75 0 0] CT
0 0.447 0.741 RC
2 setlinecap
10.0 ML
N
439.5 330.5 M
438.736 328.149 L
436.736 326.696 L
434.264 326.696 L
432.264 328.149 L
431.5 330.5 L
432.264 332.851 L
434.264 334.304 L
436.736 334.304 L
438.736 332.851 L
439.5 330.5 L
S
GR
GS
[0.75 0 0 0.75 0 0] CT
0 0.447 0.741 RC
2 setlinecap
10.0 ML
N
445.5 320.5 M
444.736 318.149 L
442.736 316.696 L
440.264 316.696 L
438.264 318.149 L
437.5 320.5 L
438.264 322.851 L
440.264 324.304 L
442.736 324.304 L
444.736 322.851 L
445.5 320.5 L
S
GR
GS
[0.75 0 0 0.75 0 0] CT
0 0.447 0.741 RC
2 setlinecap
10.0 ML
N
450.5 335.5 M
449.736 333.149 L
447.736 331.696 L
445.264 331.696 L
443.264 333.149 L
442.5 335.5 L
443.264 337.851 L
445.264 339.304 L
447.736 339.304 L
449.736 337.851 L
450.5 335.5 L
S
GR
GS
[0.75 0 0 0.75 0 0] CT
0 0.447 0.741 RC
2 setlinecap
10.0 ML
N
455.5 332.5 M
454.736 330.149 L
452.736 328.696 L
450.264 328.696 L
448.264 330.149 L
447.5 332.5 L
448.264 334.851 L
450.264 336.304 L
452.736 336.304 L
454.736 334.851 L
455.5 332.5 L
S
GR
GS
[0.75 0 0 0.75 0 0] CT
0 0.447 0.741 RC
2 setlinecap
10.0 ML
N
461.5 335.5 M
460.736 333.149 L
458.736 331.696 L
456.264 331.696 L
454.264 333.149 L
453.5 335.5 L
454.264 337.851 L
456.264 339.304 L
458.736 339.304 L
460.736 337.851 L
461.5 335.5 L
S
GR
GS
[0.75 0 0 0.75 0 0] CT
0 0.447 0.741 RC
2 setlinecap
10.0 ML
N
466.5 344.5 M
465.736 342.149 L
463.736 340.696 L
461.264 340.696 L
459.264 342.149 L
458.5 344.5 L
459.264 346.851 L
461.264 348.304 L
463.736 348.304 L
465.736 346.851 L
466.5 344.5 L
S
GR
GS
[0.75 0 0 0.75 0 0] CT
0 0.447 0.741 RC
2 setlinecap
10.0 ML
N
472.5 333.5 M
471.736 331.149 L
469.736 329.696 L
467.264 329.696 L
465.264 331.149 L
464.5 333.5 L
465.264 335.851 L
467.264 337.304 L
469.736 337.304 L
471.736 335.851 L
472.5 333.5 L
S
GR
GS
[0.75 0 0 0.75 0 0] CT
0 0.447 0.741 RC
2 setlinecap
10.0 ML
N
477.5 337.5 M
476.736 335.149 L
474.736 333.696 L
472.264 333.696 L
470.264 335.149 L
469.5 337.5 L
470.264 339.851 L
472.264 341.304 L
474.736 341.304 L
476.736 339.851 L
477.5 337.5 L
S
GR
GS
[0.75 0 0 0.75 0 0] CT
0 0.447 0.741 RC
2 setlinecap
10.0 ML
N
483.5 335.5 M
482.736 333.149 L
480.736 331.696 L
478.264 331.696 L
476.264 333.149 L
475.5 335.5 L
476.264 337.851 L
478.264 339.304 L
480.736 339.304 L
482.736 337.851 L
483.5 335.5 L
S
GR
GS
[0.75 0 0 0.75 0 0] CT
0 0.447 0.741 RC
2 setlinecap
10.0 ML
N
488.5 330.5 M
487.736 328.149 L
485.736 326.696 L
483.264 326.696 L
481.264 328.149 L
480.5 330.5 L
481.264 332.851 L
483.264 334.304 L
485.736 334.304 L
487.736 332.851 L
488.5 330.5 L
S
GR
GS
[0.75 0 0 0.75 0 0] CT
0 0.447 0.741 RC
2 setlinecap
10.0 ML
N
494.5 328.5 M
493.736 326.149 L
491.736 324.696 L
489.264 324.696 L
487.264 326.149 L
486.5 328.5 L
487.264 330.851 L
489.264 332.304 L
491.736 332.304 L
493.736 330.851 L
494.5 328.5 L
S
GR
GS
[0.75 0 0 0.75 0 0] CT
0 0.447 0.741 RC
2 setlinecap
10.0 ML
N
499.5 328.5 M
498.736 326.149 L
496.736 324.696 L
494.264 324.696 L
492.264 326.149 L
491.5 328.5 L
492.264 330.851 L
494.264 332.304 L
496.736 332.304 L
498.736 330.851 L
499.5 328.5 L
S
GR
GS
[0.75 0 0 0.75 0 0] CT
0 0.447 0.741 RC
2 setlinecap
10.0 ML
N
504.5 334.5 M
503.736 332.149 L
501.736 330.696 L
499.264 330.696 L
497.264 332.149 L
496.5 334.5 L
497.264 336.851 L
499.264 338.304 L
501.736 338.304 L
503.736 336.851 L
504.5 334.5 L
S
GR
GS
[0.75 0 0 0.75 0 0] CT
0 0.447 0.741 RC
2 setlinecap
10.0 ML
N
510.5 358.5 M
509.736 356.149 L
507.736 354.696 L
505.264 354.696 L
503.264 356.149 L
502.5 358.5 L
503.264 360.851 L
505.264 362.304 L
507.736 362.304 L
509.736 360.851 L
510.5 358.5 L
S
GR
GS
[0.75 0 0 0.75 0 0] CT
0 0.447 0.741 RC
2 setlinecap
10.0 ML
N
77.075 374 M
77.075 189.508 L
S
GR
GS
[0.75 0 0 0.75 0 0] CT
0 0.447 0.741 RC
2 setlinecap
10.0 ML
N
82.509 374 M
82.509 322.29 L
S
GR
GS
[0.75 0 0 0.75 0 0] CT
0 0.447 0.741 RC
2 setlinecap
10.0 ML
N
87.942 374 M
87.942 324.914 L
S
GR
GS
[0.75 0 0 0.75 0 0] CT
0 0.447 0.741 RC
2 setlinecap
10.0 ML
N
93.376 374 M
93.376 260.317 L
S
GR
GS
[0.75 0 0 0.75 0 0] CT
0 0.447 0.741 RC
2 setlinecap
10.0 ML
N
98.809 374 M
98.809 313.673 L
S
GR
GS
[0.75 0 0 0.75 0 0] CT
0 0.447 0.741 RC
2 setlinecap
10.0 ML
N
104.243 374 M
104.243 345.734 L
S
GR
GS
[0.75 0 0 0.75 0 0] CT
0 0.447 0.741 RC
2 setlinecap
10.0 ML
N
109.676 374 M
109.676 294.119 L
S
GR
GS
[0.75 0 0 0.75 0 0] CT
0 0.447 0.741 RC
2 setlinecap
10.0 ML
N
115.11 374 M
115.11 296.167 L
S
GR
GS
[0.75 0 0 0.75 0 0] CT
0 0.447 0.741 RC
2 setlinecap
10.0 ML
N
120.543 374 M
120.543 329.778 L
S
GR
GS
[0.75 0 0 0.75 0 0] CT
0 0.447 0.741 RC
2 setlinecap
10.0 ML
N
125.977 374 M
125.977 354.664 L
S
GR
GS
[0.75 0 0 0.75 0 0] CT
0 0.447 0.741 RC
2 setlinecap
10.0 ML
N
131.41 374 M
131.41 311.949 L
S
GR
GS
[0.75 0 0 0.75 0 0] CT
0 0.447 0.741 RC
2 setlinecap
10.0 ML
N
136.844 374 M
136.844 301.614 L
S
GR
GS
[0.75 0 0 0.75 0 0] CT
0 0.447 0.741 RC
2 setlinecap
10.0 ML
N
142.277 374 M
142.277 338.799 L
S
GR
GS
[0.75 0 0 0.75 0 0] CT
0 0.447 0.741 RC
2 setlinecap
10.0 ML
N
147.71 374 M
147.71 306.064 L
S
GR
GS
[0.75 0 0 0.75 0 0] CT
0 0.447 0.741 RC
2 setlinecap
10.0 ML
N
153.144 374 M
153.144 317.022 L
S
GR
GS
[0.75 0 0 0.75 0 0] CT
0 0.447 0.741 RC
2 setlinecap
10.0 ML
N
158.577 374 M
158.577 347.454 L
S
GR
GS
[0.75 0 0 0.75 0 0] CT
0 0.447 0.741 RC
2 setlinecap
10.0 ML
N
164.011 374 M
164.011 295.656 L
S
GR
GS
[0.75 0 0 0.75 0 0] CT
0 0.447 0.741 RC
2 setlinecap
10.0 ML
N
169.444 374 M
169.444 297.96 L
S
GR
GS
[0.75 0 0 0.75 0 0] CT
0 0.447 0.741 RC
2 setlinecap
10.0 ML
N
174.878 374 M
174.878 319.775 L
S
GR
GS
[0.75 0 0 0.75 0 0] CT
0 0.447 0.741 RC
2 setlinecap
10.0 ML
N
180.311 374 M
180.311 309.094 L
S
GR
GS
[0.75 0 0 0.75 0 0] CT
0 0.447 0.741 RC
2 setlinecap
10.0 ML
N
185.745 374 M
185.745 322.795 L
S
GR
GS
[0.75 0 0 0.75 0 0] CT
0 0.447 0.741 RC
2 setlinecap
10.0 ML
N
191.178 374 M
191.178 324.254 L
S
GR
GS
[0.75 0 0 0.75 0 0] CT
0 0.447 0.741 RC
2 setlinecap
10.0 ML
N
196.612 374 M
196.612 353.239 L
S
GR
GS
[0.75 0 0 0.75 0 0] CT
0 0.447 0.741 RC
2 setlinecap
10.0 ML
N
202.045 374 M
202.045 321.576 L
S
GR
GS
[0.75 0 0 0.75 0 0] CT
0 0.447 0.741 RC
2 setlinecap
10.0 ML
N
207.479 374 M
207.479 297.658 L
S
GR
GS
[0.75 0 0 0.75 0 0] CT
0 0.447 0.741 RC
2 setlinecap
10.0 ML
N
212.912 374 M
212.912 343.839 L
S
GR
GS
[0.75 0 0 0.75 0 0] CT
0 0.447 0.741 RC
2 setlinecap
10.0 ML
N
218.346 374 M
218.346 316.243 L
S
GR
GS
[0.75 0 0 0.75 0 0] CT
0 0.447 0.741 RC
2 setlinecap
10.0 ML
N
223.779 374 M
223.779 309.167 L
S
GR
GS
[0.75 0 0 0.75 0 0] CT
0 0.447 0.741 RC
2 setlinecap
10.0 ML
N
229.213 374 M
229.213 346.609 L
S
GR
GS
[0.75 0 0 0.75 0 0] CT
0 0.447 0.741 RC
2 setlinecap
10.0 ML
N
234.646 374 M
234.646 313.781 L
S
GR
GS
[0.75 0 0 0.75 0 0] CT
0 0.447 0.741 RC
2 setlinecap
10.0 ML
N
240.08 374 M
240.08 338.181 L
S
GR
GS
[0.75 0 0 0.75 0 0] CT
0 0.447 0.741 RC
2 setlinecap
10.0 ML
N
245.513 374 M
245.513 338.184 L
S
GR
GS
[0.75 0 0 0.75 0 0] CT
0 0.447 0.741 RC
2 setlinecap
10.0 ML
N
250.947 374 M
250.947 317.859 L
S
GR
GS
[0.75 0 0 0.75 0 0] CT
0 0.447 0.741 RC
2 setlinecap
10.0 ML
N
256.38 374 M
256.38 337.984 L
S
GR
GS
[0.75 0 0 0.75 0 0] CT
0 0.447 0.741 RC
2 setlinecap
10.0 ML
N
261.814 374 M
261.814 299.426 L
S
GR
GS
[0.75 0 0 0.75 0 0] CT
0 0.447 0.741 RC
2 setlinecap
10.0 ML
N
267.247 374 M
267.247 305.379 L
S
GR
GS
[0.75 0 0 0.75 0 0] CT
0 0.447 0.741 RC
2 setlinecap
10.0 ML
N
272.681 374 M
272.681 338.838 L
S
GR
GS
[0.75 0 0 0.75 0 0] CT
0 0.447 0.741 RC
2 setlinecap
10.0 ML
N
278.114 374 M
278.114 298.294 L
S
GR
GS
[0.75 0 0 0.75 0 0] CT
0 0.447 0.741 RC
2 setlinecap
10.0 ML
N
283.548 374 M
283.548 338.889 L
S
GR
GS
[0.75 0 0 0.75 0 0] CT
0 0.447 0.741 RC
2 setlinecap
10.0 ML
N
288.981 374 M
288.981 308.549 L
S
GR
GS
[0.75 0 0 0.75 0 0] CT
0 0.447 0.741 RC
2 setlinecap
10.0 ML
N
294.415 374 M
294.415 306.888 L
S
GR
GS
[0.75 0 0 0.75 0 0] CT
0 0.447 0.741 RC
2 setlinecap
10.0 ML
N
299.848 374 M
299.848 347.67 L
S
GR
GS
[0.75 0 0 0.75 0 0] CT
0 0.447 0.741 RC
2 setlinecap
10.0 ML
N
305.282 374 M
305.282 277.888 L
S
GR
GS
[0.75 0 0 0.75 0 0] CT
0 0.447 0.741 RC
2 setlinecap
10.0 ML
N
310.715 374 M
310.715 315.741 L
S
GR
GS
[0.75 0 0 0.75 0 0] CT
0 0.447 0.741 RC
2 setlinecap
10.0 ML
N
316.149 374 M
316.149 320.846 L
S
GR
GS
[0.75 0 0 0.75 0 0] CT
0 0.447 0.741 RC
2 setlinecap
10.0 ML
N
321.582 374 M
321.582 247.045 L
S
GR
GS
[0.75 0 0 0.75 0 0] CT
0 0.447 0.741 RC
2 setlinecap
10.0 ML
N
327.016 374 M
327.016 244.349 L
S
GR
GS
[0.75 0 0 0.75 0 0] CT
0 0.447 0.741 RC
2 setlinecap
10.0 ML
N
332.449 374 M
332.449 75.866 L
S
GR
GS
[0.75 0 0 0.75 0 0] CT
0 0.447 0.741 RC
2 setlinecap
10.0 ML
N
337.883 374 M
337.883 177.622 L
S
GR
GS
[0.75 0 0 0.75 0 0] CT
0 0.447 0.741 RC
2 setlinecap
10.0 ML
N
343.316 374 M
343.316 245.675 L
S
GR
GS
[0.75 0 0 0.75 0 0] CT
0 0.447 0.741 RC
2 setlinecap
10.0 ML
N
348.75 374 M
348.75 350.946 L
S
GR
GS
[0.75 0 0 0.75 0 0] CT
0 0.447 0.741 RC
2 setlinecap
10.0 ML
N
354.183 374 M
354.183 283.1 L
S
GR
GS
[0.75 0 0 0.75 0 0] CT
0 0.447 0.741 RC
2 setlinecap
10.0 ML
N
359.617 374 M
359.617 328.047 L
S
GR
GS
[0.75 0 0 0.75 0 0] CT
0 0.447 0.741 RC
2 setlinecap
10.0 ML
N
365.05 374 M
365.05 344.903 L
S
GR
GS
[0.75 0 0 0.75 0 0] CT
0 0.447 0.741 RC
2 setlinecap
10.0 ML
N
370.484 374 M
370.484 312.809 L
S
GR
GS
[0.75 0 0 0.75 0 0] CT
0 0.447 0.741 RC
2 setlinecap
10.0 ML
N
375.917 374 M
375.917 365.314 L
S
GR
GS
[0.75 0 0 0.75 0 0] CT
0 0.447 0.741 RC
2 setlinecap
10.0 ML
N
381.351 374 M
381.351 325.766 L
S
GR
GS
[0.75 0 0 0.75 0 0] CT
0 0.447 0.741 RC
2 setlinecap
10.0 ML
N
386.784 374 M
386.784 333.341 L
S
GR
GS
[0.75 0 0 0.75 0 0] CT
0 0.447 0.741 RC
2 setlinecap
10.0 ML
N
392.218 374 M
392.218 334.202 L
S
GR
GS
[0.75 0 0 0.75 0 0] CT
0 0.447 0.741 RC
2 setlinecap
10.0 ML
N
397.651 374 M
397.651 312.673 L
S
GR
GS
[0.75 0 0 0.75 0 0] CT
0 0.447 0.741 RC
2 setlinecap
10.0 ML
N
403.085 374 M
403.085 327.979 L
S
GR
GS
[0.75 0 0 0.75 0 0] CT
0 0.447 0.741 RC
2 setlinecap
10.0 ML
N
408.518 374 M
408.518 332.513 L
S
GR
GS
[0.75 0 0 0.75 0 0] CT
0 0.447 0.741 RC
2 setlinecap
10.0 ML
N
413.951 374 M
413.951 332.612 L
S
GR
GS
[0.75 0 0 0.75 0 0] CT
0 0.447 0.741 RC
2 setlinecap
10.0 ML
N
419.385 374 M
419.385 350.218 L
S
GR
GS
[0.75 0 0 0.75 0 0] CT
0 0.447 0.741 RC
2 setlinecap
10.0 ML
N
424.818 374 M
424.818 337.549 L
S
GR
GS
[0.75 0 0 0.75 0 0] CT
0 0.447 0.741 RC
2 setlinecap
10.0 ML
N
430.252 374 M
430.252 336.202 L
S
GR
GS
[0.75 0 0 0.75 0 0] CT
0 0.447 0.741 RC
2 setlinecap
10.0 ML
N
435.685 374 M
435.685 330.911 L
S
GR
GS
[0.75 0 0 0.75 0 0] CT
0 0.447 0.741 RC
2 setlinecap
10.0 ML
N
441.119 374 M
441.119 320.864 L
S
GR
GS
[0.75 0 0 0.75 0 0] CT
0 0.447 0.741 RC
2 setlinecap
10.0 ML
N
446.552 374 M
446.552 335.897 L
S
GR
GS
[0.75 0 0 0.75 0 0] CT
0 0.447 0.741 RC
2 setlinecap
10.0 ML
N
451.986 374 M
451.986 332.87 L
S
GR
GS
[0.75 0 0 0.75 0 0] CT
0 0.447 0.741 RC
2 setlinecap
10.0 ML
N
457.419 374 M
457.419 335.115 L
S
GR
GS
[0.75 0 0 0.75 0 0] CT
0 0.447 0.741 RC
2 setlinecap
10.0 ML
N
462.853 374 M
462.853 344.006 L
S
GR
GS
[0.75 0 0 0.75 0 0] CT
0 0.447 0.741 RC
2 setlinecap
10.0 ML
N
468.286 374 M
468.286 333.997 L
S
GR
GS
[0.75 0 0 0.75 0 0] CT
0 0.447 0.741 RC
2 setlinecap
10.0 ML
N
473.72 374 M
473.72 337.785 L
S
GR
GS
[0.75 0 0 0.75 0 0] CT
0 0.447 0.741 RC
2 setlinecap
10.0 ML
N
479.153 374 M
479.153 335.618 L
S
GR
GS
[0.75 0 0 0.75 0 0] CT
0 0.447 0.741 RC
2 setlinecap
10.0 ML
N
484.587 374 M
484.587 330.256 L
S
GR
GS
[0.75 0 0 0.75 0 0] CT
0 0.447 0.741 RC
2 setlinecap
10.0 ML
N
490.02 374 M
490.02 328.158 L
S
GR
GS
[0.75 0 0 0.75 0 0] CT
0 0.447 0.741 RC
2 setlinecap
10.0 ML
N
495.454 374 M
495.454 328.287 L
S
GR
GS
[0.75 0 0 0.75 0 0] CT
0 0.447 0.741 RC
2 setlinecap
10.0 ML
N
500.887 374 M
500.887 334.578 L
S
GR
GS
[0.75 0 0 0.75 0 0] CT
0 0.447 0.741 RC
2 setlinecap
10.0 ML
N
506.321 374 M
506.321 358.445 L
S
GR
GS
[0.75 0 0 0.75 217.50021 21.1875] CT
/Helvetica-Bold 15 F
GS
[1 0 0 1 0 0] CT
-144 -4 moveto 
1 -1 scale
(Single-Sided Amplitude Spectrum of y\(t\)) t 
GR
GR
GS
[0.75 0 0 0.75 0 0] CT
0.149 GC
2 setlinecap
10.0 ML
N
73 374 M
507 374 L
S
GR
%%Trailer
%%Pages: 1
%%EOF
