\relax 
\providecommand\hyper@newdestlabel[2]{}
\catcode `"\active 
\catcode `<\active 
\catcode `>\active 
\@nameuse{es@quoting}
\providecommand\HyperFirstAtBeginDocument{\AtBeginDocument}
\HyperFirstAtBeginDocument{\ifx\hyper@anchor\@undefined
\global\let\oldcontentsline\contentsline
\gdef\contentsline#1#2#3#4{\oldcontentsline{#1}{#2}{#3}}
\global\let\oldnewlabel\newlabel
\gdef\newlabel#1#2{\newlabelxx{#1}#2}
\gdef\newlabelxx#1#2#3#4#5#6{\oldnewlabel{#1}{{#2}{#3}}}
\AtEndDocument{\ifx\hyper@anchor\@undefined
\let\contentsline\oldcontentsline
\let\newlabel\oldnewlabel
\fi}
\fi}
\global\let\hyper@last\relax 
\gdef\HyperFirstAtBeginDocument#1{#1}
\providecommand\HyField@AuxAddToFields[1]{}
\providecommand\HyField@AuxAddToCoFields[2]{}
\babel@aux{spanish}{}
\@writefile{toc}{\contentsline {chapter}{\numberline {1}Aplicaci\IeC {\'o}n Python}{5}{chapter.1}}
\@writefile{lof}{\addvspace {10\p@ }}
\@writefile{lot}{\addvspace {10\p@ }}
\@writefile{toc}{\contentsline {section}{\numberline {1.1}Funcionamiento}{6}{section.1.1}}
\@writefile{lof}{\contentsline {figure}{\numberline {1.1}{\ignorespaces Diagrama entidad relaci\IeC {\'o}n.\relax }}{6}{figure.caption.4}}
\providecommand*\caption@xref[2]{\@setref\relax\@undefined{#1}}
\newlabel{E_R}{{1.1}{6}{Diagrama entidad relación.\relax }{figure.caption.4}{}}
\@writefile{toc}{\contentsline {subsection}{\numberline {1.1.1}Get\_data}{6}{subsection.1.1.1}}
\@writefile{lol}{\contentsline {lstlisting}{code/get\textunderscore data.py}{6}{lstlisting.1.-1}}
\@writefile{lot}{\contentsline {table}{\numberline {1.1}{\ignorespaces Cabecera aplicaci\IeC {\'o}n (Get\_data).\relax }}{6}{table.caption.5}}
\newlabel{cabecera_get_data}{{1.1}{6}{Cabecera aplicación (Get\_data).\relax }{table.caption.5}{}}
\@writefile{lol}{\contentsline {lstlisting}{code/get\textunderscore data.py}{7}{lstlisting.1.-2}}
\@writefile{lot}{\contentsline {table}{\numberline {1.2}{\ignorespaces Funci\IeC {\'o}n (Get\_data).\relax }}{7}{table.caption.6}}
\newlabel{metodo_get_data}{{1.2}{7}{Función (Get\_data).\relax }{table.caption.6}{}}
\@writefile{toc}{\contentsline {subsection}{\numberline {1.1.2}Frequencies}{8}{subsection.1.1.2}}
\@writefile{lol}{\contentsline {lstlisting}{code/Frequencies.py}{8}{lstlisting.1.-3}}
\@writefile{lot}{\contentsline {table}{\numberline {1.3}{\ignorespaces Cabecera (Frequencies).\relax }}{8}{table.caption.7}}
\newlabel{Frequencies_cabecera}{{1.3}{8}{Cabecera (Frequencies).\relax }{table.caption.7}{}}
\@writefile{toc}{\contentsline {subsection}{\numberline {1.1.3}Main}{9}{subsection.1.1.3}}
\@writefile{lol}{\contentsline {lstlisting}{code/main.py}{10}{lstlisting.1.-4}}
\@writefile{lot}{\contentsline {table}{\numberline {1.4}{\ignorespaces Librer\IeC {\'\i }as de aplicaci\IeC {\'o}n (Main).\relax }}{10}{table.caption.8}}
\newlabel{librerias_main}{{1.4}{10}{Librerías de aplicación (Main).\relax }{table.caption.8}{}}
\@writefile{lol}{\contentsline {lstlisting}{code/main.py}{10}{lstlisting.1.-5}}
\@writefile{lot}{\contentsline {table}{\numberline {1.5}{\ignorespaces Diagrama de la se\IeC {\~n}al (Main).\relax }}{10}{table.caption.9}}
\newlabel{primer_parte_main}{{1.5}{10}{Diagrama de la señal (Main).\relax }{table.caption.9}{}}
\@writefile{lol}{\contentsline {lstlisting}{code/main.py}{11}{lstlisting.1.-6}}
\@writefile{lot}{\contentsline {table}{\numberline {1.6}{\ignorespaces Diagrama de barras de la se\IeC {\~n}al (Main).\relax }}{11}{table.caption.10}}
\newlabel{segunda_parte_main}{{1.6}{11}{Diagrama de barras de la señal (Main).\relax }{table.caption.10}{}}
\@writefile{lof}{\contentsline {figure}{\numberline {1.2}{\ignorespaces Aplicaci\IeC {\'o}n de lectura de se\IeC {\~n}al EEG.\relax }}{11}{figure.caption.11}}
\newlabel{Python_app}{{1.2}{11}{Aplicación de lectura de señal EEG.\relax }{figure.caption.11}{}}
\@writefile{toc}{\contentsline {chapter}{\numberline {2}C\IeC {\'o}digo Teensy}{12}{chapter.2}}
\@writefile{lof}{\addvspace {10\p@ }}
\@writefile{lot}{\addvspace {10\p@ }}
\@writefile{lol}{\contentsline {lstlisting}{code/EEG\textunderscore analogread\textunderscore fft\textunderscore 4chans.ino}{12}{lstlisting.2.-7}}
\@writefile{lot}{\contentsline {table}{\numberline {2.1}{\ignorespaces Librer\IeC {\'\i }a arduino.\relax }}{12}{table.caption.12}}
\newlabel{libreria_arduino}{{2.1}{12}{Librería arduino.\relax }{table.caption.12}{}}
\@writefile{toc}{\contentsline {section}{\numberline {2.1}Variables}{13}{section.2.1}}
\@writefile{lol}{\contentsline {lstlisting}{code/EEG\textunderscore analogread\textunderscore fft\textunderscore 4chans.ino}{13}{lstlisting.2.-8}}
\@writefile{lot}{\contentsline {table}{\numberline {2.2}{\ignorespaces Variables declaradas.\relax }}{13}{table.caption.13}}
\newlabel{variables_arduino}{{2.2}{13}{Variables declaradas.\relax }{table.caption.13}{}}
\@writefile{toc}{\contentsline {section}{\numberline {2.2}Recolecci\IeC {\'o}n datos}{14}{section.2.2}}
\@writefile{toc}{\contentsline {subsection}{\numberline {2.2.1}Llamada a la funci\IeC {\'o}n}{14}{subsection.2.2.1}}
\@writefile{lol}{\contentsline {lstlisting}{code/EEG\textunderscore analogread\textunderscore fft\textunderscore 4chans.ino}{14}{lstlisting.2.-9}}
\@writefile{lot}{\contentsline {table}{\numberline {2.3}{\ignorespaces Obtenci\IeC {\'o}n de datos.\relax }}{14}{table.caption.14}}
\newlabel{Obtencion_datos_arduino}{{2.3}{14}{Obtención de datos.\relax }{table.caption.14}{}}
\@writefile{toc}{\contentsline {subsection}{\numberline {2.2.2}C\IeC {\'a}lculos}{15}{subsection.2.2.2}}
\@writefile{lol}{\contentsline {lstlisting}{code/EEG\textunderscore analogread\textunderscore fft\textunderscore 4chans.ino}{15}{lstlisting.2.-10}}
\@writefile{lot}{\contentsline {table}{\numberline {2.4}{\ignorespaces Obtenci\IeC {\'o}n de datos.\relax }}{15}{table.caption.15}}
\newlabel{Obtencion_datos_dos_arduino}{{2.4}{15}{Obtención de datos.\relax }{table.caption.15}{}}
\@writefile{toc}{\contentsline {subsection}{\numberline {2.2.3}Elecci\IeC {\'o}n del canal}{15}{subsection.2.2.3}}
\@writefile{lol}{\contentsline {lstlisting}{code/EEG\textunderscore analogread\textunderscore fft\textunderscore 4chans.ino}{16}{lstlisting.2.-11}}
\@writefile{lot}{\contentsline {table}{\numberline {2.5}{\ignorespaces Obtenci\IeC {\'o}n de datos en cada uno de los canales.\relax }}{16}{table.caption.16}}
\newlabel{canales_arduino}{{2.5}{16}{Obtención de datos en cada uno de los canales.\relax }{table.caption.16}{}}
\@writefile{toc}{\contentsline {section}{\numberline {2.3}FFT}{16}{section.2.3}}
\@writefile{lol}{\contentsline {lstlisting}{code/EEG\textunderscore analogread\textunderscore fft\textunderscore 4chans.ino}{16}{lstlisting.2.-12}}
\@writefile{lot}{\contentsline {table}{\numberline {2.6}{\ignorespaces Fast Fourier Transform.\relax }}{16}{table.caption.17}}
\newlabel{fft_arduino}{{2.6}{16}{Fast Fourier Transform.\relax }{table.caption.17}{}}
\@writefile{toc}{\contentsline {section}{\numberline {2.4}Subfrecuencias}{17}{section.2.4}}
\@writefile{lol}{\contentsline {lstlisting}{code/EEG\textunderscore analogread\textunderscore fft\textunderscore 4chans.ino}{17}{lstlisting.2.-13}}
\@writefile{lot}{\contentsline {table}{\numberline {2.7}{\ignorespaces Funci\IeC {\'o}n \textit  {frequencies} y escritura \textit  {Serial}.\relax }}{17}{table.caption.18}}
\newlabel{frequencies}{{2.7}{17}{Función \textit {frequencies} y escritura \textit {Serial}.\relax }{table.caption.18}{}}
\@writefile{lol}{\contentsline {lstlisting}{code/EEG\textunderscore analogread\textunderscore fft\textunderscore 4chans.ino}{18}{lstlisting.2.-14}}
\@writefile{lot}{\contentsline {table}{\numberline {2.8}{\ignorespaces Divisi\IeC {\'o}n en grupos de frecuencias.\relax }}{18}{table.caption.19}}
\newlabel{subfrequencies}{{2.8}{18}{División en grupos de frecuencias.\relax }{table.caption.19}{}}
\@writefile{lol}{\contentsline {lstlisting}{code/EEG\textunderscore analogread\textunderscore fft\textunderscore 4chans.ino}{18}{lstlisting.2.-15}}
\@writefile{lot}{\contentsline {table}{\numberline {2.9}{\ignorespaces Media aritm\IeC {\'e}tica de grupos de frecuencias.\relax }}{18}{table.caption.20}}
\newlabel{median}{{2.9}{18}{Media aritmética de grupos de frecuencias.\relax }{table.caption.20}{}}
\@writefile{toc}{\contentsline {chapter}{\numberline {A}C\IeC {\'o}digo en Python}{19}{appendix.Alph1}}
\@writefile{lof}{\addvspace {10\p@ }}
\@writefile{lot}{\addvspace {10\p@ }}
\newlabel{aped.A}{{A}{19}{Código en Python}{appendix.Alph1}{}}
\@writefile{toc}{\contentsline {section}{\numberline {A.1}Main.py}{19}{section.Alph1.1}}
\@writefile{lol}{\contentsline {lstlisting}{code/main.py}{19}{lstlisting.Alph1.-16}}
\@writefile{toc}{\contentsline {section}{\numberline {A.2}Get\_data.py}{23}{section.Alph1.2}}
\@writefile{lol}{\contentsline {lstlisting}{code/Get\textunderscore data.py}{23}{lstlisting.Alph1.-17}}
\@writefile{toc}{\contentsline {section}{\numberline {A.3}Frequencies}{24}{section.Alph1.3}}
\@writefile{lol}{\contentsline {lstlisting}{code/Frequencies.py}{24}{lstlisting.Alph1.-18}}
\@writefile{toc}{\contentsline {chapter}{\numberline {B}C\IeC {\'o}digo en C}{27}{appendix.Alph2}}
\@writefile{lof}{\addvspace {10\p@ }}
\@writefile{lot}{\addvspace {10\p@ }}
\newlabel{aped.B}{{B}{27}{Código en C}{appendix.Alph2}{}}
\@writefile{lol}{\contentsline {lstlisting}{code/EEG\textunderscore analogread\textunderscore fft\textunderscore 4chans.ino}{27}{lstlisting.Alph2.-19}}
