\begin{thebibliography}{1}

\bibitem{eeg}
Eeg with an arduino.
\newblock
  https://sites.google.com/site/chipstein/home-page/eeg-with-an-arduino.

\bibitem{migrania}
C.~Neurofeedback.
\newblock Curar migrañas y dolores de cabeza con neurofeedback.
\newblock How it was published, 2018.
\newblock http://www.neurofeedback.cat/migranas-y-dolores-de-cabeza-mnu-25.

\bibitem{tfg}
Estudio y diseño de un sistema interfaz cerebro-computador de bajo coste con
  módulo arduino.

\end{thebibliography}
