%!PS-Adobe-3.0 EPSF-3.0
%%Creator: (MATLAB, The Mathworks, Inc. Version 8.5.0.197613 \(R2015a\). Operating System: Windows 8)
%%Title: (C:/Users/aleja/Desktop/TFG/Documentaci\363n/Obtenci\363n de datos/matlab_plot/plots/alvaro12-14.eps)
%%CreationDate: 2019-05-22T11:00:51
%%Pages: (atend)
%%BoundingBox: 0 0 420 315
%%LanguageLevel: 2
%%EndComments
%%BeginProlog
%%BeginResource: procset (Apache XML Graphics Std ProcSet) 1.2 0
%%Version: 1.2 0
%%Copyright: (Copyright 2001-2003,2010 The Apache Software Foundation. License terms: http://www.apache.org/licenses/LICENSE-2.0)
/bd{bind def}bind def
/ld{load def}bd
/GR/grestore ld
/M/moveto ld
/LJ/setlinejoin ld
/C/curveto ld
/f/fill ld
/LW/setlinewidth ld
/GC/setgray ld
/t/show ld
/N/newpath ld
/CT/concat ld
/cp/closepath ld
/S/stroke ld
/L/lineto ld
/CC/setcmykcolor ld
/A/ashow ld
/GS/gsave ld
/RC/setrgbcolor ld
/RM/rmoveto ld
/ML/setmiterlimit ld
/re {4 2 roll M
1 index 0 rlineto
0 exch rlineto
neg 0 rlineto
cp } bd
/_ctm matrix def
/_tm matrix def
/BT { _ctm currentmatrix pop matrix _tm copy pop 0 0 moveto } bd
/ET { _ctm setmatrix } bd
/iTm { _ctm setmatrix _tm concat } bd
/Tm { _tm astore pop iTm 0 0 moveto } bd
/ux 0.0 def
/uy 0.0 def
/F {
  /Tp exch def
  /Tf exch def
  Tf findfont Tp scalefont setfont
  /cf Tf def  /cs Tp def
} bd
/ULS {currentpoint /uy exch def /ux exch def} bd
/ULE {
  /Tcx currentpoint pop def
  gsave
  newpath
  cf findfont cs scalefont dup
  /FontMatrix get 0 get /Ts exch def /FontInfo get dup
  /UnderlinePosition get Ts mul /To exch def
  /UnderlineThickness get Ts mul /Tt exch def
  ux uy To add moveto  Tcx uy To add lineto
  Tt setlinewidth stroke
  grestore
} bd
/OLE {
  /Tcx currentpoint pop def
  gsave
  newpath
  cf findfont cs scalefont dup
  /FontMatrix get 0 get /Ts exch def /FontInfo get dup
  /UnderlinePosition get Ts mul /To exch def
  /UnderlineThickness get Ts mul /Tt exch def
  ux uy To add cs add moveto Tcx uy To add cs add lineto
  Tt setlinewidth stroke
  grestore
} bd
/SOE {
  /Tcx currentpoint pop def
  gsave
  newpath
  cf findfont cs scalefont dup
  /FontMatrix get 0 get /Ts exch def /FontInfo get dup
  /UnderlinePosition get Ts mul /To exch def
  /UnderlineThickness get Ts mul /Tt exch def
  ux uy To add cs 10 mul 26 idiv add moveto Tcx uy To add cs 10 mul 26 idiv add lineto
  Tt setlinewidth stroke
  grestore
} bd
/QT {
/Y22 exch store
/X22 exch store
/Y21 exch store
/X21 exch store
currentpoint
/Y21 load 2 mul add 3 div exch
/X21 load 2 mul add 3 div exch
/X21 load 2 mul /X22 load add 3 div
/Y21 load 2 mul /Y22 load add 3 div
/X22 load /Y22 load curveto
} bd
/SSPD {
dup length /d exch dict def
{
/v exch def
/k exch def
currentpagedevice k known {
/cpdv currentpagedevice k get def
v cpdv ne {
/upd false def
/nullv v type /nulltype eq def
/nullcpdv cpdv type /nulltype eq def
nullv nullcpdv or
{
/upd true def
} {
/sametype v type cpdv type eq def
sametype {
v type /arraytype eq {
/vlen v length def
/cpdvlen cpdv length def
vlen cpdvlen eq {
0 1 vlen 1 sub {
/i exch def
/obj v i get def
/cpdobj cpdv i get def
obj cpdobj ne {
/upd true def
exit
} if
} for
} {
/upd true def
} ifelse
} {
v type /dicttype eq {
v {
/dv exch def
/dk exch def
/cpddv cpdv dk get def
dv cpddv ne {
/upd true def
exit
} if
} forall
} {
/upd true def
} ifelse
} ifelse
} if
} ifelse
upd true eq {
d k v put
} if
} if
} if
} forall
d length 0 gt {
d setpagedevice
} if
} bd
%%EndResource
%%BeginResource: procset (Apache XML Graphics EPS ProcSet) 1.0 0
%%Version: 1.0 0
%%Copyright: (Copyright 2002-2003 The Apache Software Foundation. License terms: http://www.apache.org/licenses/LICENSE-2.0)
/BeginEPSF { %def
/b4_Inc_state save def         % Save state for cleanup
/dict_count countdictstack def % Count objects on dict stack
/op_count count 1 sub def      % Count objects on operand stack
userdict begin                 % Push userdict on dict stack
/showpage { } def              % Redefine showpage, { } = null proc
0 setgray 0 setlinecap         % Prepare graphics state
1 setlinewidth 0 setlinejoin
10 setmiterlimit [ ] 0 setdash newpath
/languagelevel where           % If level not equal to 1 then
{pop languagelevel             % set strokeadjust and
1 ne                           % overprint to their defaults.
{false setstrokeadjust false setoverprint
} if
} if
} bd
/EndEPSF { %def
count op_count sub {pop} repeat            % Clean up stacks
countdictstack dict_count sub {end} repeat
b4_Inc_state restore
} bd
%%EndResource
%FOPBeginFontDict
%%IncludeResource: font Courier-Bold
%%IncludeResource: font Helvetica
%%IncludeResource: font Courier-BoldOblique
%%IncludeResource: font Courier-Oblique
%%IncludeResource: font Times-Roman
%%IncludeResource: font Helvetica-BoldOblique
%%IncludeResource: font Helvetica-Bold
%%IncludeResource: font Helvetica-Oblique
%%IncludeResource: font Times-BoldItalic
%%IncludeResource: font Courier
%%IncludeResource: font Times-Italic
%%IncludeResource: font Times-Bold
%%IncludeResource: font Symbol
%%IncludeResource: font ZapfDingbats
%FOPEndFontDict
%%BeginResource: encoding WinAnsiEncoding
/WinAnsiEncoding [
/.notdef /.notdef /.notdef /.notdef /.notdef
/.notdef /.notdef /.notdef /.notdef /.notdef
/.notdef /.notdef /.notdef /.notdef /.notdef
/.notdef /.notdef /.notdef /.notdef /.notdef
/.notdef /.notdef /.notdef /.notdef /.notdef
/.notdef /.notdef /.notdef /.notdef /.notdef
/.notdef /.notdef /space /exclam /quotedbl
/numbersign /dollar /percent /ampersand /quotesingle
/parenleft /parenright /asterisk /plus /comma
/hyphen /period /slash /zero /one
/two /three /four /five /six
/seven /eight /nine /colon /semicolon
/less /equal /greater /question /at
/A /B /C /D /E
/F /G /H /I /J
/K /L /M /N /O
/P /Q /R /S /T
/U /V /W /X /Y
/Z /bracketleft /backslash /bracketright /asciicircum
/underscore /quoteleft /a /b /c
/d /e /f /g /h
/i /j /k /l /m
/n /o /p /q /r
/s /t /u /v /w
/x /y /z /braceleft /bar
/braceright /asciitilde /bullet /Euro /bullet
/quotesinglbase /florin /quotedblbase /ellipsis /dagger
/daggerdbl /circumflex /perthousand /Scaron /guilsinglleft
/OE /bullet /Zcaron /bullet /bullet
/quoteleft /quoteright /quotedblleft /quotedblright /bullet
/endash /emdash /asciitilde /trademark /scaron
/guilsinglright /oe /bullet /zcaron /Ydieresis
/space /exclamdown /cent /sterling /currency
/yen /brokenbar /section /dieresis /copyright
/ordfeminine /guillemotleft /logicalnot /sfthyphen /registered
/macron /degree /plusminus /twosuperior /threesuperior
/acute /mu /paragraph /middot /cedilla
/onesuperior /ordmasculine /guillemotright /onequarter /onehalf
/threequarters /questiondown /Agrave /Aacute /Acircumflex
/Atilde /Adieresis /Aring /AE /Ccedilla
/Egrave /Eacute /Ecircumflex /Edieresis /Igrave
/Iacute /Icircumflex /Idieresis /Eth /Ntilde
/Ograve /Oacute /Ocircumflex /Otilde /Odieresis
/multiply /Oslash /Ugrave /Uacute /Ucircumflex
/Udieresis /Yacute /Thorn /germandbls /agrave
/aacute /acircumflex /atilde /adieresis /aring
/ae /ccedilla /egrave /eacute /ecircumflex
/edieresis /igrave /iacute /icircumflex /idieresis
/eth /ntilde /ograve /oacute /ocircumflex
/otilde /odieresis /divide /oslash /ugrave
/uacute /ucircumflex /udieresis /yacute /thorn
/ydieresis
] def
%%EndResource
%FOPBeginFontReencode
/Courier-Bold findfont
dup length dict begin
  {1 index /FID ne {def} {pop pop} ifelse} forall
  /Encoding WinAnsiEncoding def
  currentdict
end
/Courier-Bold exch definefont pop
/Helvetica findfont
dup length dict begin
  {1 index /FID ne {def} {pop pop} ifelse} forall
  /Encoding WinAnsiEncoding def
  currentdict
end
/Helvetica exch definefont pop
/Courier-BoldOblique findfont
dup length dict begin
  {1 index /FID ne {def} {pop pop} ifelse} forall
  /Encoding WinAnsiEncoding def
  currentdict
end
/Courier-BoldOblique exch definefont pop
/Courier-Oblique findfont
dup length dict begin
  {1 index /FID ne {def} {pop pop} ifelse} forall
  /Encoding WinAnsiEncoding def
  currentdict
end
/Courier-Oblique exch definefont pop
/Times-Roman findfont
dup length dict begin
  {1 index /FID ne {def} {pop pop} ifelse} forall
  /Encoding WinAnsiEncoding def
  currentdict
end
/Times-Roman exch definefont pop
/Helvetica-BoldOblique findfont
dup length dict begin
  {1 index /FID ne {def} {pop pop} ifelse} forall
  /Encoding WinAnsiEncoding def
  currentdict
end
/Helvetica-BoldOblique exch definefont pop
/Helvetica-Bold findfont
dup length dict begin
  {1 index /FID ne {def} {pop pop} ifelse} forall
  /Encoding WinAnsiEncoding def
  currentdict
end
/Helvetica-Bold exch definefont pop
/Helvetica-Oblique findfont
dup length dict begin
  {1 index /FID ne {def} {pop pop} ifelse} forall
  /Encoding WinAnsiEncoding def
  currentdict
end
/Helvetica-Oblique exch definefont pop
/Times-BoldItalic findfont
dup length dict begin
  {1 index /FID ne {def} {pop pop} ifelse} forall
  /Encoding WinAnsiEncoding def
  currentdict
end
/Times-BoldItalic exch definefont pop
/Courier findfont
dup length dict begin
  {1 index /FID ne {def} {pop pop} ifelse} forall
  /Encoding WinAnsiEncoding def
  currentdict
end
/Courier exch definefont pop
/Times-Italic findfont
dup length dict begin
  {1 index /FID ne {def} {pop pop} ifelse} forall
  /Encoding WinAnsiEncoding def
  currentdict
end
/Times-Italic exch definefont pop
/Times-Bold findfont
dup length dict begin
  {1 index /FID ne {def} {pop pop} ifelse} forall
  /Encoding WinAnsiEncoding def
  currentdict
end
/Times-Bold exch definefont pop
%FOPEndFontReencode
%%EndProlog
%%Page: 1 1
%%PageBoundingBox: 0 0 420 315
%%BeginPageSetup
[1 0 0 -1 0 315] CT
%%EndPageSetup
GS
[0.75 0 0 0.75 0 0] CT
1 GC
N
0 0 560 420 re
f
GR
GS
[0.75 0 0 0.75 0 0] CT
1 GC
N
0 0 560 420 re
f
GR
GS
[0.75 0 0 0.75 0 0] CT
1 GC
N
73 374 M
507 374 L
507 31 L
73 31 L
cp
f
GR
GS
[0.75 0 0 0.75 0 0] CT
0.149 GC
2 setlinecap
10.0 ML
N
73 374 M
507 374 L
S
GR
GS
[0.75 0 0 0.75 0 0] CT
0.149 GC
2 setlinecap
10.0 ML
N
73 31 M
507 31 L
S
GR
GS
[0.75 0 0 0.75 0 0] CT
0.149 GC
2 setlinecap
10.0 ML
N
73 374 M
73 369.66 L
S
GR
GS
[0.75 0 0 0.75 0 0] CT
0.149 GC
2 setlinecap
10.0 ML
N
127.25 374 M
127.25 369.66 L
S
GR
GS
[0.75 0 0 0.75 0 0] CT
0.149 GC
2 setlinecap
10.0 ML
N
181.5 374 M
181.5 369.66 L
S
GR
GS
[0.75 0 0 0.75 0 0] CT
0.149 GC
2 setlinecap
10.0 ML
N
235.75 374 M
235.75 369.66 L
S
GR
GS
[0.75 0 0 0.75 0 0] CT
0.149 GC
2 setlinecap
10.0 ML
N
290 374 M
290 369.66 L
S
GR
GS
[0.75 0 0 0.75 0 0] CT
0.149 GC
2 setlinecap
10.0 ML
N
344.25 374 M
344.25 369.66 L
S
GR
GS
[0.75 0 0 0.75 0 0] CT
0.149 GC
2 setlinecap
10.0 ML
N
398.5 374 M
398.5 369.66 L
S
GR
GS
[0.75 0 0 0.75 0 0] CT
0.149 GC
2 setlinecap
10.0 ML
N
452.75 374 M
452.75 369.66 L
S
GR
GS
[0.75 0 0 0.75 0 0] CT
0.149 GC
2 setlinecap
10.0 ML
N
507 374 M
507 369.66 L
S
GR
GS
[0.75 0 0 0.75 0 0] CT
0.149 GC
2 setlinecap
10.0 ML
N
73 31 M
73 35.34 L
S
GR
GS
[0.75 0 0 0.75 0 0] CT
0.149 GC
2 setlinecap
10.0 ML
N
127.25 31 M
127.25 35.34 L
S
GR
GS
[0.75 0 0 0.75 0 0] CT
0.149 GC
2 setlinecap
10.0 ML
N
181.5 31 M
181.5 35.34 L
S
GR
GS
[0.75 0 0 0.75 0 0] CT
0.149 GC
2 setlinecap
10.0 ML
N
235.75 31 M
235.75 35.34 L
S
GR
GS
[0.75 0 0 0.75 0 0] CT
0.149 GC
2 setlinecap
10.0 ML
N
290 31 M
290 35.34 L
S
GR
GS
[0.75 0 0 0.75 0 0] CT
0.149 GC
2 setlinecap
10.0 ML
N
344.25 31 M
344.25 35.34 L
S
GR
GS
[0.75 0 0 0.75 0 0] CT
0.149 GC
2 setlinecap
10.0 ML
N
398.5 31 M
398.5 35.34 L
S
GR
GS
[0.75 0 0 0.75 0 0] CT
0.149 GC
2 setlinecap
10.0 ML
N
452.75 31 M
452.75 35.34 L
S
GR
GS
[0.75 0 0 0.75 0 0] CT
0.149 GC
2 setlinecap
10.0 ML
N
507 31 M
507 35.34 L
S
GR
GS
[0.75 0 0 0.75 54.75 284.49998] CT
0.149 GC
/Helvetica 13 F
GS
[1 0 0 1 0 0] CT
-4 14 moveto 
1 -1 scale
(0) t 
GR
GR
GS
[0.75 0 0 0.75 95.4375 284.49998] CT
0.149 GC
/Helvetica 13 F
GS
[1 0 0 1 0 0] CT
-11 14 moveto 
1 -1 scale
(100) t 
GR
GR
GS
[0.75 0 0 0.75 136.125 284.49998] CT
0.149 GC
/Helvetica 13 F
GS
[1 0 0 1 0 0] CT
-11 14 moveto 
1 -1 scale
(200) t 
GR
GR
GS
[0.75 0 0 0.75 176.8125 284.49998] CT
0.149 GC
/Helvetica 13 F
GS
[1 0 0 1 0 0] CT
-11 14 moveto 
1 -1 scale
(300) t 
GR
GR
GS
[0.75 0 0 0.75 217.5 284.49998] CT
0.149 GC
/Helvetica 13 F
GS
[1 0 0 1 0 0] CT
-11 14 moveto 
1 -1 scale
(400) t 
GR
GR
GS
[0.75 0 0 0.75 258.1875 284.49998] CT
0.149 GC
/Helvetica 13 F
GS
[1 0 0 1 0 0] CT
-11 14 moveto 
1 -1 scale
(500) t 
GR
GR
GS
[0.75 0 0 0.75 298.875 284.49998] CT
0.149 GC
/Helvetica 13 F
GS
[1 0 0 1 0 0] CT
-11 14 moveto 
1 -1 scale
(600) t 
GR
GR
GS
[0.75 0 0 0.75 339.5625 284.49998] CT
0.149 GC
/Helvetica 13 F
GS
[1 0 0 1 0 0] CT
-11 14 moveto 
1 -1 scale
(700) t 
GR
GR
GS
[0.75 0 0 0.75 380.25 284.49998] CT
0.149 GC
/Helvetica 13 F
GS
[1 0 0 1 0 0] CT
-11 14 moveto 
1 -1 scale
(800) t 
GR
GR
GS
[0.75 0 0 0.75 0 0] CT
0.149 GC
2 setlinecap
10.0 ML
N
73 374 M
73 31 L
S
GR
GS
[0.75 0 0 0.75 0 0] CT
0.149 GC
2 setlinecap
10.0 ML
N
507 374 M
507 31 L
S
GR
GS
[0.75 0 0 0.75 0 0] CT
0.149 GC
2 setlinecap
10.0 ML
N
73 374 M
77.34 374 L
S
GR
GS
[0.75 0 0 0.75 0 0] CT
0.149 GC
2 setlinecap
10.0 ML
N
73 325 M
77.34 325 L
S
GR
GS
[0.75 0 0 0.75 0 0] CT
0.149 GC
2 setlinecap
10.0 ML
N
73 276 M
77.34 276 L
S
GR
GS
[0.75 0 0 0.75 0 0] CT
0.149 GC
2 setlinecap
10.0 ML
N
73 227 M
77.34 227 L
S
GR
GS
[0.75 0 0 0.75 0 0] CT
0.149 GC
2 setlinecap
10.0 ML
N
73 178 M
77.34 178 L
S
GR
GS
[0.75 0 0 0.75 0 0] CT
0.149 GC
2 setlinecap
10.0 ML
N
73 129 M
77.34 129 L
S
GR
GS
[0.75 0 0 0.75 0 0] CT
0.149 GC
2 setlinecap
10.0 ML
N
73 80 M
77.34 80 L
S
GR
GS
[0.75 0 0 0.75 0 0] CT
0.149 GC
2 setlinecap
10.0 ML
N
73 31 M
77.34 31 L
S
GR
GS
[0.75 0 0 0.75 0 0] CT
0.149 GC
2 setlinecap
10.0 ML
N
507 374 M
502.66 374 L
S
GR
GS
[0.75 0 0 0.75 0 0] CT
0.149 GC
2 setlinecap
10.0 ML
N
507 325 M
502.66 325 L
S
GR
GS
[0.75 0 0 0.75 0 0] CT
0.149 GC
2 setlinecap
10.0 ML
N
507 276 M
502.66 276 L
S
GR
GS
[0.75 0 0 0.75 0 0] CT
0.149 GC
2 setlinecap
10.0 ML
N
507 227 M
502.66 227 L
S
GR
GS
[0.75 0 0 0.75 0 0] CT
0.149 GC
2 setlinecap
10.0 ML
N
507 178 M
502.66 178 L
S
GR
GS
[0.75 0 0 0.75 0 0] CT
0.149 GC
2 setlinecap
10.0 ML
N
507 129 M
502.66 129 L
S
GR
GS
[0.75 0 0 0.75 0 0] CT
0.149 GC
2 setlinecap
10.0 ML
N
507 80 M
502.66 80 L
S
GR
GS
[0.75 0 0 0.75 0 0] CT
0.149 GC
2 setlinecap
10.0 ML
N
507 31 M
502.66 31 L
S
GR
GS
[0.75 0 0 0.75 50.75 280.5] CT
0.149 GC
/Helvetica 13 F
GS
[1 0 0 1 0 0] CT
-22 5.5 moveto 
1 -1 scale
(450) t 
GR
GR
GS
[0.75 0 0 0.75 50.75 243.75] CT
0.149 GC
/Helvetica 13 F
GS
[1 0 0 1 0 0] CT
-22 5.5 moveto 
1 -1 scale
(500) t 
GR
GR
GS
[0.75 0 0 0.75 50.75 207] CT
0.149 GC
/Helvetica 13 F
GS
[1 0 0 1 0 0] CT
-22 5.5 moveto 
1 -1 scale
(550) t 
GR
GR
GS
[0.75 0 0 0.75 50.75 170.25] CT
0.149 GC
/Helvetica 13 F
GS
[1 0 0 1 0 0] CT
-22 5.5 moveto 
1 -1 scale
(600) t 
GR
GR
GS
[0.75 0 0 0.75 50.75 133.5] CT
0.149 GC
/Helvetica 13 F
GS
[1 0 0 1 0 0] CT
-22 5.5 moveto 
1 -1 scale
(650) t 
GR
GR
GS
[0.75 0 0 0.75 50.75 96.75] CT
0.149 GC
/Helvetica 13 F
GS
[1 0 0 1 0 0] CT
-22 5.5 moveto 
1 -1 scale
(700) t 
GR
GR
GS
[0.75 0 0 0.75 50.75 60] CT
0.149 GC
/Helvetica 13 F
GS
[1 0 0 1 0 0] CT
-22 5.5 moveto 
1 -1 scale
(750) t 
GR
GR
GS
[0.75 0 0 0.75 50.75 23.25] CT
0.149 GC
/Helvetica 13 F
GS
[1 0 0 1 0 0] CT
-22 5.5 moveto 
1 -1 scale
(800) t 
GR
GR
GS
[0.75 0 0 0.75 0 0] CT
0 0.447 0.741 RC
2 LJ
N
73.543 237.388 M
74.085 237.329 L
74.628 237.809 L
75.17 238.162 L
75.713 238.26 L
76.255 237.525 L
76.798 234.624 L
77.34 232.302 L
77.882 231.655 L
78.425 232.174 L
78.967 232.39 L
79.51 232.027 L
80.052 231.714 L
80.595 231.969 L
81.137 232.664 L
81.68 232.615 L
82.223 233.419 L
82.765 233.566 L
83.308 233.007 L
83.85 232.106 L
84.393 231.312 L
84.935 232.174 L
85.478 233.429 L
86.02 233.713 L
86.563 235.154 L
87.105 235.428 L
87.647 234.507 L
88.19 233.909 L
88.732 233.292 L
89.275 232.841 L
89.817 233.047 L
90.36 233.301 L
90.902 232.684 L
91.445 232.478 L
91.988 232.4 L
92.53 232.478 L
93.073 232.263 L
93.615 232.429 L
94.158 232.468 L
94.7 232.606 L
95.243 232.576 L
95.785 232.165 L
96.327 232.733 L
96.87 232.41 L
97.412 232.233 L
97.955 232.086 L
98.497 232.468 L
99.04 232.547 L
99.582 232.429 L
100.125 232.282 L
S
GR
GS
[0.75 0 0 0.75 0 0] CT
0 0.447 0.741 RC
2 LJ
N
100.125 232.282 M
100.668 232.89 L
101.21 231.988 L
101.753 232.566 L
102.295 233.164 L
102.838 234.213 L
103.38 234.419 L
103.923 233.752 L
104.465 233.056 L
105.007 232.998 L
105.55 233.223 L
106.092 232.37 L
106.635 232.419 L
107.177 233.203 L
107.72 233.37 L
108.262 232.909 L
108.805 232.811 L
109.348 232.4 L
109.89 232.41 L
110.433 232.341 L
110.975 232.753 L
111.518 232.527 L
112.06 231.959 L
112.603 230.851 L
113.145 230.92 L
113.688 230.979 L
114.23 231.704 L
114.772 230.116 L
115.315 229.195 L
115.857 229.587 L
116.4 229.548 L
116.942 227.176 L
117.485 227.862 L
118.027 230.969 L
118.57 231.018 L
119.113 230.587 L
119.655 231.263 L
120.198 231.263 L
120.74 231.939 L
121.283 231.43 L
121.825 231.057 L
122.368 230.704 L
122.91 230.342 L
123.452 229.773 L
123.995 229.558 L
124.537 230.352 L
125.08 230.205 L
125.622 230.342 L
126.165 229.685 L
126.707 230.381 L
S
GR
GS
[0.75 0 0 0.75 0 0] CT
0 0.447 0.741 RC
2 LJ
N
126.707 230.381 M
127.25 230.381 L
127.793 230.43 L
128.335 230.156 L
128.878 230.43 L
129.42 230.45 L
129.962 229.597 L
130.505 229.47 L
131.048 229.626 L
131.59 228.303 L
132.133 228.235 L
132.675 227.706 L
133.217 227.235 L
133.76 227.461 L
134.303 227.372 L
134.845 226.539 L
135.387 225.559 L
135.93 225.491 L
136.473 226.167 L
137.015 227.216 L
137.557 228.127 L
138.1 229.185 L
138.643 229.078 L
139.185 230.538 L
139.727 231.88 L
140.27 232.939 L
140.813 233.595 L
141.355 235.144 L
141.898 236.094 L
142.44 236.261 L
142.982 235.742 L
143.525 236.104 L
144.068 236.594 L
144.61 236.643 L
145.152 236.8 L
145.695 237.437 L
146.238 237.888 L
146.78 237.8 L
147.322 237.8 L
147.865 236.937 L
148.408 237.515 L
148.95 237.368 L
149.492 237.427 L
150.035 236.918 L
150.577 236.624 L
151.12 236.8 L
151.663 236.418 L
152.205 236.967 L
152.747 236.526 L
153.29 236.888 L
S
GR
GS
[0.75 0 0 0.75 0 0] CT
0 0.447 0.741 RC
2 LJ
N
153.29 236.888 M
153.833 237.388 L
154.375 237.212 L
154.917 238.28 L
155.46 237.78 L
156.003 237.3 L
156.545 236.663 L
157.087 236.094 L
157.63 235.526 L
158.173 235.085 L
158.715 234.193 L
159.258 233.615 L
159.8 233.125 L
160.342 232.4 L
160.885 232.214 L
161.428 232.155 L
161.97 232.655 L
162.512 234.654 L
163.055 238.084 L
163.598 240.406 L
164.14 241.935 L
164.682 243.219 L
165.225 244.552 L
165.768 245.875 L
166.31 246.982 L
166.852 248.344 L
167.395 250.079 L
167.938 251.206 L
168.48 252.166 L
169.023 252.274 L
169.565 252.745 L
170.107 253.558 L
170.65 254.695 L
171.193 255.616 L
171.735 255.498 L
172.277 255.734 L
172.82 256.312 L
173.363 256.243 L
173.905 255.273 L
174.447 254.048 L
174.99 253.166 L
175.533 253.039 L
176.075 253.45 L
176.617 252.5 L
177.16 252.166 L
177.702 251.951 L
178.245 251.382 L
178.788 251.52 L
179.33 251.324 L
179.872 250.5 L
S
GR
GS
[0.75 0 0 0.75 0 0] CT
0 0.447 0.741 RC
2 LJ
N
179.872 250.5 M
180.415 249.462 L
180.958 247.717 L
181.5 247.727 L
182.042 246.953 L
182.585 246.561 L
183.128 245.63 L
183.67 245.287 L
184.212 244.934 L
184.755 244.483 L
185.298 243.346 L
185.84 242.464 L
186.383 242.298 L
186.925 242.249 L
187.467 241.318 L
188.01 240.994 L
188.553 240.436 L
189.095 240.544 L
189.637 241.308 L
190.18 244.856 L
190.723 256.126 L
191.265 252.647 L
191.807 251.716 L
192.35 250.961 L
192.893 251.951 L
193.435 255.832 L
193.977 256.861 L
194.52 257.115 L
195.063 256.714 L
195.605 255.724 L
196.148 251.333 L
196.69 233.233 L
197.232 208.145 L
197.775 209.076 L
198.318 211.996 L
198.86 215.367 L
199.402 220.228 L
199.945 224.178 L
200.488 228.039 L
201.03 230.606 L
201.572 232.792 L
202.115 234.811 L
202.658 236.33 L
203.2 237.917 L
203.742 238.397 L
204.285 238.985 L
204.827 239.799 L
205.37 241.181 L
205.913 241.249 L
206.455 241.68 L
S
GR
GS
[0.75 0 0 0.75 0 0] CT
0 0.447 0.741 RC
2 LJ
N
206.455 241.68 M
206.997 241.573 L
207.54 241.857 L
208.083 241.984 L
208.625 242.317 L
209.167 242.239 L
209.71 242.543 L
210.253 243.16 L
210.795 242.984 L
211.337 243.346 L
211.88 243.346 L
212.423 243.082 L
212.965 242.994 L
213.508 243.68 L
214.05 244.513 L
214.592 246.482 L
215.135 244.317 L
215.678 243.582 L
216.22 242.2 L
216.762 241.994 L
217.305 242.043 L
217.848 242.553 L
218.39 242.239 L
218.932 241.553 L
219.475 241.798 L
220.018 241.083 L
220.56 241.043 L
221.102 240.887 L
221.645 240.906 L
222.188 240.514 L
222.73 241.533 L
223.273 241.19 L
223.815 241.171 L
224.357 241.504 L
224.9 241.396 L
225.443 240.612 L
225.985 240.651 L
226.527 240.318 L
227.07 239.671 L
227.613 239.897 L
228.155 239.681 L
228.697 239.965 L
229.24 239.995 L
229.783 241.151 L
230.325 240.828 L
230.867 240.269 L
231.41 240.847 L
231.952 240.122 L
232.495 240.112 L
233.038 240.563 L
S
GR
GS
[0.75 0 0 0.75 0 0] CT
0 0.447 0.741 RC
2 LJ
N
233.038 240.563 M
233.58 240.651 L
234.122 240.612 L
234.665 239.515 L
235.208 239.72 L
235.75 239.485 L
236.292 239.123 L
236.835 239.074 L
237.378 239.368 L
237.92 238.593 L
238.462 238.309 L
239.005 260.869 L
239.548 369.59 L
240.09 353.665 L
240.633 327.93 L
241.175 302.95 L
241.717 270.757 L
242.26 253.725 L
242.803 254.362 L
243.345 252.431 L
243.887 249.716 L
244.43 252.225 L
244.973 253.509 L
245.515 253.587 L
246.057 253.107 L
246.6 252.999 L
247.143 252.588 L
247.685 251.706 L
248.227 250.745 L
248.77 250.226 L
249.313 250.275 L
249.855 250.932 L
250.398 251.314 L
250.94 251.422 L
251.482 250.128 L
252.025 250.422 L
252.568 249.481 L
253.11 250.471 L
253.652 250.187 L
254.195 252.196 L
254.738 256.498 L
255.28 259.595 L
255.822 262.584 L
256.365 262.682 L
256.908 259.565 L
257.45 255.91 L
257.992 252.813 L
258.535 250.226 L
259.078 246.953 L
259.62 247.933 L
S
GR
GS
[0.75 0 0 0.75 0 0] CT
0 0.447 0.741 RC
2 LJ
N
259.62 247.933 M
260.163 248.844 L
260.705 248.511 L
261.247 247.727 L
261.79 247.629 L
262.332 248.178 L
262.875 247.805 L
263.418 247.894 L
263.96 249.677 L
264.503 253.048 L
265.045 253.029 L
265.587 251.373 L
266.13 251.039 L
266.672 250.197 L
267.215 246.502 L
267.758 246.414 L
268.3 247.756 L
268.842 249.961 L
269.385 250.265 L
269.927 252.843 L
270.47 254.783 L
271.013 254.891 L
271.555 259.761 L
272.098 257.792 L
272.64 259.614 L
273.182 265.112 L
273.725 263.672 L
274.267 262.868 L
274.81 261.966 L
275.353 261.878 L
275.895 259.477 L
276.438 253.323 L
276.98 242.562 L
277.522 235.359 L
278.065 237.104 L
278.608 241.386 L
279.15 244.258 L
279.693 246.737 L
280.235 253.656 L
280.777 251.539 L
281.32 254.322 L
281.862 256.028 L
282.405 263.632 L
282.948 260.075 L
283.49 260.545 L
284.033 262.241 L
284.575 259.458 L
285.117 256.478 L
285.66 252.686 L
286.203 251.921 L
S
GR
GS
[0.75 0 0 0.75 0 0] CT
0 0.447 0.741 RC
2 LJ
N
286.203 251.921 M
286.745 250.618 L
287.288 250.353 L
287.83 247.59 L
288.372 243.68 L
288.915 247.374 L
289.457 248.55 L
290 251.167 L
290.543 250.01 L
291.085 248.286 L
291.628 247.952 L
292.17 246.512 L
292.712 244.66 L
293.255 242.954 L
293.797 239.319 L
294.34 223.1 L
294.883 229.93 L
295.425 238.123 L
295.967 244.993 L
296.51 249.687 L
297.052 239.75 L
297.595 228.872 L
298.138 241.984 L
298.68 255.577 L
299.223 247.707 L
299.765 268.425 L
300.307 341.376 L
300.85 336.094 L
301.392 346.217 L
301.935 342.963 L
302.478 336.966 L
303.02 345.119 L
303.563 331.448 L
304.105 326.646 L
304.647 325.617 L
305.19 325.098 L
305.733 324.334 L
306.275 280.498 L
306.818 275.549 L
307.36 217.337 L
307.902 192.857 L
308.445 192.612 L
308.987 203.431 L
309.53 215.005 L
310.073 222.453 L
310.615 225.305 L
311.158 227.921 L
311.7 231.537 L
312.242 232.174 L
312.785 233.105 L
S
GR
GS
[0.75 0 0 0.75 0 0] CT
0 0.447 0.741 RC
2 LJ
N
312.785 233.105 M
313.328 234.517 L
313.87 236.428 L
314.413 236.957 L
314.955 236.722 L
315.497 232.811 L
316.04 218.131 L
316.582 186.007 L
317.125 164.006 L
317.668 142.72 L
318.21 136.37 L
318.753 97.64 L
319.295 86.213 L
319.837 80.617 L
320.38 73.826 L
320.922 72.689 L
321.465 77.873 L
322.008 81.215 L
322.55 92.779 L
323.092 107.803 L
323.635 122.473 L
324.177 126.178 L
324.72 129.99 L
325.263 134.439 L
325.805 141.936 L
326.348 145.131 L
326.89 145.454 L
327.432 151.648 L
327.975 158.204 L
328.517 158.38 L
329.06 161.801 L
329.603 167.632 L
330.145 169.219 L
330.688 171.13 L
331.23 172.982 L
331.772 172.208 L
332.315 172.61 L
332.858 173.884 L
333.4 176.373 L
333.943 177.549 L
334.485 177.745 L
335.027 176.363 L
335.57 174.492 L
336.112 173.433 L
336.655 171.16 L
337.198 168.915 L
337.74 167.602 L
338.283 167.592 L
338.825 168.906 L
339.367 166.034 L
S
GR
GS
[0.75 0 0 0.75 0 0] CT
0 0.447 0.741 RC
2 LJ
N
339.367 166.034 M
339.91 166.073 L
340.453 170.023 L
340.995 173.923 L
341.538 178.941 L
342.08 179.764 L
342.622 180.136 L
343.165 179.029 L
343.707 175.403 L
344.25 174.678 L
344.793 178.029 L
345.335 180.587 L
345.878 186.516 L
346.42 191.318 L
346.962 198.894 L
347.505 196.836 L
348.047 195.248 L
348.59 192.249 L
349.133 191.847 L
349.675 194.836 L
350.217 196.728 L
350.76 196.483 L
351.302 185.909 L
351.845 167.661 L
352.388 162.624 L
352.93 165.309 L
353.473 170.768 L
354.015 179.294 L
354.557 203.313 L
355.1 200.462 L
355.642 178.382 L
356.185 168.837 L
356.728 145.836 L
357.27 126.05 L
357.813 107.754 L
358.355 104.765 L
358.897 99.923 L
359.44 104.559 L
359.983 114.859 L
360.525 122.444 L
361.068 128.02 L
361.61 139.329 L
362.152 153.912 L
362.695 171.346 L
363.237 165.672 L
363.78 153.157 L
364.323 152.089 L
364.865 151.481 L
365.408 150.972 L
365.95 153.745 L
S
GR
GS
[0.75 0 0 0.75 0 0] CT
0 0.447 0.741 RC
2 LJ
N
365.95 153.745 M
366.492 153.951 L
367.035 141.123 L
367.578 138.82 L
368.12 141.564 L
368.663 144.063 L
369.205 150.932 L
369.747 155.382 L
370.29 154.274 L
370.832 152.402 L
371.375 147.747 L
371.918 145.689 L
372.46 143.847 L
373.003 142.838 L
373.545 144.464 L
374.087 147.257 L
374.63 148.463 L
375.172 146.434 L
375.715 142.475 L
376.258 145.729 L
376.8 148.11 L
377.342 146.542 L
377.885 148.727 L
378.427 151.001 L
378.97 149.845 L
379.513 149.306 L
380.055 150.531 L
380.598 148.659 L
381.14 147.003 L
381.682 147.591 L
382.225 142.74 L
382.767 151.756 L
383.31 152.04 L
383.853 166.436 L
384.395 174.217 L
384.938 165.299 L
385.48 158.929 L
386.022 159.86 L
386.565 159.076 L
387.108 154.705 L
387.65 150.727 L
388.193 149.737 L
388.735 152.334 L
389.277 151.991 L
389.82 148.473 L
390.362 150.237 L
390.905 145.797 L
391.448 143.386 L
391.99 143.896 L
392.533 142.808 L
S
GR
GS
[0.75 0 0 0.75 0 0] CT
0 0.447 0.741 RC
2 LJ
N
392.533 142.808 M
393.075 139.937 L
393.617 142.798 L
394.16 144.572 L
394.703 144.817 L
395.245 152.579 L
395.788 155.048 L
396.33 151.393 L
396.872 152.52 L
397.415 153.627 L
397.957 155.97 L
398.5 159.213 L
399.043 159.743 L
399.585 162.183 L
400.128 162.928 L
400.67 160.35 L
401.212 160.184 L
401.755 156.087 L
402.297 152.814 L
402.84 152.03 L
403.383 151.481 L
403.925 150.266 L
404.467 149.217 L
405.01 150.874 L
405.552 147.943 L
406.095 147.424 L
406.638 152.373 L
407.18 151.648 L
407.723 151.432 L
408.265 152.481 L
408.807 152.971 L
409.35 152.491 L
409.892 156.195 L
410.435 155.872 L
410.978 151.021 L
411.52 146.826 L
412.063 138.281 L
412.605 139.574 L
413.147 142.867 L
413.69 140.721 L
414.233 141.328 L
414.775 143.563 L
415.318 145.758 L
415.86 149.894 L
416.402 151.746 L
416.945 151.658 L
417.487 153.206 L
418.03 152.941 L
418.573 152.059 L
419.115 151.922 L
S
GR
GS
[0.75 0 0 0.75 0 0] CT
0 0.447 0.741 RC
2 LJ
N
419.115 151.922 M
419.658 153.245 L
420.2 153.088 L
420.742 152.304 L
421.285 154.921 L
421.828 155.852 L
422.37 157.067 L
422.913 155.529 L
423.455 151.628 L
423.997 164.917 L
424.54 156.391 L
425.082 149.462 L
425.625 149.345 L
426.168 149.119 L
426.71 149.619 L
427.253 148.806 L
427.795 145.219 L
428.337 136.536 L
428.88 127.334 L
429.422 111.125 L
429.965 106.039 L
430.508 122.228 L
431.05 135.566 L
431.592 126.834 L
432.135 126.246 L
432.677 133.449 L
433.22 135.84 L
433.763 134.841 L
434.305 136.791 L
434.848 138.927 L
435.39 140.525 L
435.932 129.049 L
436.475 121.425 L
437.017 120.503 L
437.56 108.871 L
438.103 108.841 L
438.645 111.732 L
439.188 139.8 L
439.73 167.514 L
440.272 148.923 L
440.815 134.586 L
441.358 120.562 L
441.9 116.025 L
442.443 125.786 L
442.985 129.196 L
443.527 134.802 L
444.07 137.036 L
444.612 135.105 L
445.155 136.85 L
445.698 134.625 L
S
GR
GS
[0.75 0 0 0.75 0 0] CT
0 0.447 0.741 RC
2 LJ
N
445.698 134.625 M
446.24 140.427 L
446.783 137.604 L
447.325 132.724 L
447.867 129.304 L
448.41 126.334 L
448.953 126.432 L
449.495 127.079 L
450.038 128.784 L
450.58 129.578 L
451.122 128.598 L
451.665 127.55 L
452.207 126.628 L
452.75 126.952 L
453.293 127.089 L
453.835 128.696 L
454.378 130.862 L
454.92 130.558 L
455.462 130.176 L
456.005 130.225 L
456.547 129.843 L
457.09 130.735 L
457.633 131.372 L
458.175 131.225 L
458.717 130.441 L
459.26 129.892 L
459.802 130.803 L
460.345 131.254 L
460.888 131.332 L
461.43 130.382 L
461.973 130.705 L
462.515 131.029 L
463.057 130.264 L
463.6 128.471 L
464.142 128.069 L
464.685 127.324 L
465.228 126.511 L
S
GR
%%Trailer
%%Pages: 1
%%EOF
