%!PS-Adobe-3.0 EPSF-3.0
%%Creator: (MATLAB, The Mathworks, Inc. Version 8.5.0.197613 \(R2015a\). Operating System: Windows 8)
%%Title: (C:/Users/aleja/Desktop/TFG/Documentaci\363n/Obtenci\363n de datos/matlab_plot/plots/alvaro12-19.eps)
%%CreationDate: 2019-05-22T11:28:36
%%Pages: (atend)
%%BoundingBox: 0 0 420 315
%%LanguageLevel: 2
%%EndComments
%%BeginProlog
%%BeginResource: procset (Apache XML Graphics Std ProcSet) 1.2 0
%%Version: 1.2 0
%%Copyright: (Copyright 2001-2003,2010 The Apache Software Foundation. License terms: http://www.apache.org/licenses/LICENSE-2.0)
/bd{bind def}bind def
/ld{load def}bd
/GR/grestore ld
/M/moveto ld
/LJ/setlinejoin ld
/C/curveto ld
/f/fill ld
/LW/setlinewidth ld
/GC/setgray ld
/t/show ld
/N/newpath ld
/CT/concat ld
/cp/closepath ld
/S/stroke ld
/L/lineto ld
/CC/setcmykcolor ld
/A/ashow ld
/GS/gsave ld
/RC/setrgbcolor ld
/RM/rmoveto ld
/ML/setmiterlimit ld
/re {4 2 roll M
1 index 0 rlineto
0 exch rlineto
neg 0 rlineto
cp } bd
/_ctm matrix def
/_tm matrix def
/BT { _ctm currentmatrix pop matrix _tm copy pop 0 0 moveto } bd
/ET { _ctm setmatrix } bd
/iTm { _ctm setmatrix _tm concat } bd
/Tm { _tm astore pop iTm 0 0 moveto } bd
/ux 0.0 def
/uy 0.0 def
/F {
  /Tp exch def
  /Tf exch def
  Tf findfont Tp scalefont setfont
  /cf Tf def  /cs Tp def
} bd
/ULS {currentpoint /uy exch def /ux exch def} bd
/ULE {
  /Tcx currentpoint pop def
  gsave
  newpath
  cf findfont cs scalefont dup
  /FontMatrix get 0 get /Ts exch def /FontInfo get dup
  /UnderlinePosition get Ts mul /To exch def
  /UnderlineThickness get Ts mul /Tt exch def
  ux uy To add moveto  Tcx uy To add lineto
  Tt setlinewidth stroke
  grestore
} bd
/OLE {
  /Tcx currentpoint pop def
  gsave
  newpath
  cf findfont cs scalefont dup
  /FontMatrix get 0 get /Ts exch def /FontInfo get dup
  /UnderlinePosition get Ts mul /To exch def
  /UnderlineThickness get Ts mul /Tt exch def
  ux uy To add cs add moveto Tcx uy To add cs add lineto
  Tt setlinewidth stroke
  grestore
} bd
/SOE {
  /Tcx currentpoint pop def
  gsave
  newpath
  cf findfont cs scalefont dup
  /FontMatrix get 0 get /Ts exch def /FontInfo get dup
  /UnderlinePosition get Ts mul /To exch def
  /UnderlineThickness get Ts mul /Tt exch def
  ux uy To add cs 10 mul 26 idiv add moveto Tcx uy To add cs 10 mul 26 idiv add lineto
  Tt setlinewidth stroke
  grestore
} bd
/QT {
/Y22 exch store
/X22 exch store
/Y21 exch store
/X21 exch store
currentpoint
/Y21 load 2 mul add 3 div exch
/X21 load 2 mul add 3 div exch
/X21 load 2 mul /X22 load add 3 div
/Y21 load 2 mul /Y22 load add 3 div
/X22 load /Y22 load curveto
} bd
/SSPD {
dup length /d exch dict def
{
/v exch def
/k exch def
currentpagedevice k known {
/cpdv currentpagedevice k get def
v cpdv ne {
/upd false def
/nullv v type /nulltype eq def
/nullcpdv cpdv type /nulltype eq def
nullv nullcpdv or
{
/upd true def
} {
/sametype v type cpdv type eq def
sametype {
v type /arraytype eq {
/vlen v length def
/cpdvlen cpdv length def
vlen cpdvlen eq {
0 1 vlen 1 sub {
/i exch def
/obj v i get def
/cpdobj cpdv i get def
obj cpdobj ne {
/upd true def
exit
} if
} for
} {
/upd true def
} ifelse
} {
v type /dicttype eq {
v {
/dv exch def
/dk exch def
/cpddv cpdv dk get def
dv cpddv ne {
/upd true def
exit
} if
} forall
} {
/upd true def
} ifelse
} ifelse
} if
} ifelse
upd true eq {
d k v put
} if
} if
} if
} forall
d length 0 gt {
d setpagedevice
} if
} bd
%%EndResource
%%BeginResource: procset (Apache XML Graphics EPS ProcSet) 1.0 0
%%Version: 1.0 0
%%Copyright: (Copyright 2002-2003 The Apache Software Foundation. License terms: http://www.apache.org/licenses/LICENSE-2.0)
/BeginEPSF { %def
/b4_Inc_state save def         % Save state for cleanup
/dict_count countdictstack def % Count objects on dict stack
/op_count count 1 sub def      % Count objects on operand stack
userdict begin                 % Push userdict on dict stack
/showpage { } def              % Redefine showpage, { } = null proc
0 setgray 0 setlinecap         % Prepare graphics state
1 setlinewidth 0 setlinejoin
10 setmiterlimit [ ] 0 setdash newpath
/languagelevel where           % If level not equal to 1 then
{pop languagelevel             % set strokeadjust and
1 ne                           % overprint to their defaults.
{false setstrokeadjust false setoverprint
} if
} if
} bd
/EndEPSF { %def
count op_count sub {pop} repeat            % Clean up stacks
countdictstack dict_count sub {end} repeat
b4_Inc_state restore
} bd
%%EndResource
%FOPBeginFontDict
%%IncludeResource: font Courier-Bold
%%IncludeResource: font Helvetica
%%IncludeResource: font Courier-BoldOblique
%%IncludeResource: font Courier-Oblique
%%IncludeResource: font Times-Roman
%%IncludeResource: font Helvetica-BoldOblique
%%IncludeResource: font Helvetica-Bold
%%IncludeResource: font Helvetica-Oblique
%%IncludeResource: font Times-BoldItalic
%%IncludeResource: font Courier
%%IncludeResource: font Times-Italic
%%IncludeResource: font Times-Bold
%%IncludeResource: font Symbol
%%IncludeResource: font ZapfDingbats
%FOPEndFontDict
%%BeginResource: encoding WinAnsiEncoding
/WinAnsiEncoding [
/.notdef /.notdef /.notdef /.notdef /.notdef
/.notdef /.notdef /.notdef /.notdef /.notdef
/.notdef /.notdef /.notdef /.notdef /.notdef
/.notdef /.notdef /.notdef /.notdef /.notdef
/.notdef /.notdef /.notdef /.notdef /.notdef
/.notdef /.notdef /.notdef /.notdef /.notdef
/.notdef /.notdef /space /exclam /quotedbl
/numbersign /dollar /percent /ampersand /quotesingle
/parenleft /parenright /asterisk /plus /comma
/hyphen /period /slash /zero /one
/two /three /four /five /six
/seven /eight /nine /colon /semicolon
/less /equal /greater /question /at
/A /B /C /D /E
/F /G /H /I /J
/K /L /M /N /O
/P /Q /R /S /T
/U /V /W /X /Y
/Z /bracketleft /backslash /bracketright /asciicircum
/underscore /quoteleft /a /b /c
/d /e /f /g /h
/i /j /k /l /m
/n /o /p /q /r
/s /t /u /v /w
/x /y /z /braceleft /bar
/braceright /asciitilde /bullet /Euro /bullet
/quotesinglbase /florin /quotedblbase /ellipsis /dagger
/daggerdbl /circumflex /perthousand /Scaron /guilsinglleft
/OE /bullet /Zcaron /bullet /bullet
/quoteleft /quoteright /quotedblleft /quotedblright /bullet
/endash /emdash /asciitilde /trademark /scaron
/guilsinglright /oe /bullet /zcaron /Ydieresis
/space /exclamdown /cent /sterling /currency
/yen /brokenbar /section /dieresis /copyright
/ordfeminine /guillemotleft /logicalnot /sfthyphen /registered
/macron /degree /plusminus /twosuperior /threesuperior
/acute /mu /paragraph /middot /cedilla
/onesuperior /ordmasculine /guillemotright /onequarter /onehalf
/threequarters /questiondown /Agrave /Aacute /Acircumflex
/Atilde /Adieresis /Aring /AE /Ccedilla
/Egrave /Eacute /Ecircumflex /Edieresis /Igrave
/Iacute /Icircumflex /Idieresis /Eth /Ntilde
/Ograve /Oacute /Ocircumflex /Otilde /Odieresis
/multiply /Oslash /Ugrave /Uacute /Ucircumflex
/Udieresis /Yacute /Thorn /germandbls /agrave
/aacute /acircumflex /atilde /adieresis /aring
/ae /ccedilla /egrave /eacute /ecircumflex
/edieresis /igrave /iacute /icircumflex /idieresis
/eth /ntilde /ograve /oacute /ocircumflex
/otilde /odieresis /divide /oslash /ugrave
/uacute /ucircumflex /udieresis /yacute /thorn
/ydieresis
] def
%%EndResource
%FOPBeginFontReencode
/Courier-Bold findfont
dup length dict begin
  {1 index /FID ne {def} {pop pop} ifelse} forall
  /Encoding WinAnsiEncoding def
  currentdict
end
/Courier-Bold exch definefont pop
/Helvetica findfont
dup length dict begin
  {1 index /FID ne {def} {pop pop} ifelse} forall
  /Encoding WinAnsiEncoding def
  currentdict
end
/Helvetica exch definefont pop
/Courier-BoldOblique findfont
dup length dict begin
  {1 index /FID ne {def} {pop pop} ifelse} forall
  /Encoding WinAnsiEncoding def
  currentdict
end
/Courier-BoldOblique exch definefont pop
/Courier-Oblique findfont
dup length dict begin
  {1 index /FID ne {def} {pop pop} ifelse} forall
  /Encoding WinAnsiEncoding def
  currentdict
end
/Courier-Oblique exch definefont pop
/Times-Roman findfont
dup length dict begin
  {1 index /FID ne {def} {pop pop} ifelse} forall
  /Encoding WinAnsiEncoding def
  currentdict
end
/Times-Roman exch definefont pop
/Helvetica-BoldOblique findfont
dup length dict begin
  {1 index /FID ne {def} {pop pop} ifelse} forall
  /Encoding WinAnsiEncoding def
  currentdict
end
/Helvetica-BoldOblique exch definefont pop
/Helvetica-Bold findfont
dup length dict begin
  {1 index /FID ne {def} {pop pop} ifelse} forall
  /Encoding WinAnsiEncoding def
  currentdict
end
/Helvetica-Bold exch definefont pop
/Helvetica-Oblique findfont
dup length dict begin
  {1 index /FID ne {def} {pop pop} ifelse} forall
  /Encoding WinAnsiEncoding def
  currentdict
end
/Helvetica-Oblique exch definefont pop
/Times-BoldItalic findfont
dup length dict begin
  {1 index /FID ne {def} {pop pop} ifelse} forall
  /Encoding WinAnsiEncoding def
  currentdict
end
/Times-BoldItalic exch definefont pop
/Courier findfont
dup length dict begin
  {1 index /FID ne {def} {pop pop} ifelse} forall
  /Encoding WinAnsiEncoding def
  currentdict
end
/Courier exch definefont pop
/Times-Italic findfont
dup length dict begin
  {1 index /FID ne {def} {pop pop} ifelse} forall
  /Encoding WinAnsiEncoding def
  currentdict
end
/Times-Italic exch definefont pop
/Times-Bold findfont
dup length dict begin
  {1 index /FID ne {def} {pop pop} ifelse} forall
  /Encoding WinAnsiEncoding def
  currentdict
end
/Times-Bold exch definefont pop
%FOPEndFontReencode
%%EndProlog
%%Page: 1 1
%%PageBoundingBox: 0 0 420 315
%%BeginPageSetup
[1 0 0 -1 0 315] CT
%%EndPageSetup
GS
[0.75 0 0 0.75 0 0] CT
1 GC
N
0 0 560 420 re
f
GR
GS
[0.75 0 0 0.75 0 0] CT
1 GC
N
0 0 560 420 re
f
GR
GS
[0.75 0 0 0.75 0 0] CT
1 GC
N
73 374 M
507 374 L
507 31 L
73 31 L
cp
f
GR
GS
[0.75 0 0 0.75 0 0] CT
0.149 GC
2 setlinecap
10.0 ML
N
73 374 M
507 374 L
S
GR
GS
[0.75 0 0 0.75 0 0] CT
0.149 GC
2 setlinecap
10.0 ML
N
73 31 M
507 31 L
S
GR
GS
[0.75 0 0 0.75 0 0] CT
0.149 GC
2 setlinecap
10.0 ML
N
73 374 M
73 369.659 L
S
GR
GS
[0.75 0 0 0.75 0 0] CT
0.149 GC
2 setlinecap
10.0 ML
N
145.333 374 M
145.333 369.659 L
S
GR
GS
[0.75 0 0 0.75 0 0] CT
0.149 GC
2 setlinecap
10.0 ML
N
217.667 374 M
217.667 369.659 L
S
GR
GS
[0.75 0 0 0.75 0 0] CT
0.149 GC
2 setlinecap
10.0 ML
N
290 374 M
290 369.659 L
S
GR
GS
[0.75 0 0 0.75 0 0] CT
0.149 GC
2 setlinecap
10.0 ML
N
362.333 374 M
362.333 369.659 L
S
GR
GS
[0.75 0 0 0.75 0 0] CT
0.149 GC
2 setlinecap
10.0 ML
N
434.667 374 M
434.667 369.659 L
S
GR
GS
[0.75 0 0 0.75 0 0] CT
0.149 GC
2 setlinecap
10.0 ML
N
507 374 M
507 369.659 L
S
GR
GS
[0.75 0 0 0.75 0 0] CT
0.149 GC
2 setlinecap
10.0 ML
N
73 31 M
73 35.341 L
S
GR
GS
[0.75 0 0 0.75 0 0] CT
0.149 GC
2 setlinecap
10.0 ML
N
145.333 31 M
145.333 35.341 L
S
GR
GS
[0.75 0 0 0.75 0 0] CT
0.149 GC
2 setlinecap
10.0 ML
N
217.667 31 M
217.667 35.341 L
S
GR
GS
[0.75 0 0 0.75 0 0] CT
0.149 GC
2 setlinecap
10.0 ML
N
290 31 M
290 35.341 L
S
GR
GS
[0.75 0 0 0.75 0 0] CT
0.149 GC
2 setlinecap
10.0 ML
N
362.333 31 M
362.333 35.341 L
S
GR
GS
[0.75 0 0 0.75 0 0] CT
0.149 GC
2 setlinecap
10.0 ML
N
434.667 31 M
434.667 35.341 L
S
GR
GS
[0.75 0 0 0.75 0 0] CT
0.149 GC
2 setlinecap
10.0 ML
N
507 31 M
507 35.341 L
S
GR
GS
[0.75 0 0 0.75 54.75 284.49989] CT
0.149 GC
/Helvetica 13 F
GS
[1 0 0 1 0 0] CT
-4 14 moveto 
1 -1 scale
(0) t 
GR
GR
GS
[0.75 0 0 0.75 109 284.49989] CT
0.149 GC
/Helvetica 13 F
GS
[1 0 0 1 0 0] CT
-11 14 moveto 
1 -1 scale
(100) t 
GR
GR
GS
[0.75 0 0 0.75 163.25 284.49989] CT
0.149 GC
/Helvetica 13 F
GS
[1 0 0 1 0 0] CT
-11 14 moveto 
1 -1 scale
(200) t 
GR
GR
GS
[0.75 0 0 0.75 217.5 284.49989] CT
0.149 GC
/Helvetica 13 F
GS
[1 0 0 1 0 0] CT
-11 14 moveto 
1 -1 scale
(300) t 
GR
GR
GS
[0.75 0 0 0.75 271.75001 284.49989] CT
0.149 GC
/Helvetica 13 F
GS
[1 0 0 1 0 0] CT
-11 14 moveto 
1 -1 scale
(400) t 
GR
GR
GS
[0.75 0 0 0.75 325.99999 284.49989] CT
0.149 GC
/Helvetica 13 F
GS
[1 0 0 1 0 0] CT
-11 14 moveto 
1 -1 scale
(500) t 
GR
GR
GS
[0.75 0 0 0.75 380.25 284.49989] CT
0.149 GC
/Helvetica 13 F
GS
[1 0 0 1 0 0] CT
-11 14 moveto 
1 -1 scale
(600) t 
GR
GR
GS
[0.75 0 0 0.75 0 0] CT
0.149 GC
2 setlinecap
10.0 ML
N
73 374 M
73 31 L
S
GR
GS
[0.75 0 0 0.75 0 0] CT
0.149 GC
2 setlinecap
10.0 ML
N
507 374 M
507 31 L
S
GR
GS
[0.75 0 0 0.75 0 0] CT
0.149 GC
2 setlinecap
10.0 ML
N
73 374 M
77.34 374 L
S
GR
GS
[0.75 0 0 0.75 0 0] CT
0.149 GC
2 setlinecap
10.0 ML
N
73 316.833 M
77.34 316.833 L
S
GR
GS
[0.75 0 0 0.75 0 0] CT
0.149 GC
2 setlinecap
10.0 ML
N
73 259.667 M
77.34 259.667 L
S
GR
GS
[0.75 0 0 0.75 0 0] CT
0.149 GC
2 setlinecap
10.0 ML
N
73 202.5 M
77.34 202.5 L
S
GR
GS
[0.75 0 0 0.75 0 0] CT
0.149 GC
2 setlinecap
10.0 ML
N
73 145.333 M
77.34 145.333 L
S
GR
GS
[0.75 0 0 0.75 0 0] CT
0.149 GC
2 setlinecap
10.0 ML
N
73 88.167 M
77.34 88.167 L
S
GR
GS
[0.75 0 0 0.75 0 0] CT
0.149 GC
2 setlinecap
10.0 ML
N
73 31 M
77.34 31 L
S
GR
GS
[0.75 0 0 0.75 0 0] CT
0.149 GC
2 setlinecap
10.0 ML
N
507 374 M
502.66 374 L
S
GR
GS
[0.75 0 0 0.75 0 0] CT
0.149 GC
2 setlinecap
10.0 ML
N
507 316.833 M
502.66 316.833 L
S
GR
GS
[0.75 0 0 0.75 0 0] CT
0.149 GC
2 setlinecap
10.0 ML
N
507 259.667 M
502.66 259.667 L
S
GR
GS
[0.75 0 0 0.75 0 0] CT
0.149 GC
2 setlinecap
10.0 ML
N
507 202.5 M
502.66 202.5 L
S
GR
GS
[0.75 0 0 0.75 0 0] CT
0.149 GC
2 setlinecap
10.0 ML
N
507 145.333 M
502.66 145.333 L
S
GR
GS
[0.75 0 0 0.75 0 0] CT
0.149 GC
2 setlinecap
10.0 ML
N
507 88.167 M
502.66 88.167 L
S
GR
GS
[0.75 0 0 0.75 0 0] CT
0.149 GC
2 setlinecap
10.0 ML
N
507 31 M
502.66 31 L
S
GR
GS
[0.75 0 0 0.75 50.75 280.5] CT
0.149 GC
/Helvetica 13 F
GS
[1 0 0 1 0 0] CT
-22 5.5 moveto 
1 -1 scale
(674) t 
GR
GR
GS
[0.75 0 0 0.75 50.75 237.62501] CT
0.149 GC
/Helvetica 13 F
GS
[1 0 0 1 0 0] CT
-22 5.5 moveto 
1 -1 scale
(676) t 
GR
GR
GS
[0.75 0 0 0.75 50.75 194.74999] CT
0.149 GC
/Helvetica 13 F
GS
[1 0 0 1 0 0] CT
-22 5.5 moveto 
1 -1 scale
(678) t 
GR
GR
GS
[0.75 0 0 0.75 50.75 151.875] CT
0.149 GC
/Helvetica 13 F
GS
[1 0 0 1 0 0] CT
-22 5.5 moveto 
1 -1 scale
(680) t 
GR
GR
GS
[0.75 0 0 0.75 50.75 109] CT
0.149 GC
/Helvetica 13 F
GS
[1 0 0 1 0 0] CT
-22 5.5 moveto 
1 -1 scale
(682) t 
GR
GR
GS
[0.75 0 0 0.75 50.75 66.125] CT
0.149 GC
/Helvetica 13 F
GS
[1 0 0 1 0 0] CT
-22 5.5 moveto 
1 -1 scale
(684) t 
GR
GR
GS
[0.75 0 0 0.75 50.75 23.25] CT
0.149 GC
/Helvetica 13 F
GS
[1 0 0 1 0 0] CT
-22 5.5 moveto 
1 -1 scale
(686) t 
GR
GR
GS
[0.75 0 0 0.75 0 0] CT
0 0.447 0.741 RC
2 LJ
N
73.723 191.924 M
74.447 191.638 L
75.17 195.926 L
75.893 195.068 L
76.617 199.642 L
77.34 190.782 L
78.063 190.209 L
78.787 189.351 L
79.51 185.065 L
80.233 195.64 L
80.957 189.067 L
81.68 199.356 L
82.403 198.498 L
83.127 192.497 L
83.85 185.351 L
84.573 195.64 L
85.297 193.067 L
86.02 175.918 L
86.743 169.058 L
87.467 169.915 L
88.19 177.919 L
88.913 186.207 L
89.637 187.636 L
90.36 193.353 L
91.083 184.778 L
91.807 186.207 L
92.53 199.356 L
93.253 205.93 L
93.977 193.639 L
94.7 195.354 L
95.423 186.78 L
96.147 195.926 L
96.87 179.061 L
97.593 181.063 L
98.317 186.78 L
99.04 170.201 L
99.763 171.343 L
100.487 171.059 L
101.21 173.917 L
101.933 175.918 L
102.657 175.918 L
103.38 177.347 L
104.103 171.63 L
104.827 175.632 L
105.55 177.919 L
106.273 181.921 L
106.997 189.923 L
107.72 180.49 L
108.443 186.78 L
109.167 190.782 L
S
GR
GS
[0.75 0 0 0.75 0 0] CT
0 0.447 0.741 RC
2 LJ
N
109.167 190.782 M
109.89 194.496 L
110.613 187.066 L
111.337 177.06 L
112.06 174.203 L
112.783 169.058 L
113.507 161.626 L
114.23 164.484 L
114.953 177.347 L
115.677 179.348 L
116.4 179.634 L
117.123 175.345 L
117.847 185.065 L
118.57 176.49 L
119.293 171.916 L
120.017 177.347 L
120.74 195.354 L
121.463 193.639 L
122.187 191.352 L
122.91 193.067 L
123.633 169.344 L
124.357 181.063 L
125.08 188.781 L
125.803 180.49 L
126.527 178.775 L
127.25 185.635 L
127.973 190.495 L
128.697 193.067 L
129.42 189.067 L
130.143 187.35 L
130.867 175.345 L
131.59 184.492 L
132.313 188.208 L
133.037 187.922 L
133.76 177.06 L
134.483 166.199 L
135.207 182.777 L
135.93 176.204 L
136.653 183.35 L
137.377 180.49 L
138.1 186.78 L
138.823 181.063 L
139.547 176.49 L
140.27 177.633 L
140.993 183.636 L
141.717 187.35 L
142.44 182.205 L
143.163 179.92 L
143.887 179.634 L
144.61 178.775 L
S
GR
GS
[0.75 0 0 0.75 0 0] CT
0 0.447 0.741 RC
2 LJ
N
144.61 178.775 M
145.333 179.634 L
146.057 176.774 L
146.78 166.485 L
147.503 155.623 L
148.227 169.344 L
148.95 178.205 L
149.673 183.92 L
150.397 185.921 L
151.12 187.066 L
151.843 180.49 L
152.567 181.921 L
153.29 185.635 L
154.013 184.778 L
154.737 191.924 L
155.46 188.208 L
156.183 179.348 L
156.907 183.064 L
157.63 184.778 L
158.353 179.348 L
159.077 177.633 L
159.8 176.204 L
160.523 180.204 L
161.247 177.06 L
161.97 171.343 L
162.693 179.061 L
163.417 183.35 L
164.14 184.778 L
164.863 196.497 L
165.587 179.634 L
166.31 175.059 L
167.033 172.202 L
167.757 183.636 L
168.48 194.211 L
169.203 174.775 L
169.927 170.487 L
170.65 166.485 L
171.373 174.775 L
172.097 170.773 L
172.82 179.92 L
173.543 177.06 L
174.267 162.769 L
174.99 165.056 L
175.713 173.917 L
176.437 175.059 L
177.16 173.344 L
177.883 165.912 L
178.607 165.628 L
179.33 182.491 L
180.053 181.349 L
S
GR
GS
[0.75 0 0 0.75 0 0] CT
0 0.447 0.741 RC
2 LJ
N
180.053 181.349 M
180.777 170.773 L
181.5 181.921 L
182.223 190.782 L
182.947 181.635 L
183.67 178.775 L
184.393 167.343 L
185.117 180.49 L
185.84 175.345 L
186.563 185.065 L
187.287 181.063 L
188.01 187.636 L
188.733 191.352 L
189.457 193.067 L
190.18 189.637 L
190.903 189.067 L
191.627 190.209 L
192.35 181.635 L
193.073 184.206 L
193.797 181.635 L
194.52 197.355 L
195.243 184.206 L
195.967 185.635 L
196.69 197.355 L
197.413 197.355 L
198.137 186.207 L
198.86 185.635 L
199.583 191.638 L
200.307 192.21 L
201.03 200.213 L
201.753 179.634 L
202.477 182.777 L
203.2 188.781 L
203.923 178.489 L
204.647 179.061 L
205.37 206.788 L
206.093 209.36 L
206.817 207.073 L
207.54 200.213 L
208.263 185.065 L
208.987 197.641 L
209.71 199.642 L
210.433 211.361 L
211.157 217.078 L
211.88 201.928 L
212.603 195.068 L
213.327 190.209 L
214.05 184.492 L
214.773 174.775 L
215.497 173.917 L
S
GR
GS
[0.75 0 0 0.75 0 0] CT
0 0.447 0.741 RC
2 LJ
N
215.497 173.917 M
216.22 183.636 L
216.943 181.635 L
217.667 181.635 L
218.39 189.637 L
219.113 181.349 L
219.837 176.204 L
220.56 172.202 L
221.283 170.487 L
222.007 179.92 L
222.73 186.207 L
223.453 193.639 L
224.177 187.922 L
224.9 191.066 L
225.623 179.634 L
226.347 168.486 L
227.07 172.774 L
227.793 173.631 L
228.517 189.351 L
229.24 178.775 L
229.963 177.06 L
230.687 179.634 L
231.41 178.775 L
232.133 179.92 L
232.857 180.776 L
233.58 177.06 L
234.303 195.64 L
235.027 193.639 L
235.75 177.06 L
236.473 173.631 L
237.197 173.631 L
237.92 171.63 L
238.643 162.198 L
239.367 179.348 L
240.09 174.775 L
240.813 179.634 L
241.537 168.772 L
242.26 188.494 L
242.983 189.067 L
243.707 191.638 L
244.43 185.351 L
245.153 175.345 L
245.877 184.206 L
246.6 190.209 L
247.323 197.927 L
248.047 195.926 L
248.77 194.211 L
249.493 189.637 L
250.217 166.771 L
250.94 135.044 L
S
GR
GS
[0.75 0 0 0.75 0 0] CT
0 0.447 0.741 RC
2 LJ
N
250.94 135.044 M
251.663 132.184 L
252.387 144.761 L
253.11 171.059 L
253.833 165.342 L
254.557 162.198 L
255.28 140.475 L
256.003 157.624 L
256.727 187.922 L
257.45 186.207 L
258.173 170.487 L
258.897 167.057 L
259.62 188.208 L
260.343 198.212 L
261.067 169.628 L
261.79 148.477 L
262.513 164.77 L
263.237 191.066 L
263.96 217.934 L
264.683 214.505 L
265.407 218.507 L
266.13 220.222 L
266.853 194.211 L
267.577 180.49 L
268.3 187.066 L
269.023 187.35 L
269.747 189.067 L
270.47 181.635 L
271.193 188.208 L
271.917 198.498 L
272.64 195.64 L
273.363 194.211 L
274.087 197.927 L
274.81 201.357 L
275.533 189.067 L
276.257 170.773 L
276.98 172.488 L
277.703 171.059 L
278.427 165.628 L
279.15 149.622 L
279.873 145.619 L
280.597 160.197 L
281.32 168.772 L
282.043 183.92 L
282.767 183.064 L
283.49 175.918 L
284.213 171.059 L
284.937 170.201 L
285.66 161.34 L
286.383 155.909 L
S
GR
GS
[0.75 0 0 0.75 0 0] CT
0 0.447 0.741 RC
2 LJ
N
286.383 155.909 M
287.107 165.912 L
287.83 166.771 L
288.553 169.344 L
289.277 161.912 L
290 161.054 L
290.723 155.909 L
291.447 157.338 L
292.17 164.484 L
292.893 161.054 L
293.617 163.627 L
294.34 161.912 L
295.063 162.483 L
295.787 159.625 L
296.51 161.912 L
297.233 167.343 L
297.957 179.348 L
298.68 181.635 L
299.403 173.344 L
300.127 169.344 L
300.85 174.203 L
301.573 170.487 L
302.297 169.344 L
303.02 188.781 L
303.743 178.205 L
304.467 172.774 L
305.19 180.776 L
305.913 179.634 L
306.637 163.055 L
307.36 165.056 L
308.083 185.351 L
308.807 187.922 L
309.53 178.775 L
310.253 170.487 L
310.977 165.912 L
311.7 156.195 L
312.423 165.628 L
313.147 169.915 L
313.87 173.631 L
314.593 169.058 L
315.317 175.345 L
316.04 170.773 L
316.763 167.057 L
317.487 159.339 L
318.21 167.629 L
318.933 163.055 L
319.657 172.202 L
320.38 189.067 L
321.103 181.635 L
321.827 181.349 L
S
GR
GS
[0.75 0 0 0.75 0 0] CT
0 0.447 0.741 RC
2 LJ
N
321.827 181.349 M
322.55 181.635 L
323.273 183.92 L
323.997 169.058 L
324.72 154.766 L
325.443 166.771 L
326.167 160.768 L
326.89 171.63 L
327.613 182.205 L
328.337 182.777 L
329.06 174.775 L
329.783 178.205 L
330.507 179.061 L
331.23 179.92 L
331.953 181.635 L
332.677 191.924 L
333.4 185.635 L
334.123 191.066 L
334.847 179.92 L
335.57 181.063 L
336.293 191.638 L
337.017 184.206 L
337.74 168.486 L
338.463 157.91 L
339.187 161.054 L
339.91 163.341 L
340.633 165.342 L
341.357 161.912 L
342.08 163.341 L
342.803 164.484 L
343.527 165.628 L
344.25 154.194 L
344.973 152.479 L
345.697 159.053 L
346.42 160.768 L
347.143 168.2 L
347.867 178.205 L
348.59 183.064 L
349.313 185.351 L
350.037 185.351 L
350.76 179.348 L
351.483 178.205 L
352.207 159.053 L
352.93 169.628 L
353.653 159.053 L
354.377 163.913 L
355.1 166.199 L
355.823 174.775 L
356.547 173.917 L
357.27 170.773 L
S
GR
GS
[0.75 0 0 0.75 0 0] CT
0 0.447 0.741 RC
2 LJ
N
357.27 170.773 M
357.993 169.628 L
358.717 169.058 L
359.44 174.203 L
360.163 165.628 L
360.887 162.769 L
361.61 193.353 L
362.333 233.084 L
363.057 268.241 L
363.78 260.239 L
364.503 266.813 L
365.227 261.095 L
365.95 245.375 L
366.673 245.089 L
367.397 219.079 L
368.12 196.497 L
368.843 196.497 L
369.567 199.927 L
370.29 194.496 L
371.013 196.497 L
371.737 197.069 L
372.46 192.497 L
373.183 190.209 L
373.907 181.921 L
374.63 172.774 L
375.353 159.625 L
376.077 160.483 L
376.8 173.631 L
377.523 159.911 L
378.247 153.338 L
378.97 147.907 L
379.693 131.614 L
380.417 97.886 L
381.14 60.442 L
381.863 49.008 L
382.587 37.003 L
383.31 51.295 L
384.033 65.3 L
384.757 87.594 L
385.48 100.743 L
386.203 113.606 L
386.927 127.612 L
387.65 127.898 L
388.373 154.194 L
389.097 186.78 L
389.82 267.671 L
390.543 318.548 L
391.267 319.691 L
391.99 298.54 L
392.713 273.1 L
S
GR
GS
[0.75 0 0 0.75 0 0] CT
0 0.447 0.741 RC
2 LJ
N
392.713 273.1 M
393.437 264.239 L
394.16 233.657 L
394.883 201.071 L
395.607 206.788 L
396.33 161.912 L
397.053 115.607 L
397.777 105.602 L
398.5 87.024 L
399.223 101.316 L
399.947 107.031 L
400.67 124.754 L
401.393 133.043 L
402.117 135.33 L
402.84 131.9 L
403.563 141.903 L
404.287 147.334 L
405.01 152.479 L
405.733 159.053 L
406.457 150.192 L
407.18 154.48 L
407.903 156.767 L
408.627 143.618 L
409.35 153.908 L
410.073 132.757 L
410.797 152.765 L
411.52 157.91 L
412.243 165.628 L
412.967 160.768 L
413.69 157.338 L
414.413 145.619 L
415.137 160.483 L
415.86 169.915 L
416.583 174.775 L
417.307 174.775 L
418.03 170.773 L
418.753 168.486 L
419.477 179.061 L
420.2 176.774 L
420.923 171.63 L
421.647 155.623 L
422.37 156.195 L
423.093 193.353 L
423.817 242.231 L
424.54 231.656 L
425.263 214.505 L
425.987 204.787 L
426.71 207.931 L
427.433 212.219 L
428.157 205.93 L
S
GR
GS
[0.75 0 0 0.75 0 0] CT
0 0.447 0.741 RC
2 LJ
N
428.157 205.93 M
428.88 198.784 L
429.603 193.067 L
430.327 187.922 L
431.05 180.776 L
431.773 180.49 L
432.497 173.631 L
433.22 179.348 L
433.943 180.204 L
434.667 172.202 L
435.39 179.348 L
436.113 182.205 L
436.837 179.92 L
437.56 161.626 L
438.283 163.913 L
S
GR
%%Trailer
%%Pages: 1
%%EOF
