%!PS-Adobe-3.0 EPSF-3.0
%%Creator: (MATLAB, The Mathworks, Inc. Version 8.5.0.197613 \(R2015a\). Operating System: Windows 8)
%%Title: (C:/Users/aleja/Desktop/TFG/Documentaci\363n/Obtenci\363n de datos/matlab_plot/plots/Jota11-55_2.eps)
%%CreationDate: 2019-05-23T20:48:46
%%Pages: (atend)
%%BoundingBox: 0 0 688 263
%%LanguageLevel: 2
%%EndComments
%%BeginProlog
%%BeginResource: procset (Apache XML Graphics Std ProcSet) 1.2 0
%%Version: 1.2 0
%%Copyright: (Copyright 2001-2003,2010 The Apache Software Foundation. License terms: http://www.apache.org/licenses/LICENSE-2.0)
/bd{bind def}bind def
/ld{load def}bd
/GR/grestore ld
/M/moveto ld
/LJ/setlinejoin ld
/C/curveto ld
/f/fill ld
/LW/setlinewidth ld
/GC/setgray ld
/t/show ld
/N/newpath ld
/CT/concat ld
/cp/closepath ld
/S/stroke ld
/L/lineto ld
/CC/setcmykcolor ld
/A/ashow ld
/GS/gsave ld
/RC/setrgbcolor ld
/RM/rmoveto ld
/ML/setmiterlimit ld
/re {4 2 roll M
1 index 0 rlineto
0 exch rlineto
neg 0 rlineto
cp } bd
/_ctm matrix def
/_tm matrix def
/BT { _ctm currentmatrix pop matrix _tm copy pop 0 0 moveto } bd
/ET { _ctm setmatrix } bd
/iTm { _ctm setmatrix _tm concat } bd
/Tm { _tm astore pop iTm 0 0 moveto } bd
/ux 0.0 def
/uy 0.0 def
/F {
  /Tp exch def
  /Tf exch def
  Tf findfont Tp scalefont setfont
  /cf Tf def  /cs Tp def
} bd
/ULS {currentpoint /uy exch def /ux exch def} bd
/ULE {
  /Tcx currentpoint pop def
  gsave
  newpath
  cf findfont cs scalefont dup
  /FontMatrix get 0 get /Ts exch def /FontInfo get dup
  /UnderlinePosition get Ts mul /To exch def
  /UnderlineThickness get Ts mul /Tt exch def
  ux uy To add moveto  Tcx uy To add lineto
  Tt setlinewidth stroke
  grestore
} bd
/OLE {
  /Tcx currentpoint pop def
  gsave
  newpath
  cf findfont cs scalefont dup
  /FontMatrix get 0 get /Ts exch def /FontInfo get dup
  /UnderlinePosition get Ts mul /To exch def
  /UnderlineThickness get Ts mul /Tt exch def
  ux uy To add cs add moveto Tcx uy To add cs add lineto
  Tt setlinewidth stroke
  grestore
} bd
/SOE {
  /Tcx currentpoint pop def
  gsave
  newpath
  cf findfont cs scalefont dup
  /FontMatrix get 0 get /Ts exch def /FontInfo get dup
  /UnderlinePosition get Ts mul /To exch def
  /UnderlineThickness get Ts mul /Tt exch def
  ux uy To add cs 10 mul 26 idiv add moveto Tcx uy To add cs 10 mul 26 idiv add lineto
  Tt setlinewidth stroke
  grestore
} bd
/QT {
/Y22 exch store
/X22 exch store
/Y21 exch store
/X21 exch store
currentpoint
/Y21 load 2 mul add 3 div exch
/X21 load 2 mul add 3 div exch
/X21 load 2 mul /X22 load add 3 div
/Y21 load 2 mul /Y22 load add 3 div
/X22 load /Y22 load curveto
} bd
/SSPD {
dup length /d exch dict def
{
/v exch def
/k exch def
currentpagedevice k known {
/cpdv currentpagedevice k get def
v cpdv ne {
/upd false def
/nullv v type /nulltype eq def
/nullcpdv cpdv type /nulltype eq def
nullv nullcpdv or
{
/upd true def
} {
/sametype v type cpdv type eq def
sametype {
v type /arraytype eq {
/vlen v length def
/cpdvlen cpdv length def
vlen cpdvlen eq {
0 1 vlen 1 sub {
/i exch def
/obj v i get def
/cpdobj cpdv i get def
obj cpdobj ne {
/upd true def
exit
} if
} for
} {
/upd true def
} ifelse
} {
v type /dicttype eq {
v {
/dv exch def
/dk exch def
/cpddv cpdv dk get def
dv cpddv ne {
/upd true def
exit
} if
} forall
} {
/upd true def
} ifelse
} ifelse
} if
} ifelse
upd true eq {
d k v put
} if
} if
} if
} forall
d length 0 gt {
d setpagedevice
} if
} bd
%%EndResource
%%BeginResource: procset (Apache XML Graphics EPS ProcSet) 1.0 0
%%Version: 1.0 0
%%Copyright: (Copyright 2002-2003 The Apache Software Foundation. License terms: http://www.apache.org/licenses/LICENSE-2.0)
/BeginEPSF { %def
/b4_Inc_state save def         % Save state for cleanup
/dict_count countdictstack def % Count objects on dict stack
/op_count count 1 sub def      % Count objects on operand stack
userdict begin                 % Push userdict on dict stack
/showpage { } def              % Redefine showpage, { } = null proc
0 setgray 0 setlinecap         % Prepare graphics state
1 setlinewidth 0 setlinejoin
10 setmiterlimit [ ] 0 setdash newpath
/languagelevel where           % If level not equal to 1 then
{pop languagelevel             % set strokeadjust and
1 ne                           % overprint to their defaults.
{false setstrokeadjust false setoverprint
} if
} if
} bd
/EndEPSF { %def
count op_count sub {pop} repeat            % Clean up stacks
countdictstack dict_count sub {end} repeat
b4_Inc_state restore
} bd
%%EndResource
%FOPBeginFontDict
%%IncludeResource: font Courier-Bold
%%IncludeResource: font Helvetica
%%IncludeResource: font Courier-BoldOblique
%%IncludeResource: font Courier-Oblique
%%IncludeResource: font Times-Roman
%%IncludeResource: font Helvetica-BoldOblique
%%IncludeResource: font Helvetica-Bold
%%IncludeResource: font Helvetica-Oblique
%%IncludeResource: font Times-BoldItalic
%%IncludeResource: font Courier
%%IncludeResource: font Times-Italic
%%IncludeResource: font Times-Bold
%%IncludeResource: font Symbol
%%IncludeResource: font ZapfDingbats
%FOPEndFontDict
%%BeginResource: encoding WinAnsiEncoding
/WinAnsiEncoding [
/.notdef /.notdef /.notdef /.notdef /.notdef
/.notdef /.notdef /.notdef /.notdef /.notdef
/.notdef /.notdef /.notdef /.notdef /.notdef
/.notdef /.notdef /.notdef /.notdef /.notdef
/.notdef /.notdef /.notdef /.notdef /.notdef
/.notdef /.notdef /.notdef /.notdef /.notdef
/.notdef /.notdef /space /exclam /quotedbl
/numbersign /dollar /percent /ampersand /quotesingle
/parenleft /parenright /asterisk /plus /comma
/hyphen /period /slash /zero /one
/two /three /four /five /six
/seven /eight /nine /colon /semicolon
/less /equal /greater /question /at
/A /B /C /D /E
/F /G /H /I /J
/K /L /M /N /O
/P /Q /R /S /T
/U /V /W /X /Y
/Z /bracketleft /backslash /bracketright /asciicircum
/underscore /quoteleft /a /b /c
/d /e /f /g /h
/i /j /k /l /m
/n /o /p /q /r
/s /t /u /v /w
/x /y /z /braceleft /bar
/braceright /asciitilde /bullet /Euro /bullet
/quotesinglbase /florin /quotedblbase /ellipsis /dagger
/daggerdbl /circumflex /perthousand /Scaron /guilsinglleft
/OE /bullet /Zcaron /bullet /bullet
/quoteleft /quoteright /quotedblleft /quotedblright /bullet
/endash /emdash /asciitilde /trademark /scaron
/guilsinglright /oe /bullet /zcaron /Ydieresis
/space /exclamdown /cent /sterling /currency
/yen /brokenbar /section /dieresis /copyright
/ordfeminine /guillemotleft /logicalnot /sfthyphen /registered
/macron /degree /plusminus /twosuperior /threesuperior
/acute /mu /paragraph /middot /cedilla
/onesuperior /ordmasculine /guillemotright /onequarter /onehalf
/threequarters /questiondown /Agrave /Aacute /Acircumflex
/Atilde /Adieresis /Aring /AE /Ccedilla
/Egrave /Eacute /Ecircumflex /Edieresis /Igrave
/Iacute /Icircumflex /Idieresis /Eth /Ntilde
/Ograve /Oacute /Ocircumflex /Otilde /Odieresis
/multiply /Oslash /Ugrave /Uacute /Ucircumflex
/Udieresis /Yacute /Thorn /germandbls /agrave
/aacute /acircumflex /atilde /adieresis /aring
/ae /ccedilla /egrave /eacute /ecircumflex
/edieresis /igrave /iacute /icircumflex /idieresis
/eth /ntilde /ograve /oacute /ocircumflex
/otilde /odieresis /divide /oslash /ugrave
/uacute /ucircumflex /udieresis /yacute /thorn
/ydieresis
] def
%%EndResource
%FOPBeginFontReencode
/Courier-Bold findfont
dup length dict begin
  {1 index /FID ne {def} {pop pop} ifelse} forall
  /Encoding WinAnsiEncoding def
  currentdict
end
/Courier-Bold exch definefont pop
/Helvetica findfont
dup length dict begin
  {1 index /FID ne {def} {pop pop} ifelse} forall
  /Encoding WinAnsiEncoding def
  currentdict
end
/Helvetica exch definefont pop
/Courier-BoldOblique findfont
dup length dict begin
  {1 index /FID ne {def} {pop pop} ifelse} forall
  /Encoding WinAnsiEncoding def
  currentdict
end
/Courier-BoldOblique exch definefont pop
/Courier-Oblique findfont
dup length dict begin
  {1 index /FID ne {def} {pop pop} ifelse} forall
  /Encoding WinAnsiEncoding def
  currentdict
end
/Courier-Oblique exch definefont pop
/Times-Roman findfont
dup length dict begin
  {1 index /FID ne {def} {pop pop} ifelse} forall
  /Encoding WinAnsiEncoding def
  currentdict
end
/Times-Roman exch definefont pop
/Helvetica-BoldOblique findfont
dup length dict begin
  {1 index /FID ne {def} {pop pop} ifelse} forall
  /Encoding WinAnsiEncoding def
  currentdict
end
/Helvetica-BoldOblique exch definefont pop
/Helvetica-Bold findfont
dup length dict begin
  {1 index /FID ne {def} {pop pop} ifelse} forall
  /Encoding WinAnsiEncoding def
  currentdict
end
/Helvetica-Bold exch definefont pop
/Helvetica-Oblique findfont
dup length dict begin
  {1 index /FID ne {def} {pop pop} ifelse} forall
  /Encoding WinAnsiEncoding def
  currentdict
end
/Helvetica-Oblique exch definefont pop
/Times-BoldItalic findfont
dup length dict begin
  {1 index /FID ne {def} {pop pop} ifelse} forall
  /Encoding WinAnsiEncoding def
  currentdict
end
/Times-BoldItalic exch definefont pop
/Courier findfont
dup length dict begin
  {1 index /FID ne {def} {pop pop} ifelse} forall
  /Encoding WinAnsiEncoding def
  currentdict
end
/Courier exch definefont pop
/Times-Italic findfont
dup length dict begin
  {1 index /FID ne {def} {pop pop} ifelse} forall
  /Encoding WinAnsiEncoding def
  currentdict
end
/Times-Italic exch definefont pop
/Times-Bold findfont
dup length dict begin
  {1 index /FID ne {def} {pop pop} ifelse} forall
  /Encoding WinAnsiEncoding def
  currentdict
end
/Times-Bold exch definefont pop
%FOPEndFontReencode
%%EndProlog
%%Page: 1 1
%%PageBoundingBox: 0 0 688 263
%%BeginPageSetup
[1 0 0 -1 0 263] CT
%%EndPageSetup
GS
[0.75 0 0 0.75 0 0.5] CT
N
0 0 M
917 0 L
917 350 L
0 350 L
0 0 L
cp
clip
1 GC
N
0 0 917 350 re
f
GR
GS
[0.75 0 0 0.75 0 0.5] CT
1 GC
N
0 0 917 350 re
f
GR
GS
[0.75 0 0 0.75 0 0.5] CT
1 GC
N
119 311 M
830 311 L
830 26 L
119 26 L
cp
f
GR
GS
[0.75 0 0 0.75 0 0.5] CT
0.149 GC
2 setlinecap
10.0 ML
N
119 311 M
830 311 L
S
GR
GS
[0.75 0 0 0.75 0 0.5] CT
0.149 GC
2 setlinecap
10.0 ML
N
119 26 M
830 26 L
S
GR
GS
[0.75 0 0 0.75 0 0.5] CT
0.149 GC
2 setlinecap
10.0 ML
N
131.342 311 M
131.342 303.89 L
S
GR
GS
[0.75 0 0 0.75 0 0.5] CT
0.149 GC
2 setlinecap
10.0 ML
N
253.956 311 M
253.956 303.89 L
S
GR
GS
[0.75 0 0 0.75 0 0.5] CT
0.149 GC
2 setlinecap
10.0 ML
N
376.569 311 M
376.569 303.89 L
S
GR
GS
[0.75 0 0 0.75 0 0.5] CT
0.149 GC
2 setlinecap
10.0 ML
N
499.183 311 M
499.183 303.89 L
S
GR
GS
[0.75 0 0 0.75 0 0.5] CT
0.149 GC
2 setlinecap
10.0 ML
N
621.797 311 M
621.797 303.89 L
S
GR
GS
[0.75 0 0 0.75 0 0.5] CT
0.149 GC
2 setlinecap
10.0 ML
N
744.411 311 M
744.411 303.89 L
S
GR
GS
[0.75 0 0 0.75 0 0.5] CT
0.149 GC
2 setlinecap
10.0 ML
N
131.342 26 M
131.342 33.11 L
S
GR
GS
[0.75 0 0 0.75 0 0.5] CT
0.149 GC
2 setlinecap
10.0 ML
N
253.956 26 M
253.956 33.11 L
S
GR
GS
[0.75 0 0 0.75 0 0.5] CT
0.149 GC
2 setlinecap
10.0 ML
N
376.569 26 M
376.569 33.11 L
S
GR
GS
[0.75 0 0 0.75 0 0.5] CT
0.149 GC
2 setlinecap
10.0 ML
N
499.183 26 M
499.183 33.11 L
S
GR
GS
[0.75 0 0 0.75 0 0.5] CT
0.149 GC
2 setlinecap
10.0 ML
N
621.797 26 M
621.797 33.11 L
S
GR
GS
[0.75 0 0 0.75 0 0.5] CT
0.149 GC
2 setlinecap
10.0 ML
N
744.411 26 M
744.411 33.11 L
S
GR
GS
[0.75 0 0 0.75 98.50623 237.75001] CT
0.149 GC
/Helvetica 13 F
GS
[1 0 0 1 0 0] CT
-11 14 moveto 
1 -1 scale
(300) t 
GR
GR
GS
[0.75 0 0 0.75 190.46665 237.75001] CT
0.149 GC
/Helvetica 13 F
GS
[1 0 0 1 0 0] CT
-11 14 moveto 
1 -1 scale
(400) t 
GR
GR
GS
[0.75 0 0 0.75 282.42707 237.75001] CT
0.149 GC
/Helvetica 13 F
GS
[1 0 0 1 0 0] CT
-11 14 moveto 
1 -1 scale
(500) t 
GR
GR
GS
[0.75 0 0 0.75 374.38747 237.75001] CT
0.149 GC
/Helvetica 13 F
GS
[1 0 0 1 0 0] CT
-11 14 moveto 
1 -1 scale
(600) t 
GR
GR
GS
[0.75 0 0 0.75 466.34789 237.75001] CT
0.149 GC
/Helvetica 13 F
GS
[1 0 0 1 0 0] CT
-11 14 moveto 
1 -1 scale
(700) t 
GR
GR
GS
[0.75 0 0 0.75 558.3083 237.75001] CT
0.149 GC
/Helvetica 13 F
GS
[1 0 0 1 0 0] CT
-11 14 moveto 
1 -1 scale
(800) t 
GR
GR
GS
[0.75 0 0 0.75 0 0.5] CT
0.149 GC
2 setlinecap
10.0 ML
N
119 311 M
119 26 L
S
GR
GS
[0.75 0 0 0.75 0 0.5] CT
0.149 GC
2 setlinecap
10.0 ML
N
830 311 M
830 26 L
S
GR
GS
[0.75 0 0 0.75 0 0.5] CT
0.149 GC
2 setlinecap
10.0 ML
N
119 284.575 M
126.11 284.575 L
S
GR
GS
[0.75 0 0 0.75 0 0.5] CT
0.149 GC
2 setlinecap
10.0 ML
N
119 238.18 M
126.11 238.18 L
S
GR
GS
[0.75 0 0 0.75 0 0.5] CT
0.149 GC
2 setlinecap
10.0 ML
N
119 191.785 M
126.11 191.785 L
S
GR
GS
[0.75 0 0 0.75 0 0.5] CT
0.149 GC
2 setlinecap
10.0 ML
N
119 145.391 M
126.11 145.391 L
S
GR
GS
[0.75 0 0 0.75 0 0.5] CT
0.149 GC
2 setlinecap
10.0 ML
N
119 98.996 M
126.11 98.996 L
S
GR
GS
[0.75 0 0 0.75 0 0.5] CT
0.149 GC
2 setlinecap
10.0 ML
N
119 52.601 M
126.11 52.601 L
S
GR
GS
[0.75 0 0 0.75 0 0.5] CT
0.149 GC
2 setlinecap
10.0 ML
N
830 284.575 M
822.89 284.575 L
S
GR
GS
[0.75 0 0 0.75 0 0.5] CT
0.149 GC
2 setlinecap
10.0 ML
N
830 238.18 M
822.89 238.18 L
S
GR
GS
[0.75 0 0 0.75 0 0.5] CT
0.149 GC
2 setlinecap
10.0 ML
N
830 191.785 M
822.89 191.785 L
S
GR
GS
[0.75 0 0 0.75 0 0.5] CT
0.149 GC
2 setlinecap
10.0 ML
N
830 145.391 M
822.89 145.391 L
S
GR
GS
[0.75 0 0 0.75 0 0.5] CT
0.149 GC
2 setlinecap
10.0 ML
N
830 98.996 M
822.89 98.996 L
S
GR
GS
[0.75 0 0 0.75 0 0.5] CT
0.149 GC
2 setlinecap
10.0 ML
N
830 52.601 M
822.89 52.601 L
S
GR
GS
[0.75 0 0 0.75 85.24999 213.93114] CT
0.149 GC
/Helvetica 13 F
GS
[1 0 0 1 0 0] CT
-22 5.5 moveto 
1 -1 scale
(560) t 
GR
GR
GS
[0.75 0 0 0.75 85.24999 179.13509] CT
0.149 GC
/Helvetica 13 F
GS
[1 0 0 1 0 0] CT
-22 5.5 moveto 
1 -1 scale
(570) t 
GR
GR
GS
[0.75 0 0 0.75 85.24999 144.33903] CT
0.149 GC
/Helvetica 13 F
GS
[1 0 0 1 0 0] CT
-22 5.5 moveto 
1 -1 scale
(580) t 
GR
GR
GS
[0.75 0 0 0.75 85.24999 109.54296] CT
0.149 GC
/Helvetica 13 F
GS
[1 0 0 1 0 0] CT
-22 5.5 moveto 
1 -1 scale
(590) t 
GR
GR
GS
[0.75 0 0 0.75 85.24999 74.7469] CT
0.149 GC
/Helvetica 13 F
GS
[1 0 0 1 0 0] CT
-22 5.5 moveto 
1 -1 scale
(600) t 
GR
GR
GS
[0.75 0 0 0.75 85.24999 39.95083] CT
0.149 GC
/Helvetica 13 F
GS
[1 0 0 1 0 0] CT
-22 5.5 moveto 
1 -1 scale
(610) t 
GR
GR
GS
[0.75 0 0 0.75 0 0.5] CT
0 0.447 0.741 RC
2 LJ
N
118.929 164.198 M
119.08 164.18 L
120.306 164.691 L
121.533 164.83 L
122.759 165.294 L
123.985 165.99 L
125.211 166.222 L
126.437 165.062 L
127.663 166.175 L
128.889 170.815 L
130.116 171.279 L
131.342 171.511 L
132.568 169.98 L
133.794 170.258 L
135.02 170.815 L
136.246 172.764 L
137.472 174.527 L
138.698 170.815 L
139.925 171.511 L
141.151 176.057 L
142.377 175.826 L
143.603 174.573 L
144.829 173.459 L
146.055 174.063 L
147.281 174.48 L
148.508 172.253 L
149.734 172.068 L
150.96 171.279 L
152.186 171.604 L
153.412 171.001 L
154.638 170.815 L
155.864 170.119 L
157.091 168.913 L
158.317 169.191 L
159.543 167.706 L
160.769 168.866 L
161.995 167.706 L
163.221 164.505 L
164.447 169.933 L
165.674 181.439 L
166.9 173.552 L
168.126 168.449 L
169.352 178.099 L
170.578 180.001 L
171.804 178.609 L
173.03 181.115 L
174.257 179.862 L
175.483 179.305 L
176.709 174.063 L
177.935 166.129 L
S
GR
GS
[0.75 0 0 0.75 0 0.5] CT
0 0.447 0.741 RC
2 LJ
N
177.935 166.129 M
179.161 165.108 L
180.387 165.34 L
181.613 163.252 L
182.839 163.949 L
184.066 163.717 L
185.292 162.603 L
186.518 162.417 L
187.744 163.345 L
188.97 163.438 L
190.196 163.809 L
191.422 164.923 L
192.649 165.016 L
193.875 164.691 L
195.101 162.789 L
196.327 163.021 L
197.553 166.175 L
198.779 166.871 L
200.005 166.732 L
201.232 168.913 L
202.458 167.057 L
203.684 164.784 L
204.91 166.222 L
206.136 165.387 L
207.362 161.722 L
208.588 160.376 L
209.815 161.443 L
211.041 159.541 L
212.267 114.492 L
213.493 50.792 L
213.523 25.971 L
S
GR
GS
[0.75 0 0 0.75 0 0.5] CT
0 0.447 0.741 RC
2 LJ
N
229.245 25.971 M
229.433 27.966 L
230.659 31.213 L
231.885 37.105 L
233.111 44.157 L
234.337 42.394 L
234.966 25.971 L
S
GR
GS
[0.75 0 0 0.75 0 0.5] CT
0 0.447 0.741 RC
2 LJ
N
241.324 25.971 M
241.694 28.476 L
242.92 33.672 L
244.146 40.956 L
245.373 48.055 L
246.599 52.323 L
247.825 51.163 L
249.051 56.034 L
250.277 55.06 L
251.503 53.761 L
252.729 56.359 L
253.956 58.54 L
255.182 57.612 L
256.408 55.385 L
257.634 55.431 L
258.86 55.246 L
260.086 58.029 L
261.312 61.138 L
262.539 64.664 L
263.765 66.983 L
264.991 70.602 L
266.217 74.175 L
267.443 76.865 L
268.669 81.412 L
269.895 88.232 L
271.121 94.542 L
272.348 94.31 L
273.574 92.686 L
274.8 96.583 L
276.026 99.692 L
277.252 100.527 L
278.478 105.398 L
279.704 107.022 L
280.931 104.981 L
282.157 103.403 L
283.383 102.429 L
284.609 101.594 L
285.835 101.455 L
287.061 101.223 L
288.287 98.81 L
289.514 99.321 L
290.74 99.228 L
291.966 95.702 L
293.192 95.377 L
294.418 100.016 L
295.644 102.29 L
296.87 100.109 L
298.097 100.805 L
299.323 101.455 L
300.549 100.202 L
S
GR
GS
[0.75 0 0 0.75 0 0.5] CT
0 0.447 0.741 RC
2 LJ
N
300.549 100.202 M
301.775 100.759 L
303.001 102.429 L
304.227 98.671 L
305.453 96.073 L
306.68 97.604 L
307.906 100.202 L
309.132 101.13 L
310.358 101.269 L
311.584 101.826 L
312.81 101.965 L
314.036 101.919 L
315.262 101.64 L
316.489 100.249 L
317.715 99.645 L
318.941 100.712 L
320.167 100.434 L
321.393 95.331 L
322.619 83.407 L
323.845 83.407 L
325.072 84.196 L
326.298 85.634 L
327.524 87.397 L
328.75 89.902 L
329.976 92.779 L
331.202 94.078 L
332.428 91.573 L
333.655 93.011 L
334.881 94.867 L
336.107 93.985 L
337.333 93.707 L
338.559 95.748 L
339.785 97.094 L
341.011 99.599 L
342.238 100.481 L
343.464 99.228 L
344.69 96.862 L
345.916 97.14 L
347.142 100.481 L
348.368 96.954 L
349.594 98.625 L
350.82 100.805 L
352.047 99.181 L
353.273 102.012 L
354.499 101.64 L
355.725 105.491 L
356.951 105.584 L
358.177 104.888 L
359.403 104.656 L
360.63 104.192 L
S
GR
GS
[0.75 0 0 0.75 0 0.5] CT
0 0.447 0.741 RC
2 LJ
N
360.63 104.192 M
361.856 103.218 L
363.082 102.939 L
364.308 103.311 L
365.534 100.805 L
366.76 100.852 L
367.986 100.944 L
369.213 100.759 L
370.439 101.733 L
371.665 100.898 L
372.891 103.635 L
374.117 105.352 L
375.343 103.079 L
376.569 103.218 L
377.796 102.986 L
379.022 104.563 L
380.248 102.522 L
381.474 103.172 L
382.7 102.197 L
383.926 103.542 L
385.152 109.528 L
386.379 111.986 L
387.605 113.935 L
388.831 112.914 L
390.057 111.94 L
391.283 112.172 L
392.509 112.497 L
393.735 111.754 L
394.961 110.038 L
396.188 109.713 L
397.414 110.223 L
398.64 108.878 L
399.866 108.368 L
401.092 108.878 L
402.318 107.718 L
403.544 108.321 L
404.771 107.161 L
405.997 108.321 L
407.223 107.904 L
408.449 105.77 L
409.675 106.326 L
410.901 107.208 L
412.127 107.44 L
413.354 108.182 L
414.58 109.11 L
415.806 110.78 L
417.032 111.244 L
418.258 111.244 L
419.484 110.27 L
420.71 110.177 L
S
GR
GS
[0.75 0 0 0.75 0 0.5] CT
0 0.447 0.741 RC
2 LJ
N
420.71 110.177 M
421.937 108.971 L
423.163 108.785 L
424.389 114.167 L
425.615 114.213 L
426.841 114.677 L
428.067 116.162 L
429.293 118.342 L
430.52 117.414 L
431.746 113.378 L
432.972 112.589 L
434.198 111.244 L
435.424 111.198 L
436.65 110.966 L
437.876 113.193 L
439.103 113.378 L
440.329 112.079 L
441.555 112.45 L
442.781 112.636 L
444.007 116.208 L
445.233 117.739 L
446.459 119.688 L
447.685 117.322 L
448.912 117.739 L
450.138 118.574 L
451.364 118.714 L
452.59 119.92 L
453.816 121.173 L
455.042 119.456 L
456.268 119.734 L
457.495 119.595 L
458.721 119.038 L
459.947 119.177 L
461.173 118.574 L
462.399 117.647 L
463.625 117.739 L
464.851 116.951 L
466.078 116.069 L
467.304 115.652 L
468.53 115.605 L
469.756 114.445 L
470.982 118.157 L
472.208 119.781 L
473.434 117.183 L
474.661 116.162 L
475.887 117.461 L
477.113 117.647 L
478.339 118.946 L
479.565 116.672 L
480.791 116.904 L
S
GR
GS
[0.75 0 0 0.75 0 0.5] CT
0 0.447 0.741 RC
2 LJ
N
480.791 116.904 M
482.017 117.183 L
483.243 116.904 L
484.47 117.879 L
485.696 114.956 L
486.922 114.631 L
488.148 113.656 L
489.374 113.981 L
490.6 114.538 L
491.826 114.77 L
493.053 113.981 L
494.279 114.213 L
495.505 113.564 L
496.731 112.729 L
497.957 113.471 L
499.183 114.121 L
500.409 122.472 L
501.636 149.891 L
502.862 165.294 L
504.088 183.852 L
505.314 184.965 L
506.54 184.084 L
507.766 177.449 L
508.992 173.924 L
510.219 171.14 L
511.445 170.49 L
512.671 168.124 L
513.897 162.464 L
515.123 156.85 L
516.349 153.603 L
517.575 153.138 L
518.802 146.411 L
520.028 145.391 L
521.254 144.231 L
522.48 141.726 L
523.706 139.22 L
524.932 136.112 L
526.158 120.198 L
527.384 120.245 L
528.611 125.255 L
529.837 120.662 L
531.063 115.141 L
532.289 115.28 L
533.515 116.301 L
534.741 111.94 L
535.967 98.439 L
537.194 89.949 L
538.42 92.315 L
539.646 98.718 L
540.872 94.356 L
S
GR
GS
[0.75 0 0 0.75 0 0.5] CT
0 0.447 0.741 RC
2 LJ
N
540.872 94.356 M
542.098 94.449 L
543.324 95.609 L
544.55 98.949 L
545.777 100.434 L
547.003 96.305 L
547.46 25.971 L
S
GR
GS
[0.75 0 0 0.75 0 0.5] CT
0 0.447 0.741 RC
2 LJ
N
551.708 25.971 M
551.907 92.547 L
553.133 192.76 L
554.36 209.276 L
555.586 268.29 L
556.236 311.029 L
S
GR
GS
[0.75 0 0 0.75 0 0.5] CT
0 0.447 0.741 RC
2 LJ
N
572.55 311.029 M
572.752 307.865 L
573.978 290.745 L
575.204 276.27 L
576.43 265.367 L
577.656 256.413 L
578.882 245.928 L
580.108 236.51 L
581.335 226.767 L
582.561 218.23 L
583.787 212.385 L
585.013 205.843 L
586.239 199.162 L
587.465 192.62 L
588.691 189.698 L
589.918 188.538 L
591.144 185.94 L
592.37 184.038 L
593.596 181.068 L
594.822 180.094 L
596.048 181.068 L
597.274 176.429 L
598.501 172.439 L
599.727 170.351 L
600.953 168.449 L
602.179 167.985 L
603.405 167.382 L
604.631 165.248 L
605.857 164.83 L
607.083 165.943 L
608.31 166.315 L
609.536 165.526 L
610.762 166.964 L
611.988 163.067 L
613.214 162.51 L
614.44 161.397 L
615.667 160.469 L
616.893 160.701 L
618.119 159.773 L
619.345 154.623 L
620.571 154.948 L
621.797 155.366 L
623.023 154.809 L
624.249 154.855 L
625.476 153.092 L
626.702 150.726 L
627.928 150.448 L
629.154 150.726 L
630.38 150.355 L
631.606 148.963 L
S
GR
GS
[0.75 0 0 0.75 0 0.5] CT
0 0.447 0.741 RC
2 LJ
N
631.606 148.963 M
632.832 149.612 L
634.059 149.705 L
635.285 149.102 L
636.511 149.984 L
637.737 149.752 L
638.963 149.937 L
640.189 150.169 L
641.415 150.633 L
642.642 150.958 L
643.868 150.819 L
645.094 151.004 L
646.32 151.051 L
647.546 151.144 L
648.772 151.468 L
649.998 150.262 L
651.224 149.288 L
652.451 150.448 L
653.677 154.252 L
654.903 150.448 L
656.129 147.803 L
657.355 148.731 L
658.581 148.453 L
659.807 147.525 L
661.034 147.71 L
662.26 146.319 L
663.486 146.922 L
664.712 147.757 L
665.938 148.082 L
667.164 150.865 L
668.39 149.937 L
669.617 109.852 L
670.001 25.971 L
S
GR
GS
[0.75 0 0 0.75 0 0.5] CT
0 0.447 0.741 RC
2 LJ
N
693.541 25.971 M
694.139 35.389 L
695.365 30.285 L
696.592 66.241 L
697.818 71.809 L
699.044 63.04 L
700.27 52.23 L
701.496 52.648 L
702.722 57.194 L
703.948 62.669 L
705.175 62.251 L
706.401 61.184 L
707.627 61.091 L
708.853 61.184 L
710.079 60.72 L
711.305 61.23 L
712.531 60.674 L
713.758 60.952 L
714.984 60.906 L
716.21 60.581 L
717.436 62.298 L
718.662 65.22 L
719.888 61.834 L
721.114 60.395 L
722.341 59.467 L
723.567 61.045 L
724.793 56.545 L
726.019 56.034 L
727.245 56.266 L
728.471 56.174 L
729.697 56.73 L
730.924 56.266 L
732.15 56.73 L
733.376 60.581 L
734.602 64.246 L
735.828 61.462 L
737.054 60.813 L
738.28 60.86 L
739.507 61.741 L
740.733 58.957 L
741.959 58.447 L
743.185 57.937 L
744.411 58.308 L
745.637 58.4 L
746.863 58.818 L
748.089 59.282 L
749.316 59.467 L
750.542 60.303 L
751.768 60.999 L
752.994 62.39 L
S
GR
GS
[0.75 0 0 0.75 0 0.5] CT
0 0.447 0.741 RC
2 LJ
N
752.994 62.39 M
754.22 64.2 L
755.446 68.979 L
756.672 68.793 L
757.899 67.169 L
759.125 67.819 L
760.351 67.494 L
761.577 68.468 L
762.803 68.932 L
764.029 69.999 L
765.255 70.649 L
766.482 69.999 L
767.708 68.746 L
768.934 68.7 L
770.16 66.983 L
771.386 67.262 L
772.612 67.169 L
773.838 67.772 L
775.065 66.52 L
776.291 66.195 L
777.517 65.731 L
778.743 65.406 L
779.969 65.453 L
781.195 65.963 L
782.421 65.638 L
783.648 64.71 L
784.874 64.293 L
786.1 64.153 L
787.326 64.246 L
788.552 63.225 L
789.778 63.272 L
791.004 63.179 L
792.23 63.643 L
793.457 63.782 L
794.683 64.107 L
795.909 63.411 L
797.135 63.875 L
798.361 62.762 L
799.587 62.437 L
800.813 63.225 L
802.04 63.921 L
803.266 64.849 L
804.492 64.664 L
805.718 63.829 L
806.944 62.993 L
808.17 63.272 L
809.396 62.576 L
810.623 62.53 L
811.849 62.947 L
813.075 62.669 L
S
GR
GS
[0.75 0 0 0.75 0 0.5] CT
0 0.447 0.741 RC
2 LJ
N
813.075 62.669 M
814.301 64.942 L
815.527 64.525 L
816.753 63.55 L
817.979 63.411 L
819.206 63.411 L
820.432 62.669 L
821.658 64.246 L
822.884 64.385 L
824.11 62.483 L
825.336 62.437 L
826.562 62.808 L
827.789 62.437 L
829.015 59.328 L
830.071 59.408 L
S
GR
%%Trailer
%%Pages: 1
%%EOF
