%!PS-Adobe-3.0 EPSF-3.0
%%Creator: (MATLAB, The Mathworks, Inc. Version 8.5.0.197613 \(R2015a\). Operating System: Windows 8)
%%Title: (C:/Users/aleja/Desktop/TFG/Documentaci\363n/Obtenci\363n de datos/matlab_plot/plots/Jota11-51.eps)
%%CreationDate: 2019-05-22T00:19:15
%%Pages: (atend)
%%BoundingBox: 0 0 420 315
%%LanguageLevel: 2
%%EndComments
%%BeginProlog
%%BeginResource: procset (Apache XML Graphics Std ProcSet) 1.2 0
%%Version: 1.2 0
%%Copyright: (Copyright 2001-2003,2010 The Apache Software Foundation. License terms: http://www.apache.org/licenses/LICENSE-2.0)
/bd{bind def}bind def
/ld{load def}bd
/GR/grestore ld
/M/moveto ld
/LJ/setlinejoin ld
/C/curveto ld
/f/fill ld
/LW/setlinewidth ld
/GC/setgray ld
/t/show ld
/N/newpath ld
/CT/concat ld
/cp/closepath ld
/S/stroke ld
/L/lineto ld
/CC/setcmykcolor ld
/A/ashow ld
/GS/gsave ld
/RC/setrgbcolor ld
/RM/rmoveto ld
/ML/setmiterlimit ld
/re {4 2 roll M
1 index 0 rlineto
0 exch rlineto
neg 0 rlineto
cp } bd
/_ctm matrix def
/_tm matrix def
/BT { _ctm currentmatrix pop matrix _tm copy pop 0 0 moveto } bd
/ET { _ctm setmatrix } bd
/iTm { _ctm setmatrix _tm concat } bd
/Tm { _tm astore pop iTm 0 0 moveto } bd
/ux 0.0 def
/uy 0.0 def
/F {
  /Tp exch def
  /Tf exch def
  Tf findfont Tp scalefont setfont
  /cf Tf def  /cs Tp def
} bd
/ULS {currentpoint /uy exch def /ux exch def} bd
/ULE {
  /Tcx currentpoint pop def
  gsave
  newpath
  cf findfont cs scalefont dup
  /FontMatrix get 0 get /Ts exch def /FontInfo get dup
  /UnderlinePosition get Ts mul /To exch def
  /UnderlineThickness get Ts mul /Tt exch def
  ux uy To add moveto  Tcx uy To add lineto
  Tt setlinewidth stroke
  grestore
} bd
/OLE {
  /Tcx currentpoint pop def
  gsave
  newpath
  cf findfont cs scalefont dup
  /FontMatrix get 0 get /Ts exch def /FontInfo get dup
  /UnderlinePosition get Ts mul /To exch def
  /UnderlineThickness get Ts mul /Tt exch def
  ux uy To add cs add moveto Tcx uy To add cs add lineto
  Tt setlinewidth stroke
  grestore
} bd
/SOE {
  /Tcx currentpoint pop def
  gsave
  newpath
  cf findfont cs scalefont dup
  /FontMatrix get 0 get /Ts exch def /FontInfo get dup
  /UnderlinePosition get Ts mul /To exch def
  /UnderlineThickness get Ts mul /Tt exch def
  ux uy To add cs 10 mul 26 idiv add moveto Tcx uy To add cs 10 mul 26 idiv add lineto
  Tt setlinewidth stroke
  grestore
} bd
/QT {
/Y22 exch store
/X22 exch store
/Y21 exch store
/X21 exch store
currentpoint
/Y21 load 2 mul add 3 div exch
/X21 load 2 mul add 3 div exch
/X21 load 2 mul /X22 load add 3 div
/Y21 load 2 mul /Y22 load add 3 div
/X22 load /Y22 load curveto
} bd
/SSPD {
dup length /d exch dict def
{
/v exch def
/k exch def
currentpagedevice k known {
/cpdv currentpagedevice k get def
v cpdv ne {
/upd false def
/nullv v type /nulltype eq def
/nullcpdv cpdv type /nulltype eq def
nullv nullcpdv or
{
/upd true def
} {
/sametype v type cpdv type eq def
sametype {
v type /arraytype eq {
/vlen v length def
/cpdvlen cpdv length def
vlen cpdvlen eq {
0 1 vlen 1 sub {
/i exch def
/obj v i get def
/cpdobj cpdv i get def
obj cpdobj ne {
/upd true def
exit
} if
} for
} {
/upd true def
} ifelse
} {
v type /dicttype eq {
v {
/dv exch def
/dk exch def
/cpddv cpdv dk get def
dv cpddv ne {
/upd true def
exit
} if
} forall
} {
/upd true def
} ifelse
} ifelse
} if
} ifelse
upd true eq {
d k v put
} if
} if
} if
} forall
d length 0 gt {
d setpagedevice
} if
} bd
%%EndResource
%%BeginResource: procset (Apache XML Graphics EPS ProcSet) 1.0 0
%%Version: 1.0 0
%%Copyright: (Copyright 2002-2003 The Apache Software Foundation. License terms: http://www.apache.org/licenses/LICENSE-2.0)
/BeginEPSF { %def
/b4_Inc_state save def         % Save state for cleanup
/dict_count countdictstack def % Count objects on dict stack
/op_count count 1 sub def      % Count objects on operand stack
userdict begin                 % Push userdict on dict stack
/showpage { } def              % Redefine showpage, { } = null proc
0 setgray 0 setlinecap         % Prepare graphics state
1 setlinewidth 0 setlinejoin
10 setmiterlimit [ ] 0 setdash newpath
/languagelevel where           % If level not equal to 1 then
{pop languagelevel             % set strokeadjust and
1 ne                           % overprint to their defaults.
{false setstrokeadjust false setoverprint
} if
} if
} bd
/EndEPSF { %def
count op_count sub {pop} repeat            % Clean up stacks
countdictstack dict_count sub {end} repeat
b4_Inc_state restore
} bd
%%EndResource
%FOPBeginFontDict
%%IncludeResource: font Courier-Bold
%%IncludeResource: font Helvetica
%%IncludeResource: font Courier-BoldOblique
%%IncludeResource: font Courier-Oblique
%%IncludeResource: font Times-Roman
%%IncludeResource: font Helvetica-BoldOblique
%%IncludeResource: font Helvetica-Bold
%%IncludeResource: font Helvetica-Oblique
%%IncludeResource: font Times-BoldItalic
%%IncludeResource: font Courier
%%IncludeResource: font Times-Italic
%%IncludeResource: font Times-Bold
%%IncludeResource: font Symbol
%%IncludeResource: font ZapfDingbats
%FOPEndFontDict
%%BeginResource: encoding WinAnsiEncoding
/WinAnsiEncoding [
/.notdef /.notdef /.notdef /.notdef /.notdef
/.notdef /.notdef /.notdef /.notdef /.notdef
/.notdef /.notdef /.notdef /.notdef /.notdef
/.notdef /.notdef /.notdef /.notdef /.notdef
/.notdef /.notdef /.notdef /.notdef /.notdef
/.notdef /.notdef /.notdef /.notdef /.notdef
/.notdef /.notdef /space /exclam /quotedbl
/numbersign /dollar /percent /ampersand /quotesingle
/parenleft /parenright /asterisk /plus /comma
/hyphen /period /slash /zero /one
/two /three /four /five /six
/seven /eight /nine /colon /semicolon
/less /equal /greater /question /at
/A /B /C /D /E
/F /G /H /I /J
/K /L /M /N /O
/P /Q /R /S /T
/U /V /W /X /Y
/Z /bracketleft /backslash /bracketright /asciicircum
/underscore /quoteleft /a /b /c
/d /e /f /g /h
/i /j /k /l /m
/n /o /p /q /r
/s /t /u /v /w
/x /y /z /braceleft /bar
/braceright /asciitilde /bullet /Euro /bullet
/quotesinglbase /florin /quotedblbase /ellipsis /dagger
/daggerdbl /circumflex /perthousand /Scaron /guilsinglleft
/OE /bullet /Zcaron /bullet /bullet
/quoteleft /quoteright /quotedblleft /quotedblright /bullet
/endash /emdash /asciitilde /trademark /scaron
/guilsinglright /oe /bullet /zcaron /Ydieresis
/space /exclamdown /cent /sterling /currency
/yen /brokenbar /section /dieresis /copyright
/ordfeminine /guillemotleft /logicalnot /sfthyphen /registered
/macron /degree /plusminus /twosuperior /threesuperior
/acute /mu /paragraph /middot /cedilla
/onesuperior /ordmasculine /guillemotright /onequarter /onehalf
/threequarters /questiondown /Agrave /Aacute /Acircumflex
/Atilde /Adieresis /Aring /AE /Ccedilla
/Egrave /Eacute /Ecircumflex /Edieresis /Igrave
/Iacute /Icircumflex /Idieresis /Eth /Ntilde
/Ograve /Oacute /Ocircumflex /Otilde /Odieresis
/multiply /Oslash /Ugrave /Uacute /Ucircumflex
/Udieresis /Yacute /Thorn /germandbls /agrave
/aacute /acircumflex /atilde /adieresis /aring
/ae /ccedilla /egrave /eacute /ecircumflex
/edieresis /igrave /iacute /icircumflex /idieresis
/eth /ntilde /ograve /oacute /ocircumflex
/otilde /odieresis /divide /oslash /ugrave
/uacute /ucircumflex /udieresis /yacute /thorn
/ydieresis
] def
%%EndResource
%FOPBeginFontReencode
/Courier-Bold findfont
dup length dict begin
  {1 index /FID ne {def} {pop pop} ifelse} forall
  /Encoding WinAnsiEncoding def
  currentdict
end
/Courier-Bold exch definefont pop
/Helvetica findfont
dup length dict begin
  {1 index /FID ne {def} {pop pop} ifelse} forall
  /Encoding WinAnsiEncoding def
  currentdict
end
/Helvetica exch definefont pop
/Courier-BoldOblique findfont
dup length dict begin
  {1 index /FID ne {def} {pop pop} ifelse} forall
  /Encoding WinAnsiEncoding def
  currentdict
end
/Courier-BoldOblique exch definefont pop
/Courier-Oblique findfont
dup length dict begin
  {1 index /FID ne {def} {pop pop} ifelse} forall
  /Encoding WinAnsiEncoding def
  currentdict
end
/Courier-Oblique exch definefont pop
/Times-Roman findfont
dup length dict begin
  {1 index /FID ne {def} {pop pop} ifelse} forall
  /Encoding WinAnsiEncoding def
  currentdict
end
/Times-Roman exch definefont pop
/Helvetica-BoldOblique findfont
dup length dict begin
  {1 index /FID ne {def} {pop pop} ifelse} forall
  /Encoding WinAnsiEncoding def
  currentdict
end
/Helvetica-BoldOblique exch definefont pop
/Helvetica-Bold findfont
dup length dict begin
  {1 index /FID ne {def} {pop pop} ifelse} forall
  /Encoding WinAnsiEncoding def
  currentdict
end
/Helvetica-Bold exch definefont pop
/Helvetica-Oblique findfont
dup length dict begin
  {1 index /FID ne {def} {pop pop} ifelse} forall
  /Encoding WinAnsiEncoding def
  currentdict
end
/Helvetica-Oblique exch definefont pop
/Times-BoldItalic findfont
dup length dict begin
  {1 index /FID ne {def} {pop pop} ifelse} forall
  /Encoding WinAnsiEncoding def
  currentdict
end
/Times-BoldItalic exch definefont pop
/Courier findfont
dup length dict begin
  {1 index /FID ne {def} {pop pop} ifelse} forall
  /Encoding WinAnsiEncoding def
  currentdict
end
/Courier exch definefont pop
/Times-Italic findfont
dup length dict begin
  {1 index /FID ne {def} {pop pop} ifelse} forall
  /Encoding WinAnsiEncoding def
  currentdict
end
/Times-Italic exch definefont pop
/Times-Bold findfont
dup length dict begin
  {1 index /FID ne {def} {pop pop} ifelse} forall
  /Encoding WinAnsiEncoding def
  currentdict
end
/Times-Bold exch definefont pop
%FOPEndFontReencode
%%EndProlog
%%Page: 1 1
%%PageBoundingBox: 0 0 420 315
%%BeginPageSetup
[1 0 0 -1 0 315] CT
%%EndPageSetup
GS
[0.75 0 0 0.75 0 0] CT
1 GC
N
0 0 560 420 re
f
GR
GS
[0.75 0 0 0.75 0 0] CT
1 GC
N
0 0 560 420 re
f
GR
GS
[0.75 0 0 0.75 0 0] CT
1 GC
N
73 374 M
507 374 L
507 31 L
73 31 L
cp
f
GR
GS
[0.75 0 0 0.75 0 0] CT
0.149 GC
2 setlinecap
10.0 ML
N
73 374 M
507 374 L
S
GR
GS
[0.75 0 0 0.75 0 0] CT
0.149 GC
2 setlinecap
10.0 ML
N
73 31 M
507 31 L
S
GR
GS
[0.75 0 0 0.75 0 0] CT
0.149 GC
2 setlinecap
10.0 ML
N
73 374 M
73 369.66 L
S
GR
GS
[0.75 0 0 0.75 0 0] CT
0.149 GC
2 setlinecap
10.0 ML
N
145.333 374 M
145.333 369.66 L
S
GR
GS
[0.75 0 0 0.75 0 0] CT
0.149 GC
2 setlinecap
10.0 ML
N
217.667 374 M
217.667 369.66 L
S
GR
GS
[0.75 0 0 0.75 0 0] CT
0.149 GC
2 setlinecap
10.0 ML
N
290 374 M
290 369.66 L
S
GR
GS
[0.75 0 0 0.75 0 0] CT
0.149 GC
2 setlinecap
10.0 ML
N
362.333 374 M
362.333 369.66 L
S
GR
GS
[0.75 0 0 0.75 0 0] CT
0.149 GC
2 setlinecap
10.0 ML
N
434.667 374 M
434.667 369.66 L
S
GR
GS
[0.75 0 0 0.75 0 0] CT
0.149 GC
2 setlinecap
10.0 ML
N
507 374 M
507 369.66 L
S
GR
GS
[0.75 0 0 0.75 0 0] CT
0.149 GC
2 setlinecap
10.0 ML
N
73 31 M
73 35.34 L
S
GR
GS
[0.75 0 0 0.75 0 0] CT
0.149 GC
2 setlinecap
10.0 ML
N
145.333 31 M
145.333 35.34 L
S
GR
GS
[0.75 0 0 0.75 0 0] CT
0.149 GC
2 setlinecap
10.0 ML
N
217.667 31 M
217.667 35.34 L
S
GR
GS
[0.75 0 0 0.75 0 0] CT
0.149 GC
2 setlinecap
10.0 ML
N
290 31 M
290 35.34 L
S
GR
GS
[0.75 0 0 0.75 0 0] CT
0.149 GC
2 setlinecap
10.0 ML
N
362.333 31 M
362.333 35.34 L
S
GR
GS
[0.75 0 0 0.75 0 0] CT
0.149 GC
2 setlinecap
10.0 ML
N
434.667 31 M
434.667 35.34 L
S
GR
GS
[0.75 0 0 0.75 0 0] CT
0.149 GC
2 setlinecap
10.0 ML
N
507 31 M
507 35.34 L
S
GR
GS
[0.75 0 0 0.75 54.75 284.50001] CT
0.149 GC
/Helvetica 13 F
GS
[1 0 0 1 0 0] CT
-4 14 moveto 
1 -1 scale
(0) t 
GR
GR
GS
[0.75 0 0 0.75 109 284.50001] CT
0.149 GC
/Helvetica 13 F
GS
[1 0 0 1 0 0] CT
-11 14 moveto 
1 -1 scale
(200) t 
GR
GR
GS
[0.75 0 0 0.75 163.25 284.50001] CT
0.149 GC
/Helvetica 13 F
GS
[1 0 0 1 0 0] CT
-11 14 moveto 
1 -1 scale
(400) t 
GR
GR
GS
[0.75 0 0 0.75 217.5 284.50001] CT
0.149 GC
/Helvetica 13 F
GS
[1 0 0 1 0 0] CT
-11 14 moveto 
1 -1 scale
(600) t 
GR
GR
GS
[0.75 0 0 0.75 271.75001 284.50001] CT
0.149 GC
/Helvetica 13 F
GS
[1 0 0 1 0 0] CT
-11 14 moveto 
1 -1 scale
(800) t 
GR
GR
GS
[0.75 0 0 0.75 325.99999 284.50001] CT
0.149 GC
/Helvetica 13 F
GS
[1 0 0 1 0 0] CT
-14.5 14 moveto 
1 -1 scale
(1000) t 
GR
GR
GS
[0.75 0 0 0.75 380.25 284.50001] CT
0.149 GC
/Helvetica 13 F
GS
[1 0 0 1 0 0] CT
-14.5 14 moveto 
1 -1 scale
(1200) t 
GR
GR
GS
[0.75 0 0 0.75 0 0] CT
0.149 GC
2 setlinecap
10.0 ML
N
73 374 M
73 31 L
S
GR
GS
[0.75 0 0 0.75 0 0] CT
0.149 GC
2 setlinecap
10.0 ML
N
507 374 M
507 31 L
S
GR
GS
[0.75 0 0 0.75 0 0] CT
0.149 GC
2 setlinecap
10.0 ML
N
73 374 M
77.34 374 L
S
GR
GS
[0.75 0 0 0.75 0 0] CT
0.149 GC
2 setlinecap
10.0 ML
N
73 325 M
77.34 325 L
S
GR
GS
[0.75 0 0 0.75 0 0] CT
0.149 GC
2 setlinecap
10.0 ML
N
73 276 M
77.34 276 L
S
GR
GS
[0.75 0 0 0.75 0 0] CT
0.149 GC
2 setlinecap
10.0 ML
N
73 227 M
77.34 227 L
S
GR
GS
[0.75 0 0 0.75 0 0] CT
0.149 GC
2 setlinecap
10.0 ML
N
73 178 M
77.34 178 L
S
GR
GS
[0.75 0 0 0.75 0 0] CT
0.149 GC
2 setlinecap
10.0 ML
N
73 129 M
77.34 129 L
S
GR
GS
[0.75 0 0 0.75 0 0] CT
0.149 GC
2 setlinecap
10.0 ML
N
73 80 M
77.34 80 L
S
GR
GS
[0.75 0 0 0.75 0 0] CT
0.149 GC
2 setlinecap
10.0 ML
N
73 31 M
77.34 31 L
S
GR
GS
[0.75 0 0 0.75 0 0] CT
0.149 GC
2 setlinecap
10.0 ML
N
507 374 M
502.66 374 L
S
GR
GS
[0.75 0 0 0.75 0 0] CT
0.149 GC
2 setlinecap
10.0 ML
N
507 325 M
502.66 325 L
S
GR
GS
[0.75 0 0 0.75 0 0] CT
0.149 GC
2 setlinecap
10.0 ML
N
507 276 M
502.66 276 L
S
GR
GS
[0.75 0 0 0.75 0 0] CT
0.149 GC
2 setlinecap
10.0 ML
N
507 227 M
502.66 227 L
S
GR
GS
[0.75 0 0 0.75 0 0] CT
0.149 GC
2 setlinecap
10.0 ML
N
507 178 M
502.66 178 L
S
GR
GS
[0.75 0 0 0.75 0 0] CT
0.149 GC
2 setlinecap
10.0 ML
N
507 129 M
502.66 129 L
S
GR
GS
[0.75 0 0 0.75 0 0] CT
0.149 GC
2 setlinecap
10.0 ML
N
507 80 M
502.66 80 L
S
GR
GS
[0.75 0 0 0.75 0 0] CT
0.149 GC
2 setlinecap
10.0 ML
N
507 31 M
502.66 31 L
S
GR
GS
[0.75 0 0 0.75 50.75 280.5] CT
0.149 GC
/Helvetica 13 F
GS
[1 0 0 1 0 0] CT
-22 5.5 moveto 
1 -1 scale
(460) t 
GR
GR
GS
[0.75 0 0 0.75 50.75 243.75] CT
0.149 GC
/Helvetica 13 F
GS
[1 0 0 1 0 0] CT
-22 5.5 moveto 
1 -1 scale
(480) t 
GR
GR
GS
[0.75 0 0 0.75 50.75 207] CT
0.149 GC
/Helvetica 13 F
GS
[1 0 0 1 0 0] CT
-22 5.5 moveto 
1 -1 scale
(500) t 
GR
GR
GS
[0.75 0 0 0.75 50.75 170.25] CT
0.149 GC
/Helvetica 13 F
GS
[1 0 0 1 0 0] CT
-22 5.5 moveto 
1 -1 scale
(520) t 
GR
GR
GS
[0.75 0 0 0.75 50.75 133.5] CT
0.149 GC
/Helvetica 13 F
GS
[1 0 0 1 0 0] CT
-22 5.5 moveto 
1 -1 scale
(540) t 
GR
GR
GS
[0.75 0 0 0.75 50.75 96.75] CT
0.149 GC
/Helvetica 13 F
GS
[1 0 0 1 0 0] CT
-22 5.5 moveto 
1 -1 scale
(560) t 
GR
GR
GS
[0.75 0 0 0.75 50.75 60] CT
0.149 GC
/Helvetica 13 F
GS
[1 0 0 1 0 0] CT
-22 5.5 moveto 
1 -1 scale
(580) t 
GR
GR
GS
[0.75 0 0 0.75 50.75 23.25] CT
0.149 GC
/Helvetica 13 F
GS
[1 0 0 1 0 0] CT
-22 5.5 moveto 
1 -1 scale
(600) t 
GR
GR
GS
[0.75 0 0 0.75 0 0] CT
0 0.447 0.741 RC
2 LJ
N
73.362 201.52 M
73.723 211.369 L
74.085 230.234 L
74.447 220.14 L
74.808 219.772 L
75.17 227.515 L
75.532 222.933 L
75.893 201.863 L
76.255 215.779 L
76.617 221.243 L
76.978 215.901 L
77.34 241.7 L
77.702 255.788 L
78.063 234.987 L
78.425 234.987 L
78.787 259.389 L
79.148 230.234 L
79.51 261.814 L
79.872 219.748 L
80.233 231.679 L
80.595 266.96 L
80.957 221.879 L
81.318 253.411 L
81.68 253.925 L
82.042 232.904 L
82.403 217.739 L
82.765 249.736 L
83.127 223.399 L
83.488 222.394 L
83.85 240.45 L
84.212 229.278 L
84.573 238.344 L
84.935 220.459 L
85.297 219.16 L
85.658 216.391 L
86.02 227.441 L
86.382 241.7 L
86.743 226.118 L
87.105 240.254 L
87.467 220.287 L
87.828 224.966 L
88.19 239.446 L
88.552 205.416 L
88.913 224.428 L
89.275 236.604 L
89.637 224.525 L
89.998 210.928 L
90.36 216.685 L
90.722 226.069 L
91.083 219.871 L
S
GR
GS
[0.75 0 0 0.75 0 0] CT
0 0.447 0.741 RC
2 LJ
N
91.083 219.871 M
91.445 236.041 L
91.807 218.351 L
92.168 218.646 L
92.53 229.278 L
92.892 241.749 L
93.253 236.163 L
93.615 224.452 L
93.977 223.693 L
94.338 234.178 L
94.7 233.125 L
95.062 256.155 L
95.423 243.831 L
95.785 208.209 L
96.147 241.112 L
96.508 214.481 L
96.87 248.928 L
97.232 262.55 L
97.593 217.666 L
97.955 230.626 L
98.317 214.431 L
98.678 211.688 L
99.04 251.157 L
99.402 238.662 L
99.763 215.73 L
100.125 236.432 L
100.487 239.96 L
100.848 264.314 L
101.21 206.396 L
101.572 226.118 L
101.933 219.552 L
102.295 217.763 L
102.657 236.825 L
103.018 233.199 L
103.38 224.893 L
103.742 221.169 L
104.103 216.049 L
104.465 228.568 L
104.827 217.053 L
105.188 224.869 L
105.55 224.599 L
105.912 230.896 L
106.273 220.924 L
106.635 218.866 L
106.997 209.654 L
107.358 262.403 L
107.72 245.424 L
108.082 220.238 L
108.443 239.666 L
108.805 239.275 L
S
GR
GS
[0.75 0 0 0.75 0 0] CT
0 0.447 0.741 RC
2 LJ
N
108.805 239.275 M
109.167 236.163 L
109.528 282.542 L
109.89 261.692 L
110.252 290.48 L
110.613 287.638 L
110.975 284.6 L
111.337 312.236 L
111.698 313.755 L
112.06 309.418 L
112.422 314.22 L
112.783 305.449 L
113.145 288.985 L
113.507 297.339 L
113.868 293.469 L
114.23 295.134 L
114.592 288.348 L
114.953 302.019 L
115.315 284.134 L
115.677 254.587 L
116.038 263.284 L
116.4 257.331 L
116.762 269.116 L
117.123 248.878 L
117.485 206.591 L
117.847 219.405 L
118.208 218.18 L
118.57 242.704 L
118.932 230.944 L
119.293 220.116 L
119.655 227.269 L
120.017 254.023 L
120.378 249.564 L
120.74 285.8 L
121.102 268.43 L
121.463 266.372 L
121.825 265.98 L
122.187 272.178 L
122.548 259.585 L
122.91 269.091 L
123.272 289.818 L
123.633 251.965 L
123.995 205.538 L
124.357 212.325 L
124.718 241.528 L
125.08 261.667 L
125.442 263.578 L
125.803 224.918 L
126.165 260.957 L
126.527 258.091 L
S
GR
GS
[0.75 0 0 0.75 0 0] CT
0 0.447 0.741 RC
2 LJ
N
126.527 258.091 M
126.888 247.359 L
127.25 238.319 L
127.612 248.633 L
127.973 262.378 L
128.335 231.361 L
128.697 229.965 L
129.058 235.159 L
129.42 267.743 L
129.782 232.072 L
130.143 237.633 L
130.505 255.028 L
130.867 247.066 L
131.228 238.441 L
131.59 243.121 L
131.952 231.728 L
132.313 237.315 L
132.675 246.943 L
133.037 222.492 L
133.398 251.769 L
133.76 258.875 L
134.122 234.595 L
134.483 247.997 L
134.845 259.953 L
135.207 248.584 L
135.568 233.003 L
135.93 229.278 L
136.292 228.47 L
136.653 212.472 L
137.015 234.228 L
137.377 243.366 L
137.738 228.764 L
138.1 232.268 L
138.462 231.165 L
138.823 229.034 L
139.185 259.07 L
139.547 221.561 L
139.908 237.388 L
140.27 221.365 L
140.632 221.144 L
140.993 229.793 L
141.355 248.192 L
141.717 220.753 L
142.078 226.559 L
142.44 248.83 L
142.802 269.556 L
143.163 203.799 L
143.525 266.641 L
143.887 240.009 L
144.248 240.059 L
S
GR
GS
[0.75 0 0 0.75 0 0] CT
0 0.447 0.741 RC
2 LJ
N
144.248 240.059 M
144.61 246.698 L
144.972 258.875 L
145.333 268.797 L
145.695 264.583 L
146.057 228.837 L
146.418 253.901 L
146.78 210.169 L
147.142 234.252 L
147.503 249.246 L
147.865 257.38 L
148.227 235.697 L
148.588 246.673 L
148.95 255.395 L
149.312 256.792 L
149.673 243.66 L
150.035 229.45 L
150.397 238.246 L
150.758 222.247 L
151.12 253.999 L
151.482 243.293 L
151.843 248.168 L
152.205 220.606 L
152.567 228.004 L
152.928 230.944 L
153.29 248.045 L
153.652 237.413 L
154.013 253.411 L
154.375 229.646 L
154.737 230.749 L
155.098 249.908 L
155.46 249.564 L
155.822 248.094 L
156.183 220.41 L
156.545 264.461 L
156.907 240.45 L
157.268 235.207 L
157.63 256.866 L
157.992 241.504 L
158.353 267.106 L
158.715 242.215 L
159.077 210.316 L
159.438 212.962 L
159.8 272.031 L
160.162 210.953 L
160.523 238.27 L
160.885 255.763 L
161.247 246.869 L
161.608 262.697 L
161.97 252.235 L
S
GR
GS
[0.75 0 0 0.75 0 0] CT
0 0.447 0.741 RC
2 LJ
N
161.97 252.235 M
162.332 252.994 L
162.693 227.613 L
163.055 218.131 L
163.417 243.391 L
163.778 245.988 L
164.14 258.311 L
164.502 254.244 L
164.863 246.772 L
165.225 219.552 L
165.587 264.289 L
165.948 253.631 L
166.31 255.224 L
166.672 249.025 L
167.033 247.458 L
167.395 273.819 L
167.757 237.756 L
168.118 229.328 L
168.48 259.242 L
168.842 216.881 L
169.203 259.487 L
169.565 250.495 L
169.927 235.894 L
170.288 237.976 L
170.65 237.388 L
171.012 251.108 L
171.373 267.939 L
171.735 246.478 L
172.097 262.917 L
172.458 268.283 L
172.82 253.95 L
173.182 211.908 L
173.543 242.019 L
173.905 259.193 L
174.267 235.991 L
174.628 241.921 L
174.99 237.731 L
175.352 250.006 L
175.713 252.75 L
176.075 253.142 L
176.437 269.214 L
176.798 227.196 L
177.16 251.157 L
177.522 238.956 L
177.883 232.929 L
178.245 230.381 L
178.607 239.152 L
178.968 266.567 L
179.33 217.421 L
179.692 248.119 L
S
GR
GS
[0.75 0 0 0.75 0 0] CT
0 0.447 0.741 RC
2 LJ
N
179.692 248.119 M
180.053 246.82 L
180.415 245.424 L
180.777 238.417 L
181.138 258.213 L
181.5 250.324 L
181.862 260.859 L
182.223 282.689 L
182.585 291.484 L
182.947 297.192 L
183.308 304.444 L
183.67 315.396 L
184.032 300.328 L
184.393 284.967 L
184.755 300.206 L
185.117 296.825 L
185.478 288.691 L
185.84 306.6 L
186.202 281.586 L
186.563 312.628 L
186.925 296.556 L
187.287 295.012 L
187.648 266.788 L
188.01 267.278 L
188.372 261.349 L
188.733 285.188 L
189.095 298.834 L
189.457 297.364 L
189.818 279.356 L
190.18 294.939 L
190.542 290.798 L
190.903 290.725 L
191.265 290.406 L
191.627 272.913 L
191.988 280.875 L
192.35 292.538 L
192.712 301.798 L
193.073 295.575 L
193.435 301.186 L
193.797 306.576 L
194.158 304.003 L
194.52 282.419 L
194.882 291.778 L
195.243 287.025 L
195.605 293.64 L
195.967 283.276 L
196.328 300.745 L
196.69 297.29 L
197.052 291.876 L
197.413 292.145 L
S
GR
GS
[0.75 0 0 0.75 0 0] CT
0 0.447 0.741 RC
2 LJ
N
197.413 292.145 M
197.775 296.065 L
198.137 288.323 L
198.498 271.811 L
198.86 288.446 L
199.222 255.934 L
199.583 287.515 L
199.945 282.811 L
200.307 268.185 L
200.668 292.292 L
201.03 270.487 L
201.392 262.574 L
201.753 264.264 L
202.115 285.016 L
202.477 281.047 L
202.838 291.9 L
203.2 291.631 L
203.562 290.651 L
203.923 267.866 L
204.285 287.123 L
204.647 274.653 L
205.008 253.068 L
205.37 266.543 L
205.732 258.899 L
206.093 255.028 L
206.455 250.103 L
206.817 267.891 L
207.178 238.319 L
207.54 224.746 L
207.902 242.092 L
208.263 240.818 L
208.625 252.431 L
208.987 256.351 L
209.348 245.326 L
209.71 272.594 L
210.072 257.135 L
210.433 246.281 L
210.795 241.725 L
211.157 253.705 L
211.518 268.478 L
211.88 271.958 L
212.242 268.405 L
212.603 250.324 L
212.965 246.257 L
213.327 258.311 L
213.688 259.119 L
214.05 235.477 L
214.412 227.269 L
214.773 265.147 L
215.135 260.614 L
S
GR
GS
[0.75 0 0 0.75 0 0] CT
0 0.447 0.741 RC
2 LJ
N
215.135 260.614 M
215.497 261.692 L
215.858 263.039 L
216.22 214.407 L
216.582 273.305 L
216.943 279.308 L
217.305 243.635 L
217.667 258.409 L
218.028 211.761 L
218.39 243.341 L
218.752 270.047 L
219.113 266.837 L
219.475 252.652 L
219.837 249.222 L
220.198 219.038 L
220.56 240.132 L
220.922 259.83 L
221.283 243.293 L
221.645 251.451 L
222.007 246.061 L
222.368 239.446 L
222.73 249.614 L
223.092 285.972 L
223.453 263.26 L
223.815 252.088 L
224.177 261.766 L
224.538 257.698 L
224.9 255.518 L
225.262 261.692 L
225.623 264.338 L
225.985 238 L
226.347 234.129 L
226.708 270.634 L
227.07 246.698 L
227.432 262.28 L
227.793 273.477 L
228.155 252.064 L
228.517 258.997 L
228.878 268.209 L
229.24 259.34 L
229.602 256.106 L
229.963 270.781 L
230.325 233.297 L
230.687 233.419 L
231.048 258.703 L
231.41 241.626 L
231.772 248.364 L
232.133 246.232 L
232.495 268.062 L
232.857 267.939 L
S
GR
GS
[0.75 0 0 0.75 0 0] CT
0 0.447 0.741 RC
2 LJ
N
232.857 267.939 M
233.218 269.997 L
233.58 270.047 L
233.942 257.65 L
234.303 241.038 L
234.665 249.711 L
235.027 253.803 L
235.388 252.725 L
235.75 239.74 L
236.112 234.301 L
236.473 238.246 L
236.835 281.635 L
237.197 242.753 L
237.558 254.195 L
237.92 247.653 L
238.282 257.037 L
238.643 215.583 L
239.005 237.559 L
239.367 257.845 L
239.728 261.569 L
240.09 234.962 L
240.452 240.303 L
240.813 247.335 L
241.175 265.489 L
241.537 262.427 L
241.898 230.406 L
242.26 264.314 L
242.622 226.755 L
242.983 260.247 L
243.345 255.592 L
243.707 246.11 L
244.068 241.994 L
244.43 254.881 L
244.792 255.763 L
245.153 266.347 L
245.515 251.622 L
245.877 246.453 L
246.238 242.19 L
246.6 255.959 L
246.962 265.539 L
247.323 267.156 L
247.685 253.607 L
248.047 282.125 L
248.408 286.633 L
248.77 304.444 L
249.132 296.898 L
249.493 287.981 L
249.855 285.849 L
250.217 291.361 L
250.578 293.591 L
S
GR
GS
[0.75 0 0 0.75 0 0] CT
0 0.447 0.741 RC
2 LJ
N
250.578 293.591 M
250.94 275.902 L
251.302 303.048 L
251.663 268.895 L
252.025 279.308 L
252.387 298.319 L
252.748 288.103 L
253.11 299.103 L
253.472 269.409 L
253.833 264.167 L
254.195 288.961 L
254.557 314.808 L
254.918 307.948 L
255.28 298.663 L
255.642 309.442 L
256.003 293.322 L
256.365 305.719 L
256.727 295.673 L
257.088 298.172 L
257.45 280.581 L
257.812 306.208 L
258.173 309.344 L
258.535 307.237 L
258.897 280.827 L
259.258 293.616 L
259.62 283.717 L
259.982 288.838 L
260.343 287.197 L
260.705 293.567 L
261.067 287.368 L
261.428 303.734 L
261.79 309.761 L
262.152 298.172 L
262.513 306.258 L
262.875 305.498 L
263.237 307.948 L
263.598 310.766 L
263.96 308.095 L
264.322 319.831 L
264.683 320.369 L
265.045 313.044 L
265.407 320.712 L
265.768 312.162 L
266.13 309.32 L
266.492 299.397 L
266.853 287.491 L
267.215 307.997 L
267.577 312.431 L
267.938 270.389 L
268.3 297.486 L
S
GR
GS
[0.75 0 0 0.75 0 0] CT
0 0.447 0.741 RC
2 LJ
N
268.3 297.486 M
268.662 313.803 L
269.023 315.421 L
269.385 307.066 L
269.747 299.642 L
270.108 290.382 L
270.47 293.836 L
270.832 310.202 L
271.193 303.881 L
271.555 294.228 L
271.917 290.431 L
272.278 291.852 L
272.64 282.1 L
273.002 307.237 L
273.363 303.832 L
273.725 307.825 L
274.087 293.028 L
274.448 314.661 L
274.81 311.476 L
275.172 309.222 L
275.533 287.956 L
275.895 298.858 L
276.257 314.097 L
276.618 310.006 L
276.98 306.037 L
277.342 301.039 L
277.703 303.93 L
278.065 317.013 L
278.427 307.189 L
278.788 300.01 L
279.15 287.956 L
279.512 290.333 L
279.873 301.382 L
280.235 310.545 L
280.597 298.858 L
280.958 264.117 L
281.32 275.853 L
281.682 262.084 L
282.043 248.683 L
282.405 251.769 L
282.767 238.809 L
283.128 244.469 L
283.49 256.4 L
283.852 243.44 L
284.213 253.092 L
284.575 257.625 L
284.937 252.235 L
285.298 246.772 L
285.66 272.129 L
286.022 275.167 L
S
GR
GS
[0.75 0 0 0.75 0 0] CT
0 0.447 0.741 RC
2 LJ
N
286.022 275.167 M
286.383 284.379 L
286.745 275.486 L
287.107 289.156 L
287.468 295.478 L
287.83 287.931 L
288.192 280.655 L
288.553 277.96 L
288.915 291.313 L
289.277 279.749 L
289.638 288.078 L
290 295.404 L
290.362 304.592 L
290.723 308.83 L
291.085 316.743 L
291.447 317.87 L
291.808 311.084 L
292.17 302.362 L
292.532 316.645 L
292.893 323.628 L
293.255 307.286 L
293.617 301.676 L
293.978 285.506 L
294.34 292.047 L
294.702 305.914 L
295.063 319.242 L
295.425 310.545 L
295.787 315.984 L
296.148 314.563 L
296.51 314.882 L
296.872 319.512 L
297.233 316.645 L
297.595 304.249 L
297.957 315.592 L
298.318 326.592 L
298.68 303.71 L
299.042 312.505 L
299.403 311.599 L
299.765 315.004 L
300.127 322.183 L
300.488 317.846 L
300.85 301.994 L
301.212 312.309 L
301.573 305.449 L
301.935 317.258 L
302.297 322.624 L
302.658 304.003 L
303.02 299.422 L
303.382 306.698 L
303.743 309.663 L
S
GR
GS
[0.75 0 0 0.75 0 0] CT
0 0.447 0.741 RC
2 LJ
N
303.743 309.663 M
304.105 305.547 L
304.467 305.474 L
304.828 366.675 L
305.19 328.283 L
305.552 306.747 L
305.913 302.313 L
306.275 299.202 L
306.637 281.635 L
306.998 305.572 L
307.36 286.461 L
307.722 290.283 L
308.083 286.069 L
308.445 290.21 L
308.807 288.617 L
309.168 307.409 L
309.53 293.052 L
309.892 280.606 L
310.253 274.726 L
310.615 289.083 L
310.977 292.685 L
311.338 307.262 L
311.7 290.333 L
312.062 280.312 L
312.423 298.761 L
312.785 243.758 L
313.147 246.257 L
313.508 243.562 L
313.87 242.827 L
314.232 227.392 L
314.593 247.898 L
314.955 232.904 L
315.317 235.281 L
315.678 239.838 L
316.04 231.753 L
316.402 214.235 L
316.763 243.488 L
317.125 255.469 L
317.487 252.211 L
317.848 251.157 L
318.21 250.153 L
318.572 235.747 L
318.933 266.249 L
319.295 238.27 L
319.657 205.807 L
320.018 178.172 L
320.38 182.631 L
320.742 159.6 L
321.103 153.108 L
321.465 148.012 L
S
GR
GS
[0.75 0 0 0.75 0 0] CT
0 0.447 0.741 RC
2 LJ
N
321.465 148.012 M
321.827 144.435 L
322.188 140.907 L
322.55 148.772 L
322.912 193.803 L
323.273 190.078 L
323.635 180.646 L
323.997 176.775 L
324.358 178.147 L
324.72 151.295 L
325.082 128.461 L
325.443 132.92 L
325.805 128.191 L
326.167 123.316 L
326.528 121.871 L
326.89 121.601 L
327.252 119.959 L
327.613 113.81 L
327.975 108.175 L
328.337 105.21 L
328.698 103.324 L
329.06 103.03 L
329.422 102.662 L
329.783 101.976 L
330.145 102.589 L
330.507 101.511 L
330.868 104.378 L
331.23 104.5 L
331.592 108.396 L
331.953 105.823 L
332.315 106.729 L
332.677 108.959 L
333.038 105.235 L
333.4 105.799 L
333.762 105.946 L
334.123 104.353 L
334.485 105.603 L
334.847 104.892 L
335.208 104.426 L
335.57 104.255 L
335.932 104.279 L
336.293 105.063 L
336.655 104.231 L
337.017 102.466 L
337.378 102.662 L
337.74 100.751 L
338.102 100.85 L
338.463 100.115 L
338.825 98.988 L
339.187 99.674 L
S
GR
GS
[0.75 0 0 0.75 0 0] CT
0 0.447 0.741 RC
2 LJ
N
339.187 99.674 M
339.548 99.453 L
339.91 97.64 L
340.272 98.473 L
340.633 98.816 L
340.995 96.415 L
341.357 95.263 L
341.718 95.141 L
342.08 93.916 L
342.442 93.696 L
342.803 93.696 L
343.165 92.446 L
343.527 92.201 L
343.888 91.76 L
344.25 89.653 L
344.612 89.628 L
344.973 90.363 L
345.335 89.114 L
345.697 87.913 L
346.058 87.791 L
346.42 86.297 L
346.782 86.15 L
347.143 86.566 L
347.505 85.562 L
347.867 85.219 L
348.228 84.434 L
348.59 85.072 L
348.952 88.232 L
349.313 87.938 L
349.675 86.982 L
350.037 88.55 L
350.398 90.094 L
350.76 90.903 L
351.122 92.471 L
351.483 93.549 L
351.845 94.872 L
352.207 95.41 L
352.568 95.974 L
352.93 96.023 L
353.292 94.259 L
353.653 95.803 L
354.015 95.239 L
354.377 94.921 L
354.738 94.872 L
355.1 96.219 L
355.462 95.827 L
355.823 96.366 L
356.185 96.391 L
356.547 96.807 L
356.908 97.566 L
S
GR
GS
[0.75 0 0 0.75 0 0] CT
0 0.447 0.741 RC
2 LJ
N
356.908 97.566 M
357.27 98.644 L
357.632 98.056 L
357.993 97.052 L
358.355 96.317 L
358.717 94.921 L
359.078 94.896 L
359.44 95.851 L
359.802 99.085 L
360.163 93.328 L
360.525 89.432 L
360.887 87.693 L
361.248 89.212 L
361.61 90.069 L
361.972 88.06 L
362.333 88.256 L
362.695 86.346 L
363.057 86.37 L
363.418 86.125 L
363.78 86.174 L
364.142 87.522 L
364.503 87.497 L
364.865 88.256 L
365.227 87.987 L
365.588 87.669 L
365.95 87.865 L
366.312 87.938 L
366.673 86.86 L
367.035 87.129 L
367.397 87.375 L
367.758 87.742 L
368.12 86.541 L
368.482 86.199 L
368.843 86.738 L
369.205 87.081 L
369.567 85.757 L
369.928 85.463 L
370.29 85.512 L
370.652 86.003 L
371.013 85.537 L
371.375 85.463 L
371.737 85.733 L
372.098 85.757 L
372.46 85.929 L
372.822 84.434 L
373.183 86.003 L
373.545 83.087 L
373.907 83.797 L
374.268 85.61 L
374.63 84.875 L
S
GR
GS
[0.75 0 0 0.75 0 0] CT
0 0.447 0.741 RC
2 LJ
N
374.63 84.875 M
374.992 82.891 L
375.353 83.209 L
375.715 82.45 L
376.077 81.617 L
376.438 81.078 L
376.8 81.103 L
377.162 80.662 L
377.523 81.568 L
377.885 82.597 L
378.247 82.254 L
378.608 80.269 L
378.97 80.392 L
379.332 81.176 L
379.693 80.172 L
380.055 80.392 L
380.417 81.2 L
380.778 81.127 L
381.14 80.343 L
381.502 79.094 L
381.863 79.559 L
382.225 80.025 L
382.587 80.269 L
382.948 78.603 L
383.31 76.815 L
383.672 76.3 L
384.033 78.113 L
384.395 78.432 L
384.757 79.241 L
385.118 78.971 L
385.48 77.893 L
385.842 78.212 L
386.203 78.947 L
386.565 78.187 L
386.927 76.962 L
387.288 77.428 L
387.65 78.236 L
388.012 77.428 L
388.373 76.741 L
388.735 76.864 L
389.097 77.428 L
389.458 76.57 L
389.82 75.198 L
390.182 75.419 L
390.543 74.732 L
390.905 75.345 L
391.267 74.732 L
391.628 74.144 L
391.99 74.169 L
392.352 74.537 L
S
GR
GS
[0.75 0 0 0.75 0 0] CT
0 0.447 0.741 RC
2 LJ
N
392.352 74.537 M
392.713 73.091 L
393.075 72.209 L
393.437 73.483 L
393.798 72.111 L
394.16 71.891 L
394.522 70.078 L
394.883 70.641 L
395.245 70.004 L
395.607 69.955 L
395.968 68.24 L
396.33 68.412 L
396.692 69.049 L
397.053 69.171 L
397.415 67.824 L
397.777 67.652 L
398.138 68.363 L
398.5 68.338 L
398.862 68.436 L
399.223 67.187 L
399.585 66.256 L
399.947 66.109 L
400.308 67.04 L
400.67 68.509 L
401.032 68.681 L
401.393 69.416 L
401.755 69.49 L
402.117 69.538 L
402.478 69.955 L
402.84 70.151 L
403.202 70.494 L
403.563 70.715 L
403.925 71.45 L
404.287 71.817 L
404.648 71.033 L
405.01 70.616 L
405.372 71.351 L
405.733 71.768 L
406.095 69.661 L
406.457 69.588 L
406.818 69.612 L
407.18 70.519 L
407.542 70.249 L
407.903 71.719 L
408.265 69.244 L
408.627 67.897 L
408.988 67.872 L
409.35 65.472 L
409.712 65.349 L
410.073 66.109 L
S
GR
GS
[0.75 0 0 0.75 0 0] CT
0 0.447 0.741 RC
2 LJ
N
410.073 66.109 M
410.435 66.5 L
410.797 67.701 L
411.158 67.162 L
411.52 67.529 L
411.882 69.073 L
412.243 66.672 L
412.605 66.623 L
412.967 66.599 L
413.328 66.403 L
413.69 66.5 L
414.052 66.353 L
414.413 66.721 L
414.775 67.088 L
415.137 67.358 L
415.498 67.456 L
415.86 67.113 L
416.222 67.431 L
416.583 67.971 L
416.945 67.75 L
417.307 66.991 L
417.668 66.746 L
418.03 67.015 L
418.392 67.015 L
418.753 67.235 L
419.115 69.22 L
419.477 70.641 L
419.838 70.151 L
420.2 68.265 L
420.562 67.701 L
420.923 68.118 L
421.285 67.481 L
421.647 66.574 L
422.008 66.672 L
422.37 66.647 L
422.732 66.109 L
423.093 65.863 L
423.455 66.721 L
423.817 68.95 L
424.178 68.338 L
424.54 66.403 L
424.902 64.981 L
425.263 66.304 L
425.625 65.912 L
425.987 68.069 L
426.348 74.267 L
426.71 69.71 L
427.072 68.754 L
427.433 67.725 L
427.795 67.725 L
S
GR
GS
[0.75 0 0 0.75 0 0] CT
0 0.447 0.741 RC
2 LJ
N
427.795 67.725 M
428.157 67.578 L
428.518 68.166 L
428.88 69.22 L
429.242 69.661 L
429.603 69.367 L
429.965 69.514 L
430.327 69.538 L
430.688 67.775 L
431.05 67.701 L
431.412 68.118 L
431.773 67.309 L
432.135 67.701 L
432.497 78.285 L
432.858 87.987 L
433.22 84.484 L
433.582 74.537 L
433.943 73.066 L
434.305 72.601 L
434.667 72.307 L
435.028 72.405 L
435.39 72.405 L
435.752 72.65 L
436.113 73.018 L
436.475 72.772 L
436.837 72.822 L
437.198 73.066 L
437.56 72.919 L
437.922 72.871 L
438.283 72.969 L
438.645 73.262 L
439.007 73.654 L
439.368 73.997 L
439.73 74.243 L
440.092 74.488 L
440.453 74.291 L
440.815 74.316 L
441.177 74.022 L
441.538 73.777 L
441.9 73.9 L
442.262 74.169 L
442.623 74.438 L
442.985 74.12 L
443.347 74.144 L
443.708 74.096 L
444.07 74.12 L
444.432 74.341 L
444.793 74.096 L
445.155 74.291 L
445.517 74.218 L
S
GR
GS
[0.75 0 0 0.75 0 0] CT
0 0.447 0.741 RC
2 LJ
N
445.517 74.218 M
445.878 74.144 L
446.24 74.096 L
446.602 74.218 L
446.963 74.144 L
447.325 74.291 L
447.687 75.443 L
448.048 77.525 L
448.41 78.138 L
448.772 76.227 L
449.133 76.521 L
449.495 76.717 L
449.857 76.546 L
450.218 77.084 L
450.58 76.472 L
450.942 76.056 L
451.303 78.628 L
451.665 78.407 L
452.027 77.599 L
452.388 79.265 L
452.75 79.608 L
453.112 79.731 L
453.473 79.51 L
453.835 81.078 L
454.197 81.887 L
454.558 81.519 L
454.92 81.446 L
455.282 82.376 L
455.643 82.254 L
456.005 82.156 L
456.367 81.029 L
456.728 79.779 L
457.09 79.241 L
457.452 79.461 L
457.813 79.804 L
458.175 78.065 L
458.537 77.525 L
458.898 77.134 L
459.26 76.888 L
459.622 76.815 L
459.983 76.472 L
460.345 76.35 L
460.707 76.693 L
461.068 76.668 L
461.43 76.619 L
461.792 76.766 L
462.153 76.521 L
462.515 76.693 L
462.877 76.619 L
463.238 76.57 L
S
GR
GS
[0.75 0 0 0.75 0 0] CT
0 0.447 0.741 RC
2 LJ
N
463.238 76.57 M
463.6 76.35 L
463.962 76.447 L
464.323 76.594 L
464.685 76.447 L
465.047 76.815 L
465.408 76.864 L
465.77 80.539 L
466.132 76.104 L
466.493 70.788 L
466.855 67.603 L
467.217 65.668 L
467.578 68.632 L
467.94 72.65 L
468.302 72.724 L
468.663 72.356 L
469.025 69.465 L
469.387 72.184 L
469.748 75.786 L
470.11 73.973 L
470.472 73.777 L
470.833 74.291 L
471.195 74.978 L
471.557 73.507 L
471.918 73.262 L
472.28 73.312 L
472.642 73.262 L
473.003 73.826 L
473.365 74.365 L
473.727 74.806 L
474.088 74.781 L
474.45 76.006 L
474.812 74.659 L
475.173 74.537 L
475.535 75.321 L
475.897 73.459 L
476.258 72.307 L
476.62 73.312 L
476.982 71.866 L
477.343 72.307 L
477.705 72.258 L
478.067 71.793 L
478.428 71.156 L
478.79 70.151 L
479.152 68.607 L
479.513 67.334 L
479.875 66.525 L
480.237 65.692 L
480.598 64.737 L
S
GR
%%Trailer
%%Pages: 1
%%EOF
