%!PS-Adobe-3.0 EPSF-3.0
%%Creator: (MATLAB, The Mathworks, Inc. Version 8.5.0.197613 \(R2015a\). Operating System: Windows 8)
%%Title: (C:/Users/aleja/Desktop/TFG/Documentaci\363n/Obtenci\363n de datos/matlab_plot/plots/Jota11-55.eps)
%%CreationDate: 2019-05-22T00:27:59
%%Pages: (atend)
%%BoundingBox: 0 0 420 315
%%LanguageLevel: 2
%%EndComments
%%BeginProlog
%%BeginResource: procset (Apache XML Graphics Std ProcSet) 1.2 0
%%Version: 1.2 0
%%Copyright: (Copyright 2001-2003,2010 The Apache Software Foundation. License terms: http://www.apache.org/licenses/LICENSE-2.0)
/bd{bind def}bind def
/ld{load def}bd
/GR/grestore ld
/M/moveto ld
/LJ/setlinejoin ld
/C/curveto ld
/f/fill ld
/LW/setlinewidth ld
/GC/setgray ld
/t/show ld
/N/newpath ld
/CT/concat ld
/cp/closepath ld
/S/stroke ld
/L/lineto ld
/CC/setcmykcolor ld
/A/ashow ld
/GS/gsave ld
/RC/setrgbcolor ld
/RM/rmoveto ld
/ML/setmiterlimit ld
/re {4 2 roll M
1 index 0 rlineto
0 exch rlineto
neg 0 rlineto
cp } bd
/_ctm matrix def
/_tm matrix def
/BT { _ctm currentmatrix pop matrix _tm copy pop 0 0 moveto } bd
/ET { _ctm setmatrix } bd
/iTm { _ctm setmatrix _tm concat } bd
/Tm { _tm astore pop iTm 0 0 moveto } bd
/ux 0.0 def
/uy 0.0 def
/F {
  /Tp exch def
  /Tf exch def
  Tf findfont Tp scalefont setfont
  /cf Tf def  /cs Tp def
} bd
/ULS {currentpoint /uy exch def /ux exch def} bd
/ULE {
  /Tcx currentpoint pop def
  gsave
  newpath
  cf findfont cs scalefont dup
  /FontMatrix get 0 get /Ts exch def /FontInfo get dup
  /UnderlinePosition get Ts mul /To exch def
  /UnderlineThickness get Ts mul /Tt exch def
  ux uy To add moveto  Tcx uy To add lineto
  Tt setlinewidth stroke
  grestore
} bd
/OLE {
  /Tcx currentpoint pop def
  gsave
  newpath
  cf findfont cs scalefont dup
  /FontMatrix get 0 get /Ts exch def /FontInfo get dup
  /UnderlinePosition get Ts mul /To exch def
  /UnderlineThickness get Ts mul /Tt exch def
  ux uy To add cs add moveto Tcx uy To add cs add lineto
  Tt setlinewidth stroke
  grestore
} bd
/SOE {
  /Tcx currentpoint pop def
  gsave
  newpath
  cf findfont cs scalefont dup
  /FontMatrix get 0 get /Ts exch def /FontInfo get dup
  /UnderlinePosition get Ts mul /To exch def
  /UnderlineThickness get Ts mul /Tt exch def
  ux uy To add cs 10 mul 26 idiv add moveto Tcx uy To add cs 10 mul 26 idiv add lineto
  Tt setlinewidth stroke
  grestore
} bd
/QT {
/Y22 exch store
/X22 exch store
/Y21 exch store
/X21 exch store
currentpoint
/Y21 load 2 mul add 3 div exch
/X21 load 2 mul add 3 div exch
/X21 load 2 mul /X22 load add 3 div
/Y21 load 2 mul /Y22 load add 3 div
/X22 load /Y22 load curveto
} bd
/SSPD {
dup length /d exch dict def
{
/v exch def
/k exch def
currentpagedevice k known {
/cpdv currentpagedevice k get def
v cpdv ne {
/upd false def
/nullv v type /nulltype eq def
/nullcpdv cpdv type /nulltype eq def
nullv nullcpdv or
{
/upd true def
} {
/sametype v type cpdv type eq def
sametype {
v type /arraytype eq {
/vlen v length def
/cpdvlen cpdv length def
vlen cpdvlen eq {
0 1 vlen 1 sub {
/i exch def
/obj v i get def
/cpdobj cpdv i get def
obj cpdobj ne {
/upd true def
exit
} if
} for
} {
/upd true def
} ifelse
} {
v type /dicttype eq {
v {
/dv exch def
/dk exch def
/cpddv cpdv dk get def
dv cpddv ne {
/upd true def
exit
} if
} forall
} {
/upd true def
} ifelse
} ifelse
} if
} ifelse
upd true eq {
d k v put
} if
} if
} if
} forall
d length 0 gt {
d setpagedevice
} if
} bd
%%EndResource
%%BeginResource: procset (Apache XML Graphics EPS ProcSet) 1.0 0
%%Version: 1.0 0
%%Copyright: (Copyright 2002-2003 The Apache Software Foundation. License terms: http://www.apache.org/licenses/LICENSE-2.0)
/BeginEPSF { %def
/b4_Inc_state save def         % Save state for cleanup
/dict_count countdictstack def % Count objects on dict stack
/op_count count 1 sub def      % Count objects on operand stack
userdict begin                 % Push userdict on dict stack
/showpage { } def              % Redefine showpage, { } = null proc
0 setgray 0 setlinecap         % Prepare graphics state
1 setlinewidth 0 setlinejoin
10 setmiterlimit [ ] 0 setdash newpath
/languagelevel where           % If level not equal to 1 then
{pop languagelevel             % set strokeadjust and
1 ne                           % overprint to their defaults.
{false setstrokeadjust false setoverprint
} if
} if
} bd
/EndEPSF { %def
count op_count sub {pop} repeat            % Clean up stacks
countdictstack dict_count sub {end} repeat
b4_Inc_state restore
} bd
%%EndResource
%FOPBeginFontDict
%%IncludeResource: font Courier-Bold
%%IncludeResource: font Helvetica
%%IncludeResource: font Courier-BoldOblique
%%IncludeResource: font Courier-Oblique
%%IncludeResource: font Times-Roman
%%IncludeResource: font Helvetica-BoldOblique
%%IncludeResource: font Helvetica-Bold
%%IncludeResource: font Helvetica-Oblique
%%IncludeResource: font Times-BoldItalic
%%IncludeResource: font Courier
%%IncludeResource: font Times-Italic
%%IncludeResource: font Times-Bold
%%IncludeResource: font Symbol
%%IncludeResource: font ZapfDingbats
%FOPEndFontDict
%%BeginResource: encoding WinAnsiEncoding
/WinAnsiEncoding [
/.notdef /.notdef /.notdef /.notdef /.notdef
/.notdef /.notdef /.notdef /.notdef /.notdef
/.notdef /.notdef /.notdef /.notdef /.notdef
/.notdef /.notdef /.notdef /.notdef /.notdef
/.notdef /.notdef /.notdef /.notdef /.notdef
/.notdef /.notdef /.notdef /.notdef /.notdef
/.notdef /.notdef /space /exclam /quotedbl
/numbersign /dollar /percent /ampersand /quotesingle
/parenleft /parenright /asterisk /plus /comma
/hyphen /period /slash /zero /one
/two /three /four /five /six
/seven /eight /nine /colon /semicolon
/less /equal /greater /question /at
/A /B /C /D /E
/F /G /H /I /J
/K /L /M /N /O
/P /Q /R /S /T
/U /V /W /X /Y
/Z /bracketleft /backslash /bracketright /asciicircum
/underscore /quoteleft /a /b /c
/d /e /f /g /h
/i /j /k /l /m
/n /o /p /q /r
/s /t /u /v /w
/x /y /z /braceleft /bar
/braceright /asciitilde /bullet /Euro /bullet
/quotesinglbase /florin /quotedblbase /ellipsis /dagger
/daggerdbl /circumflex /perthousand /Scaron /guilsinglleft
/OE /bullet /Zcaron /bullet /bullet
/quoteleft /quoteright /quotedblleft /quotedblright /bullet
/endash /emdash /asciitilde /trademark /scaron
/guilsinglright /oe /bullet /zcaron /Ydieresis
/space /exclamdown /cent /sterling /currency
/yen /brokenbar /section /dieresis /copyright
/ordfeminine /guillemotleft /logicalnot /sfthyphen /registered
/macron /degree /plusminus /twosuperior /threesuperior
/acute /mu /paragraph /middot /cedilla
/onesuperior /ordmasculine /guillemotright /onequarter /onehalf
/threequarters /questiondown /Agrave /Aacute /Acircumflex
/Atilde /Adieresis /Aring /AE /Ccedilla
/Egrave /Eacute /Ecircumflex /Edieresis /Igrave
/Iacute /Icircumflex /Idieresis /Eth /Ntilde
/Ograve /Oacute /Ocircumflex /Otilde /Odieresis
/multiply /Oslash /Ugrave /Uacute /Ucircumflex
/Udieresis /Yacute /Thorn /germandbls /agrave
/aacute /acircumflex /atilde /adieresis /aring
/ae /ccedilla /egrave /eacute /ecircumflex
/edieresis /igrave /iacute /icircumflex /idieresis
/eth /ntilde /ograve /oacute /ocircumflex
/otilde /odieresis /divide /oslash /ugrave
/uacute /ucircumflex /udieresis /yacute /thorn
/ydieresis
] def
%%EndResource
%FOPBeginFontReencode
/Courier-Bold findfont
dup length dict begin
  {1 index /FID ne {def} {pop pop} ifelse} forall
  /Encoding WinAnsiEncoding def
  currentdict
end
/Courier-Bold exch definefont pop
/Helvetica findfont
dup length dict begin
  {1 index /FID ne {def} {pop pop} ifelse} forall
  /Encoding WinAnsiEncoding def
  currentdict
end
/Helvetica exch definefont pop
/Courier-BoldOblique findfont
dup length dict begin
  {1 index /FID ne {def} {pop pop} ifelse} forall
  /Encoding WinAnsiEncoding def
  currentdict
end
/Courier-BoldOblique exch definefont pop
/Courier-Oblique findfont
dup length dict begin
  {1 index /FID ne {def} {pop pop} ifelse} forall
  /Encoding WinAnsiEncoding def
  currentdict
end
/Courier-Oblique exch definefont pop
/Times-Roman findfont
dup length dict begin
  {1 index /FID ne {def} {pop pop} ifelse} forall
  /Encoding WinAnsiEncoding def
  currentdict
end
/Times-Roman exch definefont pop
/Helvetica-BoldOblique findfont
dup length dict begin
  {1 index /FID ne {def} {pop pop} ifelse} forall
  /Encoding WinAnsiEncoding def
  currentdict
end
/Helvetica-BoldOblique exch definefont pop
/Helvetica-Bold findfont
dup length dict begin
  {1 index /FID ne {def} {pop pop} ifelse} forall
  /Encoding WinAnsiEncoding def
  currentdict
end
/Helvetica-Bold exch definefont pop
/Helvetica-Oblique findfont
dup length dict begin
  {1 index /FID ne {def} {pop pop} ifelse} forall
  /Encoding WinAnsiEncoding def
  currentdict
end
/Helvetica-Oblique exch definefont pop
/Times-BoldItalic findfont
dup length dict begin
  {1 index /FID ne {def} {pop pop} ifelse} forall
  /Encoding WinAnsiEncoding def
  currentdict
end
/Times-BoldItalic exch definefont pop
/Courier findfont
dup length dict begin
  {1 index /FID ne {def} {pop pop} ifelse} forall
  /Encoding WinAnsiEncoding def
  currentdict
end
/Courier exch definefont pop
/Times-Italic findfont
dup length dict begin
  {1 index /FID ne {def} {pop pop} ifelse} forall
  /Encoding WinAnsiEncoding def
  currentdict
end
/Times-Italic exch definefont pop
/Times-Bold findfont
dup length dict begin
  {1 index /FID ne {def} {pop pop} ifelse} forall
  /Encoding WinAnsiEncoding def
  currentdict
end
/Times-Bold exch definefont pop
%FOPEndFontReencode
%%EndProlog
%%Page: 1 1
%%PageBoundingBox: 0 0 420 315
%%BeginPageSetup
[1 0 0 -1 0 315] CT
%%EndPageSetup
GS
[0.75 0 0 0.75 0 0] CT
1 GC
N
0 0 560 420 re
f
GR
GS
[0.75 0 0 0.75 0 0] CT
1 GC
N
0 0 560 420 re
f
GR
GS
[0.75 0 0 0.75 0 0] CT
1 GC
N
73 374 M
507 374 L
507 31 L
73 31 L
cp
f
GR
GS
[0.75 0 0 0.75 0 0] CT
0.149 GC
2 setlinecap
10.0 ML
N
73 374 M
507 374 L
S
GR
GS
[0.75 0 0 0.75 0 0] CT
0.149 GC
2 setlinecap
10.0 ML
N
73 31 M
507 31 L
S
GR
GS
[0.75 0 0 0.75 0 0] CT
0.149 GC
2 setlinecap
10.0 ML
N
73 374 M
73 369.66 L
S
GR
GS
[0.75 0 0 0.75 0 0] CT
0.149 GC
2 setlinecap
10.0 ML
N
145.333 374 M
145.333 369.66 L
S
GR
GS
[0.75 0 0 0.75 0 0] CT
0.149 GC
2 setlinecap
10.0 ML
N
217.667 374 M
217.667 369.66 L
S
GR
GS
[0.75 0 0 0.75 0 0] CT
0.149 GC
2 setlinecap
10.0 ML
N
290 374 M
290 369.66 L
S
GR
GS
[0.75 0 0 0.75 0 0] CT
0.149 GC
2 setlinecap
10.0 ML
N
362.333 374 M
362.333 369.66 L
S
GR
GS
[0.75 0 0 0.75 0 0] CT
0.149 GC
2 setlinecap
10.0 ML
N
434.667 374 M
434.667 369.66 L
S
GR
GS
[0.75 0 0 0.75 0 0] CT
0.149 GC
2 setlinecap
10.0 ML
N
507 374 M
507 369.66 L
S
GR
GS
[0.75 0 0 0.75 0 0] CT
0.149 GC
2 setlinecap
10.0 ML
N
73 31 M
73 35.34 L
S
GR
GS
[0.75 0 0 0.75 0 0] CT
0.149 GC
2 setlinecap
10.0 ML
N
145.333 31 M
145.333 35.34 L
S
GR
GS
[0.75 0 0 0.75 0 0] CT
0.149 GC
2 setlinecap
10.0 ML
N
217.667 31 M
217.667 35.34 L
S
GR
GS
[0.75 0 0 0.75 0 0] CT
0.149 GC
2 setlinecap
10.0 ML
N
290 31 M
290 35.34 L
S
GR
GS
[0.75 0 0 0.75 0 0] CT
0.149 GC
2 setlinecap
10.0 ML
N
362.333 31 M
362.333 35.34 L
S
GR
GS
[0.75 0 0 0.75 0 0] CT
0.149 GC
2 setlinecap
10.0 ML
N
434.667 31 M
434.667 35.34 L
S
GR
GS
[0.75 0 0 0.75 0 0] CT
0.149 GC
2 setlinecap
10.0 ML
N
507 31 M
507 35.34 L
S
GR
GS
[0.75 0 0 0.75 54.75 284.49998] CT
0.149 GC
/Helvetica 13 F
GS
[1 0 0 1 0 0] CT
-4 14 moveto 
1 -1 scale
(0) t 
GR
GR
GS
[0.75 0 0 0.75 109 284.49998] CT
0.149 GC
/Helvetica 13 F
GS
[1 0 0 1 0 0] CT
-11 14 moveto 
1 -1 scale
(200) t 
GR
GR
GS
[0.75 0 0 0.75 163.25 284.49998] CT
0.149 GC
/Helvetica 13 F
GS
[1 0 0 1 0 0] CT
-11 14 moveto 
1 -1 scale
(400) t 
GR
GR
GS
[0.75 0 0 0.75 217.5 284.49998] CT
0.149 GC
/Helvetica 13 F
GS
[1 0 0 1 0 0] CT
-11 14 moveto 
1 -1 scale
(600) t 
GR
GR
GS
[0.75 0 0 0.75 271.75001 284.49998] CT
0.149 GC
/Helvetica 13 F
GS
[1 0 0 1 0 0] CT
-11 14 moveto 
1 -1 scale
(800) t 
GR
GR
GS
[0.75 0 0 0.75 325.99999 284.49998] CT
0.149 GC
/Helvetica 13 F
GS
[1 0 0 1 0 0] CT
-14.5 14 moveto 
1 -1 scale
(1000) t 
GR
GR
GS
[0.75 0 0 0.75 380.25 284.49998] CT
0.149 GC
/Helvetica 13 F
GS
[1 0 0 1 0 0] CT
-14.5 14 moveto 
1 -1 scale
(1200) t 
GR
GR
GS
[0.75 0 0 0.75 0 0] CT
0.149 GC
2 setlinecap
10.0 ML
N
73 374 M
73 31 L
S
GR
GS
[0.75 0 0 0.75 0 0] CT
0.149 GC
2 setlinecap
10.0 ML
N
507 374 M
507 31 L
S
GR
GS
[0.75 0 0 0.75 0 0] CT
0.149 GC
2 setlinecap
10.0 ML
N
73 374 M
77.34 374 L
S
GR
GS
[0.75 0 0 0.75 0 0] CT
0.149 GC
2 setlinecap
10.0 ML
N
73 335.889 M
77.34 335.889 L
S
GR
GS
[0.75 0 0 0.75 0 0] CT
0.149 GC
2 setlinecap
10.0 ML
N
73 297.778 M
77.34 297.778 L
S
GR
GS
[0.75 0 0 0.75 0 0] CT
0.149 GC
2 setlinecap
10.0 ML
N
73 259.667 M
77.34 259.667 L
S
GR
GS
[0.75 0 0 0.75 0 0] CT
0.149 GC
2 setlinecap
10.0 ML
N
73 221.556 M
77.34 221.556 L
S
GR
GS
[0.75 0 0 0.75 0 0] CT
0.149 GC
2 setlinecap
10.0 ML
N
73 183.444 M
77.34 183.444 L
S
GR
GS
[0.75 0 0 0.75 0 0] CT
0.149 GC
2 setlinecap
10.0 ML
N
73 145.333 M
77.34 145.333 L
S
GR
GS
[0.75 0 0 0.75 0 0] CT
0.149 GC
2 setlinecap
10.0 ML
N
73 107.222 M
77.34 107.222 L
S
GR
GS
[0.75 0 0 0.75 0 0] CT
0.149 GC
2 setlinecap
10.0 ML
N
73 69.111 M
77.34 69.111 L
S
GR
GS
[0.75 0 0 0.75 0 0] CT
0.149 GC
2 setlinecap
10.0 ML
N
73 31 M
77.34 31 L
S
GR
GS
[0.75 0 0 0.75 0 0] CT
0.149 GC
2 setlinecap
10.0 ML
N
507 374 M
502.66 374 L
S
GR
GS
[0.75 0 0 0.75 0 0] CT
0.149 GC
2 setlinecap
10.0 ML
N
507 335.889 M
502.66 335.889 L
S
GR
GS
[0.75 0 0 0.75 0 0] CT
0.149 GC
2 setlinecap
10.0 ML
N
507 297.778 M
502.66 297.778 L
S
GR
GS
[0.75 0 0 0.75 0 0] CT
0.149 GC
2 setlinecap
10.0 ML
N
507 259.667 M
502.66 259.667 L
S
GR
GS
[0.75 0 0 0.75 0 0] CT
0.149 GC
2 setlinecap
10.0 ML
N
507 221.556 M
502.66 221.556 L
S
GR
GS
[0.75 0 0 0.75 0 0] CT
0.149 GC
2 setlinecap
10.0 ML
N
507 183.444 M
502.66 183.444 L
S
GR
GS
[0.75 0 0 0.75 0 0] CT
0.149 GC
2 setlinecap
10.0 ML
N
507 145.333 M
502.66 145.333 L
S
GR
GS
[0.75 0 0 0.75 0 0] CT
0.149 GC
2 setlinecap
10.0 ML
N
507 107.222 M
502.66 107.222 L
S
GR
GS
[0.75 0 0 0.75 0 0] CT
0.149 GC
2 setlinecap
10.0 ML
N
507 69.111 M
502.66 69.111 L
S
GR
GS
[0.75 0 0 0.75 0 0] CT
0.149 GC
2 setlinecap
10.0 ML
N
507 31 M
502.66 31 L
S
GR
GS
[0.75 0 0 0.75 50.75 280.5] CT
0.149 GC
/Helvetica 13 F
GS
[1 0 0 1 0 0] CT
-22 5.5 moveto 
1 -1 scale
(450) t 
GR
GR
GS
[0.75 0 0 0.75 50.75 251.91666] CT
0.149 GC
/Helvetica 13 F
GS
[1 0 0 1 0 0] CT
-22 5.5 moveto 
1 -1 scale
(500) t 
GR
GR
GS
[0.75 0 0 0.75 50.75 223.33333] CT
0.149 GC
/Helvetica 13 F
GS
[1 0 0 1 0 0] CT
-22 5.5 moveto 
1 -1 scale
(550) t 
GR
GR
GS
[0.75 0 0 0.75 50.75 194.74999] CT
0.149 GC
/Helvetica 13 F
GS
[1 0 0 1 0 0] CT
-22 5.5 moveto 
1 -1 scale
(600) t 
GR
GR
GS
[0.75 0 0 0.75 50.75 166.16667] CT
0.149 GC
/Helvetica 13 F
GS
[1 0 0 1 0 0] CT
-22 5.5 moveto 
1 -1 scale
(650) t 
GR
GR
GS
[0.75 0 0 0.75 50.75 137.58333] CT
0.149 GC
/Helvetica 13 F
GS
[1 0 0 1 0 0] CT
-22 5.5 moveto 
1 -1 scale
(700) t 
GR
GR
GS
[0.75 0 0 0.75 50.75 109] CT
0.149 GC
/Helvetica 13 F
GS
[1 0 0 1 0 0] CT
-22 5.5 moveto 
1 -1 scale
(750) t 
GR
GR
GS
[0.75 0 0 0.75 50.75 80.41667] CT
0.149 GC
/Helvetica 13 F
GS
[1 0 0 1 0 0] CT
-22 5.5 moveto 
1 -1 scale
(800) t 
GR
GR
GS
[0.75 0 0 0.75 50.75 51.83334] CT
0.149 GC
/Helvetica 13 F
GS
[1 0 0 1 0 0] CT
-22 5.5 moveto 
1 -1 scale
(850) t 
GR
GR
GS
[0.75 0 0 0.75 50.75 23.25] CT
0.149 GC
/Helvetica 13 F
GS
[1 0 0 1 0 0] CT
-22 5.5 moveto 
1 -1 scale
(900) t 
GR
GR
GS
[0.75 0 0 0.75 0 0] CT
0 0.447 0.741 RC
2 LJ
N
73.362 274.057 M
73.723 274.027 L
74.085 273.905 L
74.447 274.157 L
74.808 273.996 L
75.17 273.821 L
75.532 274.042 L
75.893 273.913 L
76.255 273.486 L
76.617 273.371 L
76.978 273.47 L
77.34 273.448 L
77.702 273.349 L
78.063 273.89 L
78.425 273.89 L
78.787 273.814 L
79.148 273.798 L
79.51 273.783 L
79.872 273.623 L
80.233 273.166 L
80.595 273.211 L
80.957 273.158 L
81.318 272.99 L
81.68 272.952 L
82.042 272.99 L
82.403 273.089 L
82.765 273.143 L
83.127 273.051 L
83.488 272.975 L
83.85 272.929 L
84.212 273.059 L
84.573 273.089 L
84.935 273.021 L
85.297 273.105 L
85.658 273.15 L
86.02 273.021 L
86.382 273.051 L
86.743 273.089 L
87.105 273.006 L
87.467 273.089 L
87.828 272.998 L
88.19 273.067 L
88.552 273.112 L
88.913 272.967 L
89.275 273.173 L
89.637 273.196 L
89.998 273.128 L
90.36 273.082 L
90.722 272.998 L
91.083 272.96 L
S
GR
GS
[0.75 0 0 0.75 0 0] CT
0 0.447 0.741 RC
2 LJ
N
91.083 272.96 M
91.445 272.967 L
91.807 272.861 L
92.168 273.265 L
92.53 273.882 L
92.892 273.44 L
93.253 273.326 L
93.615 273.455 L
93.977 273.425 L
94.338 273.356 L
94.7 273.173 L
95.062 272.815 L
95.423 272.937 L
95.785 272.807 L
96.147 272.785 L
96.508 272.777 L
96.87 272.785 L
97.232 272.845 L
97.593 272.861 L
97.955 272.838 L
98.317 272.724 L
98.678 272.67 L
99.04 272.708 L
99.402 272.731 L
99.763 272.602 L
100.125 272.632 L
100.487 272.914 L
100.848 273.333 L
101.21 273.333 L
101.572 273.219 L
101.933 273.188 L
102.295 273.303 L
102.657 273.181 L
103.018 272.297 L
103.38 272.457 L
103.742 272.487 L
104.103 272.442 L
104.465 272.403 L
104.827 272.472 L
105.188 272.419 L
105.55 272.312 L
105.912 272.602 L
106.273 272.891 L
106.635 273.051 L
106.997 273.188 L
107.358 272.51 L
107.72 272.236 L
108.082 272.281 L
108.443 272.335 L
108.805 272.304 L
S
GR
GS
[0.75 0 0 0.75 0 0] CT
0 0.447 0.741 RC
2 LJ
N
108.805 272.304 M
109.167 272.289 L
109.528 272.22 L
109.89 272.152 L
110.252 272.106 L
110.613 272.685 L
110.975 272.83 L
111.337 272.609 L
111.698 272.495 L
112.06 272.182 L
112.422 272.106 L
112.783 271.9 L
113.145 271.847 L
113.507 271.641 L
113.868 271.527 L
114.23 271.733 L
114.592 271.946 L
114.953 272.365 L
115.315 272.838 L
115.677 273.356 L
116.038 273.257 L
116.4 273.676 L
116.762 274.454 L
117.123 274.301 L
117.485 274.111 L
117.847 274.362 L
118.208 273.867 L
118.57 273.661 L
118.932 273.669 L
119.293 273.57 L
119.655 273.463 L
120.017 273.509 L
120.378 273.577 L
120.74 273.379 L
121.102 273.272 L
121.463 273.196 L
121.825 273.067 L
122.187 273.44 L
122.548 273.501 L
122.91 273.051 L
123.272 273.082 L
123.633 273.105 L
123.995 272.96 L
124.357 273.059 L
124.718 273.067 L
125.08 273.074 L
125.442 273.501 L
125.803 273.394 L
126.165 273.166 L
126.527 272.876 L
S
GR
GS
[0.75 0 0 0.75 0 0] CT
0 0.447 0.741 RC
2 LJ
N
126.527 272.876 M
126.888 272.815 L
127.25 272.716 L
127.612 273.135 L
127.973 273.105 L
128.335 273.265 L
128.697 273.288 L
129.058 273.188 L
129.42 273.12 L
129.782 273.15 L
130.143 273.105 L
130.505 273.166 L
130.867 273.318 L
131.228 273.57 L
131.59 273.547 L
131.952 273.661 L
132.313 273.41 L
132.675 272.922 L
133.037 272.967 L
133.398 273.722 L
133.76 273.6 L
134.122 273.295 L
134.483 273.554 L
134.845 273.615 L
135.207 273.181 L
135.568 273.089 L
135.93 273.112 L
136.292 273.089 L
136.653 272.998 L
137.015 272.96 L
137.377 273.013 L
137.738 273.044 L
138.1 272.975 L
138.462 273.067 L
138.823 273.341 L
139.185 273.249 L
139.547 273.288 L
139.908 273.105 L
140.27 273.234 L
140.632 272.685 L
140.993 272.274 L
141.355 272.213 L
141.717 272.015 L
142.078 271.969 L
142.44 272.007 L
142.802 272.19 L
143.163 272.213 L
143.525 272.213 L
143.887 272.152 L
144.248 272.198 L
S
GR
GS
[0.75 0 0 0.75 0 0] CT
0 0.447 0.741 RC
2 LJ
N
144.248 272.198 M
144.61 272.342 L
144.972 272.259 L
145.333 272.304 L
145.695 272.518 L
146.057 273.211 L
146.418 273.592 L
146.78 273.493 L
147.142 272.998 L
147.503 272.891 L
147.865 273.059 L
148.227 272.792 L
148.588 272.381 L
148.95 272.586 L
149.312 272.571 L
149.673 272.205 L
150.035 272.297 L
150.397 272.304 L
150.758 272.274 L
151.12 272.015 L
151.482 272.022 L
151.843 271.954 L
152.205 271.755 L
152.567 271.824 L
152.928 272.198 L
153.29 272.22 L
153.652 272.213 L
154.013 272.365 L
154.375 272.114 L
154.737 272.076 L
155.098 271.969 L
155.46 271.961 L
155.822 271.938 L
156.183 272.19 L
156.545 272.495 L
156.907 272.503 L
157.268 272.182 L
157.63 272.129 L
157.992 272.274 L
158.353 271.771 L
158.715 271.679 L
159.077 271.748 L
159.438 271.755 L
159.8 271.748 L
160.162 271.656 L
160.523 271.611 L
160.885 271.672 L
161.247 272.007 L
161.608 271.649 L
161.97 271.031 L
S
GR
GS
[0.75 0 0 0.75 0 0] CT
0 0.447 0.741 RC
2 LJ
N
161.97 271.031 M
162.332 271.039 L
162.693 271.176 L
163.055 271.283 L
163.417 271.489 L
163.778 271.382 L
164.14 271.252 L
164.502 271.466 L
164.863 271.542 L
165.225 271.595 L
165.587 271.573 L
165.948 271.626 L
166.31 271.542 L
166.672 271.489 L
167.033 271.519 L
167.395 271.466 L
167.757 271.489 L
168.118 271.588 L
168.48 271.755 L
168.842 271.717 L
169.203 271.816 L
169.565 271.862 L
169.927 271.733 L
170.288 271.397 L
170.65 270.955 L
171.012 270.887 L
171.373 270.955 L
171.735 270.81 L
172.097 270.612 L
172.458 270.444 L
172.82 270.467 L
173.182 270.582 L
173.543 270.643 L
173.905 270.551 L
174.267 270.635 L
174.628 271.222 L
174.99 270.833 L
175.352 270.65 L
175.713 270.711 L
176.075 270.795 L
176.437 270.727 L
176.798 270.909 L
177.16 270.498 L
177.522 270.399 L
177.883 270.376 L
178.245 270.46 L
178.607 270.483 L
178.968 270.559 L
179.33 270.673 L
179.692 270.711 L
S
GR
GS
[0.75 0 0 0.75 0 0] CT
0 0.447 0.741 RC
2 LJ
N
179.692 270.711 M
180.053 270.521 L
180.415 270.704 L
180.777 271.466 L
181.138 271.542 L
181.5 271.58 L
181.862 271.329 L
182.223 271.374 L
182.585 271.466 L
182.947 271.786 L
183.308 272.076 L
183.67 271.466 L
184.032 271.58 L
184.393 272.327 L
184.755 272.289 L
185.117 272.083 L
185.478 271.9 L
185.84 271.999 L
186.202 272.068 L
186.563 271.702 L
186.925 271.672 L
187.287 271.542 L
187.648 271.595 L
188.01 271.496 L
188.372 271.466 L
188.733 271.352 L
189.095 271.153 L
189.457 271.199 L
189.818 270.955 L
190.18 271.146 L
190.542 270.955 L
190.903 270.429 L
191.265 271.321 L
191.627 273.211 L
191.988 271.916 L
192.35 271.077 L
192.712 272.663 L
193.073 272.975 L
193.435 272.746 L
193.797 273.158 L
194.158 272.952 L
194.52 272.861 L
194.882 271.999 L
195.243 270.696 L
195.605 270.528 L
195.967 270.566 L
196.328 270.223 L
196.69 270.338 L
197.052 270.3 L
197.413 270.117 L
S
GR
GS
[0.75 0 0 0.75 0 0] CT
0 0.447 0.741 RC
2 LJ
N
197.413 270.117 M
197.775 270.086 L
198.137 270.239 L
198.498 270.254 L
198.86 270.315 L
199.222 270.498 L
199.583 270.513 L
199.945 270.46 L
200.307 270.147 L
200.668 270.185 L
201.03 270.704 L
201.392 270.818 L
201.753 270.795 L
202.115 271.153 L
202.477 270.848 L
202.838 270.475 L
203.2 270.711 L
203.562 270.574 L
203.923 269.972 L
204.285 269.751 L
204.647 269.926 L
205.008 269.614 L
205.37 262.213 L
205.732 251.747 L
206.093 87.968 L
206.455 53.844 L
206.817 178.299 L
207.178 196.669 L
207.54 203.308 L
207.902 210.008 L
208.263 213.689 L
208.625 233.644 L
208.987 236.998 L
209.348 240.626 L
209.71 243.172 L
210.072 245.855 L
210.433 247.997 L
210.795 248.531 L
211.157 249.499 L
211.518 250.657 L
211.88 250.368 L
212.242 245.108 L
212.603 244.171 L
212.965 244.62 L
213.327 245.154 L
213.688 246.717 L
214.05 248.081 L
214.412 248.935 L
214.773 250.131 L
215.135 251.297 L
S
GR
GS
[0.75 0 0 0.75 0 0] CT
0 0.447 0.741 RC
2 LJ
N
215.135 251.297 M
215.497 251.999 L
215.858 251.808 L
216.22 252.608 L
216.582 252.448 L
216.943 252.235 L
217.305 252.662 L
217.667 253.02 L
218.028 252.868 L
218.39 252.502 L
218.752 252.509 L
219.113 252.479 L
219.475 252.936 L
219.837 253.447 L
220.198 254.026 L
220.56 254.407 L
220.922 255.002 L
221.283 255.589 L
221.645 256.031 L
222.007 256.778 L
222.368 257.898 L
222.73 258.935 L
223.092 258.897 L
223.453 258.63 L
223.815 259.27 L
224.177 259.781 L
224.538 259.918 L
224.9 260.719 L
225.262 260.985 L
225.623 260.65 L
225.985 260.391 L
226.347 260.231 L
226.708 260.094 L
227.07 260.071 L
227.432 260.033 L
227.793 259.636 L
228.155 259.72 L
228.517 259.705 L
228.878 259.125 L
229.24 259.072 L
229.602 259.834 L
229.963 260.208 L
230.325 259.85 L
230.687 259.964 L
231.048 260.071 L
231.41 259.865 L
231.772 259.956 L
232.133 260.231 L
232.495 259.613 L
232.857 259.186 L
S
GR
GS
[0.75 0 0 0.75 0 0] CT
0 0.447 0.741 RC
2 LJ
N
232.857 259.186 M
233.218 259.438 L
233.58 259.865 L
233.942 260.017 L
234.303 260.04 L
234.665 260.132 L
235.027 260.155 L
235.388 260.147 L
235.75 260.101 L
236.112 259.872 L
236.473 259.773 L
236.835 259.949 L
237.197 259.903 L
237.558 259.065 L
237.92 257.106 L
238.282 257.106 L
238.643 257.235 L
239.005 257.471 L
239.367 257.761 L
239.728 258.173 L
240.09 258.645 L
240.452 258.859 L
240.813 258.447 L
241.175 258.683 L
241.537 258.988 L
241.898 258.843 L
242.26 258.798 L
242.622 259.133 L
242.983 259.354 L
243.345 259.766 L
243.707 259.911 L
244.068 259.705 L
244.43 259.316 L
244.792 259.362 L
245.153 259.911 L
245.515 259.331 L
245.877 259.606 L
246.238 259.964 L
246.6 259.697 L
246.962 260.162 L
247.323 260.101 L
247.685 260.734 L
248.047 260.749 L
248.408 260.635 L
248.77 260.597 L
249.132 260.52 L
249.493 260.36 L
249.855 260.315 L
250.217 260.376 L
250.578 259.964 L
S
GR
GS
[0.75 0 0 0.75 0 0] CT
0 0.447 0.741 RC
2 LJ
N
250.578 259.964 M
250.94 259.972 L
251.302 259.987 L
251.663 259.956 L
252.025 260.116 L
252.387 259.979 L
252.748 260.429 L
253.11 260.711 L
253.472 260.337 L
253.833 260.36 L
254.195 260.322 L
254.557 260.581 L
254.918 260.246 L
255.28 260.353 L
255.642 260.193 L
256.003 260.414 L
256.365 261.397 L
256.727 261.801 L
257.088 262.121 L
257.45 261.953 L
257.812 261.793 L
258.173 261.831 L
258.535 261.885 L
258.897 261.763 L
259.258 261.481 L
259.62 261.427 L
259.982 261.511 L
260.343 261.29 L
260.705 261.206 L
261.067 261.29 L
261.428 261.1 L
261.79 261.199 L
262.152 261.008 L
262.513 261.199 L
262.875 261.13 L
263.237 260.78 L
263.598 260.871 L
263.96 261.016 L
264.322 261.054 L
264.683 261.176 L
265.045 261.328 L
265.407 261.603 L
265.768 261.679 L
266.13 261.679 L
266.492 261.519 L
266.853 261.504 L
267.215 261.305 L
267.577 261.275 L
267.938 262.159 L
268.3 262.167 L
S
GR
GS
[0.75 0 0 0.75 0 0] CT
0 0.447 0.741 RC
2 LJ
N
268.3 262.167 M
268.662 262.243 L
269.023 262.487 L
269.385 262.845 L
269.747 262.693 L
270.108 262.03 L
270.47 261.9 L
270.832 261.679 L
271.193 261.671 L
271.555 261.633 L
271.917 261.999 L
272.278 262.03 L
272.64 261.816 L
273.002 261.877 L
273.363 261.908 L
273.725 262.495 L
274.087 262.746 L
274.448 263.066 L
274.81 262.677 L
275.172 262.746 L
275.533 262.883 L
275.895 262.906 L
276.257 263.104 L
276.618 263.31 L
276.98 263.028 L
277.342 263.074 L
277.703 263.051 L
278.065 262.959 L
278.427 262.982 L
278.788 262.883 L
279.15 262.731 L
279.512 262.746 L
279.873 262.616 L
280.235 262.472 L
280.597 262.403 L
280.958 262.395 L
281.32 262.205 L
281.682 262.815 L
282.043 263.081 L
282.405 262.655 L
282.767 262.487 L
283.128 262.7 L
283.49 262.731 L
283.852 262.944 L
284.213 262.571 L
284.575 262.609 L
284.937 262.655 L
285.298 262.609 L
285.66 262.769 L
286.022 262.289 L
S
GR
GS
[0.75 0 0 0.75 0 0] CT
0 0.447 0.741 RC
2 LJ
N
286.022 262.289 M
286.383 262.235 L
286.745 262.075 L
287.107 262.129 L
287.468 262.22 L
287.83 262.258 L
288.192 262.129 L
288.553 262.167 L
288.915 262.06 L
289.277 261.923 L
289.638 262.045 L
290 262.152 L
290.362 263.523 L
290.723 268.028 L
291.085 270.559 L
291.447 273.608 L
291.808 273.791 L
292.17 273.646 L
292.532 272.556 L
292.893 271.977 L
293.255 271.519 L
293.617 271.412 L
293.978 271.024 L
294.34 270.094 L
294.702 269.172 L
295.063 268.638 L
295.425 268.562 L
295.787 267.457 L
296.148 267.289 L
296.51 267.098 L
296.872 266.687 L
297.233 266.275 L
297.595 265.764 L
297.957 263.15 L
298.318 263.158 L
298.68 263.981 L
299.042 263.226 L
299.403 262.319 L
299.765 262.342 L
300.127 262.51 L
300.488 261.793 L
300.85 259.575 L
301.212 258.18 L
301.573 258.569 L
301.935 259.621 L
302.297 258.904 L
302.658 258.92 L
303.02 259.11 L
303.382 259.659 L
303.743 259.903 L
S
GR
GS
[0.75 0 0 0.75 0 0] CT
0 0.447 0.741 RC
2 LJ
N
303.743 259.903 M
304.105 259.225 L
304.467 228.217 L
304.828 183.505 L
305.19 191.242 L
305.552 258.607 L
305.913 275.071 L
306.275 277.785 L
306.637 287.48 L
306.998 300.712 L
307.36 315.507 L
307.722 338.564 L
308.083 342.192 L
308.445 337.871 L
308.807 329.852 L
309.168 323.587 L
309.53 319.41 L
309.892 314.044 L
310.253 308.662 L
310.615 304.18 L
310.977 300.606 L
311.338 297.145 L
311.7 293.982 L
312.062 291.169 L
312.423 288.791 L
312.785 287 L
313.147 285.529 L
313.508 283.806 L
313.87 282.259 L
314.232 280.658 L
314.593 279.256 L
314.955 278.295 L
315.317 277.221 L
315.678 276.123 L
316.04 275.048 L
316.402 274.568 L
316.763 274.378 L
317.125 273.951 L
317.487 273.638 L
317.848 273.15 L
318.21 272.99 L
318.572 273.15 L
318.933 272.388 L
319.295 271.733 L
319.657 271.39 L
320.018 271.077 L
320.38 271.001 L
320.742 270.902 L
321.103 270.551 L
321.465 270.483 L
S
GR
GS
[0.75 0 0 0.75 0 0] CT
0 0.447 0.741 RC
2 LJ
N
321.465 270.483 M
321.827 270.666 L
322.188 270.727 L
322.55 270.597 L
322.912 270.833 L
323.273 270.193 L
323.635 270.102 L
323.997 269.919 L
324.358 269.766 L
324.72 269.804 L
325.082 269.652 L
325.443 268.806 L
325.805 268.859 L
326.167 268.928 L
326.528 268.836 L
326.89 268.844 L
327.252 268.554 L
327.613 268.165 L
327.975 268.12 L
328.337 268.165 L
328.698 268.104 L
329.06 267.876 L
329.422 267.982 L
329.783 267.998 L
330.145 267.899 L
330.507 268.043 L
330.868 268.005 L
331.23 268.036 L
331.592 268.074 L
331.953 268.15 L
332.315 268.204 L
332.677 268.181 L
333.038 268.211 L
333.4 268.219 L
333.762 268.234 L
334.123 268.287 L
334.485 268.089 L
334.847 267.929 L
335.208 268.12 L
335.57 268.745 L
335.932 268.12 L
336.293 267.685 L
336.655 267.838 L
337.017 267.792 L
337.378 267.64 L
337.74 267.67 L
338.102 267.441 L
338.463 267.54 L
338.825 267.678 L
339.187 267.731 L
S
GR
GS
[0.75 0 0 0.75 0 0] CT
0 0.447 0.741 RC
2 LJ
N
339.187 267.731 M
339.548 268.188 L
339.91 268.036 L
340.272 261.45 L
340.633 217.47 L
340.995 122.589 L
341.357 81.459 L
341.718 80.148 L
342.08 92.245 L
342.442 104.852 L
342.803 116.498 L
343.165 131.674 L
343.527 141.362 L
343.888 144.213 L
344.25 156.142 L
344.612 177.011 L
344.973 198.064 L
345.335 213.354 L
345.697 228.004 L
346.058 239.308 L
346.42 240.245 L
346.782 245.375 L
347.143 246.046 L
347.505 249.217 L
347.867 248.378 L
348.228 254.285 L
348.59 255.2 L
348.952 253.759 L
349.313 251.983 L
349.675 252.052 L
350.037 252.799 L
350.398 253.698 L
350.76 253.63 L
351.122 253.455 L
351.483 253.439 L
351.845 253.455 L
352.207 253.378 L
352.568 253.462 L
352.93 253.371 L
353.292 253.416 L
353.653 253.409 L
354.015 253.355 L
354.377 253.638 L
354.738 254.118 L
355.1 253.561 L
355.462 253.325 L
355.823 253.173 L
356.185 253.432 L
356.547 252.692 L
356.908 252.608 L
S
GR
GS
[0.75 0 0 0.75 0 0] CT
0 0.447 0.741 RC
2 LJ
N
356.908 252.608 M
357.27 252.647 L
357.632 252.631 L
357.993 252.723 L
358.355 252.647 L
358.717 252.723 L
359.078 253.355 L
359.44 253.958 L
359.802 253.5 L
360.163 253.394 L
360.525 253.401 L
360.887 253.546 L
361.248 253.089 L
361.61 253.005 L
361.972 252.921 L
362.333 252.982 L
362.695 252.997 L
363.057 253.066 L
363.418 253.142 L
363.78 253.173 L
364.142 253.31 L
364.503 253.424 L
364.865 253.653 L
365.227 253.95 L
365.588 254.735 L
365.95 254.705 L
366.312 254.438 L
366.673 254.545 L
367.035 254.491 L
367.397 254.651 L
367.758 254.727 L
368.12 254.903 L
368.482 255.01 L
368.843 254.903 L
369.205 254.697 L
369.567 254.689 L
369.928 254.407 L
370.29 254.453 L
370.652 254.438 L
371.013 254.537 L
371.375 254.331 L
371.737 254.278 L
372.098 254.202 L
372.46 254.148 L
372.822 254.156 L
373.183 254.24 L
373.545 254.186 L
373.907 254.034 L
374.268 253.965 L
374.63 253.942 L
S
GR
GS
[0.75 0 0 0.75 0 0] CT
0 0.447 0.741 RC
2 LJ
N
374.63 253.942 M
374.992 253.958 L
375.353 253.79 L
375.715 253.798 L
376.077 253.782 L
376.438 253.859 L
376.8 253.881 L
377.162 253.935 L
377.523 253.82 L
377.885 253.897 L
378.247 253.714 L
378.608 253.66 L
378.97 253.79 L
379.332 253.904 L
379.693 254.057 L
380.055 254.026 L
380.417 253.889 L
380.778 253.752 L
381.14 253.798 L
381.502 253.683 L
381.863 253.676 L
382.225 253.744 L
382.587 253.698 L
382.948 254.072 L
383.31 254.003 L
383.672 253.843 L
384.033 253.82 L
384.395 253.82 L
384.757 253.698 L
385.118 253.958 L
385.48 253.98 L
385.842 253.668 L
386.203 253.66 L
386.565 253.721 L
386.927 253.66 L
387.288 253.15 L
387.65 253.165 L
388.012 252.852 L
388.373 253.005 L
388.735 253.035 L
389.097 253.043 L
389.458 253.241 L
389.82 253.317 L
390.182 254.141 L
390.543 254.125 L
390.905 253.881 L
391.267 254.24 L
391.628 254.545 L
391.99 254.179 L
392.352 254.24 L
S
GR
GS
[0.75 0 0 0.75 0 0] CT
0 0.447 0.741 RC
2 LJ
N
392.352 254.24 M
392.713 254.087 L
393.075 253.333 L
393.437 253.317 L
393.798 253.256 L
394.16 253.035 L
394.522 253.073 L
394.883 252.997 L
395.245 252.974 L
395.607 252.898 L
395.968 253.127 L
396.33 253.737 L
396.692 253.805 L
397.053 254.041 L
397.415 254.011 L
397.777 253.836 L
398.138 253.782 L
398.5 253.355 L
398.862 253.363 L
399.223 253.18 L
399.585 253.18 L
399.947 253.066 L
400.308 253.119 L
400.67 253.211 L
401.032 253.355 L
401.393 253.34 L
401.755 253.302 L
402.117 253.218 L
402.478 253.698 L
402.84 253.813 L
403.202 253.569 L
403.563 253.508 L
403.925 253.622 L
404.287 253.432 L
404.648 252.944 L
405.01 253.066 L
405.372 253.066 L
405.733 253.02 L
406.095 253.081 L
406.457 253.112 L
406.818 252.997 L
407.18 253.112 L
407.542 253.256 L
407.903 253.142 L
408.265 253.058 L
408.627 252.624 L
408.988 252.654 L
409.35 252.822 L
409.712 252.647 L
410.073 252.799 L
S
GR
GS
[0.75 0 0 0.75 0 0] CT
0 0.447 0.741 RC
2 LJ
N
410.073 252.799 M
410.435 252.708 L
410.797 252.608 L
411.158 252.746 L
411.52 253.348 L
411.882 252.936 L
412.243 252.677 L
412.605 252.83 L
412.967 252.936 L
413.328 253.782 L
413.69 253.63 L
414.052 253.112 L
414.413 253.028 L
414.775 253.241 L
415.137 252.791 L
415.498 253.012 L
415.86 253.073 L
416.222 253.112 L
416.583 253.432 L
416.945 253.432 L
417.307 253.47 L
417.668 253.203 L
418.03 253.142 L
418.392 253.18 L
418.753 253.234 L
419.115 253.211 L
419.477 253.264 L
419.838 253.264 L
420.2 253.073 L
420.562 252.921 L
420.923 252.936 L
421.285 252.982 L
421.647 252.982 L
422.008 252.997 L
422.37 252.852 L
422.732 253.249 L
423.093 253.508 L
423.455 252.464 L
423.817 252.105 L
424.178 252.205 L
424.54 252.38 L
424.902 252.319 L
425.263 252.479 L
425.625 252.669 L
425.987 253.028 L
426.348 253.15 L
426.71 252.944 L
427.072 252.647 L
427.433 252.692 L
427.795 252.715 L
S
GR
GS
[0.75 0 0 0.75 0 0] CT
0 0.447 0.741 RC
2 LJ
N
427.795 252.715 M
428.157 252.669 L
428.518 252.601 L
428.88 252.448 L
429.242 252.547 L
429.603 252.471 L
429.965 252.403 L
430.327 252.662 L
430.688 253.447 L
431.05 254.133 L
431.412 254.08 L
431.773 253.752 L
432.135 253.561 L
432.497 253.63 L
432.858 253.157 L
433.22 252.288 L
433.582 251.923 L
433.943 251.945 L
434.305 251.907 L
434.667 251.823 L
435.028 251.808 L
435.39 251.983 L
435.752 252.433 L
436.113 252.441 L
436.475 252.487 L
436.837 252.334 L
437.198 252.86 L
437.56 252.974 L
437.922 252.715 L
438.283 252.647 L
438.645 252.22 L
439.007 251.945 L
439.368 251.862 L
439.73 251.839 L
440.092 251.923 L
440.453 252.357 L
440.815 252.593 L
441.177 252.502 L
441.538 252.776 L
441.9 253.401 L
442.262 254.468 L
442.623 254.278 L
442.985 254.064 L
443.347 253.828 L
443.708 253.729 L
444.07 253.63 L
444.432 253.638 L
444.793 253.516 L
445.155 253.325 L
445.517 253.256 L
S
GR
GS
[0.75 0 0 0.75 0 0] CT
0 0.447 0.741 RC
2 LJ
N
445.517 253.256 M
445.878 253.127 L
446.24 253.051 L
446.602 253.195 L
446.963 253.165 L
447.325 253.165 L
447.687 253.211 L
448.048 253.058 L
448.41 253.066 L
448.772 253.119 L
449.133 253.241 L
449.495 253.18 L
449.857 253.043 L
450.218 253.18 L
450.58 253.249 L
450.942 253.302 L
451.303 253.264 L
451.665 253.272 L
452.027 253.241 L
452.388 253.256 L
452.75 253.279 L
453.112 253.218 L
453.473 253.477 L
453.835 253.47 L
454.197 253.34 L
454.558 253.394 L
454.92 253.333 L
455.282 253.752 L
455.643 253.698 L
456.005 253.653 L
456.367 253.599 L
456.728 253.47 L
457.09 253.348 L
457.452 253.256 L
457.813 253.241 L
458.175 253.241 L
458.537 253.096 L
458.898 253.592 L
459.26 253.813 L
459.622 253.348 L
459.983 253.287 L
460.345 253.561 L
460.707 253.874 L
461.068 253.912 L
461.43 253.805 L
461.792 253.47 L
462.153 253.394 L
462.515 253.386 L
462.877 253.561 L
463.238 253.622 L
S
GR
GS
[0.75 0 0 0.75 0 0] CT
0 0.447 0.741 RC
2 LJ
N
463.238 253.622 M
463.6 253.592 L
463.962 253.493 L
464.323 253.363 L
464.685 253.355 L
465.047 253.371 L
465.408 253.386 L
465.77 253.378 L
466.132 253.432 L
466.493 253.272 L
466.855 253.241 L
467.217 253.272 L
467.578 253.279 L
467.94 253.173 L
468.302 253.333 L
468.663 253.203 L
469.025 253.081 L
469.387 253.127 L
469.748 253.119 L
470.11 253.424 L
470.472 253.523 L
470.833 253.447 L
471.195 253.759 L
471.557 253.462 L
471.918 253.264 L
472.28 252.509 L
472.642 252.441 L
473.003 252.746 L
473.365 252.532 L
473.727 252.746 L
474.088 251.938 L
474.45 251.915 L
474.812 252.235 L
475.173 252.235 L
475.535 252.075 L
475.897 252.205 L
476.258 252.525 L
476.62 253.241 L
476.982 253.272 L
477.343 252.967 L
477.705 252.883 L
478.067 252.99 L
478.428 253.203 L
478.79 252.547 L
S
GR
%%Trailer
%%Pages: 1
%%EOF
