%!PS-Adobe-3.0 EPSF-3.0
%%Creator: (MATLAB, The Mathworks, Inc. Version 8.5.0.197613 \(R2015a\). Operating System: Windows 8)
%%Title: (C:/Users/aleja/Desktop/TFG/Documentaci\363n/Obtenci\363n de datos/matlab_plot/plots/Jota11-48.eps)
%%CreationDate: 2019-05-21T23:55:08
%%Pages: (atend)
%%BoundingBox: 0 0 420 315
%%LanguageLevel: 2
%%EndComments
%%BeginProlog
%%BeginResource: procset (Apache XML Graphics Std ProcSet) 1.2 0
%%Version: 1.2 0
%%Copyright: (Copyright 2001-2003,2010 The Apache Software Foundation. License terms: http://www.apache.org/licenses/LICENSE-2.0)
/bd{bind def}bind def
/ld{load def}bd
/GR/grestore ld
/M/moveto ld
/LJ/setlinejoin ld
/C/curveto ld
/f/fill ld
/LW/setlinewidth ld
/GC/setgray ld
/t/show ld
/N/newpath ld
/CT/concat ld
/cp/closepath ld
/S/stroke ld
/L/lineto ld
/CC/setcmykcolor ld
/A/ashow ld
/GS/gsave ld
/RC/setrgbcolor ld
/RM/rmoveto ld
/ML/setmiterlimit ld
/re {4 2 roll M
1 index 0 rlineto
0 exch rlineto
neg 0 rlineto
cp } bd
/_ctm matrix def
/_tm matrix def
/BT { _ctm currentmatrix pop matrix _tm copy pop 0 0 moveto } bd
/ET { _ctm setmatrix } bd
/iTm { _ctm setmatrix _tm concat } bd
/Tm { _tm astore pop iTm 0 0 moveto } bd
/ux 0.0 def
/uy 0.0 def
/F {
  /Tp exch def
  /Tf exch def
  Tf findfont Tp scalefont setfont
  /cf Tf def  /cs Tp def
} bd
/ULS {currentpoint /uy exch def /ux exch def} bd
/ULE {
  /Tcx currentpoint pop def
  gsave
  newpath
  cf findfont cs scalefont dup
  /FontMatrix get 0 get /Ts exch def /FontInfo get dup
  /UnderlinePosition get Ts mul /To exch def
  /UnderlineThickness get Ts mul /Tt exch def
  ux uy To add moveto  Tcx uy To add lineto
  Tt setlinewidth stroke
  grestore
} bd
/OLE {
  /Tcx currentpoint pop def
  gsave
  newpath
  cf findfont cs scalefont dup
  /FontMatrix get 0 get /Ts exch def /FontInfo get dup
  /UnderlinePosition get Ts mul /To exch def
  /UnderlineThickness get Ts mul /Tt exch def
  ux uy To add cs add moveto Tcx uy To add cs add lineto
  Tt setlinewidth stroke
  grestore
} bd
/SOE {
  /Tcx currentpoint pop def
  gsave
  newpath
  cf findfont cs scalefont dup
  /FontMatrix get 0 get /Ts exch def /FontInfo get dup
  /UnderlinePosition get Ts mul /To exch def
  /UnderlineThickness get Ts mul /Tt exch def
  ux uy To add cs 10 mul 26 idiv add moveto Tcx uy To add cs 10 mul 26 idiv add lineto
  Tt setlinewidth stroke
  grestore
} bd
/QT {
/Y22 exch store
/X22 exch store
/Y21 exch store
/X21 exch store
currentpoint
/Y21 load 2 mul add 3 div exch
/X21 load 2 mul add 3 div exch
/X21 load 2 mul /X22 load add 3 div
/Y21 load 2 mul /Y22 load add 3 div
/X22 load /Y22 load curveto
} bd
/SSPD {
dup length /d exch dict def
{
/v exch def
/k exch def
currentpagedevice k known {
/cpdv currentpagedevice k get def
v cpdv ne {
/upd false def
/nullv v type /nulltype eq def
/nullcpdv cpdv type /nulltype eq def
nullv nullcpdv or
{
/upd true def
} {
/sametype v type cpdv type eq def
sametype {
v type /arraytype eq {
/vlen v length def
/cpdvlen cpdv length def
vlen cpdvlen eq {
0 1 vlen 1 sub {
/i exch def
/obj v i get def
/cpdobj cpdv i get def
obj cpdobj ne {
/upd true def
exit
} if
} for
} {
/upd true def
} ifelse
} {
v type /dicttype eq {
v {
/dv exch def
/dk exch def
/cpddv cpdv dk get def
dv cpddv ne {
/upd true def
exit
} if
} forall
} {
/upd true def
} ifelse
} ifelse
} if
} ifelse
upd true eq {
d k v put
} if
} if
} if
} forall
d length 0 gt {
d setpagedevice
} if
} bd
%%EndResource
%%BeginResource: procset (Apache XML Graphics EPS ProcSet) 1.0 0
%%Version: 1.0 0
%%Copyright: (Copyright 2002-2003 The Apache Software Foundation. License terms: http://www.apache.org/licenses/LICENSE-2.0)
/BeginEPSF { %def
/b4_Inc_state save def         % Save state for cleanup
/dict_count countdictstack def % Count objects on dict stack
/op_count count 1 sub def      % Count objects on operand stack
userdict begin                 % Push userdict on dict stack
/showpage { } def              % Redefine showpage, { } = null proc
0 setgray 0 setlinecap         % Prepare graphics state
1 setlinewidth 0 setlinejoin
10 setmiterlimit [ ] 0 setdash newpath
/languagelevel where           % If level not equal to 1 then
{pop languagelevel             % set strokeadjust and
1 ne                           % overprint to their defaults.
{false setstrokeadjust false setoverprint
} if
} if
} bd
/EndEPSF { %def
count op_count sub {pop} repeat            % Clean up stacks
countdictstack dict_count sub {end} repeat
b4_Inc_state restore
} bd
%%EndResource
%FOPBeginFontDict
%%IncludeResource: font Courier-Bold
%%IncludeResource: font Helvetica
%%IncludeResource: font Courier-BoldOblique
%%IncludeResource: font Courier-Oblique
%%IncludeResource: font Times-Roman
%%IncludeResource: font Helvetica-BoldOblique
%%IncludeResource: font Helvetica-Bold
%%IncludeResource: font Helvetica-Oblique
%%IncludeResource: font Times-BoldItalic
%%IncludeResource: font Courier
%%IncludeResource: font Times-Italic
%%IncludeResource: font Times-Bold
%%IncludeResource: font Symbol
%%IncludeResource: font ZapfDingbats
%FOPEndFontDict
%%BeginResource: encoding WinAnsiEncoding
/WinAnsiEncoding [
/.notdef /.notdef /.notdef /.notdef /.notdef
/.notdef /.notdef /.notdef /.notdef /.notdef
/.notdef /.notdef /.notdef /.notdef /.notdef
/.notdef /.notdef /.notdef /.notdef /.notdef
/.notdef /.notdef /.notdef /.notdef /.notdef
/.notdef /.notdef /.notdef /.notdef /.notdef
/.notdef /.notdef /space /exclam /quotedbl
/numbersign /dollar /percent /ampersand /quotesingle
/parenleft /parenright /asterisk /plus /comma
/hyphen /period /slash /zero /one
/two /three /four /five /six
/seven /eight /nine /colon /semicolon
/less /equal /greater /question /at
/A /B /C /D /E
/F /G /H /I /J
/K /L /M /N /O
/P /Q /R /S /T
/U /V /W /X /Y
/Z /bracketleft /backslash /bracketright /asciicircum
/underscore /quoteleft /a /b /c
/d /e /f /g /h
/i /j /k /l /m
/n /o /p /q /r
/s /t /u /v /w
/x /y /z /braceleft /bar
/braceright /asciitilde /bullet /Euro /bullet
/quotesinglbase /florin /quotedblbase /ellipsis /dagger
/daggerdbl /circumflex /perthousand /Scaron /guilsinglleft
/OE /bullet /Zcaron /bullet /bullet
/quoteleft /quoteright /quotedblleft /quotedblright /bullet
/endash /emdash /asciitilde /trademark /scaron
/guilsinglright /oe /bullet /zcaron /Ydieresis
/space /exclamdown /cent /sterling /currency
/yen /brokenbar /section /dieresis /copyright
/ordfeminine /guillemotleft /logicalnot /sfthyphen /registered
/macron /degree /plusminus /twosuperior /threesuperior
/acute /mu /paragraph /middot /cedilla
/onesuperior /ordmasculine /guillemotright /onequarter /onehalf
/threequarters /questiondown /Agrave /Aacute /Acircumflex
/Atilde /Adieresis /Aring /AE /Ccedilla
/Egrave /Eacute /Ecircumflex /Edieresis /Igrave
/Iacute /Icircumflex /Idieresis /Eth /Ntilde
/Ograve /Oacute /Ocircumflex /Otilde /Odieresis
/multiply /Oslash /Ugrave /Uacute /Ucircumflex
/Udieresis /Yacute /Thorn /germandbls /agrave
/aacute /acircumflex /atilde /adieresis /aring
/ae /ccedilla /egrave /eacute /ecircumflex
/edieresis /igrave /iacute /icircumflex /idieresis
/eth /ntilde /ograve /oacute /ocircumflex
/otilde /odieresis /divide /oslash /ugrave
/uacute /ucircumflex /udieresis /yacute /thorn
/ydieresis
] def
%%EndResource
%FOPBeginFontReencode
/Courier-Bold findfont
dup length dict begin
  {1 index /FID ne {def} {pop pop} ifelse} forall
  /Encoding WinAnsiEncoding def
  currentdict
end
/Courier-Bold exch definefont pop
/Helvetica findfont
dup length dict begin
  {1 index /FID ne {def} {pop pop} ifelse} forall
  /Encoding WinAnsiEncoding def
  currentdict
end
/Helvetica exch definefont pop
/Courier-BoldOblique findfont
dup length dict begin
  {1 index /FID ne {def} {pop pop} ifelse} forall
  /Encoding WinAnsiEncoding def
  currentdict
end
/Courier-BoldOblique exch definefont pop
/Courier-Oblique findfont
dup length dict begin
  {1 index /FID ne {def} {pop pop} ifelse} forall
  /Encoding WinAnsiEncoding def
  currentdict
end
/Courier-Oblique exch definefont pop
/Times-Roman findfont
dup length dict begin
  {1 index /FID ne {def} {pop pop} ifelse} forall
  /Encoding WinAnsiEncoding def
  currentdict
end
/Times-Roman exch definefont pop
/Helvetica-BoldOblique findfont
dup length dict begin
  {1 index /FID ne {def} {pop pop} ifelse} forall
  /Encoding WinAnsiEncoding def
  currentdict
end
/Helvetica-BoldOblique exch definefont pop
/Helvetica-Bold findfont
dup length dict begin
  {1 index /FID ne {def} {pop pop} ifelse} forall
  /Encoding WinAnsiEncoding def
  currentdict
end
/Helvetica-Bold exch definefont pop
/Helvetica-Oblique findfont
dup length dict begin
  {1 index /FID ne {def} {pop pop} ifelse} forall
  /Encoding WinAnsiEncoding def
  currentdict
end
/Helvetica-Oblique exch definefont pop
/Times-BoldItalic findfont
dup length dict begin
  {1 index /FID ne {def} {pop pop} ifelse} forall
  /Encoding WinAnsiEncoding def
  currentdict
end
/Times-BoldItalic exch definefont pop
/Courier findfont
dup length dict begin
  {1 index /FID ne {def} {pop pop} ifelse} forall
  /Encoding WinAnsiEncoding def
  currentdict
end
/Courier exch definefont pop
/Times-Italic findfont
dup length dict begin
  {1 index /FID ne {def} {pop pop} ifelse} forall
  /Encoding WinAnsiEncoding def
  currentdict
end
/Times-Italic exch definefont pop
/Times-Bold findfont
dup length dict begin
  {1 index /FID ne {def} {pop pop} ifelse} forall
  /Encoding WinAnsiEncoding def
  currentdict
end
/Times-Bold exch definefont pop
%FOPEndFontReencode
%%EndProlog
%%Page: 1 1
%%PageBoundingBox: 0 0 420 315
%%BeginPageSetup
[1 0 0 -1 0 315] CT
%%EndPageSetup
GS
[0.75 0 0 0.75 0 0] CT
1 GC
N
0 0 560 420 re
f
GR
GS
[0.75 0 0 0.75 0 0] CT
1 GC
N
0 0 560 420 re
f
GR
GS
[0.75 0 0 0.75 0 0] CT
1 GC
N
73 374 M
507 374 L
507 31 L
73 31 L
cp
f
GR
GS
[0.75 0 0 0.75 0 0] CT
0.149 GC
2 setlinecap
10.0 ML
N
73 374 M
507 374 L
S
GR
GS
[0.75 0 0 0.75 0 0] CT
0.149 GC
2 setlinecap
10.0 ML
N
73 31 M
507 31 L
S
GR
GS
[0.75 0 0 0.75 0 0] CT
0.149 GC
2 setlinecap
10.0 ML
N
73 374 M
73 369.66 L
S
GR
GS
[0.75 0 0 0.75 0 0] CT
0.149 GC
2 setlinecap
10.0 ML
N
145.333 374 M
145.333 369.66 L
S
GR
GS
[0.75 0 0 0.75 0 0] CT
0.149 GC
2 setlinecap
10.0 ML
N
217.667 374 M
217.667 369.66 L
S
GR
GS
[0.75 0 0 0.75 0 0] CT
0.149 GC
2 setlinecap
10.0 ML
N
290 374 M
290 369.66 L
S
GR
GS
[0.75 0 0 0.75 0 0] CT
0.149 GC
2 setlinecap
10.0 ML
N
362.333 374 M
362.333 369.66 L
S
GR
GS
[0.75 0 0 0.75 0 0] CT
0.149 GC
2 setlinecap
10.0 ML
N
434.667 374 M
434.667 369.66 L
S
GR
GS
[0.75 0 0 0.75 0 0] CT
0.149 GC
2 setlinecap
10.0 ML
N
507 374 M
507 369.66 L
S
GR
GS
[0.75 0 0 0.75 0 0] CT
0.149 GC
2 setlinecap
10.0 ML
N
73 31 M
73 35.34 L
S
GR
GS
[0.75 0 0 0.75 0 0] CT
0.149 GC
2 setlinecap
10.0 ML
N
145.333 31 M
145.333 35.34 L
S
GR
GS
[0.75 0 0 0.75 0 0] CT
0.149 GC
2 setlinecap
10.0 ML
N
217.667 31 M
217.667 35.34 L
S
GR
GS
[0.75 0 0 0.75 0 0] CT
0.149 GC
2 setlinecap
10.0 ML
N
290 31 M
290 35.34 L
S
GR
GS
[0.75 0 0 0.75 0 0] CT
0.149 GC
2 setlinecap
10.0 ML
N
362.333 31 M
362.333 35.34 L
S
GR
GS
[0.75 0 0 0.75 0 0] CT
0.149 GC
2 setlinecap
10.0 ML
N
434.667 31 M
434.667 35.34 L
S
GR
GS
[0.75 0 0 0.75 0 0] CT
0.149 GC
2 setlinecap
10.0 ML
N
507 31 M
507 35.34 L
S
GR
GS
[0.75 0 0 0.75 54.75 284.50001] CT
0.149 GC
/Helvetica 13 F
GS
[1 0 0 1 0 0] CT
-4 14 moveto 
1 -1 scale
(0) t 
GR
GR
GS
[0.75 0 0 0.75 109 284.50001] CT
0.149 GC
/Helvetica 13 F
GS
[1 0 0 1 0 0] CT
-11 14 moveto 
1 -1 scale
(200) t 
GR
GR
GS
[0.75 0 0 0.75 163.25 284.50001] CT
0.149 GC
/Helvetica 13 F
GS
[1 0 0 1 0 0] CT
-11 14 moveto 
1 -1 scale
(400) t 
GR
GR
GS
[0.75 0 0 0.75 217.5 284.50001] CT
0.149 GC
/Helvetica 13 F
GS
[1 0 0 1 0 0] CT
-11 14 moveto 
1 -1 scale
(600) t 
GR
GR
GS
[0.75 0 0 0.75 271.75001 284.50001] CT
0.149 GC
/Helvetica 13 F
GS
[1 0 0 1 0 0] CT
-11 14 moveto 
1 -1 scale
(800) t 
GR
GR
GS
[0.75 0 0 0.75 325.99999 284.50001] CT
0.149 GC
/Helvetica 13 F
GS
[1 0 0 1 0 0] CT
-14.5 14 moveto 
1 -1 scale
(1000) t 
GR
GR
GS
[0.75 0 0 0.75 380.25 284.50001] CT
0.149 GC
/Helvetica 13 F
GS
[1 0 0 1 0 0] CT
-14.5 14 moveto 
1 -1 scale
(1200) t 
GR
GR
GS
[0.75 0 0 0.75 0 0] CT
0.149 GC
2 setlinecap
10.0 ML
N
73 374 M
73 31 L
S
GR
GS
[0.75 0 0 0.75 0 0] CT
0.149 GC
2 setlinecap
10.0 ML
N
507 374 M
507 31 L
S
GR
GS
[0.75 0 0 0.75 0 0] CT
0.149 GC
2 setlinecap
10.0 ML
N
73 374 M
77.34 374 L
S
GR
GS
[0.75 0 0 0.75 0 0] CT
0.149 GC
2 setlinecap
10.0 ML
N
73 325 M
77.34 325 L
S
GR
GS
[0.75 0 0 0.75 0 0] CT
0.149 GC
2 setlinecap
10.0 ML
N
73 276 M
77.34 276 L
S
GR
GS
[0.75 0 0 0.75 0 0] CT
0.149 GC
2 setlinecap
10.0 ML
N
73 227 M
77.34 227 L
S
GR
GS
[0.75 0 0 0.75 0 0] CT
0.149 GC
2 setlinecap
10.0 ML
N
73 178 M
77.34 178 L
S
GR
GS
[0.75 0 0 0.75 0 0] CT
0.149 GC
2 setlinecap
10.0 ML
N
73 129 M
77.34 129 L
S
GR
GS
[0.75 0 0 0.75 0 0] CT
0.149 GC
2 setlinecap
10.0 ML
N
73 80 M
77.34 80 L
S
GR
GS
[0.75 0 0 0.75 0 0] CT
0.149 GC
2 setlinecap
10.0 ML
N
73 31 M
77.34 31 L
S
GR
GS
[0.75 0 0 0.75 0 0] CT
0.149 GC
2 setlinecap
10.0 ML
N
507 374 M
502.66 374 L
S
GR
GS
[0.75 0 0 0.75 0 0] CT
0.149 GC
2 setlinecap
10.0 ML
N
507 325 M
502.66 325 L
S
GR
GS
[0.75 0 0 0.75 0 0] CT
0.149 GC
2 setlinecap
10.0 ML
N
507 276 M
502.66 276 L
S
GR
GS
[0.75 0 0 0.75 0 0] CT
0.149 GC
2 setlinecap
10.0 ML
N
507 227 M
502.66 227 L
S
GR
GS
[0.75 0 0 0.75 0 0] CT
0.149 GC
2 setlinecap
10.0 ML
N
507 178 M
502.66 178 L
S
GR
GS
[0.75 0 0 0.75 0 0] CT
0.149 GC
2 setlinecap
10.0 ML
N
507 129 M
502.66 129 L
S
GR
GS
[0.75 0 0 0.75 0 0] CT
0.149 GC
2 setlinecap
10.0 ML
N
507 80 M
502.66 80 L
S
GR
GS
[0.75 0 0 0.75 0 0] CT
0.149 GC
2 setlinecap
10.0 ML
N
507 31 M
502.66 31 L
S
GR
GS
[0.75 0 0 0.75 50.75 280.5] CT
0.149 GC
/Helvetica 13 F
GS
[1 0 0 1 0 0] CT
-22 5.5 moveto 
1 -1 scale
(490) t 
GR
GR
GS
[0.75 0 0 0.75 50.75 243.75] CT
0.149 GC
/Helvetica 13 F
GS
[1 0 0 1 0 0] CT
-22 5.5 moveto 
1 -1 scale
(500) t 
GR
GR
GS
[0.75 0 0 0.75 50.75 207] CT
0.149 GC
/Helvetica 13 F
GS
[1 0 0 1 0 0] CT
-22 5.5 moveto 
1 -1 scale
(510) t 
GR
GR
GS
[0.75 0 0 0.75 50.75 170.25] CT
0.149 GC
/Helvetica 13 F
GS
[1 0 0 1 0 0] CT
-22 5.5 moveto 
1 -1 scale
(520) t 
GR
GR
GS
[0.75 0 0 0.75 50.75 133.5] CT
0.149 GC
/Helvetica 13 F
GS
[1 0 0 1 0 0] CT
-22 5.5 moveto 
1 -1 scale
(530) t 
GR
GR
GS
[0.75 0 0 0.75 50.75 96.75] CT
0.149 GC
/Helvetica 13 F
GS
[1 0 0 1 0 0] CT
-22 5.5 moveto 
1 -1 scale
(540) t 
GR
GR
GS
[0.75 0 0 0.75 50.75 60] CT
0.149 GC
/Helvetica 13 F
GS
[1 0 0 1 0 0] CT
-22 5.5 moveto 
1 -1 scale
(550) t 
GR
GR
GS
[0.75 0 0 0.75 50.75 23.25] CT
0.149 GC
/Helvetica 13 F
GS
[1 0 0 1 0 0] CT
-22 5.5 moveto 
1 -1 scale
(560) t 
GR
GR
GS
[0.75 0 0 0.75 0 0] CT
0 0.447 0.741 RC
2 LJ
N
73.362 280.998 M
73.723 256.743 L
74.085 243.856 L
74.447 236.8 L
74.808 230.626 L
75.17 275.069 L
75.532 312.113 L
75.893 221.316 L
76.255 229.94 L
76.617 228.862 L
76.978 218.523 L
77.34 212.888 L
77.702 231.998 L
78.063 191.867 L
78.425 144.092 L
78.787 183.978 L
79.148 188.829 L
79.51 167.22 L
79.872 285.653 L
80.233 224.746 L
80.595 102.246 L
80.957 140.956 L
81.318 193.631 L
81.68 245.473 L
82.042 241.7 L
82.403 306.086 L
82.765 287.809 L
83.127 276.441 L
83.488 251.745 L
83.85 263.456 L
84.212 264.73 L
84.573 286.878 L
84.935 264.142 L
85.297 257.968 L
85.658 275.167 L
86.02 300.941 L
86.382 289.475 L
86.743 265.514 L
87.105 219.111 L
87.467 251.843 L
87.828 242.974 L
88.19 261.202 L
88.552 241.504 L
88.913 260.271 L
89.275 259.585 L
89.637 209.213 L
89.998 257.821 L
90.36 256.302 L
90.722 209.997 L
91.083 216.024 L
S
GR
GS
[0.75 0 0 0.75 0 0] CT
0 0.447 0.741 RC
2 LJ
N
91.083 216.024 M
91.445 218.768 L
91.807 259.242 L
92.168 252.725 L
92.53 270.61 L
92.892 191.426 L
93.253 234.742 L
93.615 238.074 L
93.977 190.593 L
94.338 174.521 L
94.7 194.023 L
95.062 216.906 L
95.423 207.939 L
95.785 246.943 L
96.147 240.23 L
96.508 188.241 L
96.87 207.596 L
97.232 203.725 L
97.593 191.132 L
97.955 189.172 L
98.317 217.396 L
98.678 197.6 L
99.04 238.515 L
99.402 228.47 L
99.763 201.471 L
100.125 223.521 L
100.487 211.32 L
100.848 214.995 L
101.21 208.429 L
101.572 230.92 L
101.933 234.595 L
102.295 240.916 L
102.657 266.837 L
103.018 241.112 L
103.38 215.534 L
103.742 210.389 L
104.103 228.617 L
104.465 228.617 L
104.827 225.579 L
105.188 223.57 L
105.55 249.344 L
105.912 269.385 L
106.273 241.063 L
106.635 229.744 L
106.997 197.796 L
107.358 222.492 L
107.72 239.348 L
108.082 226.412 L
108.443 243.121 L
108.805 268.16 L
S
GR
GS
[0.75 0 0 0.75 0 0] CT
0 0.447 0.741 RC
2 LJ
N
108.805 268.16 M
109.167 279.675 L
109.528 253.607 L
109.89 235.82 L
110.252 193.484 L
110.613 210.34 L
110.975 246.11 L
111.337 248.413 L
111.698 215.681 L
112.06 281.096 L
112.422 214.848 L
112.783 230.871 L
113.145 244.346 L
113.507 243.807 L
113.868 275.118 L
114.23 258.899 L
114.592 294.179 L
114.953 274.432 L
115.315 319.022 L
115.677 283.007 L
116.038 278.45 L
116.4 284.232 L
116.762 232.88 L
117.123 225.383 L
117.485 287.858 L
117.847 278.499 L
118.208 315.788 L
118.57 304.175 L
118.932 280.9 L
119.293 278.793 L
119.655 237.927 L
120.017 250.471 L
120.378 211.761 L
120.74 242.533 L
121.102 295.355 L
121.463 248.56 L
121.825 280.998 L
122.187 292.17 L
122.548 258.85 L
122.91 203.235 L
123.272 253.362 L
123.633 268.944 L
123.995 288.152 L
124.357 302.362 L
124.718 283.742 L
125.08 270.12 L
125.442 278.401 L
125.803 195.444 L
126.165 229.744 L
126.527 217.641 L
S
GR
GS
[0.75 0 0 0.75 0 0] CT
0 0.447 0.741 RC
2 LJ
N
126.527 217.641 M
126.888 212.643 L
127.25 228.47 L
127.612 259.732 L
127.973 267.082 L
128.335 290.553 L
128.697 216.759 L
129.058 227.49 L
129.42 247.384 L
129.782 242.876 L
130.143 209.262 L
130.505 215.73 L
130.867 253.607 L
131.228 261.986 L
131.59 248.952 L
131.952 235.673 L
132.313 217.298 L
132.675 213.77 L
133.037 240.034 L
133.398 272.325 L
133.76 271.198 L
134.122 256.743 L
134.483 275.608 L
134.845 283.301 L
135.207 255.273 L
135.568 271.002 L
135.93 245.081 L
136.292 244.885 L
136.653 229.891 L
137.015 245.865 L
137.377 247.727 L
137.738 249.785 L
138.1 265.318 L
138.462 216.514 L
138.823 239.691 L
139.185 224.599 L
139.547 227.049 L
139.908 229.499 L
140.27 244.591 L
140.632 252.774 L
140.993 264.093 L
141.355 246.257 L
141.717 211.614 L
142.078 213.28 L
142.44 198.09 L
142.802 225.579 L
143.163 207.057 L
143.525 214.652 L
143.887 254.293 L
144.248 258.017 L
S
GR
GS
[0.75 0 0 0.75 0 0] CT
0 0.447 0.741 RC
2 LJ
N
144.248 258.017 M
144.61 245.13 L
144.972 230.528 L
145.333 189.466 L
145.695 194.807 L
146.057 209.36 L
146.418 232.929 L
146.78 234.791 L
147.142 224.697 L
147.503 203.235 L
147.865 234.497 L
148.227 200.148 L
148.588 216.661 L
148.95 223.913 L
149.312 184.909 L
149.673 215.632 L
150.035 246.11 L
150.397 238.074 L
150.758 245.277 L
151.12 197.257 L
151.482 193.288 L
151.843 214.456 L
152.205 226.657 L
152.567 235.232 L
152.928 233.566 L
153.29 227.784 L
153.652 269.238 L
154.013 245.081 L
154.375 201.275 L
154.737 207.351 L
155.098 197.943 L
155.46 209.556 L
155.822 187.751 L
156.183 237.78 L
156.545 249.54 L
156.907 268.258 L
157.268 245.62 L
157.63 251.255 L
157.992 202.843 L
158.353 200.981 L
158.715 221.953 L
159.077 198.972 L
159.438 245.081 L
159.8 252.284 L
160.162 227.637 L
160.523 228.519 L
160.885 219.797 L
161.247 180.646 L
161.608 187.751 L
161.97 203.088 L
S
GR
GS
[0.75 0 0 0.75 0 0] CT
0 0.447 0.741 RC
2 LJ
N
161.97 203.088 M
162.332 221.61 L
162.693 223.276 L
163.055 239.201 L
163.417 340.925 L
163.778 290.21 L
164.14 248.56 L
164.502 257.135 L
164.863 227.196 L
165.225 233.566 L
165.587 268.65 L
165.948 231.606 L
166.31 282.419 L
166.672 256.008 L
167.033 286.29 L
167.395 240.377 L
167.757 245.767 L
168.118 238.074 L
168.48 245.179 L
168.842 265.318 L
169.203 250.618 L
169.565 250.863 L
169.927 255.812 L
170.288 259.389 L
170.65 246.159 L
171.012 227.343 L
171.373 256.008 L
171.735 251.5 L
172.097 240.916 L
172.458 250.128 L
172.82 261.153 L
173.182 237.339 L
173.543 256.302 L
173.905 220.434 L
174.267 197.845 L
174.628 239.887 L
174.99 215.926 L
175.352 232.978 L
175.713 251.108 L
176.075 248.56 L
176.437 242.68 L
176.798 260.81 L
177.16 222.541 L
177.522 216.955 L
177.883 225.138 L
178.245 249.834 L
178.607 274.285 L
178.968 286.437 L
179.33 286.927 L
179.692 279.773 L
S
GR
GS
[0.75 0 0 0.75 0 0] CT
0 0.447 0.741 RC
2 LJ
N
179.692 279.773 M
180.053 261.398 L
180.415 223.325 L
180.777 211.32 L
181.138 279.871 L
181.5 257.576 L
181.862 252.235 L
182.223 241.651 L
182.585 259.389 L
182.947 259.977 L
183.308 258.654 L
183.67 235.134 L
184.032 228.176 L
184.393 224.109 L
184.755 225.138 L
185.117 228.225 L
185.478 247.188 L
185.84 218.278 L
186.202 252.284 L
186.563 222.198 L
186.925 197.208 L
187.287 221.61 L
187.648 198.629 L
188.01 219.748 L
188.372 224.746 L
188.733 197.943 L
189.095 231.165 L
189.457 234.693 L
189.818 200.197 L
190.18 153.647 L
190.542 154.284 L
190.903 181.038 L
191.265 193.288 L
191.627 230.332 L
191.988 244.395 L
192.35 243.66 L
192.712 206.665 L
193.073 192.259 L
193.435 224.55 L
193.797 185.742 L
194.158 170.895 L
194.52 183.684 L
194.882 234.987 L
195.243 239.936 L
195.605 233.419 L
195.967 239.495 L
196.328 198.335 L
196.69 211.467 L
197.052 192.896 L
197.413 188.486 L
S
GR
GS
[0.75 0 0 0.75 0 0] CT
0 0.447 0.741 RC
2 LJ
N
197.413 188.486 M
197.775 145.513 L
198.137 170.895 L
198.498 230.626 L
198.86 195.689 L
199.222 179.323 L
199.583 120.425 L
199.945 164.182 L
200.307 157.028 L
200.668 176.383 L
201.03 181.185 L
201.392 174.913 L
201.753 222.002 L
202.115 225.481 L
202.477 187.016 L
202.838 194.366 L
203.2 169.719 L
203.562 153.941 L
203.923 182.949 L
204.285 133.655 L
204.647 162.565 L
205.008 192.798 L
205.37 163.398 L
205.732 183.194 L
206.093 177.51 L
206.455 168.886 L
206.817 232.439 L
207.178 213.084 L
207.54 245.718 L
207.902 232.39 L
208.263 305.106 L
208.625 285.408 L
208.987 265.906 L
209.348 271.541 L
209.71 242.582 L
210.072 274.971 L
210.433 248.854 L
210.795 264.485 L
211.157 274.775 L
211.518 256.89 L
211.88 270.365 L
212.242 271.639 L
212.603 245.914 L
212.965 232.047 L
213.327 229.989 L
213.688 232.096 L
214.05 255.714 L
214.412 243.709 L
214.773 257.429 L
215.135 259.683 L
S
GR
GS
[0.75 0 0 0.75 0 0] CT
0 0.447 0.741 RC
2 LJ
N
215.135 259.683 M
215.497 263.897 L
215.858 238.025 L
216.22 227.98 L
216.582 236.163 L
216.943 253.215 L
217.305 266.543 L
217.667 244.052 L
218.028 276.098 L
218.39 278.205 L
218.752 254.538 L
219.113 246.502 L
219.475 249.638 L
219.837 212.839 L
220.198 192.7 L
220.56 223.276 L
220.922 242.288 L
221.283 238.368 L
221.645 233.076 L
222.007 209.115 L
222.368 229.989 L
222.73 235.183 L
223.092 182.655 L
223.453 229.548 L
223.815 225.285 L
224.177 241.602 L
224.538 261.839 L
224.9 220.581 L
225.262 240.377 L
225.623 231.557 L
225.985 193.68 L
226.347 217.837 L
226.708 198.335 L
227.07 257.723 L
227.432 244.542 L
227.793 268.601 L
228.155 235.967 L
228.517 241.553 L
228.878 252.48 L
229.24 230.969 L
229.602 241.994 L
229.963 244.444 L
230.325 237.535 L
230.687 257.38 L
231.048 273.305 L
231.41 248.217 L
231.772 228.078 L
232.133 173.198 L
232.495 206.91 L
232.857 216.465 L
S
GR
GS
[0.75 0 0 0.75 0 0] CT
0 0.447 0.741 RC
2 LJ
N
232.857 216.465 M
233.218 230.479 L
233.58 247.825 L
233.942 240.573 L
234.303 229.303 L
234.665 241.504 L
235.027 223.129 L
235.388 179.47 L
235.75 118.857 L
236.112 227.98 L
236.473 212.447 L
236.835 212.055 L
237.197 225.089 L
237.558 207.204 L
237.92 201.471 L
238.282 241.357 L
238.643 155.999 L
239.005 163.986 L
239.367 184.37 L
239.728 207.743 L
240.09 212.741 L
240.452 219.013 L
240.813 250.863 L
241.175 238.809 L
241.537 208.527 L
241.898 204.803 L
242.26 195.346 L
242.622 198.384 L
242.983 225.089 L
243.345 231.312 L
243.707 242.778 L
244.068 231.018 L
244.43 236.016 L
244.792 231.165 L
245.153 213.231 L
245.515 208.38 L
245.877 188.584 L
246.238 202.647 L
246.6 230.626 L
246.962 194.66 L
247.323 236.996 L
247.685 228.617 L
248.047 222.639 L
248.408 197.649 L
248.77 231.214 L
249.132 213.427 L
249.493 211.761 L
249.855 225.677 L
250.217 234.252 L
250.578 205.244 L
S
GR
GS
[0.75 0 0 0.75 0 0] CT
0 0.447 0.741 RC
2 LJ
N
250.578 205.244 M
250.94 222.1 L
251.302 241.504 L
251.663 209.85 L
252.025 195.591 L
252.387 221.855 L
252.748 221.463 L
253.11 230.136 L
253.472 230.724 L
253.833 206.91 L
254.195 220.826 L
254.557 205.832 L
254.918 184.223 L
255.28 178.245 L
255.642 212.839 L
256.003 203.235 L
256.365 192.994 L
256.727 218.817 L
257.088 239.544 L
257.45 217.69 L
257.812 212.643 L
258.173 216.465 L
258.535 210.781 L
258.897 228.176 L
259.258 203.284 L
259.62 176.971 L
259.982 225.04 L
260.343 198.825 L
260.705 204.999 L
261.067 236.702 L
261.428 245.767 L
261.79 243.464 L
262.152 262.525 L
262.513 250.961 L
262.875 233.027 L
263.237 275.02 L
263.598 255.518 L
263.96 269.924 L
264.322 235.428 L
264.683 219.454 L
265.045 226.314 L
265.407 214.407 L
265.768 247.58 L
266.13 235.379 L
266.492 270.218 L
266.853 240.622 L
267.215 222.59 L
267.577 237.731 L
267.938 201.079 L
268.3 204.117 L
S
GR
GS
[0.75 0 0 0.75 0 0] CT
0 0.447 0.741 RC
2 LJ
N
268.3 204.117 M
268.662 201.765 L
269.023 238.466 L
269.385 266.445 L
269.747 234.497 L
270.108 246.845 L
270.47 225.432 L
270.832 196.816 L
271.193 214.701 L
271.555 208.478 L
271.917 243.611 L
272.278 238.319 L
272.64 249.589 L
273.002 214.75 L
273.363 211.271 L
273.725 198.482 L
274.087 208.086 L
274.448 192.112 L
274.81 233.909 L
275.172 238.907 L
275.533 265.465 L
275.895 220.826 L
276.257 262.378 L
276.618 249.932 L
276.98 245.13 L
277.342 247.335 L
277.703 258.213 L
278.065 265.465 L
278.427 279.479 L
278.788 293.64 L
279.15 270.561 L
279.512 294.62 L
279.873 241.7 L
280.235 265.906 L
280.597 285.359 L
280.958 300.549 L
281.32 261.006 L
281.682 263.358 L
282.043 285.555 L
282.405 311.574 L
282.767 286.878 L
283.128 252.137 L
283.49 237.535 L
283.852 254.195 L
284.213 238.074 L
284.575 233.811 L
284.937 262.378 L
285.298 235.526 L
285.66 216.171 L
286.022 207.057 L
S
GR
GS
[0.75 0 0 0.75 0 0] CT
0 0.447 0.741 RC
2 LJ
N
286.022 207.057 M
286.383 214.701 L
286.745 217.298 L
287.107 256.106 L
287.468 184.223 L
287.83 238.319 L
288.192 210.487 L
288.553 205.587 L
288.915 214.211 L
289.277 233.762 L
289.638 229.842 L
290 204.264 L
290.362 210.585 L
290.723 223.472 L
291.085 213.133 L
291.447 208.576 L
291.808 246.845 L
292.17 239.201 L
292.532 208.674 L
292.893 196.081 L
293.255 220.042 L
293.617 210.536 L
293.978 213.868 L
294.34 231.116 L
294.702 264.289 L
295.063 247.874 L
295.425 238.27 L
295.787 231.067 L
296.148 216.024 L
296.51 216.857 L
296.872 244.64 L
297.233 252.333 L
297.595 237.437 L
297.957 202.451 L
298.318 241.308 L
298.68 239.201 L
299.042 219.405 L
299.403 245.816 L
299.765 202.304 L
300.127 233.076 L
300.488 234.105 L
300.85 231.41 L
301.212 250.373 L
301.573 209.948 L
301.935 242.876 L
302.297 204.362 L
302.658 214.407 L
303.02 231.263 L
303.382 215.975 L
303.743 245.424 L
S
GR
GS
[0.75 0 0 0.75 0 0] CT
0 0.447 0.741 RC
2 LJ
N
303.743 245.424 M
304.105 237.976 L
304.467 230.234 L
304.828 211.271 L
305.19 245.767 L
305.552 200.491 L
305.913 217.151 L
306.275 256.351 L
306.637 281.047 L
306.998 293.738 L
307.36 249.442 L
307.722 288.446 L
308.083 262.133 L
308.445 256.253 L
308.807 279.381 L
309.168 303.538 L
309.53 278.989 L
309.892 224.697 L
310.253 274.726 L
310.615 231.753 L
310.977 263.799 L
311.338 260.565 L
311.7 245.424 L
312.062 260.075 L
312.423 270.365 L
312.785 263.505 L
313.147 244.738 L
313.508 243.758 L
313.87 258.752 L
314.232 254.538 L
314.593 214.505 L
314.955 223.227 L
315.317 255.175 L
315.678 239.544 L
316.04 260.761 L
316.402 297.805 L
316.763 244.248 L
317.125 196.081 L
317.487 226.216 L
317.848 249.638 L
318.21 268.944 L
318.572 224.942 L
318.933 234.693 L
319.295 272.129 L
319.657 258.017 L
320.018 261.937 L
320.38 221.071 L
320.742 231.263 L
321.103 224.452 L
321.465 228.47 L
S
GR
GS
[0.75 0 0 0.75 0 0] CT
0 0.447 0.741 RC
2 LJ
N
321.465 228.47 M
321.827 259.389 L
322.188 257.086 L
322.55 261.104 L
322.912 248.903 L
323.273 252.48 L
323.635 249.932 L
323.997 218.817 L
324.358 241.357 L
324.72 265.122 L
325.082 227.784 L
325.443 245.767 L
325.805 240.328 L
326.167 232.733 L
326.528 239.103 L
326.89 227.245 L
327.252 247.825 L
327.613 270.512 L
327.975 267.131 L
328.337 252.529 L
328.698 253.166 L
329.06 300.794 L
329.422 278.107 L
329.783 247.923 L
330.145 275.755 L
330.507 256.057 L
330.868 236.849 L
331.23 259.977 L
331.592 244.836 L
331.953 233.125 L
332.315 230.92 L
332.677 234.105 L
333.038 216.416 L
333.4 262.819 L
333.762 234.154 L
334.123 202.451 L
334.485 235.232 L
334.847 227.98 L
335.208 241.406 L
335.57 270.267 L
335.932 234.056 L
336.293 227.098 L
336.655 227.49 L
337.017 197.6 L
337.378 232.096 L
337.74 221.022 L
338.102 245.375 L
338.463 239.838 L
338.825 260.565 L
339.187 238.123 L
S
GR
GS
[0.75 0 0 0.75 0 0] CT
0 0.447 0.741 RC
2 LJ
N
339.187 238.123 M
339.548 226.706 L
339.91 237.29 L
340.272 202.304 L
340.633 219.993 L
340.995 257.037 L
341.357 239.201 L
341.718 263.407 L
342.08 240.377 L
342.442 224.207 L
342.803 212.496 L
343.165 211.859 L
343.527 219.16 L
343.888 216.661 L
344.25 212.839 L
344.612 247.188 L
344.973 209.262 L
345.335 261.496 L
345.697 238.564 L
346.058 248.217 L
346.42 223.913 L
346.782 207.351 L
347.143 224.942 L
347.505 231.998 L
347.867 230.381 L
348.228 225.579 L
348.59 232.341 L
348.952 214.897 L
349.313 235.673 L
349.675 225.334 L
350.037 239.642 L
350.398 203.872 L
350.76 211.32 L
351.122 232.39 L
351.483 241.847 L
351.845 220.385 L
352.207 258.213 L
352.568 228.911 L
352.93 214.162 L
353.292 229.303 L
353.653 237.437 L
354.015 231.557 L
354.377 237.731 L
354.738 251.549 L
355.1 214.603 L
355.462 252.529 L
355.823 232.733 L
356.185 212.496 L
356.547 269.924 L
356.908 257.086 L
S
GR
GS
[0.75 0 0 0.75 0 0] CT
0 0.447 0.741 RC
2 LJ
N
356.908 257.086 M
357.27 265.661 L
357.632 311.966 L
357.993 239.446 L
358.355 264.289 L
358.717 256.988 L
359.078 237.976 L
359.44 232.684 L
359.802 240.671 L
360.163 233.713 L
360.525 266.788 L
360.887 262.231 L
361.248 260.369 L
361.61 269.385 L
361.972 246.306 L
362.333 262.329 L
362.695 279.626 L
363.057 241.798 L
363.418 259.83 L
363.78 246.551 L
364.142 233.664 L
364.503 267.278 L
364.865 236.947 L
365.227 277.568 L
365.588 226.902 L
365.95 234.987 L
366.312 241.406 L
366.673 230.577 L
367.035 261.251 L
367.397 261.153 L
367.758 218.425 L
368.12 270.953 L
368.482 230.234 L
368.843 253.901 L
369.205 245.767 L
369.567 239.397 L
369.928 211.075 L
370.29 212.006 L
370.652 223.962 L
371.013 236.114 L
371.375 321.521 L
371.737 327.352 L
372.098 267.278 L
372.46 216.514 L
372.822 184.419 L
373.183 210.046 L
373.545 211.467 L
373.907 206.175 L
374.268 189.613 L
374.63 208.429 L
S
GR
GS
[0.75 0 0 0.75 0 0] CT
0 0.447 0.741 RC
2 LJ
N
374.63 208.429 M
374.992 206.616 L
375.353 183.096 L
375.715 211.957 L
376.077 177.363 L
376.438 186.134 L
376.8 187.898 L
377.162 210.536 L
377.523 224.354 L
377.885 237.29 L
378.247 209.703 L
378.608 199.707 L
378.97 206.91 L
379.332 178.686 L
379.693 194.121 L
380.055 186.967 L
380.417 209.703 L
380.778 209.948 L
381.14 231.312 L
381.502 195.297 L
381.863 179.813 L
382.225 185.742 L
382.587 202.353 L
382.948 167.808 L
383.31 159.38 L
383.672 141.054 L
384.033 152.373 L
384.395 168.984 L
384.757 163.202 L
385.118 102.148 L
385.48 100.629 L
385.842 92.74 L
386.203 113.81 L
386.565 115.084 L
386.927 198.727 L
387.288 147.179 L
387.65 118.367 L
388.012 138.163 L
388.373 149.58 L
388.735 129.441 L
389.097 102.785 L
389.458 120.425 L
389.82 145.219 L
390.182 111.311 L
390.543 185.105 L
390.905 179.372 L
391.267 170.356 L
391.628 182.557 L
391.99 158.253 L
392.352 162.81 L
S
GR
GS
[0.75 0 0 0.75 0 0] CT
0 0.447 0.741 RC
2 LJ
N
392.352 162.81 M
392.713 144.141 L
393.075 192.455 L
393.437 177.02 L
393.798 212.839 L
394.16 158.988 L
394.522 201.716 L
394.883 184.566 L
395.245 153.892 L
395.607 202.157 L
395.968 107.734 L
396.33 103.569 L
396.692 153.108 L
397.053 136.889 L
397.415 189.907 L
397.777 192.455 L
398.138 134.39 L
398.5 137.526 L
398.862 89.555 L
399.223 131.107 L
399.585 109.596 L
399.947 112.83 L
400.308 168.396 L
400.67 145.807 L
401.032 194.513 L
401.393 189.515 L
401.755 161.536 L
402.117 141.74 L
402.478 110.331 L
402.84 132.43 L
403.202 111.85 L
403.563 119.298 L
403.925 126.011 L
404.287 161.781 L
404.648 187.261 L
405.01 149.188 L
405.372 102.197 L
405.733 110.723 L
406.095 138.261 L
406.457 142.671 L
406.818 196.375 L
407.18 237.927 L
407.542 183.145 L
407.903 192.161 L
408.265 176.579 L
408.627 179.764 L
408.988 122.483 L
409.35 145.905 L
409.712 156.636 L
410.073 176.677 L
S
GR
GS
[0.75 0 0 0.75 0 0] CT
0 0.447 0.741 RC
2 LJ
N
410.073 176.677 M
410.435 206.616 L
410.797 242.533 L
411.158 207.4 L
411.52 159.282 L
411.882 139.437 L
412.243 141.005 L
412.605 171.385 L
412.967 186.183 L
413.328 172.757 L
413.69 157.861 L
414.052 193.092 L
414.413 200.54 L
414.775 120.033 L
415.137 127.971 L
415.498 108.42 L
415.86 158.498 L
416.222 175.844 L
416.583 170.307 L
416.945 210.879 L
417.307 181.136 L
417.668 160.948 L
418.03 166.975 L
418.392 119.102 L
418.753 127.481 L
419.115 149.139 L
419.477 178.343 L
419.838 186.967 L
420.2 195.395 L
420.562 163.79 L
420.923 188.437 L
421.285 175.697 L
421.647 168.543 L
422.008 185.742 L
422.37 149.972 L
422.732 211.124 L
423.093 235.232 L
423.455 234.154 L
423.817 201.716 L
424.178 219.993 L
424.54 182.606 L
424.902 180.107 L
425.263 207.547 L
425.625 69.71 L
425.987 222.1 L
426.348 247.825 L
426.71 231.41 L
427.072 223.864 L
427.433 180.891 L
427.795 155.95 L
S
GR
GS
[0.75 0 0 0.75 0 0] CT
0 0.447 0.741 RC
2 LJ
N
427.795 155.95 M
428.157 187.849 L
428.518 168.592 L
428.88 151.197 L
429.242 197.796 L
429.603 209.997 L
429.965 219.258 L
430.327 152.569 L
430.688 126.256 L
431.05 144.582 L
431.412 144.337 L
431.773 148.992 L
432.135 124.198 L
432.497 173.639 L
432.858 154.48 L
433.22 151.246 L
433.582 113.81 L
433.943 141.201 L
434.305 116.113 L
434.667 119.053 L
435.028 124.688 L
435.39 168.592 L
435.752 204.803 L
436.113 164.084 L
436.475 169.327 L
436.837 168.984 L
437.198 194.17 L
437.56 139.829 L
437.922 104.843 L
438.283 106.901 L
438.645 196.767 L
439.007 165.848 L
439.368 173.786 L
439.73 149.727 L
440.092 129.686 L
440.453 140.466 L
440.815 88.771 L
441.177 164.427 L
441.538 137.183 L
441.9 147.081 L
442.262 168.151 L
442.623 189.809 L
442.985 152.961 L
443.347 156.195 L
443.708 144.484 L
444.07 144.68 L
444.432 152.716 L
444.793 157.861 L
445.155 149.286 L
445.517 172.953 L
S
GR
GS
[0.75 0 0 0.75 0 0] CT
0 0.447 0.741 RC
2 LJ
N
445.517 172.953 M
445.878 134.586 L
446.24 115.231 L
446.602 131.352 L
446.963 156.538 L
447.325 116.113 L
447.687 126.109 L
448.048 191.23 L
448.41 162.026 L
448.772 148.992 L
449.133 168.2 L
449.495 96.415 L
449.857 113.663 L
450.218 121.65 L
450.58 170.944 L
450.942 209.017 L
451.303 270.365 L
451.665 253.117 L
452.027 198.825 L
452.388 147.375 L
452.75 177.216 L
453.112 179.568 L
453.473 188.143 L
453.835 221.512 L
454.197 223.031 L
454.558 237.682 L
454.92 239.299 L
455.282 197.208 L
455.643 179.519 L
456.005 165.897 L
456.367 207.204 L
456.728 172.708 L
457.09 205.048 L
457.452 196.522 L
457.813 192.749 L
458.175 194.66 L
458.537 109.694 L
458.898 151.246 L
459.26 161.487 L
459.622 230.185 L
459.983 190.544 L
460.345 200.099 L
460.707 185.546 L
461.068 183.39 L
461.43 153.206 L
461.792 182.508 L
462.153 142.965 L
462.515 165.701 L
462.877 178.49 L
463.238 196.816 L
S
GR
GS
[0.75 0 0 0.75 0 0] CT
0 0.447 0.741 RC
2 LJ
N
463.238 196.816 M
463.6 213.623 L
463.962 215.485 L
464.323 187.751 L
464.685 145.17 L
465.047 180.842 L
465.408 137.869 L
465.77 177.216 L
466.132 157.91 L
466.493 189.613 L
466.855 202.451 L
467.217 203.676 L
467.578 178.49 L
467.94 160.213 L
468.302 160.066 L
468.663 179.911 L
469.025 253.901 L
469.387 179.078 L
469.748 231.116 L
470.11 173.149 L
470.472 197.698 L
470.833 160.164 L
471.195 191.622 L
471.557 144.925 L
471.918 176.873 L
472.28 209.311 L
472.642 196.669 L
473.003 205.734 L
473.365 160.605 L
473.727 165.358 L
474.088 171.189 L
474.45 161.095 L
474.812 152.667 L
475.173 231.41 L
475.535 203.627 L
475.897 194.366 L
476.258 220.63 L
476.62 182.312 L
476.982 153.549 L
477.343 138.555 L
477.705 176.53 L
478.067 167.122 L
478.428 185.056 L
478.79 165.652 L
479.152 212.839 L
479.513 182.655 L
479.875 199.462 L
480.237 126.844 L
480.598 150.805 L
480.96 159.576 L
S
GR
GS
[0.75 0 0 0.75 0 0] CT
0 0.447 0.741 RC
2 LJ
N
480.96 159.576 M
481.322 160.262 L
481.683 199.609 L
S
GR
%%Trailer
%%Pages: 1
%%EOF
