%!PS-Adobe-3.0 EPSF-3.0
%%Creator: (MATLAB, The Mathworks, Inc. Version 8.5.0.197613 \(R2015a\). Operating System: Windows 8)
%%Title: (C:/Users/aleja/Desktop/TFG/Documentaci\363n/Obtenci\363n de datos/matlab_plot/Jota11-46.eps)
%%CreationDate: 2019-05-21T23:45:46
%%Pages: (atend)
%%BoundingBox: 0 0 420 315
%%LanguageLevel: 2
%%EndComments
%%BeginProlog
%%BeginResource: procset (Apache XML Graphics Std ProcSet) 1.2 0
%%Version: 1.2 0
%%Copyright: (Copyright 2001-2003,2010 The Apache Software Foundation. License terms: http://www.apache.org/licenses/LICENSE-2.0)
/bd{bind def}bind def
/ld{load def}bd
/GR/grestore ld
/M/moveto ld
/LJ/setlinejoin ld
/C/curveto ld
/f/fill ld
/LW/setlinewidth ld
/GC/setgray ld
/t/show ld
/N/newpath ld
/CT/concat ld
/cp/closepath ld
/S/stroke ld
/L/lineto ld
/CC/setcmykcolor ld
/A/ashow ld
/GS/gsave ld
/RC/setrgbcolor ld
/RM/rmoveto ld
/ML/setmiterlimit ld
/re {4 2 roll M
1 index 0 rlineto
0 exch rlineto
neg 0 rlineto
cp } bd
/_ctm matrix def
/_tm matrix def
/BT { _ctm currentmatrix pop matrix _tm copy pop 0 0 moveto } bd
/ET { _ctm setmatrix } bd
/iTm { _ctm setmatrix _tm concat } bd
/Tm { _tm astore pop iTm 0 0 moveto } bd
/ux 0.0 def
/uy 0.0 def
/F {
  /Tp exch def
  /Tf exch def
  Tf findfont Tp scalefont setfont
  /cf Tf def  /cs Tp def
} bd
/ULS {currentpoint /uy exch def /ux exch def} bd
/ULE {
  /Tcx currentpoint pop def
  gsave
  newpath
  cf findfont cs scalefont dup
  /FontMatrix get 0 get /Ts exch def /FontInfo get dup
  /UnderlinePosition get Ts mul /To exch def
  /UnderlineThickness get Ts mul /Tt exch def
  ux uy To add moveto  Tcx uy To add lineto
  Tt setlinewidth stroke
  grestore
} bd
/OLE {
  /Tcx currentpoint pop def
  gsave
  newpath
  cf findfont cs scalefont dup
  /FontMatrix get 0 get /Ts exch def /FontInfo get dup
  /UnderlinePosition get Ts mul /To exch def
  /UnderlineThickness get Ts mul /Tt exch def
  ux uy To add cs add moveto Tcx uy To add cs add lineto
  Tt setlinewidth stroke
  grestore
} bd
/SOE {
  /Tcx currentpoint pop def
  gsave
  newpath
  cf findfont cs scalefont dup
  /FontMatrix get 0 get /Ts exch def /FontInfo get dup
  /UnderlinePosition get Ts mul /To exch def
  /UnderlineThickness get Ts mul /Tt exch def
  ux uy To add cs 10 mul 26 idiv add moveto Tcx uy To add cs 10 mul 26 idiv add lineto
  Tt setlinewidth stroke
  grestore
} bd
/QT {
/Y22 exch store
/X22 exch store
/Y21 exch store
/X21 exch store
currentpoint
/Y21 load 2 mul add 3 div exch
/X21 load 2 mul add 3 div exch
/X21 load 2 mul /X22 load add 3 div
/Y21 load 2 mul /Y22 load add 3 div
/X22 load /Y22 load curveto
} bd
/SSPD {
dup length /d exch dict def
{
/v exch def
/k exch def
currentpagedevice k known {
/cpdv currentpagedevice k get def
v cpdv ne {
/upd false def
/nullv v type /nulltype eq def
/nullcpdv cpdv type /nulltype eq def
nullv nullcpdv or
{
/upd true def
} {
/sametype v type cpdv type eq def
sametype {
v type /arraytype eq {
/vlen v length def
/cpdvlen cpdv length def
vlen cpdvlen eq {
0 1 vlen 1 sub {
/i exch def
/obj v i get def
/cpdobj cpdv i get def
obj cpdobj ne {
/upd true def
exit
} if
} for
} {
/upd true def
} ifelse
} {
v type /dicttype eq {
v {
/dv exch def
/dk exch def
/cpddv cpdv dk get def
dv cpddv ne {
/upd true def
exit
} if
} forall
} {
/upd true def
} ifelse
} ifelse
} if
} ifelse
upd true eq {
d k v put
} if
} if
} if
} forall
d length 0 gt {
d setpagedevice
} if
} bd
%%EndResource
%%BeginResource: procset (Apache XML Graphics EPS ProcSet) 1.0 0
%%Version: 1.0 0
%%Copyright: (Copyright 2002-2003 The Apache Software Foundation. License terms: http://www.apache.org/licenses/LICENSE-2.0)
/BeginEPSF { %def
/b4_Inc_state save def         % Save state for cleanup
/dict_count countdictstack def % Count objects on dict stack
/op_count count 1 sub def      % Count objects on operand stack
userdict begin                 % Push userdict on dict stack
/showpage { } def              % Redefine showpage, { } = null proc
0 setgray 0 setlinecap         % Prepare graphics state
1 setlinewidth 0 setlinejoin
10 setmiterlimit [ ] 0 setdash newpath
/languagelevel where           % If level not equal to 1 then
{pop languagelevel             % set strokeadjust and
1 ne                           % overprint to their defaults.
{false setstrokeadjust false setoverprint
} if
} if
} bd
/EndEPSF { %def
count op_count sub {pop} repeat            % Clean up stacks
countdictstack dict_count sub {end} repeat
b4_Inc_state restore
} bd
%%EndResource
%FOPBeginFontDict
%%IncludeResource: font Courier-Bold
%%IncludeResource: font Helvetica
%%IncludeResource: font Courier-BoldOblique
%%IncludeResource: font Courier-Oblique
%%IncludeResource: font Times-Roman
%%IncludeResource: font Helvetica-BoldOblique
%%IncludeResource: font Helvetica-Bold
%%IncludeResource: font Helvetica-Oblique
%%IncludeResource: font Times-BoldItalic
%%IncludeResource: font Courier
%%IncludeResource: font Times-Italic
%%IncludeResource: font Times-Bold
%%IncludeResource: font Symbol
%%IncludeResource: font ZapfDingbats
%FOPEndFontDict
%%BeginResource: encoding WinAnsiEncoding
/WinAnsiEncoding [
/.notdef /.notdef /.notdef /.notdef /.notdef
/.notdef /.notdef /.notdef /.notdef /.notdef
/.notdef /.notdef /.notdef /.notdef /.notdef
/.notdef /.notdef /.notdef /.notdef /.notdef
/.notdef /.notdef /.notdef /.notdef /.notdef
/.notdef /.notdef /.notdef /.notdef /.notdef
/.notdef /.notdef /space /exclam /quotedbl
/numbersign /dollar /percent /ampersand /quotesingle
/parenleft /parenright /asterisk /plus /comma
/hyphen /period /slash /zero /one
/two /three /four /five /six
/seven /eight /nine /colon /semicolon
/less /equal /greater /question /at
/A /B /C /D /E
/F /G /H /I /J
/K /L /M /N /O
/P /Q /R /S /T
/U /V /W /X /Y
/Z /bracketleft /backslash /bracketright /asciicircum
/underscore /quoteleft /a /b /c
/d /e /f /g /h
/i /j /k /l /m
/n /o /p /q /r
/s /t /u /v /w
/x /y /z /braceleft /bar
/braceright /asciitilde /bullet /Euro /bullet
/quotesinglbase /florin /quotedblbase /ellipsis /dagger
/daggerdbl /circumflex /perthousand /Scaron /guilsinglleft
/OE /bullet /Zcaron /bullet /bullet
/quoteleft /quoteright /quotedblleft /quotedblright /bullet
/endash /emdash /asciitilde /trademark /scaron
/guilsinglright /oe /bullet /zcaron /Ydieresis
/space /exclamdown /cent /sterling /currency
/yen /brokenbar /section /dieresis /copyright
/ordfeminine /guillemotleft /logicalnot /sfthyphen /registered
/macron /degree /plusminus /twosuperior /threesuperior
/acute /mu /paragraph /middot /cedilla
/onesuperior /ordmasculine /guillemotright /onequarter /onehalf
/threequarters /questiondown /Agrave /Aacute /Acircumflex
/Atilde /Adieresis /Aring /AE /Ccedilla
/Egrave /Eacute /Ecircumflex /Edieresis /Igrave
/Iacute /Icircumflex /Idieresis /Eth /Ntilde
/Ograve /Oacute /Ocircumflex /Otilde /Odieresis
/multiply /Oslash /Ugrave /Uacute /Ucircumflex
/Udieresis /Yacute /Thorn /germandbls /agrave
/aacute /acircumflex /atilde /adieresis /aring
/ae /ccedilla /egrave /eacute /ecircumflex
/edieresis /igrave /iacute /icircumflex /idieresis
/eth /ntilde /ograve /oacute /ocircumflex
/otilde /odieresis /divide /oslash /ugrave
/uacute /ucircumflex /udieresis /yacute /thorn
/ydieresis
] def
%%EndResource
%FOPBeginFontReencode
/Courier-Bold findfont
dup length dict begin
  {1 index /FID ne {def} {pop pop} ifelse} forall
  /Encoding WinAnsiEncoding def
  currentdict
end
/Courier-Bold exch definefont pop
/Helvetica findfont
dup length dict begin
  {1 index /FID ne {def} {pop pop} ifelse} forall
  /Encoding WinAnsiEncoding def
  currentdict
end
/Helvetica exch definefont pop
/Courier-BoldOblique findfont
dup length dict begin
  {1 index /FID ne {def} {pop pop} ifelse} forall
  /Encoding WinAnsiEncoding def
  currentdict
end
/Courier-BoldOblique exch definefont pop
/Courier-Oblique findfont
dup length dict begin
  {1 index /FID ne {def} {pop pop} ifelse} forall
  /Encoding WinAnsiEncoding def
  currentdict
end
/Courier-Oblique exch definefont pop
/Times-Roman findfont
dup length dict begin
  {1 index /FID ne {def} {pop pop} ifelse} forall
  /Encoding WinAnsiEncoding def
  currentdict
end
/Times-Roman exch definefont pop
/Helvetica-BoldOblique findfont
dup length dict begin
  {1 index /FID ne {def} {pop pop} ifelse} forall
  /Encoding WinAnsiEncoding def
  currentdict
end
/Helvetica-BoldOblique exch definefont pop
/Helvetica-Bold findfont
dup length dict begin
  {1 index /FID ne {def} {pop pop} ifelse} forall
  /Encoding WinAnsiEncoding def
  currentdict
end
/Helvetica-Bold exch definefont pop
/Helvetica-Oblique findfont
dup length dict begin
  {1 index /FID ne {def} {pop pop} ifelse} forall
  /Encoding WinAnsiEncoding def
  currentdict
end
/Helvetica-Oblique exch definefont pop
/Times-BoldItalic findfont
dup length dict begin
  {1 index /FID ne {def} {pop pop} ifelse} forall
  /Encoding WinAnsiEncoding def
  currentdict
end
/Times-BoldItalic exch definefont pop
/Courier findfont
dup length dict begin
  {1 index /FID ne {def} {pop pop} ifelse} forall
  /Encoding WinAnsiEncoding def
  currentdict
end
/Courier exch definefont pop
/Times-Italic findfont
dup length dict begin
  {1 index /FID ne {def} {pop pop} ifelse} forall
  /Encoding WinAnsiEncoding def
  currentdict
end
/Times-Italic exch definefont pop
/Times-Bold findfont
dup length dict begin
  {1 index /FID ne {def} {pop pop} ifelse} forall
  /Encoding WinAnsiEncoding def
  currentdict
end
/Times-Bold exch definefont pop
%FOPEndFontReencode
%%EndProlog
%%Page: 1 1
%%PageBoundingBox: 0 0 420 315
%%BeginPageSetup
[1 0 0 -1 0 315] CT
%%EndPageSetup
GS
[0.75 0 0 0.75 0 0] CT
1 GC
N
0 0 560 420 re
f
GR
GS
[0.75 0 0 0.75 0 0] CT
1 GC
N
0 0 560 420 re
f
GR
GS
[0.75 0 0 0.75 0 0] CT
1 GC
N
73 374 M
507 374 L
507 31 L
73 31 L
cp
f
GR
GS
[0.75 0 0 0.75 0 0] CT
0.149 GC
2 setlinecap
10.0 ML
N
73 374 M
507 374 L
S
GR
GS
[0.75 0 0 0.75 0 0] CT
0.149 GC
2 setlinecap
10.0 ML
N
73 31 M
507 31 L
S
GR
GS
[0.75 0 0 0.75 0 0] CT
0.149 GC
2 setlinecap
10.0 ML
N
73 374 M
73 369.66 L
S
GR
GS
[0.75 0 0 0.75 0 0] CT
0.149 GC
2 setlinecap
10.0 ML
N
145.333 374 M
145.333 369.66 L
S
GR
GS
[0.75 0 0 0.75 0 0] CT
0.149 GC
2 setlinecap
10.0 ML
N
217.667 374 M
217.667 369.66 L
S
GR
GS
[0.75 0 0 0.75 0 0] CT
0.149 GC
2 setlinecap
10.0 ML
N
290 374 M
290 369.66 L
S
GR
GS
[0.75 0 0 0.75 0 0] CT
0.149 GC
2 setlinecap
10.0 ML
N
362.333 374 M
362.333 369.66 L
S
GR
GS
[0.75 0 0 0.75 0 0] CT
0.149 GC
2 setlinecap
10.0 ML
N
434.667 374 M
434.667 369.66 L
S
GR
GS
[0.75 0 0 0.75 0 0] CT
0.149 GC
2 setlinecap
10.0 ML
N
507 374 M
507 369.66 L
S
GR
GS
[0.75 0 0 0.75 0 0] CT
0.149 GC
2 setlinecap
10.0 ML
N
73 31 M
73 35.34 L
S
GR
GS
[0.75 0 0 0.75 0 0] CT
0.149 GC
2 setlinecap
10.0 ML
N
145.333 31 M
145.333 35.34 L
S
GR
GS
[0.75 0 0 0.75 0 0] CT
0.149 GC
2 setlinecap
10.0 ML
N
217.667 31 M
217.667 35.34 L
S
GR
GS
[0.75 0 0 0.75 0 0] CT
0.149 GC
2 setlinecap
10.0 ML
N
290 31 M
290 35.34 L
S
GR
GS
[0.75 0 0 0.75 0 0] CT
0.149 GC
2 setlinecap
10.0 ML
N
362.333 31 M
362.333 35.34 L
S
GR
GS
[0.75 0 0 0.75 0 0] CT
0.149 GC
2 setlinecap
10.0 ML
N
434.667 31 M
434.667 35.34 L
S
GR
GS
[0.75 0 0 0.75 0 0] CT
0.149 GC
2 setlinecap
10.0 ML
N
507 31 M
507 35.34 L
S
GR
GS
[0.75 0 0 0.75 54.75 284.50001] CT
0.149 GC
/Helvetica 13 F
GS
[1 0 0 1 0 0] CT
-4 14 moveto 
1 -1 scale
(0) t 
GR
GR
GS
[0.75 0 0 0.75 109 284.50001] CT
0.149 GC
/Helvetica 13 F
GS
[1 0 0 1 0 0] CT
-11 14 moveto 
1 -1 scale
(200) t 
GR
GR
GS
[0.75 0 0 0.75 163.25 284.50001] CT
0.149 GC
/Helvetica 13 F
GS
[1 0 0 1 0 0] CT
-11 14 moveto 
1 -1 scale
(400) t 
GR
GR
GS
[0.75 0 0 0.75 217.5 284.50001] CT
0.149 GC
/Helvetica 13 F
GS
[1 0 0 1 0 0] CT
-11 14 moveto 
1 -1 scale
(600) t 
GR
GR
GS
[0.75 0 0 0.75 271.75001 284.50001] CT
0.149 GC
/Helvetica 13 F
GS
[1 0 0 1 0 0] CT
-11 14 moveto 
1 -1 scale
(800) t 
GR
GR
GS
[0.75 0 0 0.75 325.99999 284.50001] CT
0.149 GC
/Helvetica 13 F
GS
[1 0 0 1 0 0] CT
-14.5 14 moveto 
1 -1 scale
(1000) t 
GR
GR
GS
[0.75 0 0 0.75 380.25 284.50001] CT
0.149 GC
/Helvetica 13 F
GS
[1 0 0 1 0 0] CT
-14.5 14 moveto 
1 -1 scale
(1200) t 
GR
GR
GS
[0.75 0 0 0.75 0 0] CT
0.149 GC
2 setlinecap
10.0 ML
N
73 374 M
73 31 L
S
GR
GS
[0.75 0 0 0.75 0 0] CT
0.149 GC
2 setlinecap
10.0 ML
N
507 374 M
507 31 L
S
GR
GS
[0.75 0 0 0.75 0 0] CT
0.149 GC
2 setlinecap
10.0 ML
N
73 374 M
77.34 374 L
S
GR
GS
[0.75 0 0 0.75 0 0] CT
0.149 GC
2 setlinecap
10.0 ML
N
73 325 M
77.34 325 L
S
GR
GS
[0.75 0 0 0.75 0 0] CT
0.149 GC
2 setlinecap
10.0 ML
N
73 276 M
77.34 276 L
S
GR
GS
[0.75 0 0 0.75 0 0] CT
0.149 GC
2 setlinecap
10.0 ML
N
73 227 M
77.34 227 L
S
GR
GS
[0.75 0 0 0.75 0 0] CT
0.149 GC
2 setlinecap
10.0 ML
N
73 178 M
77.34 178 L
S
GR
GS
[0.75 0 0 0.75 0 0] CT
0.149 GC
2 setlinecap
10.0 ML
N
73 129 M
77.34 129 L
S
GR
GS
[0.75 0 0 0.75 0 0] CT
0.149 GC
2 setlinecap
10.0 ML
N
73 80 M
77.34 80 L
S
GR
GS
[0.75 0 0 0.75 0 0] CT
0.149 GC
2 setlinecap
10.0 ML
N
73 31 M
77.34 31 L
S
GR
GS
[0.75 0 0 0.75 0 0] CT
0.149 GC
2 setlinecap
10.0 ML
N
507 374 M
502.66 374 L
S
GR
GS
[0.75 0 0 0.75 0 0] CT
0.149 GC
2 setlinecap
10.0 ML
N
507 325 M
502.66 325 L
S
GR
GS
[0.75 0 0 0.75 0 0] CT
0.149 GC
2 setlinecap
10.0 ML
N
507 276 M
502.66 276 L
S
GR
GS
[0.75 0 0 0.75 0 0] CT
0.149 GC
2 setlinecap
10.0 ML
N
507 227 M
502.66 227 L
S
GR
GS
[0.75 0 0 0.75 0 0] CT
0.149 GC
2 setlinecap
10.0 ML
N
507 178 M
502.66 178 L
S
GR
GS
[0.75 0 0 0.75 0 0] CT
0.149 GC
2 setlinecap
10.0 ML
N
507 129 M
502.66 129 L
S
GR
GS
[0.75 0 0 0.75 0 0] CT
0.149 GC
2 setlinecap
10.0 ML
N
507 80 M
502.66 80 L
S
GR
GS
[0.75 0 0 0.75 0 0] CT
0.149 GC
2 setlinecap
10.0 ML
N
507 31 M
502.66 31 L
S
GR
GS
[0.75 0 0 0.75 50.75 280.5] CT
0.149 GC
/Helvetica 13 F
GS
[1 0 0 1 0 0] CT
-22 5.5 moveto 
1 -1 scale
(460) t 
GR
GR
GS
[0.75 0 0 0.75 50.75 243.75] CT
0.149 GC
/Helvetica 13 F
GS
[1 0 0 1 0 0] CT
-22 5.5 moveto 
1 -1 scale
(480) t 
GR
GR
GS
[0.75 0 0 0.75 50.75 207] CT
0.149 GC
/Helvetica 13 F
GS
[1 0 0 1 0 0] CT
-22 5.5 moveto 
1 -1 scale
(500) t 
GR
GR
GS
[0.75 0 0 0.75 50.75 170.25] CT
0.149 GC
/Helvetica 13 F
GS
[1 0 0 1 0 0] CT
-22 5.5 moveto 
1 -1 scale
(520) t 
GR
GR
GS
[0.75 0 0 0.75 50.75 133.5] CT
0.149 GC
/Helvetica 13 F
GS
[1 0 0 1 0 0] CT
-22 5.5 moveto 
1 -1 scale
(540) t 
GR
GR
GS
[0.75 0 0 0.75 50.75 96.75] CT
0.149 GC
/Helvetica 13 F
GS
[1 0 0 1 0 0] CT
-22 5.5 moveto 
1 -1 scale
(560) t 
GR
GR
GS
[0.75 0 0 0.75 50.75 60] CT
0.149 GC
/Helvetica 13 F
GS
[1 0 0 1 0 0] CT
-22 5.5 moveto 
1 -1 scale
(580) t 
GR
GR
GS
[0.75 0 0 0.75 50.75 23.25] CT
0.149 GC
/Helvetica 13 F
GS
[1 0 0 1 0 0] CT
-22 5.5 moveto 
1 -1 scale
(600) t 
GR
GR
GS
[0.75 0 0 0.75 0 0] CT
0 0.447 0.741 RC
2 LJ
N
73.362 85.806 M
73.723 97.64 L
74.085 113.1 L
74.447 78.628 L
74.808 108.837 L
75.17 123.194 L
75.532 84.631 L
75.893 89.359 L
76.255 108.077 L
76.617 116.701 L
76.978 134.978 L
77.34 122.042 L
77.702 120.278 L
78.063 150.952 L
78.425 134.782 L
78.787 142.156 L
79.148 140.025 L
79.51 106.191 L
79.872 80.931 L
80.233 105.823 L
80.595 94.945 L
80.957 114.668 L
81.318 139.29 L
81.68 130.984 L
82.042 140.515 L
82.403 132.454 L
82.765 157.959 L
83.127 151.834 L
83.488 129.245 L
83.85 138.531 L
84.212 142.034 L
84.573 140.735 L
84.935 150.56 L
85.297 152.667 L
85.658 139.069 L
86.02 131.303 L
86.382 129.931 L
86.743 125.717 L
87.105 154.627 L
87.467 177.069 L
87.828 176.309 L
88.19 152.838 L
88.552 154.7 L
88.913 153.647 L
89.275 139.559 L
89.637 143.578 L
89.998 149.947 L
90.36 141.642 L
90.722 162.541 L
91.083 159.747 L
S
GR
GS
[0.75 0 0 0.75 0 0] CT
0 0.447 0.741 RC
2 LJ
N
91.083 159.747 M
91.445 128.363 L
91.807 137.232 L
92.168 123.879 L
92.53 137.33 L
92.892 148.208 L
93.253 109.449 L
93.615 91.809 L
93.977 104.108 L
94.338 96.709 L
94.7 119.91 L
95.062 173.59 L
95.423 360.206 L
95.785 151.883 L
96.147 75.884 L
96.508 65.643 L
96.87 45.872 L
97.232 65.594 L
97.593 55.549 L
97.955 86.468 L
98.317 69.857 L
98.678 84.091 L
99.04 101.976 L
99.402 101.854 L
99.763 86.566 L
100.125 252.529 L
100.487 206.591 L
100.848 84.484 L
101.21 101.928 L
101.572 103.079 L
101.933 75.957 L
102.295 83.063 L
102.657 68.607 L
103.018 64.1 L
103.38 95.778 L
103.742 67.505 L
104.103 96.978 L
104.465 81.715 L
104.827 91.197 L
105.188 125.35 L
105.55 108.077 L
105.912 83.43 L
106.273 94.994 L
106.635 102.246 L
106.997 123.291 L
107.358 139.363 L
107.72 118.514 L
108.082 107.122 L
108.443 129 L
108.805 138.898 L
S
GR
GS
[0.75 0 0 0.75 0 0] CT
0 0.447 0.741 RC
2 LJ
N
108.805 138.898 M
109.167 134.66 L
109.528 133.091 L
109.89 134.61 L
110.252 138.874 L
110.613 110.772 L
110.975 118.906 L
111.337 128.143 L
111.698 124.125 L
112.06 147.253 L
112.422 153.01 L
112.783 131.328 L
113.145 129.392 L
113.507 105.75 L
113.868 115.304 L
114.23 127.016 L
114.592 157.297 L
114.953 121.552 L
115.315 122.606 L
115.677 141.176 L
116.038 135.199 L
116.4 103.838 L
116.762 108.297 L
117.123 108.273 L
117.485 120.033 L
117.847 122.9 L
118.208 123.169 L
118.57 127.996 L
118.932 140.515 L
119.293 141.519 L
119.655 142.72 L
120.017 114.275 L
120.378 124.174 L
120.74 125.766 L
121.102 108.641 L
121.463 101.168 L
121.825 83.479 L
122.187 85.806 L
122.548 117.46 L
122.91 128.535 L
123.272 137.33 L
123.633 102.001 L
123.995 123.806 L
124.357 99.992 L
124.718 100.335 L
125.08 153.378 L
125.442 133.851 L
125.803 112.438 L
126.165 134.341 L
126.527 128.853 L
S
GR
GS
[0.75 0 0 0.75 0 0] CT
0 0.447 0.741 RC
2 LJ
N
126.527 128.853 M
126.888 121.234 L
127.25 119.862 L
127.612 138.065 L
127.973 164.697 L
128.335 167.71 L
128.697 181.381 L
129.058 175.942 L
129.42 132.847 L
129.782 147.963 L
130.143 142.622 L
130.505 143.725 L
130.867 163.962 L
131.228 161.022 L
131.59 152.25 L
131.952 161.536 L
132.313 169.572 L
132.675 155.044 L
133.037 150.829 L
133.398 110.87 L
133.76 185.913 L
134.122 176.947 L
134.483 172.463 L
134.845 192.381 L
135.207 195.836 L
135.568 172.978 L
135.93 187.163 L
136.292 146.665 L
136.653 149.457 L
137.015 171.213 L
137.377 153.647 L
137.738 169.4 L
138.1 170.625 L
138.462 147.816 L
138.823 165.235 L
139.185 158.375 L
139.547 160.287 L
139.908 160.85 L
140.27 165.235 L
140.632 167.22 L
140.993 185.962 L
141.355 181.749 L
141.717 161.683 L
142.078 175.109 L
142.44 175.428 L
142.802 184.982 L
143.163 144.704 L
143.525 151.172 L
143.887 215.118 L
144.248 143.259 L
S
GR
GS
[0.75 0 0 0.75 0 0] CT
0 0.447 0.741 RC
2 LJ
N
144.248 143.259 M
144.61 196.547 L
144.972 162.565 L
145.333 230.797 L
145.695 192.308 L
146.057 171.777 L
146.418 203.823 L
146.78 208.478 L
147.142 169.597 L
147.503 186.256 L
147.865 200.932 L
148.227 151.638 L
148.588 207.449 L
148.95 163.398 L
149.312 186.159 L
149.673 217.568 L
150.035 215.118 L
150.397 205.881 L
150.758 182.998 L
151.12 179.691 L
151.482 165.628 L
151.843 181.136 L
152.205 225.579 L
152.567 190.936 L
152.928 180.034 L
153.29 173.859 L
153.652 241.822 L
154.013 191.401 L
154.375 163.422 L
154.737 190.593 L
155.098 181.038 L
155.46 185.031 L
155.822 169.694 L
156.183 189.931 L
156.545 149.997 L
156.907 178.074 L
157.268 188.829 L
157.63 170.356 L
157.992 174.888 L
158.353 153.696 L
158.715 172.267 L
159.077 184.493 L
159.438 190.593 L
159.8 154.651 L
160.162 163.962 L
160.523 176.407 L
160.885 171.507 L
161.247 171.997 L
161.608 168.396 L
161.97 179.103 L
S
GR
GS
[0.75 0 0 0.75 0 0] CT
0 0.447 0.741 RC
2 LJ
N
161.97 179.103 M
162.332 203.799 L
162.693 206.175 L
163.055 209.801 L
163.417 215.901 L
163.778 198.506 L
164.14 206.641 L
164.502 202.181 L
164.863 233.738 L
165.225 224.06 L
165.587 238.319 L
165.948 154.113 L
166.31 125.374 L
166.672 122.679 L
167.033 107.269 L
167.395 89.996 L
167.757 122.949 L
168.118 104.378 L
168.48 126.354 L
168.842 128.657 L
169.203 113.271 L
169.565 121.356 L
169.927 152.863 L
170.288 124.125 L
170.65 113.59 L
171.012 92.74 L
171.373 97.052 L
171.735 125.031 L
172.097 122.997 L
172.458 117.73 L
172.82 119.91 L
173.182 118.955 L
173.543 86.64 L
173.905 115.378 L
174.267 114.079 L
174.628 103.006 L
174.99 104.279 L
175.352 96.219 L
175.713 124.125 L
176.075 138.114 L
176.437 127.603 L
176.798 110.894 L
177.16 129.906 L
177.522 167.906 L
177.883 151.271 L
178.245 140.76 L
178.607 132.724 L
178.968 138.751 L
179.33 162.81 L
179.692 146.64 L
S
GR
GS
[0.75 0 0 0.75 0 0] CT
0 0.447 0.741 RC
2 LJ
N
179.692 146.64 M
180.053 154.039 L
180.415 165.334 L
180.777 156.685 L
181.138 127.775 L
181.5 167.808 L
181.862 154.137 L
182.223 143.455 L
182.585 131.401 L
182.947 94.774 L
183.308 133.974 L
183.67 121.65 L
184.032 117.607 L
184.393 157.984 L
184.755 129.49 L
185.117 148.257 L
185.478 138.359 L
185.84 127.065 L
186.202 132.332 L
186.563 133.41 L
186.925 148.232 L
187.287 127.481 L
187.648 148.919 L
188.01 135.64 L
188.372 148.208 L
188.733 114.668 L
189.095 136.325 L
189.457 123.071 L
189.818 130.887 L
190.18 131.524 L
190.542 135.1 L
190.903 143.872 L
191.265 136.252 L
191.627 132.822 L
191.988 136.522 L
192.35 142.72 L
192.712 156.906 L
193.073 162.222 L
193.435 178.392 L
193.797 167.147 L
194.158 139.119 L
194.52 136.448 L
194.882 132.356 L
195.243 140.417 L
195.605 156.318 L
195.967 165.725 L
196.328 109.179 L
196.69 138.065 L
197.052 143.822 L
197.413 111.066 L
S
GR
GS
[0.75 0 0 0.75 0 0] CT
0 0.447 0.741 RC
2 LJ
N
197.413 111.066 M
197.775 135.811 L
198.137 164.109 L
198.498 125.056 L
198.86 127.359 L
199.222 133.018 L
199.583 151.172 L
199.945 152.985 L
200.307 136.546 L
200.668 143.406 L
201.03 113.344 L
201.392 115.966 L
201.753 145.244 L
202.115 154.259 L
202.477 157.641 L
202.838 143.406 L
203.2 137.453 L
203.562 132.259 L
203.923 154.284 L
204.285 147.743 L
204.647 138.481 L
205.008 138.678 L
205.37 159.233 L
205.732 150.535 L
206.093 133.949 L
206.455 135.934 L
206.817 118.906 L
207.178 117.583 L
207.54 105.309 L
207.902 174.423 L
208.263 146.959 L
208.625 142.034 L
208.987 163.496 L
209.348 134.537 L
209.71 149.604 L
210.072 119.126 L
210.433 147.35 L
210.795 151.834 L
211.157 158.326 L
211.518 149.016 L
211.88 155.068 L
212.242 147.694 L
212.603 130.911 L
212.965 136.178 L
213.327 124.663 L
213.688 144.582 L
214.05 146.493 L
214.412 151.148 L
214.773 150.315 L
215.135 137.477 L
S
GR
GS
[0.75 0 0 0.75 0 0] CT
0 0.447 0.741 RC
2 LJ
N
215.135 137.477 M
215.497 140.074 L
215.858 138.384 L
216.22 140.368 L
216.582 143.651 L
216.943 146.959 L
217.305 163.104 L
217.667 152.618 L
218.028 144.141 L
218.39 143.21 L
218.752 150.829 L
219.113 146.248 L
219.475 119.959 L
219.837 139.657 L
220.198 148.134 L
220.56 164.917 L
220.922 139.266 L
221.283 145.562 L
221.645 131.352 L
222.007 131.181 L
222.368 128.02 L
222.73 143.038 L
223.092 140.564 L
223.453 164.917 L
223.815 190.324 L
224.177 164.304 L
224.538 163.031 L
224.9 159.282 L
225.262 153.328 L
225.623 166.607 L
225.985 169.67 L
226.347 161.462 L
226.708 152.177 L
227.07 153.843 L
227.432 153.549 L
227.793 126.011 L
228.155 145.66 L
228.517 161.046 L
228.878 178.784 L
229.24 153.965 L
229.602 144.778 L
229.963 131.842 L
230.325 121.699 L
230.687 126.525 L
231.048 142.744 L
231.41 135.174 L
231.772 148.331 L
232.133 147.4 L
232.495 140.785 L
232.857 131.131 L
S
GR
GS
[0.75 0 0 0.75 0 0] CT
0 0.447 0.741 RC
2 LJ
N
232.857 131.131 M
233.218 118.881 L
233.58 118.538 L
233.942 140.025 L
234.303 149.825 L
234.665 135.909 L
235.027 131.229 L
235.388 141.519 L
235.75 139.927 L
236.112 124.296 L
236.473 107.366 L
236.835 120.327 L
237.197 119.568 L
237.558 115.476 L
237.92 167.931 L
238.282 166.877 L
238.643 142.377 L
239.005 135.835 L
239.367 129.539 L
239.728 129.269 L
240.09 168.641 L
240.452 159.38 L
240.813 164.574 L
241.175 159.87 L
241.537 161.169 L
241.898 140.613 L
242.26 113.296 L
242.622 151.589 L
242.983 136.105 L
243.345 139.633 L
243.707 179.494 L
244.068 173.492 L
244.43 167.734 L
244.792 178.221 L
245.153 175.354 L
245.515 141.642 L
245.877 159.894 L
246.238 161.022 L
246.6 193.092 L
246.962 189.246 L
247.323 160.335 L
247.685 167.734 L
248.047 182.532 L
248.408 139.437 L
248.77 154.406 L
249.132 132.969 L
249.493 164.966 L
249.855 162.59 L
250.217 172.978 L
250.578 136.325 L
S
GR
GS
[0.75 0 0 0.75 0 0] CT
0 0.447 0.741 RC
2 LJ
N
250.578 136.325 M
250.94 143.455 L
251.302 165.824 L
251.663 158.694 L
252.025 147.938 L
252.387 142.573 L
252.748 192.651 L
253.11 171.066 L
253.472 129.343 L
253.833 150.241 L
254.195 144.141 L
254.557 143.675 L
254.918 159.184 L
255.28 166.24 L
255.642 179.446 L
256.003 163.888 L
256.365 148.968 L
256.727 157.69 L
257.088 141.666 L
257.45 148.379 L
257.812 135.909 L
258.173 144.68 L
258.535 158.915 L
258.897 162.884 L
259.258 163.496 L
259.62 122.189 L
259.982 155.484 L
260.343 151.197 L
260.705 169.204 L
261.067 180.401 L
261.428 173.247 L
261.79 177.191 L
262.152 169.009 L
262.513 163.006 L
262.875 158.228 L
263.237 147.228 L
263.598 152.496 L
263.96 153.328 L
264.322 167.367 L
264.683 176.849 L
265.045 156.366 L
265.407 161.291 L
265.768 162.1 L
266.13 157.494 L
266.492 159.846 L
266.853 192.7 L
267.215 172.243 L
267.577 164.01 L
267.938 158.498 L
268.3 152.544 L
S
GR
GS
[0.75 0 0 0.75 0 0] CT
0 0.447 0.741 RC
2 LJ
N
268.3 152.544 M
268.662 155.778 L
269.023 159.797 L
269.385 132.503 L
269.747 171.875 L
270.108 188.486 L
270.47 172.365 L
270.832 158.302 L
271.193 157.959 L
271.555 152.594 L
271.917 166.656 L
272.278 160.311 L
272.64 165.872 L
273.002 204.093 L
273.363 187.726 L
273.725 162.688 L
274.087 171.85 L
274.448 144.386 L
274.81 151.663 L
275.172 135.934 L
275.533 185.007 L
275.895 185.889 L
276.257 193.239 L
276.618 158.008 L
276.98 178.809 L
277.342 171.728 L
277.703 165.382 L
278.065 198.703 L
278.427 183.806 L
278.788 162.394 L
279.15 173.369 L
279.512 171.507 L
279.873 190.103 L
280.235 158.572 L
280.597 147.4 L
280.958 153.647 L
281.32 170.013 L
281.682 194.929 L
282.043 206.641 L
282.405 162.761 L
282.767 149.703 L
283.128 178.563 L
283.49 155.681 L
283.852 162.859 L
284.213 152.765 L
284.575 192.798 L
284.937 204.362 L
285.298 164.917 L
285.66 167.024 L
286.022 126.329 L
S
GR
GS
[0.75 0 0 0.75 0 0] CT
0 0.447 0.741 RC
2 LJ
N
286.022 126.329 M
286.383 159.968 L
286.745 186.012 L
287.107 173.125 L
287.468 147.106 L
287.83 194.464 L
288.192 165.799 L
288.553 166.069 L
288.915 163.521 L
289.277 149.776 L
289.638 150.903 L
290 172.169 L
290.362 184.003 L
290.723 200.025 L
291.085 169.572 L
291.447 172.978 L
291.808 160.482 L
292.17 137.453 L
292.532 147.963 L
292.893 132.675 L
293.255 154.847 L
293.617 174.693 L
293.978 124.222 L
294.34 145.734 L
294.702 136.375 L
295.063 159.993 L
295.425 177.975 L
295.787 172.096 L
296.148 139.363 L
296.51 153.353 L
296.872 161.707 L
297.233 148.428 L
297.595 140.344 L
297.957 149.457 L
298.318 161.585 L
298.68 172.169 L
299.042 161.34 L
299.403 176.236 L
299.765 126.134 L
300.127 87.105 L
300.488 127.75 L
300.85 165.235 L
301.212 162.614 L
301.573 162.638 L
301.935 141.715 L
302.297 199.413 L
302.658 199.144 L
303.02 182.091 L
303.382 163.202 L
303.743 186.624 L
S
GR
GS
[0.75 0 0 0.75 0 0] CT
0 0.447 0.741 RC
2 LJ
N
303.743 186.624 M
304.105 104.647 L
304.467 123.855 L
304.828 83.92 L
305.19 112.046 L
305.552 209.384 L
305.913 163.619 L
306.275 190.936 L
306.637 187.579 L
306.998 182.214 L
307.36 168.151 L
307.722 180.622 L
308.083 183.586 L
308.445 166.24 L
308.807 186.354 L
309.168 189.785 L
309.53 166.436 L
309.892 171.507 L
310.253 189.466 L
310.615 192.528 L
310.977 207.645 L
311.338 188.51 L
311.7 197.232 L
312.062 170.405 L
312.423 177.632 L
312.785 159.086 L
313.147 187.285 L
313.508 186.697 L
313.87 198.58 L
314.232 170.234 L
314.593 198.139 L
314.955 183.512 L
315.317 143.284 L
315.678 166.363 L
316.04 184.762 L
316.402 159.846 L
316.763 208.551 L
317.125 207.474 L
317.487 166.754 L
317.848 184.272 L
318.21 156.563 L
318.572 164.476 L
318.933 175.55 L
319.295 154.48 L
319.657 173.174 L
320.018 206.444 L
320.38 197.453 L
320.742 168.763 L
321.103 168.616 L
321.465 153.206 L
S
GR
GS
[0.75 0 0 0.75 0 0] CT
0 0.447 0.741 RC
2 LJ
N
321.465 153.206 M
321.827 156.195 L
322.188 164.721 L
322.55 183.096 L
322.912 188.241 L
323.273 191.475 L
323.635 179.837 L
323.997 171.973 L
324.358 168.959 L
324.72 166.803 L
325.082 190.25 L
325.443 185.913 L
325.805 165.725 L
326.167 162.884 L
326.528 193.043 L
326.89 180.229 L
327.252 154.799 L
327.613 143.969 L
327.975 172.806 L
328.337 159.6 L
328.698 178.759 L
329.06 203.456 L
329.422 188.045 L
329.783 181.797 L
330.145 169.719 L
330.507 177.338 L
330.868 186.477 L
331.23 184.934 L
331.592 187.726 L
331.953 186.575 L
332.315 201.422 L
332.677 182.018 L
333.038 180.818 L
333.4 150.315 L
333.762 171.581 L
334.123 161.928 L
334.485 164.476 L
334.847 179.176 L
335.208 177.118 L
335.57 175.746 L
335.932 172.781 L
336.293 163.472 L
336.655 153.451 L
337.017 165.309 L
337.378 166.338 L
337.74 167.71 L
338.102 170.234 L
338.463 181.92 L
338.825 175.722 L
339.187 186.354 L
S
GR
GS
[0.75 0 0 0.75 0 0] CT
0 0.447 0.741 RC
2 LJ
N
339.187 186.354 M
339.548 161.218 L
339.91 177.216 L
340.272 169.964 L
340.633 162.05 L
340.995 184.713 L
341.357 197.649 L
341.718 188.437 L
342.08 178.637 L
342.442 180.009 L
342.803 154.284 L
343.165 184.444 L
343.527 200.54 L
343.888 200.613 L
344.25 185.546 L
344.612 161.119 L
344.973 202.549 L
345.335 174.962 L
345.697 152.153 L
346.058 161.806 L
346.42 152.447 L
346.782 197.012 L
347.143 178.956 L
347.505 179.788 L
347.867 190.715 L
348.228 159.306 L
348.59 179.397 L
348.952 159.772 L
349.313 174.153 L
349.675 171.238 L
350.037 150.756 L
350.398 178.882 L
350.76 189.882 L
351.122 181.112 L
351.483 168.715 L
351.845 150.952 L
352.207 140.882 L
352.568 161.316 L
352.93 182.385 L
353.292 182.214 L
353.653 169.057 L
354.015 161.634 L
354.377 167.465 L
354.738 179.691 L
355.1 193.116 L
355.462 171.336 L
355.823 165.334 L
356.185 160.654 L
356.547 196.473 L
356.908 184.051 L
S
GR
GS
[0.75 0 0 0.75 0 0] CT
0 0.447 0.741 RC
2 LJ
N
356.908 184.051 M
357.27 179.274 L
357.632 169.131 L
357.993 158.081 L
358.355 177.216 L
358.717 165.995 L
359.078 167.391 L
359.44 178.441 L
359.802 172.218 L
360.163 158.326 L
360.525 187.359 L
360.887 181.65 L
361.248 166.436 L
361.61 167.367 L
361.972 185.228 L
362.333 180.818 L
362.695 158.669 L
363.057 180.499 L
363.418 206.396 L
363.78 183.709 L
364.142 167.514 L
364.503 169.964 L
364.865 147.669 L
365.227 163.178 L
365.588 172.438 L
365.95 158.278 L
366.312 205.807 L
366.673 226.437 L
367.035 205.783 L
367.397 197.747 L
367.758 210.242 L
368.12 178.515 L
368.482 202.941 L
368.843 181.749 L
369.205 183.684 L
369.567 205.342 L
369.928 221.61 L
370.29 192.675 L
370.652 191.597 L
371.013 184.272 L
371.375 181.503 L
371.737 189.441 L
372.098 187.457 L
372.46 186.33 L
372.822 212.545 L
373.183 185.424 L
373.545 180.499 L
373.907 177.804 L
374.268 179.299 L
374.63 177.804 L
S
GR
GS
[0.75 0 0 0.75 0 0] CT
0 0.447 0.741 RC
2 LJ
N
374.63 177.804 M
374.992 171.85 L
375.353 161.512 L
375.715 215.118 L
376.077 223.203 L
376.438 182.778 L
376.8 206.885 L
377.162 187.628 L
377.523 189.785 L
377.885 183.831 L
378.247 175.452 L
378.608 168.763 L
378.97 203.431 L
379.332 215.73 L
379.693 170.16 L
380.055 187.506 L
380.417 174.962 L
380.778 165.162 L
381.14 171.459 L
381.502 180.671 L
381.863 195.199 L
382.225 204.95 L
382.587 215.95 L
382.948 204.215 L
383.31 175.035 L
383.672 167.906 L
384.033 187.212 L
384.395 163.913 L
384.757 193.582 L
385.118 217.347 L
385.48 196.694 L
385.842 173.663 L
386.203 190.446 L
386.565 159.356 L
386.927 152.937 L
387.288 202.868 L
387.65 196.277 L
388.012 196.253 L
388.373 186.306 L
388.735 209.164 L
389.097 180.376 L
389.458 193.166 L
389.82 150.976 L
390.182 159.503 L
390.543 179.715 L
390.905 166.289 L
391.267 210.119 L
391.628 196.253 L
391.99 170.234 L
392.352 177.828 L
S
GR
GS
[0.75 0 0 0.75 0 0] CT
0 0.447 0.741 RC
2 LJ
N
392.352 177.828 M
392.713 174.423 L
393.075 173.002 L
393.437 165.799 L
393.798 150.388 L
394.16 143.774 L
394.522 192.675 L
394.883 191.941 L
395.245 174.178 L
395.607 163.031 L
395.968 144.827 L
396.33 157.934 L
396.692 165.309 L
397.053 176.677 L
397.415 175.501 L
397.777 187.09 L
398.138 198.899 L
398.5 169.768 L
398.862 166.093 L
399.223 176.677 L
399.585 153.868 L
399.947 175.207 L
400.308 175.501 L
400.67 196.816 L
401.032 194.464 L
401.393 206.371 L
401.755 190.618 L
402.117 180.793 L
402.478 174.056 L
402.84 189.197 L
403.202 180.842 L
403.563 161.83 L
403.925 187.481 L
404.287 169.793 L
404.648 166.191 L
405.01 167.22 L
405.372 170.797 L
405.733 171.826 L
406.095 156.856 L
406.457 178.074 L
406.818 169.229 L
407.18 180.989 L
407.542 184.15 L
407.903 181.454 L
408.265 186.232 L
408.627 164.844 L
408.988 162.81 L
409.35 172.047 L
409.712 194.072 L
410.073 177.706 L
S
GR
GS
[0.75 0 0 0.75 0 0] CT
0 0.447 0.741 RC
2 LJ
N
410.073 177.706 M
410.435 198.433 L
410.797 194.44 L
411.158 167.171 L
411.52 199.094 L
411.882 197.184 L
412.243 186.894 L
412.605 178.441 L
412.967 199.388 L
413.328 210.781 L
413.69 233.958 L
414.052 237.168 L
414.413 233.517 L
414.775 257.674 L
415.137 276.784 L
415.498 281.341 L
415.86 282.37 L
416.222 290.431 L
416.583 287.809 L
416.945 302.705 L
417.307 284.085 L
417.668 262.133 L
418.03 234.424 L
418.392 253.386 L
418.753 250.692 L
419.115 266.788 L
419.477 237.829 L
419.838 261.031 L
420.2 259.364 L
420.562 221.414 L
420.923 233.811 L
421.285 196.13 L
421.647 223.251 L
422.008 266.935 L
422.37 248.266 L
422.732 262.868 L
423.093 215.069 L
423.455 234.913 L
423.817 203.333 L
424.178 201.201 L
424.54 217.959 L
424.902 213.084 L
425.263 244.346 L
425.625 224.452 L
425.987 235.747 L
426.348 261.496 L
426.71 242.876 L
427.072 232.782 L
427.433 223.447 L
427.795 229.793 L
S
GR
GS
[0.75 0 0 0.75 0 0] CT
0 0.447 0.741 RC
2 LJ
N
427.795 229.793 M
428.157 224.599 L
428.518 233.174 L
428.88 247.531 L
429.242 231.238 L
429.603 234.081 L
429.965 246.992 L
430.327 221.243 L
430.688 222.81 L
431.05 222.198 L
431.412 228.151 L
431.773 237.609 L
432.135 254.293 L
432.497 247.874 L
432.858 260.736 L
433.22 218.768 L
433.582 212.422 L
433.943 220.875 L
434.305 210.34 L
434.667 227.122 L
435.028 239.275 L
435.39 265.636 L
435.752 222.075 L
436.113 212.545 L
436.475 205.66 L
436.837 191.206 L
437.198 221.071 L
437.56 215.975 L
437.922 223.153 L
438.283 224.722 L
438.645 212.202 L
439.007 234.497 L
439.368 202.402 L
439.73 187.898 L
440.092 192.308 L
440.453 199.315 L
440.815 195.419 L
441.177 210.977 L
441.538 217.862 L
441.9 218.425 L
442.262 226.338 L
442.623 205.465 L
442.985 211.467 L
443.347 210.438 L
443.708 190.887 L
444.07 200.981 L
444.432 221.316 L
444.793 233.125 L
445.155 243.317 L
445.517 217.396 L
S
GR
GS
[0.75 0 0 0.75 0 0] CT
0 0.447 0.741 RC
2 LJ
N
445.517 217.396 M
445.878 202.696 L
446.24 213.746 L
446.602 200.565 L
446.963 198.997 L
447.325 218.303 L
447.687 224.722 L
448.048 230.503 L
448.41 250.765 L
448.772 224.575 L
449.133 206.396 L
449.495 222.247 L
449.857 229.499 L
450.218 197.281 L
450.58 221.757 L
450.942 219.087 L
451.303 211.981 L
451.665 234.228 L
452.027 229.328 L
452.388 228.813 L
452.75 220.997 L
453.112 202.426 L
453.473 195.86 L
453.835 218.523 L
454.197 223.962 L
454.558 231.312 L
454.92 212.619 L
455.282 214.824 L
455.643 205.906 L
456.005 188.045 L
456.367 202.304 L
456.728 223.717 L
457.09 253.73 L
457.452 248.683 L
457.813 240.867 L
458.175 263.725 L
458.537 247.947 L
458.898 244.738 L
459.26 227.025 L
459.622 236.065 L
459.983 227.71 L
460.345 239.495 L
460.707 247.825 L
461.068 245.743 L
461.43 240.206 L
461.792 232.39 L
462.153 215.901 L
462.515 238.588 L
462.877 233.688 L
463.238 228.862 L
S
GR
GS
[0.75 0 0 0.75 0 0] CT
0 0.447 0.741 RC
2 LJ
N
463.238 228.862 M
463.6 238.515 L
463.962 243.734 L
464.323 247.556 L
464.685 259.953 L
465.047 225.824 L
465.408 217.69 L
465.77 245.596 L
466.132 223.815 L
466.493 220.532 L
466.855 227.735 L
467.217 260.516 L
467.578 256.572 L
467.94 258.654 L
468.302 247.85 L
468.663 228.2 L
469.025 216.931 L
469.387 236.31 L
469.748 223.203 L
470.11 227.343 L
470.472 265.342 L
470.833 249.001 L
471.195 238 L
471.557 249.809 L
471.918 230.013 L
472.28 217.225 L
472.642 216.244 L
473.003 234.031 L
473.365 258.605 L
473.727 265.342 L
474.088 250.348 L
474.45 255.102 L
474.812 236.972 L
475.173 218.67 L
475.535 217.715 L
475.897 232.586 L
476.258 242.729 L
476.62 257.061 L
476.982 254.048 L
477.343 250.569 L
477.705 225.53 L
478.067 238.147 L
478.428 222.933 L
478.79 216.612 L
479.152 210.193 L
479.513 241.872 L
479.875 249.075 L
480.237 247.874 L
480.598 251.525 L
S
GR
%%Trailer
%%Pages: 1
%%EOF
