%!PS-Adobe-3.0 EPSF-3.0
%%Creator: (MATLAB, The Mathworks, Inc. Version 8.5.0.197613 \(R2015a\). Operating System: Windows 8)
%%Title: (C:/Users/aleja/Desktop/TFG/Documentaci\363n/Obtenci\363n de datos/matlab_plot/plots/Jota11-53.eps)
%%CreationDate: 2019-05-22T00:22:23
%%Pages: (atend)
%%BoundingBox: 0 0 420 315
%%LanguageLevel: 2
%%EndComments
%%BeginProlog
%%BeginResource: procset (Apache XML Graphics Std ProcSet) 1.2 0
%%Version: 1.2 0
%%Copyright: (Copyright 2001-2003,2010 The Apache Software Foundation. License terms: http://www.apache.org/licenses/LICENSE-2.0)
/bd{bind def}bind def
/ld{load def}bd
/GR/grestore ld
/M/moveto ld
/LJ/setlinejoin ld
/C/curveto ld
/f/fill ld
/LW/setlinewidth ld
/GC/setgray ld
/t/show ld
/N/newpath ld
/CT/concat ld
/cp/closepath ld
/S/stroke ld
/L/lineto ld
/CC/setcmykcolor ld
/A/ashow ld
/GS/gsave ld
/RC/setrgbcolor ld
/RM/rmoveto ld
/ML/setmiterlimit ld
/re {4 2 roll M
1 index 0 rlineto
0 exch rlineto
neg 0 rlineto
cp } bd
/_ctm matrix def
/_tm matrix def
/BT { _ctm currentmatrix pop matrix _tm copy pop 0 0 moveto } bd
/ET { _ctm setmatrix } bd
/iTm { _ctm setmatrix _tm concat } bd
/Tm { _tm astore pop iTm 0 0 moveto } bd
/ux 0.0 def
/uy 0.0 def
/F {
  /Tp exch def
  /Tf exch def
  Tf findfont Tp scalefont setfont
  /cf Tf def  /cs Tp def
} bd
/ULS {currentpoint /uy exch def /ux exch def} bd
/ULE {
  /Tcx currentpoint pop def
  gsave
  newpath
  cf findfont cs scalefont dup
  /FontMatrix get 0 get /Ts exch def /FontInfo get dup
  /UnderlinePosition get Ts mul /To exch def
  /UnderlineThickness get Ts mul /Tt exch def
  ux uy To add moveto  Tcx uy To add lineto
  Tt setlinewidth stroke
  grestore
} bd
/OLE {
  /Tcx currentpoint pop def
  gsave
  newpath
  cf findfont cs scalefont dup
  /FontMatrix get 0 get /Ts exch def /FontInfo get dup
  /UnderlinePosition get Ts mul /To exch def
  /UnderlineThickness get Ts mul /Tt exch def
  ux uy To add cs add moveto Tcx uy To add cs add lineto
  Tt setlinewidth stroke
  grestore
} bd
/SOE {
  /Tcx currentpoint pop def
  gsave
  newpath
  cf findfont cs scalefont dup
  /FontMatrix get 0 get /Ts exch def /FontInfo get dup
  /UnderlinePosition get Ts mul /To exch def
  /UnderlineThickness get Ts mul /Tt exch def
  ux uy To add cs 10 mul 26 idiv add moveto Tcx uy To add cs 10 mul 26 idiv add lineto
  Tt setlinewidth stroke
  grestore
} bd
/QT {
/Y22 exch store
/X22 exch store
/Y21 exch store
/X21 exch store
currentpoint
/Y21 load 2 mul add 3 div exch
/X21 load 2 mul add 3 div exch
/X21 load 2 mul /X22 load add 3 div
/Y21 load 2 mul /Y22 load add 3 div
/X22 load /Y22 load curveto
} bd
/SSPD {
dup length /d exch dict def
{
/v exch def
/k exch def
currentpagedevice k known {
/cpdv currentpagedevice k get def
v cpdv ne {
/upd false def
/nullv v type /nulltype eq def
/nullcpdv cpdv type /nulltype eq def
nullv nullcpdv or
{
/upd true def
} {
/sametype v type cpdv type eq def
sametype {
v type /arraytype eq {
/vlen v length def
/cpdvlen cpdv length def
vlen cpdvlen eq {
0 1 vlen 1 sub {
/i exch def
/obj v i get def
/cpdobj cpdv i get def
obj cpdobj ne {
/upd true def
exit
} if
} for
} {
/upd true def
} ifelse
} {
v type /dicttype eq {
v {
/dv exch def
/dk exch def
/cpddv cpdv dk get def
dv cpddv ne {
/upd true def
exit
} if
} forall
} {
/upd true def
} ifelse
} ifelse
} if
} ifelse
upd true eq {
d k v put
} if
} if
} if
} forall
d length 0 gt {
d setpagedevice
} if
} bd
%%EndResource
%%BeginResource: procset (Apache XML Graphics EPS ProcSet) 1.0 0
%%Version: 1.0 0
%%Copyright: (Copyright 2002-2003 The Apache Software Foundation. License terms: http://www.apache.org/licenses/LICENSE-2.0)
/BeginEPSF { %def
/b4_Inc_state save def         % Save state for cleanup
/dict_count countdictstack def % Count objects on dict stack
/op_count count 1 sub def      % Count objects on operand stack
userdict begin                 % Push userdict on dict stack
/showpage { } def              % Redefine showpage, { } = null proc
0 setgray 0 setlinecap         % Prepare graphics state
1 setlinewidth 0 setlinejoin
10 setmiterlimit [ ] 0 setdash newpath
/languagelevel where           % If level not equal to 1 then
{pop languagelevel             % set strokeadjust and
1 ne                           % overprint to their defaults.
{false setstrokeadjust false setoverprint
} if
} if
} bd
/EndEPSF { %def
count op_count sub {pop} repeat            % Clean up stacks
countdictstack dict_count sub {end} repeat
b4_Inc_state restore
} bd
%%EndResource
%FOPBeginFontDict
%%IncludeResource: font Courier-Bold
%%IncludeResource: font Helvetica
%%IncludeResource: font Courier-BoldOblique
%%IncludeResource: font Courier-Oblique
%%IncludeResource: font Times-Roman
%%IncludeResource: font Helvetica-BoldOblique
%%IncludeResource: font Helvetica-Bold
%%IncludeResource: font Helvetica-Oblique
%%IncludeResource: font Times-BoldItalic
%%IncludeResource: font Courier
%%IncludeResource: font Times-Italic
%%IncludeResource: font Times-Bold
%%IncludeResource: font Symbol
%%IncludeResource: font ZapfDingbats
%FOPEndFontDict
%%BeginResource: encoding WinAnsiEncoding
/WinAnsiEncoding [
/.notdef /.notdef /.notdef /.notdef /.notdef
/.notdef /.notdef /.notdef /.notdef /.notdef
/.notdef /.notdef /.notdef /.notdef /.notdef
/.notdef /.notdef /.notdef /.notdef /.notdef
/.notdef /.notdef /.notdef /.notdef /.notdef
/.notdef /.notdef /.notdef /.notdef /.notdef
/.notdef /.notdef /space /exclam /quotedbl
/numbersign /dollar /percent /ampersand /quotesingle
/parenleft /parenright /asterisk /plus /comma
/hyphen /period /slash /zero /one
/two /three /four /five /six
/seven /eight /nine /colon /semicolon
/less /equal /greater /question /at
/A /B /C /D /E
/F /G /H /I /J
/K /L /M /N /O
/P /Q /R /S /T
/U /V /W /X /Y
/Z /bracketleft /backslash /bracketright /asciicircum
/underscore /quoteleft /a /b /c
/d /e /f /g /h
/i /j /k /l /m
/n /o /p /q /r
/s /t /u /v /w
/x /y /z /braceleft /bar
/braceright /asciitilde /bullet /Euro /bullet
/quotesinglbase /florin /quotedblbase /ellipsis /dagger
/daggerdbl /circumflex /perthousand /Scaron /guilsinglleft
/OE /bullet /Zcaron /bullet /bullet
/quoteleft /quoteright /quotedblleft /quotedblright /bullet
/endash /emdash /asciitilde /trademark /scaron
/guilsinglright /oe /bullet /zcaron /Ydieresis
/space /exclamdown /cent /sterling /currency
/yen /brokenbar /section /dieresis /copyright
/ordfeminine /guillemotleft /logicalnot /sfthyphen /registered
/macron /degree /plusminus /twosuperior /threesuperior
/acute /mu /paragraph /middot /cedilla
/onesuperior /ordmasculine /guillemotright /onequarter /onehalf
/threequarters /questiondown /Agrave /Aacute /Acircumflex
/Atilde /Adieresis /Aring /AE /Ccedilla
/Egrave /Eacute /Ecircumflex /Edieresis /Igrave
/Iacute /Icircumflex /Idieresis /Eth /Ntilde
/Ograve /Oacute /Ocircumflex /Otilde /Odieresis
/multiply /Oslash /Ugrave /Uacute /Ucircumflex
/Udieresis /Yacute /Thorn /germandbls /agrave
/aacute /acircumflex /atilde /adieresis /aring
/ae /ccedilla /egrave /eacute /ecircumflex
/edieresis /igrave /iacute /icircumflex /idieresis
/eth /ntilde /ograve /oacute /ocircumflex
/otilde /odieresis /divide /oslash /ugrave
/uacute /ucircumflex /udieresis /yacute /thorn
/ydieresis
] def
%%EndResource
%FOPBeginFontReencode
/Courier-Bold findfont
dup length dict begin
  {1 index /FID ne {def} {pop pop} ifelse} forall
  /Encoding WinAnsiEncoding def
  currentdict
end
/Courier-Bold exch definefont pop
/Helvetica findfont
dup length dict begin
  {1 index /FID ne {def} {pop pop} ifelse} forall
  /Encoding WinAnsiEncoding def
  currentdict
end
/Helvetica exch definefont pop
/Courier-BoldOblique findfont
dup length dict begin
  {1 index /FID ne {def} {pop pop} ifelse} forall
  /Encoding WinAnsiEncoding def
  currentdict
end
/Courier-BoldOblique exch definefont pop
/Courier-Oblique findfont
dup length dict begin
  {1 index /FID ne {def} {pop pop} ifelse} forall
  /Encoding WinAnsiEncoding def
  currentdict
end
/Courier-Oblique exch definefont pop
/Times-Roman findfont
dup length dict begin
  {1 index /FID ne {def} {pop pop} ifelse} forall
  /Encoding WinAnsiEncoding def
  currentdict
end
/Times-Roman exch definefont pop
/Helvetica-BoldOblique findfont
dup length dict begin
  {1 index /FID ne {def} {pop pop} ifelse} forall
  /Encoding WinAnsiEncoding def
  currentdict
end
/Helvetica-BoldOblique exch definefont pop
/Helvetica-Bold findfont
dup length dict begin
  {1 index /FID ne {def} {pop pop} ifelse} forall
  /Encoding WinAnsiEncoding def
  currentdict
end
/Helvetica-Bold exch definefont pop
/Helvetica-Oblique findfont
dup length dict begin
  {1 index /FID ne {def} {pop pop} ifelse} forall
  /Encoding WinAnsiEncoding def
  currentdict
end
/Helvetica-Oblique exch definefont pop
/Times-BoldItalic findfont
dup length dict begin
  {1 index /FID ne {def} {pop pop} ifelse} forall
  /Encoding WinAnsiEncoding def
  currentdict
end
/Times-BoldItalic exch definefont pop
/Courier findfont
dup length dict begin
  {1 index /FID ne {def} {pop pop} ifelse} forall
  /Encoding WinAnsiEncoding def
  currentdict
end
/Courier exch definefont pop
/Times-Italic findfont
dup length dict begin
  {1 index /FID ne {def} {pop pop} ifelse} forall
  /Encoding WinAnsiEncoding def
  currentdict
end
/Times-Italic exch definefont pop
/Times-Bold findfont
dup length dict begin
  {1 index /FID ne {def} {pop pop} ifelse} forall
  /Encoding WinAnsiEncoding def
  currentdict
end
/Times-Bold exch definefont pop
%FOPEndFontReencode
%%EndProlog
%%Page: 1 1
%%PageBoundingBox: 0 0 420 315
%%BeginPageSetup
[1 0 0 -1 0 315] CT
%%EndPageSetup
GS
[0.75 0 0 0.75 0 0] CT
1 GC
N
0 0 560 420 re
f
GR
GS
[0.75 0 0 0.75 0 0] CT
1 GC
N
0 0 560 420 re
f
GR
GS
[0.75 0 0 0.75 0 0] CT
1 GC
N
73 374 M
507 374 L
507 31 L
73 31 L
cp
f
GR
GS
[0.75 0 0 0.75 0 0] CT
0.149 GC
2 setlinecap
10.0 ML
N
73 374 M
507 374 L
S
GR
GS
[0.75 0 0 0.75 0 0] CT
0.149 GC
2 setlinecap
10.0 ML
N
73 31 M
507 31 L
S
GR
GS
[0.75 0 0 0.75 0 0] CT
0.149 GC
2 setlinecap
10.0 ML
N
73 374 M
73 369.66 L
S
GR
GS
[0.75 0 0 0.75 0 0] CT
0.149 GC
2 setlinecap
10.0 ML
N
145.333 374 M
145.333 369.66 L
S
GR
GS
[0.75 0 0 0.75 0 0] CT
0.149 GC
2 setlinecap
10.0 ML
N
217.667 374 M
217.667 369.66 L
S
GR
GS
[0.75 0 0 0.75 0 0] CT
0.149 GC
2 setlinecap
10.0 ML
N
290 374 M
290 369.66 L
S
GR
GS
[0.75 0 0 0.75 0 0] CT
0.149 GC
2 setlinecap
10.0 ML
N
362.333 374 M
362.333 369.66 L
S
GR
GS
[0.75 0 0 0.75 0 0] CT
0.149 GC
2 setlinecap
10.0 ML
N
434.667 374 M
434.667 369.66 L
S
GR
GS
[0.75 0 0 0.75 0 0] CT
0.149 GC
2 setlinecap
10.0 ML
N
507 374 M
507 369.66 L
S
GR
GS
[0.75 0 0 0.75 0 0] CT
0.149 GC
2 setlinecap
10.0 ML
N
73 31 M
73 35.34 L
S
GR
GS
[0.75 0 0 0.75 0 0] CT
0.149 GC
2 setlinecap
10.0 ML
N
145.333 31 M
145.333 35.34 L
S
GR
GS
[0.75 0 0 0.75 0 0] CT
0.149 GC
2 setlinecap
10.0 ML
N
217.667 31 M
217.667 35.34 L
S
GR
GS
[0.75 0 0 0.75 0 0] CT
0.149 GC
2 setlinecap
10.0 ML
N
290 31 M
290 35.34 L
S
GR
GS
[0.75 0 0 0.75 0 0] CT
0.149 GC
2 setlinecap
10.0 ML
N
362.333 31 M
362.333 35.34 L
S
GR
GS
[0.75 0 0 0.75 0 0] CT
0.149 GC
2 setlinecap
10.0 ML
N
434.667 31 M
434.667 35.34 L
S
GR
GS
[0.75 0 0 0.75 0 0] CT
0.149 GC
2 setlinecap
10.0 ML
N
507 31 M
507 35.34 L
S
GR
GS
[0.75 0 0 0.75 54.75 284.49989] CT
0.149 GC
/Helvetica 13 F
GS
[1 0 0 1 0 0] CT
-4 14 moveto 
1 -1 scale
(0) t 
GR
GR
GS
[0.75 0 0 0.75 109 284.49989] CT
0.149 GC
/Helvetica 13 F
GS
[1 0 0 1 0 0] CT
-11 14 moveto 
1 -1 scale
(200) t 
GR
GR
GS
[0.75 0 0 0.75 163.25 284.49989] CT
0.149 GC
/Helvetica 13 F
GS
[1 0 0 1 0 0] CT
-11 14 moveto 
1 -1 scale
(400) t 
GR
GR
GS
[0.75 0 0 0.75 217.5 284.49989] CT
0.149 GC
/Helvetica 13 F
GS
[1 0 0 1 0 0] CT
-11 14 moveto 
1 -1 scale
(600) t 
GR
GR
GS
[0.75 0 0 0.75 271.75001 284.49989] CT
0.149 GC
/Helvetica 13 F
GS
[1 0 0 1 0 0] CT
-11 14 moveto 
1 -1 scale
(800) t 
GR
GR
GS
[0.75 0 0 0.75 325.99999 284.49989] CT
0.149 GC
/Helvetica 13 F
GS
[1 0 0 1 0 0] CT
-14.5 14 moveto 
1 -1 scale
(1000) t 
GR
GR
GS
[0.75 0 0 0.75 380.25 284.49989] CT
0.149 GC
/Helvetica 13 F
GS
[1 0 0 1 0 0] CT
-14.5 14 moveto 
1 -1 scale
(1200) t 
GR
GR
GS
[0.75 0 0 0.75 0 0] CT
0.149 GC
2 setlinecap
10.0 ML
N
73 374 M
73 31 L
S
GR
GS
[0.75 0 0 0.75 0 0] CT
0.149 GC
2 setlinecap
10.0 ML
N
507 374 M
507 31 L
S
GR
GS
[0.75 0 0 0.75 0 0] CT
0.149 GC
2 setlinecap
10.0 ML
N
73 374 M
77.34 374 L
S
GR
GS
[0.75 0 0 0.75 0 0] CT
0.149 GC
2 setlinecap
10.0 ML
N
73 331.125 M
77.34 331.125 L
S
GR
GS
[0.75 0 0 0.75 0 0] CT
0.149 GC
2 setlinecap
10.0 ML
N
73 288.25 M
77.34 288.25 L
S
GR
GS
[0.75 0 0 0.75 0 0] CT
0.149 GC
2 setlinecap
10.0 ML
N
73 245.375 M
77.34 245.375 L
S
GR
GS
[0.75 0 0 0.75 0 0] CT
0.149 GC
2 setlinecap
10.0 ML
N
73 202.5 M
77.34 202.5 L
S
GR
GS
[0.75 0 0 0.75 0 0] CT
0.149 GC
2 setlinecap
10.0 ML
N
73 159.625 M
77.34 159.625 L
S
GR
GS
[0.75 0 0 0.75 0 0] CT
0.149 GC
2 setlinecap
10.0 ML
N
73 116.75 M
77.34 116.75 L
S
GR
GS
[0.75 0 0 0.75 0 0] CT
0.149 GC
2 setlinecap
10.0 ML
N
73 73.875 M
77.34 73.875 L
S
GR
GS
[0.75 0 0 0.75 0 0] CT
0.149 GC
2 setlinecap
10.0 ML
N
73 31 M
77.34 31 L
S
GR
GS
[0.75 0 0 0.75 0 0] CT
0.149 GC
2 setlinecap
10.0 ML
N
507 374 M
502.66 374 L
S
GR
GS
[0.75 0 0 0.75 0 0] CT
0.149 GC
2 setlinecap
10.0 ML
N
507 331.125 M
502.66 331.125 L
S
GR
GS
[0.75 0 0 0.75 0 0] CT
0.149 GC
2 setlinecap
10.0 ML
N
507 288.25 M
502.66 288.25 L
S
GR
GS
[0.75 0 0 0.75 0 0] CT
0.149 GC
2 setlinecap
10.0 ML
N
507 245.375 M
502.66 245.375 L
S
GR
GS
[0.75 0 0 0.75 0 0] CT
0.149 GC
2 setlinecap
10.0 ML
N
507 202.5 M
502.66 202.5 L
S
GR
GS
[0.75 0 0 0.75 0 0] CT
0.149 GC
2 setlinecap
10.0 ML
N
507 159.625 M
502.66 159.625 L
S
GR
GS
[0.75 0 0 0.75 0 0] CT
0.149 GC
2 setlinecap
10.0 ML
N
507 116.75 M
502.66 116.75 L
S
GR
GS
[0.75 0 0 0.75 0 0] CT
0.149 GC
2 setlinecap
10.0 ML
N
507 73.875 M
502.66 73.875 L
S
GR
GS
[0.75 0 0 0.75 0 0] CT
0.149 GC
2 setlinecap
10.0 ML
N
507 31 M
502.66 31 L
S
GR
GS
[0.75 0 0 0.75 50.75 280.5] CT
0.149 GC
/Helvetica 13 F
GS
[1 0 0 1 0 0] CT
-22 5.5 moveto 
1 -1 scale
(530) t 
GR
GR
GS
[0.75 0 0 0.75 50.75 248.34375] CT
0.149 GC
/Helvetica 13 F
GS
[1 0 0 1 0 0] CT
-22 5.5 moveto 
1 -1 scale
(540) t 
GR
GR
GS
[0.75 0 0 0.75 50.75 216.1875] CT
0.149 GC
/Helvetica 13 F
GS
[1 0 0 1 0 0] CT
-22 5.5 moveto 
1 -1 scale
(550) t 
GR
GR
GS
[0.75 0 0 0.75 50.75 184.03125] CT
0.149 GC
/Helvetica 13 F
GS
[1 0 0 1 0 0] CT
-22 5.5 moveto 
1 -1 scale
(560) t 
GR
GR
GS
[0.75 0 0 0.75 50.75 151.875] CT
0.149 GC
/Helvetica 13 F
GS
[1 0 0 1 0 0] CT
-22 5.5 moveto 
1 -1 scale
(570) t 
GR
GR
GS
[0.75 0 0 0.75 50.75 119.71875] CT
0.149 GC
/Helvetica 13 F
GS
[1 0 0 1 0 0] CT
-22 5.5 moveto 
1 -1 scale
(580) t 
GR
GR
GS
[0.75 0 0 0.75 50.75 87.5625] CT
0.149 GC
/Helvetica 13 F
GS
[1 0 0 1 0 0] CT
-22 5.5 moveto 
1 -1 scale
(590) t 
GR
GR
GS
[0.75 0 0 0.75 50.75 55.40625] CT
0.149 GC
/Helvetica 13 F
GS
[1 0 0 1 0 0] CT
-22 5.5 moveto 
1 -1 scale
(600) t 
GR
GR
GS
[0.75 0 0 0.75 50.75 23.25] CT
0.149 GC
/Helvetica 13 F
GS
[1 0 0 1 0 0] CT
-22 5.5 moveto 
1 -1 scale
(610) t 
GR
GR
GS
[0.75 0 0 0.75 0 0] CT
0 0.447 0.741 RC
2 LJ
N
73.362 132.442 M
73.723 133.471 L
74.085 132.142 L
74.447 132.185 L
74.808 132.571 L
75.17 132.399 L
75.532 134.972 L
75.893 137.93 L
76.255 138.316 L
76.617 138.102 L
76.978 137.887 L
77.34 140.374 L
77.702 139.988 L
78.063 140.932 L
78.425 140.588 L
78.787 141.575 L
79.148 141.617 L
79.51 142.346 L
79.872 144.919 L
80.233 146.419 L
80.595 143.547 L
80.957 138.659 L
81.318 131.027 L
81.68 133.986 L
82.042 136.987 L
82.403 142.904 L
82.765 151.95 L
83.127 147.02 L
83.488 135.915 L
83.85 137.073 L
84.212 133.171 L
84.573 133.9 L
84.935 134.586 L
85.297 135.186 L
85.658 135.058 L
86.02 135.658 L
86.382 132.314 L
86.743 127.469 L
87.105 124.939 L
87.467 125.754 L
87.828 127.126 L
88.19 130.341 L
88.552 133.943 L
88.913 130.813 L
89.275 132.056 L
89.637 133.3 L
89.998 134.715 L
90.36 138.831 L
90.722 141.532 L
91.083 145.562 L
S
GR
GS
[0.75 0 0 0.75 0 0] CT
0 0.447 0.741 RC
2 LJ
N
91.083 145.562 M
91.445 146.291 L
91.807 149.206 L
92.168 152.937 L
92.53 132.871 L
92.892 88.281 L
93.253 60.455 L
93.615 57.968 L
93.977 70.231 L
94.338 72.589 L
94.7 76.876 L
95.062 83.522 L
95.423 95.141 L
95.785 109.933 L
96.147 120.866 L
96.508 127.897 L
96.87 136.773 L
97.232 152.508 L
97.593 157.138 L
97.955 156.667 L
98.317 155.809 L
98.678 151.693 L
99.04 149.121 L
99.402 147.706 L
99.763 146.677 L
100.125 144.747 L
100.487 143.247 L
100.848 142.432 L
101.21 142.304 L
101.572 142.346 L
101.933 143.375 L
102.295 143.375 L
102.657 143.204 L
103.018 144.876 L
103.38 142.561 L
103.742 141.961 L
104.103 141.103 L
104.465 141.317 L
104.827 139.259 L
105.188 137.33 L
105.55 137.459 L
105.912 137.03 L
106.273 136.773 L
106.635 137.116 L
106.997 137.073 L
107.358 136.901 L
107.72 142.132 L
108.082 143.418 L
108.443 139.56 L
108.805 140.503 L
S
GR
GS
[0.75 0 0 0.75 0 0] CT
0 0.447 0.741 RC
2 LJ
N
108.805 140.503 M
109.167 139.903 L
109.528 140.031 L
109.89 140.374 L
110.252 139.774 L
110.613 140.717 L
110.975 138.016 L
111.337 135.701 L
111.698 134.8 L
112.06 136.558 L
112.422 139.302 L
112.783 134.586 L
113.145 132.314 L
113.507 132.828 L
113.868 132.442 L
114.23 132.485 L
114.592 132.914 L
114.953 132.528 L
115.315 133.386 L
115.677 134.372 L
116.038 134.8 L
116.4 134.457 L
116.762 135.486 L
117.123 133.428 L
117.485 131.628 L
117.847 132.013 L
118.208 131.928 L
118.57 131.713 L
118.932 132.314 L
119.293 133.6 L
119.655 133.9 L
120.017 133.729 L
120.378 133.557 L
120.74 133.943 L
121.102 134.586 L
121.463 137.502 L
121.825 137.759 L
122.187 137.673 L
122.548 136.858 L
122.91 136.344 L
123.272 135.572 L
123.633 132.699 L
123.995 131.928 L
124.357 131.971 L
124.718 132.442 L
125.08 133.343 L
125.442 133.3 L
125.803 133.3 L
126.165 133.686 L
126.527 133.557 L
S
GR
GS
[0.75 0 0 0.75 0 0] CT
0 0.447 0.741 RC
2 LJ
N
126.527 133.557 M
126.888 132.871 L
127.25 132.914 L
127.612 136.087 L
127.973 136.301 L
128.335 137.33 L
128.697 139.945 L
129.058 140.932 L
129.42 132.485 L
129.782 130.084 L
130.143 128.24 L
130.505 128.026 L
130.867 128.455 L
131.228 128.626 L
131.59 129.956 L
131.952 129.312 L
132.313 128.541 L
132.675 127.94 L
133.037 130.813 L
133.398 130.556 L
133.76 130.641 L
134.122 131.156 L
134.483 131.713 L
134.845 130.942 L
135.207 134.5 L
135.568 135.872 L
135.93 142.732 L
136.292 142.346 L
136.653 140.331 L
137.015 141.489 L
137.377 139.688 L
137.738 137.673 L
138.1 137.887 L
138.462 138.488 L
138.823 138.616 L
139.185 138.488 L
139.547 139.345 L
139.908 143.676 L
140.27 142.561 L
140.632 140.031 L
140.993 140.374 L
141.355 140.031 L
141.717 140.031 L
142.078 140.932 L
142.44 136.901 L
142.802 129.398 L
143.163 66.543 L
143.525 83.393 L
143.887 92.011 L
144.248 84.165 L
S
GR
GS
[0.75 0 0 0.75 0 0] CT
0 0.447 0.741 RC
2 LJ
N
144.248 84.165 M
144.61 90.339 L
144.972 92.912 L
145.333 88.195 L
145.695 92.483 L
146.057 95.527 L
146.418 101.101 L
146.78 112.591 L
147.142 120.48 L
147.503 122.71 L
147.865 123.267 L
148.227 124.811 L
148.588 127.983 L
148.95 134.629 L
149.312 144.233 L
149.673 142.646 L
150.035 140.374 L
150.397 139.56 L
150.758 138.916 L
151.12 138.23 L
151.482 137.459 L
151.843 133.729 L
152.205 131.628 L
152.567 130.942 L
152.928 132.142 L
153.29 133.514 L
153.652 138.959 L
154.013 138.659 L
154.375 137.887 L
154.737 138.402 L
155.098 139.216 L
155.46 136.215 L
155.822 135.229 L
156.183 135.572 L
156.545 135.101 L
156.907 134.243 L
157.268 134.286 L
157.63 135.615 L
157.992 141.532 L
158.353 141.317 L
158.715 138.445 L
159.077 138.788 L
159.438 138.745 L
159.8 138.273 L
160.162 138.659 L
160.523 136.558 L
160.885 134.629 L
161.247 134.414 L
161.608 133.814 L
161.97 133.686 L
S
GR
GS
[0.75 0 0 0.75 0 0] CT
0 0.447 0.741 RC
2 LJ
N
161.97 133.686 M
162.332 133.557 L
162.693 133.6 L
163.055 133.9 L
163.417 134.758 L
163.778 135.744 L
164.14 135.443 L
164.502 135.744 L
164.863 135.572 L
165.225 135.787 L
165.587 135.658 L
165.948 135.486 L
166.31 135.229 L
166.672 134.543 L
167.033 134.243 L
167.395 133.643 L
167.757 133.214 L
168.118 133.643 L
168.48 133.729 L
168.842 133.857 L
169.203 134.157 L
169.565 134.5 L
169.927 134.372 L
170.288 134.372 L
170.65 135.958 L
171.012 136.173 L
171.373 136.044 L
171.735 136.087 L
172.097 136.601 L
172.458 136.987 L
172.82 137.201 L
173.182 137.373 L
173.543 136.43 L
173.905 136.215 L
174.267 136.644 L
174.628 136.558 L
174.99 136.044 L
175.352 135.358 L
175.713 136.472 L
176.075 141.532 L
176.437 144.018 L
176.798 140.417 L
177.16 139.045 L
177.522 138.873 L
177.883 138.873 L
178.245 139.602 L
178.607 136.73 L
178.968 134.886 L
179.33 141.36 L
179.692 137.587 L
S
GR
GS
[0.75 0 0 0.75 0 0] CT
0 0.447 0.741 RC
2 LJ
N
179.692 137.587 M
180.053 134.672 L
180.415 133.986 L
180.777 134.715 L
181.138 140.803 L
181.5 139.474 L
181.862 139.517 L
182.223 140.546 L
182.585 138.531 L
182.947 139.131 L
183.308 141.232 L
183.67 137.93 L
184.032 138.188 L
184.393 140.331 L
184.755 141.189 L
185.117 140.374 L
185.478 138.531 L
185.84 140.245 L
186.202 143.547 L
186.563 146.162 L
186.925 147.62 L
187.287 146.934 L
187.648 148.949 L
188.01 148.006 L
188.372 151.136 L
188.733 152.165 L
189.095 152.551 L
189.457 151.564 L
189.818 150.707 L
190.18 151.093 L
190.542 150.278 L
190.903 150.536 L
191.265 152.894 L
191.627 152.508 L
191.988 146.634 L
192.35 144.49 L
192.712 143.761 L
193.073 143.461 L
193.435 145.519 L
193.797 148.049 L
194.158 148.649 L
194.52 149.249 L
194.882 148.52 L
195.243 147.534 L
195.605 147.963 L
195.967 149.464 L
196.328 151.693 L
196.69 151.693 L
197.052 150.493 L
197.413 151.95 L
S
GR
GS
[0.75 0 0 0.75 0 0] CT
0 0.447 0.741 RC
2 LJ
N
197.413 151.95 M
197.775 153.537 L
198.137 152.165 L
198.498 151.736 L
198.86 147.92 L
199.222 149.121 L
199.583 142.046 L
199.945 120.009 L
200.307 115.335 L
200.668 116.579 L
201.03 120.137 L
201.392 127.512 L
201.753 137.887 L
202.115 139.56 L
202.477 140.331 L
202.838 142.261 L
203.2 145.133 L
203.562 147.706 L
203.923 146.377 L
204.285 146.334 L
204.647 147.663 L
205.008 145.991 L
205.37 145.433 L
205.732 146.291 L
206.093 144.404 L
206.455 145.133 L
206.817 148.135 L
207.178 146.977 L
207.54 145.819 L
207.902 145.176 L
208.263 144.619 L
208.625 143.418 L
208.987 142.818 L
209.348 142.175 L
209.71 141.789 L
210.072 142.304 L
210.433 142.218 L
210.795 143.418 L
211.157 143.29 L
211.518 144.061 L
211.88 144.962 L
212.242 146.762 L
212.603 145.905 L
212.965 157.095 L
213.327 150.321 L
213.688 153.322 L
214.05 155.938 L
214.412 155.38 L
214.773 157.181 L
215.135 161.469 L
S
GR
GS
[0.75 0 0 0.75 0 0] CT
0 0.447 0.741 RC
2 LJ
N
215.135 161.469 M
215.497 162.326 L
215.858 160.44 L
216.22 155.08 L
216.582 151.479 L
216.943 151.05 L
217.305 150.536 L
217.667 150.107 L
218.028 151.093 L
218.39 150.278 L
218.752 149.464 L
219.113 149.721 L
219.475 149.721 L
219.837 150.621 L
220.198 153.794 L
220.56 153.365 L
220.922 154.223 L
221.283 154.866 L
221.645 155.723 L
222.007 150.921 L
222.368 149.121 L
222.73 146.334 L
223.092 145.862 L
223.453 144.876 L
223.815 143.333 L
224.177 141.146 L
224.538 141.446 L
224.9 140.932 L
225.262 140.503 L
225.623 141.274 L
225.985 142.046 L
226.347 146.291 L
226.708 149.892 L
227.07 145.991 L
227.432 145.519 L
227.793 146.934 L
228.155 147.706 L
228.517 145.862 L
228.878 145.862 L
229.24 148.349 L
229.602 148.006 L
229.963 148.092 L
230.325 147.62 L
230.687 147.877 L
231.048 148.135 L
231.41 150.793 L
231.772 157.824 L
232.133 158.082 L
232.495 151.221 L
232.857 137.802 L
S
GR
GS
[0.75 0 0 0.75 0 0] CT
0 0.447 0.741 RC
2 LJ
N
232.857 137.802 M
233.218 137.673 L
233.58 137.459 L
233.942 139.088 L
234.303 142.518 L
234.665 142.861 L
235.027 139.945 L
235.388 135.101 L
235.75 134.2 L
236.112 134.543 L
236.473 134.715 L
236.835 135.272 L
237.197 135.701 L
237.558 138.659 L
237.92 144.49 L
238.282 153.151 L
238.643 139.474 L
239.005 57.025 L
239.367 33.873 L
239.728 48.836 L
240.09 60.112 L
240.452 67.83 L
240.813 66.2 L
241.175 56.339 L
241.537 58.783 L
241.898 62.985 L
242.26 52.609 L
242.622 47.292 L
242.983 51.065 L
243.345 55.439 L
243.707 63.199 L
244.068 68.13 L
244.43 72.546 L
244.792 81.078 L
245.153 91.625 L
245.515 92.397 L
245.877 93.812 L
246.238 97.542 L
246.6 100.715 L
246.962 101.872 L
247.323 104.316 L
247.685 103.373 L
248.047 104.316 L
248.408 105.26 L
248.77 104.616 L
249.132 104.959 L
249.493 106.546 L
249.855 108.432 L
250.217 107.317 L
250.578 106.331 L
S
GR
GS
[0.75 0 0 0.75 0 0] CT
0 0.447 0.741 RC
2 LJ
N
250.578 106.331 M
250.94 105.945 L
251.302 106.632 L
251.663 104.016 L
252.025 103.244 L
252.387 103.716 L
252.748 102.816 L
253.11 99.557 L
253.472 99.086 L
253.833 100.672 L
254.195 105.603 L
254.557 107.661 L
254.918 108.99 L
255.28 107.532 L
255.642 106.074 L
256.003 111.09 L
256.365 110.362 L
256.727 111.476 L
257.088 114.778 L
257.45 112.934 L
257.812 114.949 L
258.173 115.378 L
258.535 115.207 L
258.897 117.65 L
259.258 119.923 L
259.62 118.551 L
259.982 119.108 L
260.343 118.079 L
260.705 116.493 L
261.067 114.692 L
261.428 113.92 L
261.79 112.677 L
262.152 111.819 L
262.513 111.305 L
262.875 110.233 L
263.237 108.99 L
263.598 108.346 L
263.96 106.932 L
264.322 106.288 L
264.683 106.374 L
265.045 105.988 L
265.407 105.988 L
265.768 106.16 L
266.13 105.474 L
266.492 105.731 L
266.853 106.331 L
267.215 104.531 L
267.577 102.172 L
267.938 104.488 L
268.3 104.916 L
S
GR
GS
[0.75 0 0 0.75 0 0] CT
0 0.447 0.741 RC
2 LJ
N
268.3 104.916 M
268.662 104.273 L
269.023 105.217 L
269.385 106.76 L
269.747 106.46 L
270.108 106.16 L
270.47 107.146 L
270.832 108.904 L
271.193 108.132 L
271.555 108.561 L
271.917 109.418 L
272.278 114.692 L
272.64 114.563 L
273.002 111.648 L
273.363 111.262 L
273.725 112.205 L
274.087 112.848 L
274.448 112.077 L
274.81 107.275 L
275.172 97.885 L
275.533 103.073 L
275.895 112.806 L
276.257 106.589 L
276.618 110.19 L
276.98 105.045 L
277.342 106.46 L
277.703 106.674 L
278.065 116.879 L
278.427 106.246 L
278.788 104.531 L
279.15 103.973 L
279.512 101.444 L
279.873 103.287 L
280.235 116.964 L
280.597 106.117 L
280.958 103.93 L
281.32 104.445 L
281.682 103.202 L
282.043 103.673 L
282.405 108.261 L
282.767 114.049 L
283.128 101.658 L
283.49 103.116 L
283.852 103.416 L
284.213 105.26 L
284.575 103.544 L
284.937 105.774 L
285.298 113.835 L
285.66 104.188 L
286.022 102.43 L
S
GR
GS
[0.75 0 0 0.75 0 0] CT
0 0.447 0.741 RC
2 LJ
N
286.022 102.43 M
286.383 101.444 L
286.745 105.431 L
287.107 105.474 L
287.468 103.244 L
287.83 110.448 L
288.192 118.594 L
288.553 110.962 L
288.915 102.387 L
289.277 103.93 L
289.638 108.861 L
290 108.346 L
290.362 104.102 L
290.723 106.674 L
291.085 112.034 L
291.447 110.448 L
291.808 108.089 L
292.17 110.019 L
292.532 112.763 L
292.893 108.046 L
293.255 107.103 L
293.617 106.76 L
293.978 111.133 L
294.34 113.363 L
294.702 111.734 L
295.063 112.377 L
295.425 111.777 L
295.787 109.718 L
296.148 110.705 L
296.51 113.62 L
296.872 113.449 L
297.233 114.006 L
297.595 109.676 L
297.957 109.29 L
298.318 114.178 L
298.68 113.234 L
299.042 110.019 L
299.403 106.717 L
299.765 107.489 L
300.127 109.676 L
300.488 108.261 L
300.85 103.544 L
301.212 107.532 L
301.573 109.247 L
301.935 108.561 L
302.297 108.689 L
302.658 109.075 L
303.02 108.432 L
303.382 109.204 L
303.743 110.19 L
S
GR
GS
[0.75 0 0 0.75 0 0] CT
0 0.447 0.741 RC
2 LJ
N
303.743 110.19 M
304.105 111.476 L
304.467 112.677 L
304.828 113.449 L
305.19 114.52 L
305.552 114.863 L
305.913 113.663 L
306.275 112.977 L
306.637 112.591 L
306.998 111.991 L
307.36 111.948 L
307.722 112.162 L
308.083 111.991 L
308.445 111.09 L
308.807 110.79 L
309.168 110.747 L
309.53 109.29 L
309.892 109.161 L
310.253 108.947 L
310.615 108.518 L
310.977 108.389 L
311.338 109.29 L
311.7 108.475 L
312.062 108.389 L
312.423 108.818 L
312.785 108.904 L
313.147 109.033 L
313.508 108.389 L
313.87 108.004 L
314.232 107.703 L
314.593 108.004 L
314.955 108.004 L
315.317 108.089 L
315.678 108.089 L
316.04 112.505 L
316.402 114.049 L
316.763 114.092 L
317.125 110.019 L
317.487 113.663 L
317.848 112.677 L
318.21 112.42 L
318.572 115.292 L
318.933 115.764 L
319.295 113.148 L
319.657 115.721 L
320.018 115.164 L
320.38 113.792 L
320.742 111.562 L
321.103 110.576 L
321.465 109.847 L
S
GR
GS
[0.75 0 0 0.75 0 0] CT
0 0.447 0.741 RC
2 LJ
N
321.465 109.847 M
321.827 110.062 L
322.188 109.976 L
322.55 110.062 L
322.912 109.247 L
323.273 108.604 L
323.635 108.218 L
323.997 108.732 L
324.358 108.518 L
324.72 108.046 L
325.082 108.046 L
325.443 107.918 L
325.805 107.232 L
326.167 107.06 L
326.528 107.189 L
326.89 107.06 L
327.252 107.103 L
327.613 107.317 L
327.975 107.146 L
328.337 107.189 L
328.698 108.132 L
329.06 108.561 L
329.422 107.875 L
329.783 108.132 L
330.145 107.575 L
330.507 103.33 L
330.868 101.401 L
331.23 100.886 L
331.592 101.101 L
331.953 103.287 L
332.315 105.86 L
332.677 107.789 L
333.038 106.46 L
333.4 105.002 L
333.762 104.145 L
334.123 103.716 L
334.485 104.616 L
334.847 104.188 L
335.208 103.716 L
335.57 103.073 L
335.932 103.887 L
336.293 103.716 L
336.655 109.89 L
337.017 111.819 L
337.378 111.219 L
337.74 110.448 L
338.102 110.276 L
338.463 108.475 L
338.825 105.088 L
339.187 105.603 L
S
GR
GS
[0.75 0 0 0.75 0 0] CT
0 0.447 0.741 RC
2 LJ
N
339.187 105.603 M
339.548 105.517 L
339.91 105.345 L
340.272 105.388 L
340.633 108.99 L
340.995 111.005 L
341.357 109.033 L
341.718 108.561 L
342.08 108.604 L
342.442 108.046 L
342.803 107.489 L
343.165 107.703 L
343.527 105.56 L
343.888 103.802 L
344.25 104.188 L
344.612 104.102 L
344.973 105.345 L
345.335 107.703 L
345.697 109.761 L
346.058 107.789 L
346.42 106.031 L
346.782 107.232 L
347.143 106.374 L
347.505 106.16 L
347.867 105.988 L
348.228 105.517 L
348.59 105.474 L
348.952 106.074 L
349.313 106.374 L
349.675 106.246 L
350.037 106.331 L
350.398 106.203 L
350.76 105.388 L
351.122 104.488 L
351.483 105.174 L
351.845 105.26 L
352.207 105.345 L
352.568 105.517 L
352.93 106.503 L
353.292 106.674 L
353.653 107.532 L
354.015 107.746 L
354.377 107.532 L
354.738 107.532 L
355.1 107.36 L
355.462 107.232 L
355.823 106.974 L
356.185 107.403 L
356.547 107.789 L
356.908 107.403 L
S
GR
GS
[0.75 0 0 0.75 0 0] CT
0 0.447 0.741 RC
2 LJ
N
356.908 107.403 M
357.27 107.532 L
357.632 107.06 L
357.993 106.889 L
358.355 106.846 L
358.717 106.674 L
359.078 106.16 L
359.44 106.117 L
359.802 106.932 L
360.163 108.518 L
360.525 107.36 L
360.887 106.803 L
361.248 105.86 L
361.61 107.189 L
361.972 108.561 L
362.333 108.089 L
362.695 107.703 L
363.057 107.661 L
363.418 108.175 L
363.78 106.288 L
364.142 111.391 L
364.503 108.046 L
364.865 107.232 L
365.227 107.232 L
365.588 105.988 L
365.95 106.331 L
366.312 106.974 L
366.673 104.145 L
367.035 103.716 L
367.397 107.317 L
367.758 109.418 L
368.12 106.674 L
368.482 106.546 L
368.843 107.575 L
369.205 105.945 L
369.567 104.788 L
369.928 104.316 L
370.29 102.515 L
370.652 103.587 L
371.013 103.887 L
371.375 103.887 L
371.737 103.073 L
372.098 102.473 L
372.46 103.03 L
372.822 103.759 L
373.183 103.459 L
373.545 103.845 L
373.907 106.16 L
374.268 107.36 L
374.63 107.189 L
S
GR
GS
[0.75 0 0 0.75 0 0] CT
0 0.447 0.741 RC
2 LJ
N
374.63 107.189 M
374.992 106.546 L
375.353 106.246 L
375.715 106.889 L
376.077 103.802 L
376.438 103.416 L
376.8 102.816 L
377.162 102.687 L
377.523 102.987 L
377.885 102.987 L
378.247 103.587 L
378.608 104.145 L
378.97 104.188 L
379.332 104.188 L
379.693 104.359 L
380.055 105.774 L
380.417 108.604 L
380.778 108.818 L
381.14 107.789 L
381.502 107.575 L
381.863 107.146 L
382.225 107.232 L
382.587 110.019 L
382.948 107.575 L
383.31 107.446 L
383.672 107.232 L
384.033 108.175 L
384.395 104.959 L
384.757 104.316 L
385.118 104.273 L
385.48 105.217 L
385.842 104.702 L
386.203 104.831 L
386.565 105.088 L
386.927 105.774 L
387.288 108.132 L
387.65 107.918 L
388.012 107.36 L
388.373 107.017 L
388.735 106.546 L
389.097 104.445 L
389.458 101.958 L
389.82 102.001 L
390.182 104.316 L
390.543 107.403 L
390.905 105.688 L
391.267 103.887 L
391.628 104.659 L
391.99 104.016 L
392.352 102.944 L
S
GR
GS
[0.75 0 0 0.75 0 0] CT
0 0.447 0.741 RC
2 LJ
N
392.352 102.944 M
392.713 102.001 L
393.075 101.872 L
393.437 101.272 L
393.798 101.487 L
394.16 101.872 L
394.522 101.701 L
394.883 101.787 L
395.245 102.258 L
395.607 103.93 L
395.968 106.503 L
396.33 106.846 L
396.692 106.974 L
397.053 106.074 L
397.415 103.544 L
397.777 99.343 L
398.138 94.627 L
398.5 88.581 L
398.862 90.939 L
399.223 94.969 L
399.585 97.028 L
399.947 100.114 L
400.308 104.788 L
400.67 111.562 L
401.032 116.879 L
401.393 119.237 L
401.755 116.364 L
402.117 107.103 L
402.478 103.416 L
402.84 103.287 L
403.202 104.874 L
403.563 107.489 L
403.925 113.749 L
404.287 119.665 L
404.648 121.209 L
405.01 120.78 L
405.372 120.352 L
405.733 121.723 L
406.095 122.024 L
406.457 118.851 L
406.818 118.336 L
407.18 119.537 L
407.542 115.207 L
407.903 116.321 L
408.265 119.365 L
408.627 116.45 L
408.988 111.005 L
409.35 113.063 L
409.712 118.551 L
410.073 121.938 L
S
GR
GS
[0.75 0 0 0.75 0 0] CT
0 0.447 0.741 RC
2 LJ
N
410.073 121.938 M
410.435 119.365 L
410.797 121.423 L
411.158 123.01 L
411.52 124.296 L
411.882 126.697 L
412.243 130.213 L
412.605 129.527 L
412.967 129.227 L
413.328 128.198 L
413.69 128.412 L
414.052 128.927 L
414.413 129.998 L
414.775 130.641 L
415.137 130.384 L
415.498 130.77 L
415.86 129.998 L
416.222 127.769 L
416.583 127.212 L
416.945 126.526 L
417.307 122.281 L
417.668 121.638 L
418.03 121.166 L
418.392 120.309 L
418.753 119.322 L
419.115 118.765 L
419.477 117.565 L
419.838 117.136 L
420.2 116.45 L
420.562 115.249 L
420.923 115.292 L
421.285 115.507 L
421.647 116.15 L
422.008 115.249 L
422.37 115.035 L
422.732 115.85 L
423.093 115.164 L
423.455 114.263 L
423.817 113.62 L
424.178 114.263 L
424.54 113.92 L
424.902 113.62 L
425.263 113.534 L
425.625 113.363 L
425.987 112.848 L
426.348 112.377 L
426.71 111.862 L
427.072 111.391 L
427.433 111.348 L
427.795 111.048 L
S
GR
GS
[0.75 0 0 0.75 0 0] CT
0 0.447 0.741 RC
2 LJ
N
427.795 111.048 M
428.157 115.935 L
428.518 114.949 L
428.88 112.634 L
429.242 112.677 L
429.603 112.291 L
429.965 112.463 L
430.327 108.732 L
430.688 109.033 L
431.05 109.033 L
431.412 108.689 L
431.773 108.689 L
432.135 108.389 L
432.497 108.518 L
432.858 110.319 L
433.22 112.463 L
433.582 111.991 L
433.943 111.691 L
434.305 111.348 L
434.667 112.806 L
435.028 110.062 L
435.39 109.376 L
435.752 111.305 L
436.113 110.962 L
436.475 111.991 L
436.837 111.348 L
437.198 109.29 L
437.56 105.817 L
437.922 104.145 L
438.283 107.103 L
438.645 109.633 L
439.007 108.346 L
439.368 109.461 L
439.73 109.547 L
440.092 109.033 L
440.453 108.99 L
440.815 108.861 L
441.177 109.718 L
441.538 110.319 L
441.9 110.062 L
442.262 109.847 L
442.623 111.991 L
442.985 114.992 L
443.347 113.835 L
443.708 110.319 L
444.07 110.104 L
444.432 110.448 L
444.793 110.362 L
445.155 110.019 L
445.517 106.803 L
S
GR
GS
[0.75 0 0 0.75 0 0] CT
0 0.447 0.741 RC
2 LJ
N
445.517 106.803 M
445.878 106.589 L
446.24 106.331 L
446.602 106.246 L
446.963 106.889 L
447.325 106.803 L
447.687 105.603 L
448.048 105.431 L
448.41 105.474 L
448.772 105.474 L
449.133 106.889 L
449.495 106.417 L
449.857 105.517 L
450.218 104.659 L
450.58 103.973 L
450.942 106.674 L
451.303 108.261 L
451.665 114.649 L
452.027 118.379 L
452.388 114.649 L
452.75 100.672 L
453.112 69.416 L
453.473 63.799 L
453.835 68.173 L
454.197 82.75 L
454.558 91.625 L
454.92 101.744 L
455.282 112.377 L
455.643 120.394 L
456.005 120.137 L
456.367 120.566 L
456.728 120.223 L
457.09 120.78 L
457.452 121.381 L
457.813 118.98 L
458.175 118.122 L
458.537 118.122 L
458.898 115.549 L
459.26 114.863 L
459.622 114.52 L
459.983 115.421 L
460.345 124.296 L
460.707 157.395 L
461.068 191.695 L
461.43 292.109 L
461.792 348.275 L
462.153 335.241 L
462.515 308.701 L
462.877 297.382 L
463.238 266.298 L
S
GR
GS
[0.75 0 0 0.75 0 0] CT
0 0.447 0.741 RC
2 LJ
N
463.238 266.298 M
463.6 226.596 L
463.962 212.318 L
464.323 210.432 L
464.685 206.144 L
465.047 191.781 L
465.408 174.374 L
465.77 168.843 L
466.132 166.271 L
466.493 167.471 L
466.855 167.643 L
467.217 165.327 L
467.578 166.399 L
467.94 166.185 L
468.302 168.457 L
468.663 172.745 L
469.025 168.329 L
469.387 166.828 L
469.748 164.941 L
470.11 164.084 L
470.472 163.141 L
470.833 162.498 L
471.195 162.326 L
471.557 161.64 L
471.918 160.783 L
472.28 160.354 L
472.642 159.925 L
473.003 158.939 L
473.365 157.181 L
473.727 157.352 L
474.088 160.997 L
474.45 159.153 L
474.812 161.769 L
475.173 159.968 L
475.535 155.552 L
475.897 147.534 L
476.258 144.362 L
476.62 143.676 L
476.982 139.86 L
477.343 140.717 L
477.705 142.304 L
478.067 144.276 L
478.428 147.406 L
478.79 152.422 L
479.152 153.665 L
479.513 155.638 L
479.875 156.967 L
480.237 156.281 L
480.598 155.595 L
480.96 154.866 L
S
GR
GS
[0.75 0 0 0.75 0 0] CT
0 0.447 0.741 RC
2 LJ
N
480.96 154.866 M
481.322 155.766 L
481.683 156.452 L
482.045 155.423 L
S
GR
%%Trailer
%%Pages: 1
%%EOF
