%!PS-Adobe-3.0 EPSF-3.0
%%Creator: (MATLAB, The Mathworks, Inc. Version 8.5.0.197613 \(R2015a\). Operating System: Windows 8)
%%Title: (C:/Users/aleja/Desktop/TFG/Documentaci\363n/Obtenci\363n de datos/matlab_plot/plots/Jota11-58.eps)
%%CreationDate: 2019-05-22T11:17:05
%%Pages: (atend)
%%BoundingBox: 0 0 420 315
%%LanguageLevel: 2
%%EndComments
%%BeginProlog
%%BeginResource: procset (Apache XML Graphics Std ProcSet) 1.2 0
%%Version: 1.2 0
%%Copyright: (Copyright 2001-2003,2010 The Apache Software Foundation. License terms: http://www.apache.org/licenses/LICENSE-2.0)
/bd{bind def}bind def
/ld{load def}bd
/GR/grestore ld
/M/moveto ld
/LJ/setlinejoin ld
/C/curveto ld
/f/fill ld
/LW/setlinewidth ld
/GC/setgray ld
/t/show ld
/N/newpath ld
/CT/concat ld
/cp/closepath ld
/S/stroke ld
/L/lineto ld
/CC/setcmykcolor ld
/A/ashow ld
/GS/gsave ld
/RC/setrgbcolor ld
/RM/rmoveto ld
/ML/setmiterlimit ld
/re {4 2 roll M
1 index 0 rlineto
0 exch rlineto
neg 0 rlineto
cp } bd
/_ctm matrix def
/_tm matrix def
/BT { _ctm currentmatrix pop matrix _tm copy pop 0 0 moveto } bd
/ET { _ctm setmatrix } bd
/iTm { _ctm setmatrix _tm concat } bd
/Tm { _tm astore pop iTm 0 0 moveto } bd
/ux 0.0 def
/uy 0.0 def
/F {
  /Tp exch def
  /Tf exch def
  Tf findfont Tp scalefont setfont
  /cf Tf def  /cs Tp def
} bd
/ULS {currentpoint /uy exch def /ux exch def} bd
/ULE {
  /Tcx currentpoint pop def
  gsave
  newpath
  cf findfont cs scalefont dup
  /FontMatrix get 0 get /Ts exch def /FontInfo get dup
  /UnderlinePosition get Ts mul /To exch def
  /UnderlineThickness get Ts mul /Tt exch def
  ux uy To add moveto  Tcx uy To add lineto
  Tt setlinewidth stroke
  grestore
} bd
/OLE {
  /Tcx currentpoint pop def
  gsave
  newpath
  cf findfont cs scalefont dup
  /FontMatrix get 0 get /Ts exch def /FontInfo get dup
  /UnderlinePosition get Ts mul /To exch def
  /UnderlineThickness get Ts mul /Tt exch def
  ux uy To add cs add moveto Tcx uy To add cs add lineto
  Tt setlinewidth stroke
  grestore
} bd
/SOE {
  /Tcx currentpoint pop def
  gsave
  newpath
  cf findfont cs scalefont dup
  /FontMatrix get 0 get /Ts exch def /FontInfo get dup
  /UnderlinePosition get Ts mul /To exch def
  /UnderlineThickness get Ts mul /Tt exch def
  ux uy To add cs 10 mul 26 idiv add moveto Tcx uy To add cs 10 mul 26 idiv add lineto
  Tt setlinewidth stroke
  grestore
} bd
/QT {
/Y22 exch store
/X22 exch store
/Y21 exch store
/X21 exch store
currentpoint
/Y21 load 2 mul add 3 div exch
/X21 load 2 mul add 3 div exch
/X21 load 2 mul /X22 load add 3 div
/Y21 load 2 mul /Y22 load add 3 div
/X22 load /Y22 load curveto
} bd
/SSPD {
dup length /d exch dict def
{
/v exch def
/k exch def
currentpagedevice k known {
/cpdv currentpagedevice k get def
v cpdv ne {
/upd false def
/nullv v type /nulltype eq def
/nullcpdv cpdv type /nulltype eq def
nullv nullcpdv or
{
/upd true def
} {
/sametype v type cpdv type eq def
sametype {
v type /arraytype eq {
/vlen v length def
/cpdvlen cpdv length def
vlen cpdvlen eq {
0 1 vlen 1 sub {
/i exch def
/obj v i get def
/cpdobj cpdv i get def
obj cpdobj ne {
/upd true def
exit
} if
} for
} {
/upd true def
} ifelse
} {
v type /dicttype eq {
v {
/dv exch def
/dk exch def
/cpddv cpdv dk get def
dv cpddv ne {
/upd true def
exit
} if
} forall
} {
/upd true def
} ifelse
} ifelse
} if
} ifelse
upd true eq {
d k v put
} if
} if
} if
} forall
d length 0 gt {
d setpagedevice
} if
} bd
%%EndResource
%%BeginResource: procset (Apache XML Graphics EPS ProcSet) 1.0 0
%%Version: 1.0 0
%%Copyright: (Copyright 2002-2003 The Apache Software Foundation. License terms: http://www.apache.org/licenses/LICENSE-2.0)
/BeginEPSF { %def
/b4_Inc_state save def         % Save state for cleanup
/dict_count countdictstack def % Count objects on dict stack
/op_count count 1 sub def      % Count objects on operand stack
userdict begin                 % Push userdict on dict stack
/showpage { } def              % Redefine showpage, { } = null proc
0 setgray 0 setlinecap         % Prepare graphics state
1 setlinewidth 0 setlinejoin
10 setmiterlimit [ ] 0 setdash newpath
/languagelevel where           % If level not equal to 1 then
{pop languagelevel             % set strokeadjust and
1 ne                           % overprint to their defaults.
{false setstrokeadjust false setoverprint
} if
} if
} bd
/EndEPSF { %def
count op_count sub {pop} repeat            % Clean up stacks
countdictstack dict_count sub {end} repeat
b4_Inc_state restore
} bd
%%EndResource
%FOPBeginFontDict
%%IncludeResource: font Courier-Bold
%%IncludeResource: font Helvetica
%%IncludeResource: font Courier-BoldOblique
%%IncludeResource: font Courier-Oblique
%%IncludeResource: font Times-Roman
%%IncludeResource: font Helvetica-BoldOblique
%%IncludeResource: font Helvetica-Bold
%%IncludeResource: font Helvetica-Oblique
%%IncludeResource: font Times-BoldItalic
%%IncludeResource: font Courier
%%IncludeResource: font Times-Italic
%%IncludeResource: font Times-Bold
%%IncludeResource: font Symbol
%%IncludeResource: font ZapfDingbats
%FOPEndFontDict
%%BeginResource: encoding WinAnsiEncoding
/WinAnsiEncoding [
/.notdef /.notdef /.notdef /.notdef /.notdef
/.notdef /.notdef /.notdef /.notdef /.notdef
/.notdef /.notdef /.notdef /.notdef /.notdef
/.notdef /.notdef /.notdef /.notdef /.notdef
/.notdef /.notdef /.notdef /.notdef /.notdef
/.notdef /.notdef /.notdef /.notdef /.notdef
/.notdef /.notdef /space /exclam /quotedbl
/numbersign /dollar /percent /ampersand /quotesingle
/parenleft /parenright /asterisk /plus /comma
/hyphen /period /slash /zero /one
/two /three /four /five /six
/seven /eight /nine /colon /semicolon
/less /equal /greater /question /at
/A /B /C /D /E
/F /G /H /I /J
/K /L /M /N /O
/P /Q /R /S /T
/U /V /W /X /Y
/Z /bracketleft /backslash /bracketright /asciicircum
/underscore /quoteleft /a /b /c
/d /e /f /g /h
/i /j /k /l /m
/n /o /p /q /r
/s /t /u /v /w
/x /y /z /braceleft /bar
/braceright /asciitilde /bullet /Euro /bullet
/quotesinglbase /florin /quotedblbase /ellipsis /dagger
/daggerdbl /circumflex /perthousand /Scaron /guilsinglleft
/OE /bullet /Zcaron /bullet /bullet
/quoteleft /quoteright /quotedblleft /quotedblright /bullet
/endash /emdash /asciitilde /trademark /scaron
/guilsinglright /oe /bullet /zcaron /Ydieresis
/space /exclamdown /cent /sterling /currency
/yen /brokenbar /section /dieresis /copyright
/ordfeminine /guillemotleft /logicalnot /sfthyphen /registered
/macron /degree /plusminus /twosuperior /threesuperior
/acute /mu /paragraph /middot /cedilla
/onesuperior /ordmasculine /guillemotright /onequarter /onehalf
/threequarters /questiondown /Agrave /Aacute /Acircumflex
/Atilde /Adieresis /Aring /AE /Ccedilla
/Egrave /Eacute /Ecircumflex /Edieresis /Igrave
/Iacute /Icircumflex /Idieresis /Eth /Ntilde
/Ograve /Oacute /Ocircumflex /Otilde /Odieresis
/multiply /Oslash /Ugrave /Uacute /Ucircumflex
/Udieresis /Yacute /Thorn /germandbls /agrave
/aacute /acircumflex /atilde /adieresis /aring
/ae /ccedilla /egrave /eacute /ecircumflex
/edieresis /igrave /iacute /icircumflex /idieresis
/eth /ntilde /ograve /oacute /ocircumflex
/otilde /odieresis /divide /oslash /ugrave
/uacute /ucircumflex /udieresis /yacute /thorn
/ydieresis
] def
%%EndResource
%FOPBeginFontReencode
/Courier-Bold findfont
dup length dict begin
  {1 index /FID ne {def} {pop pop} ifelse} forall
  /Encoding WinAnsiEncoding def
  currentdict
end
/Courier-Bold exch definefont pop
/Helvetica findfont
dup length dict begin
  {1 index /FID ne {def} {pop pop} ifelse} forall
  /Encoding WinAnsiEncoding def
  currentdict
end
/Helvetica exch definefont pop
/Courier-BoldOblique findfont
dup length dict begin
  {1 index /FID ne {def} {pop pop} ifelse} forall
  /Encoding WinAnsiEncoding def
  currentdict
end
/Courier-BoldOblique exch definefont pop
/Courier-Oblique findfont
dup length dict begin
  {1 index /FID ne {def} {pop pop} ifelse} forall
  /Encoding WinAnsiEncoding def
  currentdict
end
/Courier-Oblique exch definefont pop
/Times-Roman findfont
dup length dict begin
  {1 index /FID ne {def} {pop pop} ifelse} forall
  /Encoding WinAnsiEncoding def
  currentdict
end
/Times-Roman exch definefont pop
/Helvetica-BoldOblique findfont
dup length dict begin
  {1 index /FID ne {def} {pop pop} ifelse} forall
  /Encoding WinAnsiEncoding def
  currentdict
end
/Helvetica-BoldOblique exch definefont pop
/Helvetica-Bold findfont
dup length dict begin
  {1 index /FID ne {def} {pop pop} ifelse} forall
  /Encoding WinAnsiEncoding def
  currentdict
end
/Helvetica-Bold exch definefont pop
/Helvetica-Oblique findfont
dup length dict begin
  {1 index /FID ne {def} {pop pop} ifelse} forall
  /Encoding WinAnsiEncoding def
  currentdict
end
/Helvetica-Oblique exch definefont pop
/Times-BoldItalic findfont
dup length dict begin
  {1 index /FID ne {def} {pop pop} ifelse} forall
  /Encoding WinAnsiEncoding def
  currentdict
end
/Times-BoldItalic exch definefont pop
/Courier findfont
dup length dict begin
  {1 index /FID ne {def} {pop pop} ifelse} forall
  /Encoding WinAnsiEncoding def
  currentdict
end
/Courier exch definefont pop
/Times-Italic findfont
dup length dict begin
  {1 index /FID ne {def} {pop pop} ifelse} forall
  /Encoding WinAnsiEncoding def
  currentdict
end
/Times-Italic exch definefont pop
/Times-Bold findfont
dup length dict begin
  {1 index /FID ne {def} {pop pop} ifelse} forall
  /Encoding WinAnsiEncoding def
  currentdict
end
/Times-Bold exch definefont pop
%FOPEndFontReencode
%%EndProlog
%%Page: 1 1
%%PageBoundingBox: 0 0 420 315
%%BeginPageSetup
[1 0 0 -1 0 315] CT
%%EndPageSetup
GS
[0.75 0 0 0.75 0 0] CT
1 GC
N
0 0 560 420 re
f
GR
GS
[0.75 0 0 0.75 0 0] CT
1 GC
N
0 0 560 420 re
f
GR
GS
[0.75 0 0 0.75 0 0] CT
1 GC
N
73 374 M
507 374 L
507 31 L
73 31 L
cp
f
GR
GS
[0.75 0 0 0.75 0 0] CT
0.149 GC
2 setlinecap
10.0 ML
N
73 374 M
507 374 L
S
GR
GS
[0.75 0 0 0.75 0 0] CT
0.149 GC
2 setlinecap
10.0 ML
N
73 31 M
507 31 L
S
GR
GS
[0.75 0 0 0.75 0 0] CT
0.149 GC
2 setlinecap
10.0 ML
N
73 374 M
73 369.66 L
S
GR
GS
[0.75 0 0 0.75 0 0] CT
0.149 GC
2 setlinecap
10.0 ML
N
127.25 374 M
127.25 369.66 L
S
GR
GS
[0.75 0 0 0.75 0 0] CT
0.149 GC
2 setlinecap
10.0 ML
N
181.5 374 M
181.5 369.66 L
S
GR
GS
[0.75 0 0 0.75 0 0] CT
0.149 GC
2 setlinecap
10.0 ML
N
235.75 374 M
235.75 369.66 L
S
GR
GS
[0.75 0 0 0.75 0 0] CT
0.149 GC
2 setlinecap
10.0 ML
N
290 374 M
290 369.66 L
S
GR
GS
[0.75 0 0 0.75 0 0] CT
0.149 GC
2 setlinecap
10.0 ML
N
344.25 374 M
344.25 369.66 L
S
GR
GS
[0.75 0 0 0.75 0 0] CT
0.149 GC
2 setlinecap
10.0 ML
N
398.5 374 M
398.5 369.66 L
S
GR
GS
[0.75 0 0 0.75 0 0] CT
0.149 GC
2 setlinecap
10.0 ML
N
452.75 374 M
452.75 369.66 L
S
GR
GS
[0.75 0 0 0.75 0 0] CT
0.149 GC
2 setlinecap
10.0 ML
N
507 374 M
507 369.66 L
S
GR
GS
[0.75 0 0 0.75 0 0] CT
0.149 GC
2 setlinecap
10.0 ML
N
73 31 M
73 35.34 L
S
GR
GS
[0.75 0 0 0.75 0 0] CT
0.149 GC
2 setlinecap
10.0 ML
N
127.25 31 M
127.25 35.34 L
S
GR
GS
[0.75 0 0 0.75 0 0] CT
0.149 GC
2 setlinecap
10.0 ML
N
181.5 31 M
181.5 35.34 L
S
GR
GS
[0.75 0 0 0.75 0 0] CT
0.149 GC
2 setlinecap
10.0 ML
N
235.75 31 M
235.75 35.34 L
S
GR
GS
[0.75 0 0 0.75 0 0] CT
0.149 GC
2 setlinecap
10.0 ML
N
290 31 M
290 35.34 L
S
GR
GS
[0.75 0 0 0.75 0 0] CT
0.149 GC
2 setlinecap
10.0 ML
N
344.25 31 M
344.25 35.34 L
S
GR
GS
[0.75 0 0 0.75 0 0] CT
0.149 GC
2 setlinecap
10.0 ML
N
398.5 31 M
398.5 35.34 L
S
GR
GS
[0.75 0 0 0.75 0 0] CT
0.149 GC
2 setlinecap
10.0 ML
N
452.75 31 M
452.75 35.34 L
S
GR
GS
[0.75 0 0 0.75 0 0] CT
0.149 GC
2 setlinecap
10.0 ML
N
507 31 M
507 35.34 L
S
GR
GS
[0.75 0 0 0.75 54.75 284.49998] CT
0.149 GC
/Helvetica 13 F
GS
[1 0 0 1 0 0] CT
-4 14 moveto 
1 -1 scale
(0) t 
GR
GR
GS
[0.75 0 0 0.75 95.4375 284.49998] CT
0.149 GC
/Helvetica 13 F
GS
[1 0 0 1 0 0] CT
-11 14 moveto 
1 -1 scale
(100) t 
GR
GR
GS
[0.75 0 0 0.75 136.125 284.49998] CT
0.149 GC
/Helvetica 13 F
GS
[1 0 0 1 0 0] CT
-11 14 moveto 
1 -1 scale
(200) t 
GR
GR
GS
[0.75 0 0 0.75 176.8125 284.49998] CT
0.149 GC
/Helvetica 13 F
GS
[1 0 0 1 0 0] CT
-11 14 moveto 
1 -1 scale
(300) t 
GR
GR
GS
[0.75 0 0 0.75 217.5 284.49998] CT
0.149 GC
/Helvetica 13 F
GS
[1 0 0 1 0 0] CT
-11 14 moveto 
1 -1 scale
(400) t 
GR
GR
GS
[0.75 0 0 0.75 258.1875 284.49998] CT
0.149 GC
/Helvetica 13 F
GS
[1 0 0 1 0 0] CT
-11 14 moveto 
1 -1 scale
(500) t 
GR
GR
GS
[0.75 0 0 0.75 298.875 284.49998] CT
0.149 GC
/Helvetica 13 F
GS
[1 0 0 1 0 0] CT
-11 14 moveto 
1 -1 scale
(600) t 
GR
GR
GS
[0.75 0 0 0.75 339.5625 284.49998] CT
0.149 GC
/Helvetica 13 F
GS
[1 0 0 1 0 0] CT
-11 14 moveto 
1 -1 scale
(700) t 
GR
GR
GS
[0.75 0 0 0.75 380.25 284.49998] CT
0.149 GC
/Helvetica 13 F
GS
[1 0 0 1 0 0] CT
-11 14 moveto 
1 -1 scale
(800) t 
GR
GR
GS
[0.75 0 0 0.75 0 0] CT
0.149 GC
2 setlinecap
10.0 ML
N
73 374 M
73 31 L
S
GR
GS
[0.75 0 0 0.75 0 0] CT
0.149 GC
2 setlinecap
10.0 ML
N
507 374 M
507 31 L
S
GR
GS
[0.75 0 0 0.75 0 0] CT
0.149 GC
2 setlinecap
10.0 ML
N
73 374 M
77.34 374 L
S
GR
GS
[0.75 0 0 0.75 0 0] CT
0.149 GC
2 setlinecap
10.0 ML
N
73 288.25 M
77.34 288.25 L
S
GR
GS
[0.75 0 0 0.75 0 0] CT
0.149 GC
2 setlinecap
10.0 ML
N
73 202.5 M
77.34 202.5 L
S
GR
GS
[0.75 0 0 0.75 0 0] CT
0.149 GC
2 setlinecap
10.0 ML
N
73 116.75 M
77.34 116.75 L
S
GR
GS
[0.75 0 0 0.75 0 0] CT
0.149 GC
2 setlinecap
10.0 ML
N
73 31 M
77.34 31 L
S
GR
GS
[0.75 0 0 0.75 0 0] CT
0.149 GC
2 setlinecap
10.0 ML
N
507 374 M
502.66 374 L
S
GR
GS
[0.75 0 0 0.75 0 0] CT
0.149 GC
2 setlinecap
10.0 ML
N
507 288.25 M
502.66 288.25 L
S
GR
GS
[0.75 0 0 0.75 0 0] CT
0.149 GC
2 setlinecap
10.0 ML
N
507 202.5 M
502.66 202.5 L
S
GR
GS
[0.75 0 0 0.75 0 0] CT
0.149 GC
2 setlinecap
10.0 ML
N
507 116.75 M
502.66 116.75 L
S
GR
GS
[0.75 0 0 0.75 0 0] CT
0.149 GC
2 setlinecap
10.0 ML
N
507 31 M
502.66 31 L
S
GR
GS
[0.75 0 0 0.75 50.75 280.5] CT
0.149 GC
/Helvetica 13 F
GS
[1 0 0 1 0 0] CT
-22 5.5 moveto 
1 -1 scale
(550) t 
GR
GR
GS
[0.75 0 0 0.75 50.75 216.1875] CT
0.149 GC
/Helvetica 13 F
GS
[1 0 0 1 0 0] CT
-22 5.5 moveto 
1 -1 scale
(600) t 
GR
GR
GS
[0.75 0 0 0.75 50.75 151.875] CT
0.149 GC
/Helvetica 13 F
GS
[1 0 0 1 0 0] CT
-22 5.5 moveto 
1 -1 scale
(650) t 
GR
GR
GS
[0.75 0 0 0.75 50.75 87.5625] CT
0.149 GC
/Helvetica 13 F
GS
[1 0 0 1 0 0] CT
-22 5.5 moveto 
1 -1 scale
(700) t 
GR
GR
GS
[0.75 0 0 0.75 50.75 23.25] CT
0.149 GC
/Helvetica 13 F
GS
[1 0 0 1 0 0] CT
-22 5.5 moveto 
1 -1 scale
(750) t 
GR
GR
GS
[0.75 0 0 0.75 0 0] CT
0 0.447 0.741 RC
2 LJ
N
73.543 291.869 M
74.085 292.4 L
74.628 292.383 L
75.17 291.937 L
75.713 290.925 L
76.255 291.817 L
76.798 291.972 L
77.34 291.217 L
77.882 291.594 L
78.425 291.732 L
78.967 291.32 L
79.51 292.589 L
80.052 292.366 L
80.595 292.366 L
81.137 291.697 L
81.68 291.783 L
82.223 292.16 L
82.765 291.423 L
83.308 291.92 L
83.85 291.268 L
84.393 290.702 L
84.935 291.474 L
85.478 291.32 L
86.02 291.903 L
86.563 291.423 L
87.105 291.697 L
87.647 291.732 L
88.19 291.44 L
88.732 291.732 L
89.275 291.509 L
89.817 291.937 L
90.36 291.371 L
90.902 291.2 L
91.445 290.84 L
91.988 291.474 L
92.53 292.04 L
93.073 290.514 L
93.615 290.823 L
94.158 291.234 L
94.7 292.143 L
95.243 293.309 L
95.785 292.092 L
96.327 292.366 L
96.87 292.623 L
97.412 292.829 L
97.955 293.789 L
98.497 293.326 L
99.04 293.361 L
99.582 293.326 L
100.125 293.086 L
S
GR
GS
[0.75 0 0 0.75 0 0] CT
0 0.447 0.741 RC
2 LJ
N
100.125 293.086 M
100.668 294.664 L
101.21 294.818 L
101.753 293.858 L
102.295 292.074 L
102.838 292.006 L
103.38 292.366 L
103.923 293.138 L
104.465 294.698 L
105.007 296.225 L
105.55 296.122 L
106.092 295.762 L
106.635 294.03 L
107.177 293.618 L
107.72 293.961 L
108.262 294.167 L
108.805 293.652 L
109.348 293.909 L
109.89 292.778 L
110.433 293.481 L
110.975 294.064 L
111.518 293.978 L
112.06 293.927 L
112.603 293.824 L
113.145 293.395 L
113.688 293.464 L
114.23 293.361 L
114.772 292.177 L
115.315 292.109 L
115.857 292.589 L
116.4 292.932 L
116.942 292.881 L
117.485 292.452 L
118.027 292.349 L
118.57 292.589 L
119.113 292.297 L
119.655 292.795 L
120.198 292.194 L
120.74 292.229 L
121.283 291.903 L
121.825 292.057 L
122.368 292.366 L
122.91 293.224 L
123.452 292.949 L
123.995 293.326 L
124.537 292.555 L
125.08 292.263 L
125.622 292.606 L
126.165 293.909 L
126.707 293.498 L
S
GR
GS
[0.75 0 0 0.75 0 0] CT
0 0.447 0.741 RC
2 LJ
N
126.707 293.498 M
127.25 292.863 L
127.793 293.412 L
128.335 293.103 L
128.878 293.395 L
129.42 293.018 L
129.962 292.572 L
130.505 292.503 L
131.048 293.035 L
131.59 293.326 L
132.133 293.464 L
132.675 293.566 L
133.217 292.435 L
133.76 292.417 L
134.303 292.812 L
134.845 292.76 L
135.387 293.481 L
135.93 293.378 L
136.473 293.429 L
137.015 294.304 L
137.557 293.429 L
138.1 293.206 L
138.643 293.361 L
139.185 293.704 L
139.727 292.297 L
140.27 292.212 L
140.813 293.566 L
141.355 293.652 L
141.898 293.549 L
142.44 292.812 L
142.982 293.241 L
143.525 293.566 L
144.068 292.332 L
144.61 292.4 L
145.152 293.206 L
145.695 292.983 L
146.238 292.52 L
146.78 292.503 L
147.322 292.177 L
147.865 292.452 L
148.408 293.361 L
148.95 293.121 L
149.492 293.224 L
150.035 291.937 L
150.577 292.675 L
151.12 293.001 L
151.663 293.361 L
152.205 292.229 L
152.747 291.732 L
153.29 292.743 L
S
GR
GS
[0.75 0 0 0.75 0 0] CT
0 0.447 0.741 RC
2 LJ
N
153.29 292.743 M
153.833 292.109 L
154.375 292.932 L
154.917 292.383 L
155.46 292.315 L
156.003 292.28 L
156.545 291.663 L
157.087 292.572 L
157.63 292.349 L
158.173 291.594 L
158.715 291.834 L
159.258 292.709 L
159.8 291.817 L
160.342 292.606 L
160.885 292.949 L
161.428 292.606 L
161.97 292.812 L
162.512 292.503 L
163.055 292.28 L
163.598 292.383 L
164.14 292.795 L
164.682 291.989 L
165.225 291.817 L
165.768 292.28 L
166.31 291.903 L
166.852 291.8 L
167.395 291.354 L
167.938 290.908 L
168.48 291.063 L
169.023 291.766 L
169.565 292.332 L
170.107 292.64 L
170.65 293.515 L
171.193 292.538 L
171.735 292.366 L
172.277 292.606 L
172.82 292.846 L
173.363 293.001 L
173.905 293.378 L
174.447 293.069 L
174.99 293.584 L
175.533 293.429 L
176.075 293.515 L
176.617 293.412 L
177.16 293.635 L
177.702 293.704 L
178.245 294.973 L
178.788 294.664 L
179.33 293.669 L
179.872 294.647 L
S
GR
GS
[0.75 0 0 0.75 0 0] CT
0 0.447 0.741 RC
2 LJ
N
179.872 294.647 M
180.415 294.304 L
180.958 293.841 L
181.5 294.081 L
182.042 293.635 L
182.585 293.481 L
183.128 292.606 L
183.67 293.052 L
184.212 292.76 L
184.755 293.121 L
185.298 293.652 L
185.84 293.532 L
186.383 293.618 L
186.925 293.841 L
187.467 291.234 L
188.01 291.063 L
188.553 291.183 L
189.095 291.388 L
189.637 290.617 L
190.18 287.804 L
190.723 287.41 L
191.265 288.764 L
191.807 289.176 L
192.35 288.764 L
192.893 288.456 L
193.435 289.879 L
193.977 290.96 L
194.52 292.709 L
195.063 292.04 L
195.605 290.497 L
196.148 290.085 L
196.69 291.834 L
197.232 291.817 L
197.775 289.999 L
198.318 290.874 L
198.86 289.159 L
199.402 280.395 L
199.945 272.386 L
200.488 271.117 L
201.03 276.108 L
201.572 276.005 L
202.115 273.432 L
202.658 274.924 L
203.2 272.798 L
203.742 270.517 L
204.285 269.265 L
204.827 275.062 L
205.37 281.441 L
205.913 279.435 L
206.455 278.166 L
S
GR
GS
[0.75 0 0 0.75 0 0] CT
0 0.447 0.741 RC
2 LJ
N
206.455 278.166 M
206.997 278.989 L
207.54 283.482 L
208.083 275.525 L
208.625 273.072 L
209.167 279.778 L
209.71 267.43 L
210.253 213.407 L
210.795 200.219 L
211.337 182.332 L
211.88 156.212 L
212.423 67.512 L
212.965 120.214 L
213.508 147.5 L
214.05 153.605 L
214.592 136.284 L
215.135 155.337 L
215.678 196.309 L
216.22 133.557 L
216.762 43.056 L
217.305 85.022 L
217.848 199.859 L
218.39 173.859 L
218.932 156.692 L
219.475 155.132 L
220.018 158.63 L
220.56 178.319 L
221.102 208.948 L
221.645 217.541 L
222.188 209.909 L
222.73 212.241 L
223.273 216.186 L
223.815 217.043 L
224.357 213.527 L
224.9 213.527 L
225.443 213.733 L
225.985 213.236 L
226.527 214.076 L
227.07 214.299 L
227.613 211.006 L
228.155 210.406 L
228.697 209.703 L
229.24 209.309 L
229.783 207.096 L
230.325 205.416 L
230.867 204.85 L
231.41 202.088 L
231.952 205.261 L
232.495 200.219 L
233.038 196.858 L
S
GR
GS
[0.75 0 0 0.75 0 0] CT
0 0.447 0.741 RC
2 LJ
N
233.038 196.858 M
233.58 218.312 L
234.122 231.141 L
234.665 237.64 L
235.208 255.391 L
235.75 306.738 L
236.292 349.476 L
236.835 369.884 L
237.378 327.643 L
237.92 315.621 L
238.462 295.83 L
239.005 279.675 L
239.548 263.914 L
240.09 247.313 L
240.633 243.334 L
241.175 245.375 L
241.717 245.752 L
242.26 257.534 L
242.803 265.732 L
243.345 264.309 L
243.887 267.464 L
244.43 264.034 L
244.973 261.067 L
245.515 254.636 L
246.057 256.282 L
246.6 267.704 L
247.143 272.489 L
247.685 268.922 L
248.227 270.363 L
248.77 267.378 L
249.313 255.579 L
249.855 254.379 L
250.398 256.3 L
250.94 261.753 L
251.482 261.033 L
252.025 258.666 L
252.568 257.86 L
253.11 259.266 L
253.652 259.798 L
254.195 259.421 L
254.738 258.838 L
255.28 258.718 L
255.822 258.872 L
256.365 257.311 L
256.908 257.243 L
257.45 256.625 L
257.992 257.809 L
258.535 257.569 L
259.078 257.071 L
259.62 257.209 L
S
GR
GS
[0.75 0 0 0.75 0 0] CT
0 0.447 0.741 RC
2 LJ
N
259.62 257.209 M
260.163 258.872 L
260.705 258.735 L
261.247 258.289 L
261.79 257.723 L
262.332 259.112 L
262.875 258.186 L
263.418 257.603 L
263.96 258.529 L
264.503 260.724 L
265.045 261.856 L
265.587 260.93 L
266.13 260.193 L
266.672 261.496 L
267.215 260.261 L
267.758 256.711 L
268.3 257.843 L
268.842 256.986 L
269.385 257.38 L
269.927 255.494 L
270.47 253.83 L
271.013 255.665 L
271.555 255.631 L
272.098 256.265 L
272.64 255.905 L
273.182 257.02 L
273.725 255.219 L
274.267 252.904 L
274.81 255.562 L
275.353 256.265 L
275.895 252.921 L
276.438 254.636 L
276.98 256.522 L
277.522 257.912 L
278.065 252.064 L
278.608 245.872 L
279.15 243.763 L
279.693 243.437 L
280.235 239.098 L
280.777 237.743 L
281.32 245.015 L
281.862 247.484 L
282.405 247.159 L
282.948 246.627 L
283.49 246.85 L
284.033 248.582 L
284.575 249.217 L
285.117 244.809 L
285.66 244.054 L
286.203 245.958 L
S
GR
GS
[0.75 0 0 0.75 0 0] CT
0 0.447 0.741 RC
2 LJ
N
286.203 245.958 M
286.745 247.124 L
287.288 247.433 L
287.83 246.644 L
288.372 248.016 L
288.915 248.976 L
289.457 248.016 L
290 247.999 L
290.543 248.788 L
291.085 249.337 L
291.628 249.062 L
292.17 249.182 L
292.712 249.045 L
293.255 248.239 L
293.797 248.153 L
294.34 248.685 L
294.883 249.457 L
295.425 248.273 L
295.967 249.44 L
296.51 248.291 L
297.052 247.553 L
297.595 247.124 L
298.138 247.399 L
298.68 249.148 L
299.223 249.44 L
299.765 249.628 L
300.307 249.045 L
300.85 248.685 L
301.392 248.496 L
301.935 247.793 L
302.478 247.913 L
303.02 248.445 L
303.563 248.857 L
304.105 248.411 L
304.647 249.182 L
305.19 248.702 L
305.733 247.193 L
306.275 248.445 L
306.818 249.285 L
307.36 251.943 L
307.902 251.412 L
308.445 252.321 L
308.987 252.629 L
309.53 252.304 L
310.073 252.115 L
310.615 250.76 L
311.158 251.669 L
311.7 252.458 L
312.242 252.029 L
312.785 249.542 L
S
GR
GS
[0.75 0 0 0.75 0 0] CT
0 0.447 0.741 RC
2 LJ
N
312.785 249.542 M
313.328 251.206 L
313.87 250.331 L
314.413 250.949 L
314.955 251.498 L
315.497 250.177 L
316.04 250.589 L
316.582 252.235 L
317.125 251.806 L
317.668 251.034 L
318.21 250.623 L
318.753 251.378 L
319.295 250.691 L
319.837 249.697 L
320.38 248.942 L
320.922 248.531 L
321.465 249.885 L
322.008 250.006 L
322.55 250.263 L
323.092 249.714 L
323.635 250.28 L
324.177 250.074 L
324.72 249.988 L
325.263 250.006 L
325.805 249.868 L
326.348 250.211 L
326.89 250.4 L
327.432 251.292 L
327.975 252.115 L
328.517 251.789 L
329.06 251.652 L
329.603 253.007 L
330.145 252.269 L
330.688 252.389 L
331.23 251.48 L
331.772 251.24 L
332.315 250.657 L
332.858 251.378 L
333.4 250.469 L
333.943 251.069 L
334.485 250.04 L
335.027 249.765 L
335.57 249.628 L
336.112 249.491 L
336.655 250.417 L
337.198 250.228 L
337.74 250.88 L
338.283 251.155 L
338.825 250.074 L
339.367 249.337 L
S
GR
GS
[0.75 0 0 0.75 0 0] CT
0 0.447 0.741 RC
2 LJ
N
339.367 249.337 M
339.91 249.628 L
340.453 249.611 L
340.995 249.285 L
341.538 249.611 L
342.08 249.92 L
342.622 251.635 L
343.165 250.794 L
343.707 250.263 L
344.25 249.731 L
344.793 249.8 L
345.335 252.029 L
345.878 252.698 L
346.42 251.069 L
346.962 250.623 L
347.505 251.943 L
348.047 252.098 L
348.59 256.951 L
349.133 260.416 L
349.675 263.228 L
350.217 263.777 L
350.76 262.748 L
351.302 261.119 L
351.845 259.747 L
352.388 258.443 L
352.93 255.511 L
353.473 251.137 L
354.015 250.074 L
354.557 249.868 L
355.1 248.685 L
355.642 247.09 L
356.185 246.747 L
356.728 249.371 L
357.27 250.726 L
357.813 248.788 L
358.355 238.241 L
358.897 243.351 L
359.44 253.075 L
359.983 261.393 L
360.525 266.761 L
361.068 263.708 L
361.61 256.179 L
362.152 252.184 L
362.695 251.772 L
363.237 249.885 L
363.78 246.541 L
364.323 245.306 L
364.865 245.255 L
365.408 245.718 L
365.95 245.684 L
S
GR
GS
[0.75 0 0 0.75 0 0] CT
0 0.447 0.741 RC
2 LJ
N
365.95 245.684 M
366.492 246.884 L
367.035 247.056 L
367.578 249.251 L
368.12 250.057 L
368.663 249.834 L
369.205 249.457 L
369.747 255.939 L
370.29 259.095 L
370.832 256.848 L
371.375 253.538 L
371.918 253.401 L
372.46 253.333 L
373.003 252.235 L
373.545 250.726 L
374.087 250.228 L
374.63 250.451 L
375.172 249.988 L
375.715 251.052 L
376.258 250.16 L
376.8 249.302 L
377.342 249.062 L
377.885 249.165 L
378.427 249.491 L
378.97 250.006 L
379.513 250.554 L
380.055 250.074 L
380.598 249.525 L
381.14 248.273 L
381.682 247.056 L
382.225 245.512 L
382.767 244.192 L
383.31 242.545 L
383.853 242.94 L
384.395 242.751 L
384.938 242.425 L
385.48 242.305 L
386.022 242.957 L
386.565 245.341 L
387.108 246.627 L
387.65 244.946 L
388.193 244.415 L
388.735 247.81 L
389.277 249.645 L
389.82 250.503 L
390.362 255.665 L
390.905 258.443 L
391.448 258.581 L
391.99 259.592 L
392.533 259.129 L
S
GR
GS
[0.75 0 0 0.75 0 0] CT
0 0.447 0.741 RC
2 LJ
N
392.533 259.129 M
393.075 250.691 L
393.617 247.244 L
394.16 245.204 L
394.703 244.466 L
395.245 246.078 L
395.788 246.284 L
396.33 243.934 L
396.872 243.883 L
397.415 247.587 L
397.957 249.628 L
398.5 248.771 L
399.043 248.634 L
399.585 248.959 L
400.128 250.554 L
400.67 251.686 L
401.212 252.115 L
401.755 252.046 L
402.297 252.887 L
402.84 254.19 L
403.383 253.898 L
403.925 253.041 L
404.467 253.281 L
405.01 252.715 L
405.552 252.475 L
406.095 252.149 L
406.638 251.909 L
407.18 251.515 L
407.723 252.029 L
408.265 252.767 L
408.807 252.87 L
409.35 252.132 L
409.892 251.343 L
410.435 250.52 L
410.978 249.851 L
411.52 248.908 L
412.063 248.205 L
412.605 248.548 L
413.147 249.182 L
413.69 248.994 L
414.233 248.839 L
414.775 247.69 L
415.318 248.994 L
415.86 249.903 L
416.402 250.794 L
416.945 251.137 L
417.487 251.412 L
418.03 251.137 L
418.573 250.52 L
419.115 250.863 L
S
GR
GS
[0.75 0 0 0.75 0 0] CT
0 0.447 0.741 RC
2 LJ
N
419.115 250.863 M
419.658 250.709 L
420.2 250.28 L
420.742 249.988 L
421.285 249.302 L
421.828 247.93 L
422.37 246.833 L
422.913 247.193 L
423.455 247.364 L
423.997 248.188 L
424.54 248.308 L
425.082 248.016 L
425.625 247.81 L
426.168 249.337 L
426.71 248.668 L
427.253 248.788 L
427.795 250.143 L
428.337 250.177 L
428.88 248.513 L
429.422 249.011 L
429.965 249.354 L
430.508 250.143 L
431.05 250.349 L
431.592 250.76 L
432.135 249.354 L
432.677 249.371 L
433.22 249.491 L
433.763 247.965 L
434.305 247.57 L
434.848 248.239 L
435.39 248.411 L
435.932 247.999 L
436.475 247.707 L
437.017 247.862 L
437.56 248.496 L
438.103 247.982 L
438.645 247.587 L
439.188 246.455 L
439.73 246.919 L
440.272 247.982 L
440.815 247.176 L
441.358 246.816 L
441.9 247.073 L
442.443 246.85 L
442.985 247.159 L
443.527 246.541 L
444.07 247.021 L
444.612 247.467 L
445.155 247.347 L
445.698 247.004 L
S
GR
GS
[0.75 0 0 0.75 0 0] CT
0 0.447 0.741 RC
2 LJ
N
445.698 247.004 M
446.24 246.713 L
446.783 247.159 L
447.325 247.382 L
447.867 246.387 L
448.41 246.421 L
448.953 246.078 L
449.495 245.958 L
450.038 246.627 L
450.58 246.73 L
451.122 245.529 L
451.665 246.678 L
452.207 246.078 L
452.75 245.478 L
453.293 247.004 L
453.835 247.93 L
454.378 246.387 L
454.92 246.936 L
455.462 248.153 L
456.005 247.244 L
456.547 245.855 L
457.09 246.713 L
457.633 246.936 L
458.175 246.987 L
458.717 247.176 L
459.26 247.347 L
459.802 247.725 L
460.345 247.124 L
460.888 246.301 L
461.43 246.301 L
461.973 247.09 L
462.515 247.69 L
463.057 246.095 L
463.6 243.831 L
464.142 244.5 L
464.685 247.33 L
465.228 248.205 L
465.77 245.632 L
466.313 245.855 L
466.855 247.33 L
467.397 248.256 L
467.94 247.45 L
468.483 246.353 L
469.025 245.478 L
469.568 246.73 L
470.11 247.57 L
470.652 247.296 L
471.195 246.284 L
471.737 245.667 L
472.28 245.787 L
S
GR
GS
[0.75 0 0 0.75 0 0] CT
0 0.447 0.741 RC
2 LJ
N
472.28 245.787 M
472.823 246.61 L
473.365 245.684 L
473.908 245.324 L
474.45 245.118 L
474.992 245.204 L
475.535 245.718 L
476.078 245.924 L
476.62 245.409 L
477.163 245.529 L
477.705 245.941 L
478.247 245.581 L
478.79 245.409 L
479.332 245.324 L
479.875 245.221 L
480.418 245.118 L
480.96 245.598 L
481.503 246.49 L
482.045 245.701 L
482.587 245.787 L
483.13 245.941 L
483.672 245.358 L
484.215 245.546 L
484.758 245.787 L
485.3 245.444 L
485.842 245.272 L
486.385 244.826 L
486.927 244.929 L
487.47 244.689 L
488.013 245.049 L
488.555 244.5 L
489.098 244.209 L
489.64 244.655 L
490.182 245.221 L
490.725 246.936 L
491.267 248.822 L
491.81 249.988 L
492.353 251.052 L
492.895 252.201 L
493.438 252.355 L
493.98 252.115 L
494.522 251.995 L
495.065 251.6 L
495.608 251.155 L
S
GR
%%Trailer
%%Pages: 1
%%EOF
