%!PS-Adobe-3.0 EPSF-3.0
%%Creator: (MATLAB, The Mathworks, Inc. Version 8.5.0.197613 \(R2015a\). Operating System: Windows 8)
%%Title: (C:/Users/aleja/Desktop/TFG/Documentaci\363n/Obtenci\363n de datos/matlab_plot/plots/alvaro12-17.eps)
%%CreationDate: 2019-05-22T11:26:04
%%Pages: (atend)
%%BoundingBox: 0 0 420 315
%%LanguageLevel: 2
%%EndComments
%%BeginProlog
%%BeginResource: procset (Apache XML Graphics Std ProcSet) 1.2 0
%%Version: 1.2 0
%%Copyright: (Copyright 2001-2003,2010 The Apache Software Foundation. License terms: http://www.apache.org/licenses/LICENSE-2.0)
/bd{bind def}bind def
/ld{load def}bd
/GR/grestore ld
/M/moveto ld
/LJ/setlinejoin ld
/C/curveto ld
/f/fill ld
/LW/setlinewidth ld
/GC/setgray ld
/t/show ld
/N/newpath ld
/CT/concat ld
/cp/closepath ld
/S/stroke ld
/L/lineto ld
/CC/setcmykcolor ld
/A/ashow ld
/GS/gsave ld
/RC/setrgbcolor ld
/RM/rmoveto ld
/ML/setmiterlimit ld
/re {4 2 roll M
1 index 0 rlineto
0 exch rlineto
neg 0 rlineto
cp } bd
/_ctm matrix def
/_tm matrix def
/BT { _ctm currentmatrix pop matrix _tm copy pop 0 0 moveto } bd
/ET { _ctm setmatrix } bd
/iTm { _ctm setmatrix _tm concat } bd
/Tm { _tm astore pop iTm 0 0 moveto } bd
/ux 0.0 def
/uy 0.0 def
/F {
  /Tp exch def
  /Tf exch def
  Tf findfont Tp scalefont setfont
  /cf Tf def  /cs Tp def
} bd
/ULS {currentpoint /uy exch def /ux exch def} bd
/ULE {
  /Tcx currentpoint pop def
  gsave
  newpath
  cf findfont cs scalefont dup
  /FontMatrix get 0 get /Ts exch def /FontInfo get dup
  /UnderlinePosition get Ts mul /To exch def
  /UnderlineThickness get Ts mul /Tt exch def
  ux uy To add moveto  Tcx uy To add lineto
  Tt setlinewidth stroke
  grestore
} bd
/OLE {
  /Tcx currentpoint pop def
  gsave
  newpath
  cf findfont cs scalefont dup
  /FontMatrix get 0 get /Ts exch def /FontInfo get dup
  /UnderlinePosition get Ts mul /To exch def
  /UnderlineThickness get Ts mul /Tt exch def
  ux uy To add cs add moveto Tcx uy To add cs add lineto
  Tt setlinewidth stroke
  grestore
} bd
/SOE {
  /Tcx currentpoint pop def
  gsave
  newpath
  cf findfont cs scalefont dup
  /FontMatrix get 0 get /Ts exch def /FontInfo get dup
  /UnderlinePosition get Ts mul /To exch def
  /UnderlineThickness get Ts mul /Tt exch def
  ux uy To add cs 10 mul 26 idiv add moveto Tcx uy To add cs 10 mul 26 idiv add lineto
  Tt setlinewidth stroke
  grestore
} bd
/QT {
/Y22 exch store
/X22 exch store
/Y21 exch store
/X21 exch store
currentpoint
/Y21 load 2 mul add 3 div exch
/X21 load 2 mul add 3 div exch
/X21 load 2 mul /X22 load add 3 div
/Y21 load 2 mul /Y22 load add 3 div
/X22 load /Y22 load curveto
} bd
/SSPD {
dup length /d exch dict def
{
/v exch def
/k exch def
currentpagedevice k known {
/cpdv currentpagedevice k get def
v cpdv ne {
/upd false def
/nullv v type /nulltype eq def
/nullcpdv cpdv type /nulltype eq def
nullv nullcpdv or
{
/upd true def
} {
/sametype v type cpdv type eq def
sametype {
v type /arraytype eq {
/vlen v length def
/cpdvlen cpdv length def
vlen cpdvlen eq {
0 1 vlen 1 sub {
/i exch def
/obj v i get def
/cpdobj cpdv i get def
obj cpdobj ne {
/upd true def
exit
} if
} for
} {
/upd true def
} ifelse
} {
v type /dicttype eq {
v {
/dv exch def
/dk exch def
/cpddv cpdv dk get def
dv cpddv ne {
/upd true def
exit
} if
} forall
} {
/upd true def
} ifelse
} ifelse
} if
} ifelse
upd true eq {
d k v put
} if
} if
} if
} forall
d length 0 gt {
d setpagedevice
} if
} bd
%%EndResource
%%BeginResource: procset (Apache XML Graphics EPS ProcSet) 1.0 0
%%Version: 1.0 0
%%Copyright: (Copyright 2002-2003 The Apache Software Foundation. License terms: http://www.apache.org/licenses/LICENSE-2.0)
/BeginEPSF { %def
/b4_Inc_state save def         % Save state for cleanup
/dict_count countdictstack def % Count objects on dict stack
/op_count count 1 sub def      % Count objects on operand stack
userdict begin                 % Push userdict on dict stack
/showpage { } def              % Redefine showpage, { } = null proc
0 setgray 0 setlinecap         % Prepare graphics state
1 setlinewidth 0 setlinejoin
10 setmiterlimit [ ] 0 setdash newpath
/languagelevel where           % If level not equal to 1 then
{pop languagelevel             % set strokeadjust and
1 ne                           % overprint to their defaults.
{false setstrokeadjust false setoverprint
} if
} if
} bd
/EndEPSF { %def
count op_count sub {pop} repeat            % Clean up stacks
countdictstack dict_count sub {end} repeat
b4_Inc_state restore
} bd
%%EndResource
%FOPBeginFontDict
%%IncludeResource: font Courier-Bold
%%IncludeResource: font Helvetica
%%IncludeResource: font Courier-BoldOblique
%%IncludeResource: font Courier-Oblique
%%IncludeResource: font Times-Roman
%%IncludeResource: font Helvetica-BoldOblique
%%IncludeResource: font Helvetica-Bold
%%IncludeResource: font Helvetica-Oblique
%%IncludeResource: font Times-BoldItalic
%%IncludeResource: font Courier
%%IncludeResource: font Times-Italic
%%IncludeResource: font Times-Bold
%%IncludeResource: font Symbol
%%IncludeResource: font ZapfDingbats
%FOPEndFontDict
%%BeginResource: encoding WinAnsiEncoding
/WinAnsiEncoding [
/.notdef /.notdef /.notdef /.notdef /.notdef
/.notdef /.notdef /.notdef /.notdef /.notdef
/.notdef /.notdef /.notdef /.notdef /.notdef
/.notdef /.notdef /.notdef /.notdef /.notdef
/.notdef /.notdef /.notdef /.notdef /.notdef
/.notdef /.notdef /.notdef /.notdef /.notdef
/.notdef /.notdef /space /exclam /quotedbl
/numbersign /dollar /percent /ampersand /quotesingle
/parenleft /parenright /asterisk /plus /comma
/hyphen /period /slash /zero /one
/two /three /four /five /six
/seven /eight /nine /colon /semicolon
/less /equal /greater /question /at
/A /B /C /D /E
/F /G /H /I /J
/K /L /M /N /O
/P /Q /R /S /T
/U /V /W /X /Y
/Z /bracketleft /backslash /bracketright /asciicircum
/underscore /quoteleft /a /b /c
/d /e /f /g /h
/i /j /k /l /m
/n /o /p /q /r
/s /t /u /v /w
/x /y /z /braceleft /bar
/braceright /asciitilde /bullet /Euro /bullet
/quotesinglbase /florin /quotedblbase /ellipsis /dagger
/daggerdbl /circumflex /perthousand /Scaron /guilsinglleft
/OE /bullet /Zcaron /bullet /bullet
/quoteleft /quoteright /quotedblleft /quotedblright /bullet
/endash /emdash /asciitilde /trademark /scaron
/guilsinglright /oe /bullet /zcaron /Ydieresis
/space /exclamdown /cent /sterling /currency
/yen /brokenbar /section /dieresis /copyright
/ordfeminine /guillemotleft /logicalnot /sfthyphen /registered
/macron /degree /plusminus /twosuperior /threesuperior
/acute /mu /paragraph /middot /cedilla
/onesuperior /ordmasculine /guillemotright /onequarter /onehalf
/threequarters /questiondown /Agrave /Aacute /Acircumflex
/Atilde /Adieresis /Aring /AE /Ccedilla
/Egrave /Eacute /Ecircumflex /Edieresis /Igrave
/Iacute /Icircumflex /Idieresis /Eth /Ntilde
/Ograve /Oacute /Ocircumflex /Otilde /Odieresis
/multiply /Oslash /Ugrave /Uacute /Ucircumflex
/Udieresis /Yacute /Thorn /germandbls /agrave
/aacute /acircumflex /atilde /adieresis /aring
/ae /ccedilla /egrave /eacute /ecircumflex
/edieresis /igrave /iacute /icircumflex /idieresis
/eth /ntilde /ograve /oacute /ocircumflex
/otilde /odieresis /divide /oslash /ugrave
/uacute /ucircumflex /udieresis /yacute /thorn
/ydieresis
] def
%%EndResource
%FOPBeginFontReencode
/Courier-Bold findfont
dup length dict begin
  {1 index /FID ne {def} {pop pop} ifelse} forall
  /Encoding WinAnsiEncoding def
  currentdict
end
/Courier-Bold exch definefont pop
/Helvetica findfont
dup length dict begin
  {1 index /FID ne {def} {pop pop} ifelse} forall
  /Encoding WinAnsiEncoding def
  currentdict
end
/Helvetica exch definefont pop
/Courier-BoldOblique findfont
dup length dict begin
  {1 index /FID ne {def} {pop pop} ifelse} forall
  /Encoding WinAnsiEncoding def
  currentdict
end
/Courier-BoldOblique exch definefont pop
/Courier-Oblique findfont
dup length dict begin
  {1 index /FID ne {def} {pop pop} ifelse} forall
  /Encoding WinAnsiEncoding def
  currentdict
end
/Courier-Oblique exch definefont pop
/Times-Roman findfont
dup length dict begin
  {1 index /FID ne {def} {pop pop} ifelse} forall
  /Encoding WinAnsiEncoding def
  currentdict
end
/Times-Roman exch definefont pop
/Helvetica-BoldOblique findfont
dup length dict begin
  {1 index /FID ne {def} {pop pop} ifelse} forall
  /Encoding WinAnsiEncoding def
  currentdict
end
/Helvetica-BoldOblique exch definefont pop
/Helvetica-Bold findfont
dup length dict begin
  {1 index /FID ne {def} {pop pop} ifelse} forall
  /Encoding WinAnsiEncoding def
  currentdict
end
/Helvetica-Bold exch definefont pop
/Helvetica-Oblique findfont
dup length dict begin
  {1 index /FID ne {def} {pop pop} ifelse} forall
  /Encoding WinAnsiEncoding def
  currentdict
end
/Helvetica-Oblique exch definefont pop
/Times-BoldItalic findfont
dup length dict begin
  {1 index /FID ne {def} {pop pop} ifelse} forall
  /Encoding WinAnsiEncoding def
  currentdict
end
/Times-BoldItalic exch definefont pop
/Courier findfont
dup length dict begin
  {1 index /FID ne {def} {pop pop} ifelse} forall
  /Encoding WinAnsiEncoding def
  currentdict
end
/Courier exch definefont pop
/Times-Italic findfont
dup length dict begin
  {1 index /FID ne {def} {pop pop} ifelse} forall
  /Encoding WinAnsiEncoding def
  currentdict
end
/Times-Italic exch definefont pop
/Times-Bold findfont
dup length dict begin
  {1 index /FID ne {def} {pop pop} ifelse} forall
  /Encoding WinAnsiEncoding def
  currentdict
end
/Times-Bold exch definefont pop
%FOPEndFontReencode
%%EndProlog
%%Page: 1 1
%%PageBoundingBox: 0 0 420 315
%%BeginPageSetup
[1 0 0 -1 0 315] CT
%%EndPageSetup
GS
[0.75 0 0 0.75 0 0] CT
1 GC
N
0 0 560 420 re
f
GR
GS
[0.75 0 0 0.75 0 0] CT
1 GC
N
0 0 560 420 re
f
GR
GS
[0.75 0 0 0.75 0 0] CT
1 GC
N
73 374 M
507 374 L
507 31 L
73 31 L
cp
f
GR
GS
[0.75 0 0 0.75 0 0] CT
0.149 GC
2 setlinecap
10.0 ML
N
73 374 M
507 374 L
S
GR
GS
[0.75 0 0 0.75 0 0] CT
0.149 GC
2 setlinecap
10.0 ML
N
73 31 M
507 31 L
S
GR
GS
[0.75 0 0 0.75 0 0] CT
0.149 GC
2 setlinecap
10.0 ML
N
73 374 M
73 369.659 L
S
GR
GS
[0.75 0 0 0.75 0 0] CT
0.149 GC
2 setlinecap
10.0 ML
N
145.333 374 M
145.333 369.659 L
S
GR
GS
[0.75 0 0 0.75 0 0] CT
0.149 GC
2 setlinecap
10.0 ML
N
217.667 374 M
217.667 369.659 L
S
GR
GS
[0.75 0 0 0.75 0 0] CT
0.149 GC
2 setlinecap
10.0 ML
N
290 374 M
290 369.659 L
S
GR
GS
[0.75 0 0 0.75 0 0] CT
0.149 GC
2 setlinecap
10.0 ML
N
362.333 374 M
362.333 369.659 L
S
GR
GS
[0.75 0 0 0.75 0 0] CT
0.149 GC
2 setlinecap
10.0 ML
N
434.667 374 M
434.667 369.659 L
S
GR
GS
[0.75 0 0 0.75 0 0] CT
0.149 GC
2 setlinecap
10.0 ML
N
507 374 M
507 369.659 L
S
GR
GS
[0.75 0 0 0.75 0 0] CT
0.149 GC
2 setlinecap
10.0 ML
N
73 31 M
73 35.341 L
S
GR
GS
[0.75 0 0 0.75 0 0] CT
0.149 GC
2 setlinecap
10.0 ML
N
145.333 31 M
145.333 35.341 L
S
GR
GS
[0.75 0 0 0.75 0 0] CT
0.149 GC
2 setlinecap
10.0 ML
N
217.667 31 M
217.667 35.341 L
S
GR
GS
[0.75 0 0 0.75 0 0] CT
0.149 GC
2 setlinecap
10.0 ML
N
290 31 M
290 35.341 L
S
GR
GS
[0.75 0 0 0.75 0 0] CT
0.149 GC
2 setlinecap
10.0 ML
N
362.333 31 M
362.333 35.341 L
S
GR
GS
[0.75 0 0 0.75 0 0] CT
0.149 GC
2 setlinecap
10.0 ML
N
434.667 31 M
434.667 35.341 L
S
GR
GS
[0.75 0 0 0.75 0 0] CT
0.149 GC
2 setlinecap
10.0 ML
N
507 31 M
507 35.341 L
S
GR
GS
[0.75 0 0 0.75 54.75 284.50035] CT
0.149 GC
/Helvetica 13 F
GS
[1 0 0 1 0 0] CT
-4 14 moveto 
1 -1 scale
(0) t 
GR
GR
GS
[0.75 0 0 0.75 109 284.50035] CT
0.149 GC
/Helvetica 13 F
GS
[1 0 0 1 0 0] CT
-11 14 moveto 
1 -1 scale
(100) t 
GR
GR
GS
[0.75 0 0 0.75 163.25 284.50035] CT
0.149 GC
/Helvetica 13 F
GS
[1 0 0 1 0 0] CT
-11 14 moveto 
1 -1 scale
(200) t 
GR
GR
GS
[0.75 0 0 0.75 217.5 284.50035] CT
0.149 GC
/Helvetica 13 F
GS
[1 0 0 1 0 0] CT
-11 14 moveto 
1 -1 scale
(300) t 
GR
GR
GS
[0.75 0 0 0.75 271.75001 284.50035] CT
0.149 GC
/Helvetica 13 F
GS
[1 0 0 1 0 0] CT
-11 14 moveto 
1 -1 scale
(400) t 
GR
GR
GS
[0.75 0 0 0.75 325.99999 284.50035] CT
0.149 GC
/Helvetica 13 F
GS
[1 0 0 1 0 0] CT
-11 14 moveto 
1 -1 scale
(500) t 
GR
GR
GS
[0.75 0 0 0.75 380.25 284.50035] CT
0.149 GC
/Helvetica 13 F
GS
[1 0 0 1 0 0] CT
-11 14 moveto 
1 -1 scale
(600) t 
GR
GR
GS
[0.75 0 0 0.75 0 0] CT
0.149 GC
2 setlinecap
10.0 ML
N
73 374 M
73 31 L
S
GR
GS
[0.75 0 0 0.75 0 0] CT
0.149 GC
2 setlinecap
10.0 ML
N
507 374 M
507 31 L
S
GR
GS
[0.75 0 0 0.75 0 0] CT
0.149 GC
2 setlinecap
10.0 ML
N
73 374 M
77.34 374 L
S
GR
GS
[0.75 0 0 0.75 0 0] CT
0.149 GC
2 setlinecap
10.0 ML
N
73 335.889 M
77.34 335.889 L
S
GR
GS
[0.75 0 0 0.75 0 0] CT
0.149 GC
2 setlinecap
10.0 ML
N
73 297.778 M
77.34 297.778 L
S
GR
GS
[0.75 0 0 0.75 0 0] CT
0.149 GC
2 setlinecap
10.0 ML
N
73 259.667 M
77.34 259.667 L
S
GR
GS
[0.75 0 0 0.75 0 0] CT
0.149 GC
2 setlinecap
10.0 ML
N
73 221.556 M
77.34 221.556 L
S
GR
GS
[0.75 0 0 0.75 0 0] CT
0.149 GC
2 setlinecap
10.0 ML
N
73 183.444 M
77.34 183.444 L
S
GR
GS
[0.75 0 0 0.75 0 0] CT
0.149 GC
2 setlinecap
10.0 ML
N
73 145.333 M
77.34 145.333 L
S
GR
GS
[0.75 0 0 0.75 0 0] CT
0.149 GC
2 setlinecap
10.0 ML
N
73 107.222 M
77.34 107.222 L
S
GR
GS
[0.75 0 0 0.75 0 0] CT
0.149 GC
2 setlinecap
10.0 ML
N
73 69.111 M
77.34 69.111 L
S
GR
GS
[0.75 0 0 0.75 0 0] CT
0.149 GC
2 setlinecap
10.0 ML
N
73 31 M
77.34 31 L
S
GR
GS
[0.75 0 0 0.75 0 0] CT
0.149 GC
2 setlinecap
10.0 ML
N
507 374 M
502.66 374 L
S
GR
GS
[0.75 0 0 0.75 0 0] CT
0.149 GC
2 setlinecap
10.0 ML
N
507 335.889 M
502.66 335.889 L
S
GR
GS
[0.75 0 0 0.75 0 0] CT
0.149 GC
2 setlinecap
10.0 ML
N
507 297.778 M
502.66 297.778 L
S
GR
GS
[0.75 0 0 0.75 0 0] CT
0.149 GC
2 setlinecap
10.0 ML
N
507 259.667 M
502.66 259.667 L
S
GR
GS
[0.75 0 0 0.75 0 0] CT
0.149 GC
2 setlinecap
10.0 ML
N
507 221.556 M
502.66 221.556 L
S
GR
GS
[0.75 0 0 0.75 0 0] CT
0.149 GC
2 setlinecap
10.0 ML
N
507 183.444 M
502.66 183.444 L
S
GR
GS
[0.75 0 0 0.75 0 0] CT
0.149 GC
2 setlinecap
10.0 ML
N
507 145.333 M
502.66 145.333 L
S
GR
GS
[0.75 0 0 0.75 0 0] CT
0.149 GC
2 setlinecap
10.0 ML
N
507 107.222 M
502.66 107.222 L
S
GR
GS
[0.75 0 0 0.75 0 0] CT
0.149 GC
2 setlinecap
10.0 ML
N
507 69.111 M
502.66 69.111 L
S
GR
GS
[0.75 0 0 0.75 0 0] CT
0.149 GC
2 setlinecap
10.0 ML
N
507 31 M
502.66 31 L
S
GR
GS
[0.75 0 0 0.75 50.75 280.5] CT
0.149 GC
/Helvetica 13 F
GS
[1 0 0 1 0 0] CT
-22 5.5 moveto 
1 -1 scale
(670) t 
GR
GR
GS
[0.75 0 0 0.75 50.75 251.91666] CT
0.149 GC
/Helvetica 13 F
GS
[1 0 0 1 0 0] CT
-22 5.5 moveto 
1 -1 scale
(672) t 
GR
GR
GS
[0.75 0 0 0.75 50.75 223.33333] CT
0.149 GC
/Helvetica 13 F
GS
[1 0 0 1 0 0] CT
-22 5.5 moveto 
1 -1 scale
(674) t 
GR
GR
GS
[0.75 0 0 0.75 50.75 194.74999] CT
0.149 GC
/Helvetica 13 F
GS
[1 0 0 1 0 0] CT
-22 5.5 moveto 
1 -1 scale
(676) t 
GR
GR
GS
[0.75 0 0 0.75 50.75 166.16667] CT
0.149 GC
/Helvetica 13 F
GS
[1 0 0 1 0 0] CT
-22 5.5 moveto 
1 -1 scale
(678) t 
GR
GR
GS
[0.75 0 0 0.75 50.75 137.58333] CT
0.149 GC
/Helvetica 13 F
GS
[1 0 0 1 0 0] CT
-22 5.5 moveto 
1 -1 scale
(680) t 
GR
GR
GS
[0.75 0 0 0.75 50.75 109] CT
0.149 GC
/Helvetica 13 F
GS
[1 0 0 1 0 0] CT
-22 5.5 moveto 
1 -1 scale
(682) t 
GR
GR
GS
[0.75 0 0 0.75 50.75 80.41667] CT
0.149 GC
/Helvetica 13 F
GS
[1 0 0 1 0 0] CT
-22 5.5 moveto 
1 -1 scale
(684) t 
GR
GR
GS
[0.75 0 0 0.75 50.75 51.83334] CT
0.149 GC
/Helvetica 13 F
GS
[1 0 0 1 0 0] CT
-22 5.5 moveto 
1 -1 scale
(686) t 
GR
GR
GS
[0.75 0 0 0.75 50.75 23.25] CT
0.149 GC
/Helvetica 13 F
GS
[1 0 0 1 0 0] CT
-22 5.5 moveto 
1 -1 scale
(688) t 
GR
GR
GS
[0.75 0 0 0.75 0 0] CT
0 0.447 0.741 RC
2 LJ
N
73.723 97.694 M
74.447 52.914 L
75.17 82.259 L
75.893 141.903 L
76.617 180.967 L
77.34 176.965 L
78.063 152.956 L
78.787 148.954 L
79.51 166.485 L
80.233 162.293 L
80.957 161.721 L
81.68 171.439 L
82.403 228.225 L
83.127 241.183 L
83.85 221.365 L
84.573 145.524 L
85.297 111.986 L
86.02 198.308 L
86.743 293.395 L
87.467 331.697 L
88.19 280.056 L
88.913 216.601 L
89.637 196.021 L
90.36 144.19 L
91.083 117.893 L
91.807 145.333 L
92.53 176.775 L
93.253 197.355 L
93.977 218.887 L
94.7 243.47 L
95.423 239.849 L
96.147 224.795 L
96.87 230.131 L
97.593 213.933 L
98.317 207.645 L
99.04 199.832 L
99.763 186.493 L
100.487 188.97 L
101.21 204.025 L
101.933 190.686 L
102.657 195.64 L
103.38 198.498 L
104.103 190.113 L
104.827 168.391 L
105.55 147.429 L
106.273 144.381 L
106.997 141.903 L
107.72 144.952 L
108.443 148.382 L
109.167 145.333 L
S
GR
GS
[0.75 0 0 0.75 0 0] CT
0 0.447 0.741 RC
2 LJ
N
109.167 145.333 M
109.89 149.716 L
110.613 154.289 L
111.337 167.248 L
112.06 177.347 L
112.783 179.253 L
113.507 178.299 L
114.23 179.633 L
114.953 175.822 L
115.677 181.349 L
116.4 181.539 L
117.123 185.731 L
117.847 185.54 L
118.57 191.638 L
119.293 199.07 L
120.017 199.07 L
120.74 193.925 L
121.463 194.497 L
122.187 200.595 L
122.91 196.974 L
123.633 190.686 L
124.357 194.116 L
125.08 199.452 L
125.803 209.932 L
126.527 198.118 L
127.25 200.595 L
127.973 202.691 L
128.697 192.21 L
129.42 182.11 L
130.143 172.583 L
130.867 168.391 L
131.59 166.675 L
132.313 172.012 L
133.037 151.05 L
133.76 147.429 L
134.483 158.672 L
135.207 163.627 L
135.93 158.482 L
136.653 156.957 L
137.377 150.479 L
138.1 147.429 L
138.823 143.618 L
139.547 149.716 L
140.27 154.67 L
140.993 138.283 L
141.717 139.997 L
142.44 143.809 L
143.163 146.095 L
143.887 134.472 L
144.61 135.996 L
S
GR
GS
[0.75 0 0 0.75 0 0] CT
0 0.447 0.741 RC
2 LJ
N
144.61 135.996 M
145.333 136.949 L
146.057 151.05 L
146.78 158.672 L
147.503 159.244 L
148.227 160.197 L
148.95 155.623 L
149.673 160.006 L
150.397 160.387 L
151.12 157.72 L
151.843 160.387 L
152.567 166.294 L
153.29 159.816 L
154.013 168.962 L
154.737 175.632 L
155.46 184.969 L
156.183 184.778 L
156.907 178.299 L
157.63 181.539 L
158.353 176.203 L
159.077 175.632 L
159.8 158.1 L
160.523 154.099 L
161.247 153.336 L
161.97 153.527 L
162.693 153.146 L
163.417 172.773 L
164.14 186.493 L
164.863 205.93 L
165.587 249.377 L
166.31 256.046 L
167.033 235.085 L
167.757 228.415 L
168.48 194.877 L
169.203 167.628 L
169.927 153.146 L
170.65 141.142 L
171.373 138.474 L
172.097 143.238 L
172.82 128.183 L
173.543 113.891 L
174.267 107.984 L
174.99 127.04 L
175.713 137.33 L
176.437 138.283 L
177.16 148.763 L
177.883 149.145 L
178.607 106.079 L
179.33 120.752 L
180.053 149.906 L
S
GR
GS
[0.75 0 0 0.75 0 0] CT
0 0.447 0.741 RC
2 LJ
N
180.053 149.906 M
180.777 188.018 L
181.5 179.253 L
182.223 163.817 L
182.947 207.836 L
183.67 272.243 L
184.393 285.582 L
185.117 292.823 L
185.84 318.549 L
186.563 351.705 L
187.287 320.835 L
188.01 305.21 L
188.733 332.459 L
189.457 348.085 L
190.18 330.363 L
190.903 312.069 L
191.627 297.206 L
192.35 289.584 L
193.073 319.882 L
193.797 309.783 L
194.52 311.688 L
195.243 292.442 L
195.967 284.439 L
196.69 285.582 L
197.413 288.822 L
198.137 283.868 L
198.86 273.197 L
199.583 259.857 L
200.307 246.709 L
201.03 241.754 L
201.753 244.613 L
202.477 260.81 L
203.2 290.155 L
203.923 289.966 L
204.647 281.39 L
205.37 281.771 L
206.093 292.061 L
206.817 292.252 L
207.54 289.775 L
208.263 290.537 L
208.987 296.253 L
209.71 308.83 L
210.433 313.403 L
211.157 305.59 L
211.88 308.067 L
212.603 297.778 L
213.327 289.393 L
214.05 281.581 L
214.773 282.534 L
215.497 278.722 L
S
GR
GS
[0.75 0 0 0.75 0 0] CT
0 0.447 0.741 RC
2 LJ
N
215.497 278.722 M
216.22 280.438 L
216.943 280.818 L
217.667 278.15 L
218.39 273.768 L
219.113 272.053 L
219.837 284.058 L
220.56 287.488 L
221.283 280.438 L
222.007 270.719 L
222.73 286.154 L
223.453 285.773 L
224.177 274.72 L
224.9 279.294 L
225.623 289.203 L
226.347 275.674 L
227.07 275.863 L
227.793 270.91 L
228.517 278.722 L
229.24 285.963 L
229.963 280.056 L
230.687 277.197 L
231.41 277.197 L
232.133 280.627 L
232.857 280.627 L
233.58 286.154 L
234.303 286.154 L
235.027 279.866 L
235.75 271.672 L
236.473 270.91 L
237.197 267.099 L
237.92 265.192 L
238.643 259.667 L
239.367 251.473 L
240.09 258.333 L
240.813 254.331 L
241.537 268.051 L
242.26 269.004 L
242.983 258.714 L
243.707 246.9 L
244.43 238.515 L
245.153 230.511 L
245.877 221.174 L
246.6 224.795 L
247.323 226.129 L
248.047 232.988 L
248.77 231.083 L
249.493 234.322 L
250.217 239.659 L
250.94 243.088 L
S
GR
GS
[0.75 0 0 0.75 0 0] CT
0 0.447 0.741 RC
2 LJ
N
250.94 243.088 M
251.663 251.473 L
252.387 253.187 L
253.11 261.572 L
253.833 255.855 L
254.557 262.335 L
255.28 267.479 L
256.003 273.197 L
256.727 273.768 L
257.45 289.966 L
258.173 283.105 L
258.897 279.675 L
259.62 276.245 L
260.343 238.706 L
261.067 234.322 L
261.79 234.895 L
262.513 216.982 L
263.237 212.219 L
263.96 192.781 L
264.683 179.633 L
265.407 143.047 L
266.13 143.809 L
266.853 160.768 L
267.577 159.434 L
268.3 149.145 L
269.023 152.575 L
269.747 158.672 L
270.47 165.341 L
271.193 177.919 L
271.917 182.301 L
272.64 183.635 L
273.363 168.009 L
274.087 161.15 L
274.81 156.004 L
275.533 157.529 L
276.257 166.675 L
276.98 178.108 L
277.703 176.585 L
278.427 179.824 L
279.15 193.925 L
279.873 194.877 L
280.597 183.254 L
281.32 177.919 L
282.043 179.442 L
282.767 177.728 L
283.49 172.201 L
284.213 172.012 L
284.937 168.391 L
285.66 178.299 L
286.383 178.299 L
S
GR
GS
[0.75 0 0 0.75 0 0] CT
0 0.447 0.741 RC
2 LJ
N
286.383 178.299 M
287.107 176.394 L
287.83 180.205 L
288.553 187.256 L
289.277 184.969 L
290 187.256 L
290.723 193.544 L
291.447 194.116 L
292.17 187.256 L
292.893 189.924 L
293.617 193.734 L
294.34 194.497 L
295.063 189.733 L
295.787 189.924 L
296.51 188.781 L
297.233 178.49 L
297.957 176.394 L
298.68 181.539 L
299.403 180.776 L
300.127 186.493 L
300.85 186.684 L
301.573 187.636 L
302.297 189.924 L
303.02 196.021 L
303.743 204.787 L
304.467 201.738 L
305.19 186.493 L
305.913 182.492 L
306.637 180.586 L
307.36 185.16 L
308.083 179.824 L
308.807 183.635 L
309.53 190.113 L
310.253 191.638 L
310.977 184.206 L
311.7 184.588 L
312.423 193.544 L
313.147 195.45 L
313.87 196.974 L
314.593 188.59 L
315.317 190.495 L
316.04 193.925 L
316.763 192.02 L
317.487 181.158 L
318.21 185.731 L
318.933 199.641 L
319.657 194.877 L
320.38 196.402 L
321.103 188.97 L
321.827 191.829 L
S
GR
GS
[0.75 0 0 0.75 0 0] CT
0 0.447 0.741 RC
2 LJ
N
321.827 191.829 M
322.55 189.542 L
323.273 190.876 L
323.997 175.251 L
324.72 180.396 L
325.443 179.062 L
326.167 183.063 L
326.89 185.16 L
327.613 193.163 L
328.337 192.02 L
329.06 184.017 L
329.783 188.59 L
330.507 190.113 L
331.23 192.591 L
331.953 194.688 L
332.677 188.208 L
333.4 180.015 L
334.123 183.635 L
334.847 185.54 L
335.57 187.065 L
336.293 189.733 L
337.017 186.493 L
337.74 181.92 L
338.463 184.397 L
339.187 180.586 L
339.91 182.301 L
340.633 181.349 L
341.357 190.686 L
342.08 195.64 L
342.803 196.784 L
343.527 201.357 L
344.25 175.441 L
344.973 150.479 L
345.697 144.761 L
346.42 151.431 L
347.143 167.437 L
347.867 164.58 L
348.59 167.437 L
349.313 173.535 L
350.037 188.59 L
350.76 190.495 L
351.483 192.21 L
352.207 193.544 L
352.93 202.691 L
353.653 229.94 L
354.377 226.129 L
355.1 219.65 L
355.823 213.553 L
356.547 213.743 L
357.27 216.03 L
S
GR
GS
[0.75 0 0 0.75 0 0] CT
0 0.447 0.741 RC
2 LJ
N
357.27 216.03 M
357.993 216.982 L
358.717 207.073 L
359.44 204.596 L
360.163 206.692 L
360.887 204.596 L
361.61 200.784 L
362.333 201.928 L
363.057 197.164 L
363.78 194.497 L
364.503 192.972 L
365.227 196.593 L
365.95 197.164 L
366.673 195.64 L
367.397 200.784 L
368.12 202.119 L
368.843 197.355 L
369.567 194.877 L
370.29 195.068 L
371.013 200.784 L
371.737 204.216 L
372.46 195.64 L
373.183 183.826 L
373.907 184.778 L
374.63 186.874 L
375.353 186.113 L
376.077 188.97 L
376.8 189.161 L
377.523 186.874 L
378.247 187.447 L
378.97 191.257 L
379.693 189.733 L
380.417 187.447 L
381.14 189.924 L
381.863 186.493 L
382.587 186.684 L
383.31 188.781 L
384.033 187.065 L
384.757 184.206 L
385.48 181.349 L
386.203 187.827 L
386.927 196.211 L
387.65 189.542 L
388.373 189.733 L
389.097 185.54 L
389.82 183.826 L
390.543 184.969 L
391.267 186.684 L
391.99 182.301 L
392.713 184.206 L
S
GR
GS
[0.75 0 0 0.75 0 0] CT
0 0.447 0.741 RC
2 LJ
N
392.713 184.206 M
393.437 185.16 L
394.16 187.256 L
394.883 188.018 L
395.607 203.834 L
396.33 200.784 L
397.053 191.829 L
397.777 191.638 L
398.5 189.352 L
399.223 185.16 L
399.947 185.54 L
400.67 177.347 L
401.393 172.012 L
402.117 168.771 L
402.84 169.725 L
403.563 175.822 L
404.287 174.298 L
405.01 194.116 L
405.733 199.07 L
406.457 184.969 L
407.18 187.447 L
407.903 185.35 L
408.627 176.775 L
409.35 182.301 L
410.073 189.352 L
410.797 178.108 L
411.52 174.869 L
412.243 179.442 L
412.967 178.299 L
413.69 184.588 L
414.413 182.11 L
415.137 191.257 L
415.86 188.399 L
416.583 186.874 L
417.307 185.16 L
418.03 177.728 L
418.753 176.394 L
419.477 183.063 L
420.2 180.967 L
420.923 181.349 L
421.647 175.06 L
422.37 176.965 L
423.093 180.205 L
423.817 175.822 L
424.54 183.254 L
425.263 177.347 L
425.987 182.492 L
426.71 188.399 L
427.433 186.874 L
428.157 188.018 L
S
GR
GS
[0.75 0 0 0.75 0 0] CT
0 0.447 0.741 RC
2 LJ
N
428.157 188.018 M
428.88 190.876 L
429.603 191.829 L
430.327 191.638 L
431.05 174.869 L
431.773 175.441 L
432.497 175.822 L
433.22 180.396 L
433.943 185.922 L
434.667 184.969 L
435.39 187.065 L
436.113 182.683 L
436.837 191.638 L
437.56 181.92 L
438.283 178.871 L
439.007 189.733 L
439.73 177.728 L
440.453 179.442 L
441.177 177.728 L
441.9 180.015 L
442.623 182.683 L
443.347 177.347 L
444.07 186.303 L
444.793 178.108 L
445.517 172.392 L
446.24 171.821 L
446.963 171.63 L
447.687 167.819 L
448.41 166.294 L
449.133 163.627 L
449.857 173.726 L
450.58 168.962 L
451.303 166.866 L
452.027 172.964 L
452.75 165.341 L
453.473 157.338 L
454.197 162.484 L
454.92 171.63 L
455.643 172.201 L
456.367 172.392 L
457.09 168.962 L
457.813 176.203 L
458.537 175.251 L
459.26 173.344 L
459.983 176.394 L
460.707 176.394 L
461.43 173.726 L
462.153 174.107 L
462.877 173.535 L
463.6 171.63 L
S
GR
GS
[0.75 0 0 0.75 0 0] CT
0 0.447 0.741 RC
2 LJ
N
463.6 171.63 M
464.323 171.63 L
465.047 175.06 L
465.77 175.632 L
466.493 177.919 L
467.217 169.725 L
467.94 174.869 L
468.663 180.967 L
469.387 177.156 L
470.11 170.296 L
470.833 175.251 L
471.557 175.251 L
472.28 169.344 L
473.003 162.102 L
473.727 164.77 L
474.45 164.77 L
475.173 163.436 L
475.897 163.436 L
476.62 169.534 L
477.343 167.628 L
478.067 169.534 L
478.79 165.723 L
479.513 162.102 L
480.237 164.58 L
480.96 168.2 L
481.683 171.63 L
482.407 177.156 L
483.13 179.253 L
483.853 175.251 L
484.577 179.253 L
485.3 184.397 L
486.023 186.684 L
486.747 177.919 L
487.47 182.11 L
S
GR
%%Trailer
%%Pages: 1
%%EOF
