%!PS-Adobe-3.0 EPSF-3.0
%%Creator: (MATLAB, The Mathworks, Inc. Version 8.5.0.197613 \(R2015a\). Operating System: Windows 8)
%%Title: (C:/Users/aleja/Desktop/TFG/Documentaci\363n/Obtenci\363n de datos/matlab_plot/plots/alvaro12-08.eps)
%%CreationDate: 2019-05-22T00:01:49
%%Pages: (atend)
%%BoundingBox: 0 0 420 315
%%LanguageLevel: 2
%%EndComments
%%BeginProlog
%%BeginResource: procset (Apache XML Graphics Std ProcSet) 1.2 0
%%Version: 1.2 0
%%Copyright: (Copyright 2001-2003,2010 The Apache Software Foundation. License terms: http://www.apache.org/licenses/LICENSE-2.0)
/bd{bind def}bind def
/ld{load def}bd
/GR/grestore ld
/M/moveto ld
/LJ/setlinejoin ld
/C/curveto ld
/f/fill ld
/LW/setlinewidth ld
/GC/setgray ld
/t/show ld
/N/newpath ld
/CT/concat ld
/cp/closepath ld
/S/stroke ld
/L/lineto ld
/CC/setcmykcolor ld
/A/ashow ld
/GS/gsave ld
/RC/setrgbcolor ld
/RM/rmoveto ld
/ML/setmiterlimit ld
/re {4 2 roll M
1 index 0 rlineto
0 exch rlineto
neg 0 rlineto
cp } bd
/_ctm matrix def
/_tm matrix def
/BT { _ctm currentmatrix pop matrix _tm copy pop 0 0 moveto } bd
/ET { _ctm setmatrix } bd
/iTm { _ctm setmatrix _tm concat } bd
/Tm { _tm astore pop iTm 0 0 moveto } bd
/ux 0.0 def
/uy 0.0 def
/F {
  /Tp exch def
  /Tf exch def
  Tf findfont Tp scalefont setfont
  /cf Tf def  /cs Tp def
} bd
/ULS {currentpoint /uy exch def /ux exch def} bd
/ULE {
  /Tcx currentpoint pop def
  gsave
  newpath
  cf findfont cs scalefont dup
  /FontMatrix get 0 get /Ts exch def /FontInfo get dup
  /UnderlinePosition get Ts mul /To exch def
  /UnderlineThickness get Ts mul /Tt exch def
  ux uy To add moveto  Tcx uy To add lineto
  Tt setlinewidth stroke
  grestore
} bd
/OLE {
  /Tcx currentpoint pop def
  gsave
  newpath
  cf findfont cs scalefont dup
  /FontMatrix get 0 get /Ts exch def /FontInfo get dup
  /UnderlinePosition get Ts mul /To exch def
  /UnderlineThickness get Ts mul /Tt exch def
  ux uy To add cs add moveto Tcx uy To add cs add lineto
  Tt setlinewidth stroke
  grestore
} bd
/SOE {
  /Tcx currentpoint pop def
  gsave
  newpath
  cf findfont cs scalefont dup
  /FontMatrix get 0 get /Ts exch def /FontInfo get dup
  /UnderlinePosition get Ts mul /To exch def
  /UnderlineThickness get Ts mul /Tt exch def
  ux uy To add cs 10 mul 26 idiv add moveto Tcx uy To add cs 10 mul 26 idiv add lineto
  Tt setlinewidth stroke
  grestore
} bd
/QT {
/Y22 exch store
/X22 exch store
/Y21 exch store
/X21 exch store
currentpoint
/Y21 load 2 mul add 3 div exch
/X21 load 2 mul add 3 div exch
/X21 load 2 mul /X22 load add 3 div
/Y21 load 2 mul /Y22 load add 3 div
/X22 load /Y22 load curveto
} bd
/SSPD {
dup length /d exch dict def
{
/v exch def
/k exch def
currentpagedevice k known {
/cpdv currentpagedevice k get def
v cpdv ne {
/upd false def
/nullv v type /nulltype eq def
/nullcpdv cpdv type /nulltype eq def
nullv nullcpdv or
{
/upd true def
} {
/sametype v type cpdv type eq def
sametype {
v type /arraytype eq {
/vlen v length def
/cpdvlen cpdv length def
vlen cpdvlen eq {
0 1 vlen 1 sub {
/i exch def
/obj v i get def
/cpdobj cpdv i get def
obj cpdobj ne {
/upd true def
exit
} if
} for
} {
/upd true def
} ifelse
} {
v type /dicttype eq {
v {
/dv exch def
/dk exch def
/cpddv cpdv dk get def
dv cpddv ne {
/upd true def
exit
} if
} forall
} {
/upd true def
} ifelse
} ifelse
} if
} ifelse
upd true eq {
d k v put
} if
} if
} if
} forall
d length 0 gt {
d setpagedevice
} if
} bd
%%EndResource
%%BeginResource: procset (Apache XML Graphics EPS ProcSet) 1.0 0
%%Version: 1.0 0
%%Copyright: (Copyright 2002-2003 The Apache Software Foundation. License terms: http://www.apache.org/licenses/LICENSE-2.0)
/BeginEPSF { %def
/b4_Inc_state save def         % Save state for cleanup
/dict_count countdictstack def % Count objects on dict stack
/op_count count 1 sub def      % Count objects on operand stack
userdict begin                 % Push userdict on dict stack
/showpage { } def              % Redefine showpage, { } = null proc
0 setgray 0 setlinecap         % Prepare graphics state
1 setlinewidth 0 setlinejoin
10 setmiterlimit [ ] 0 setdash newpath
/languagelevel where           % If level not equal to 1 then
{pop languagelevel             % set strokeadjust and
1 ne                           % overprint to their defaults.
{false setstrokeadjust false setoverprint
} if
} if
} bd
/EndEPSF { %def
count op_count sub {pop} repeat            % Clean up stacks
countdictstack dict_count sub {end} repeat
b4_Inc_state restore
} bd
%%EndResource
%FOPBeginFontDict
%%IncludeResource: font Courier-Bold
%%IncludeResource: font Helvetica
%%IncludeResource: font Courier-BoldOblique
%%IncludeResource: font Courier-Oblique
%%IncludeResource: font Times-Roman
%%IncludeResource: font Helvetica-BoldOblique
%%IncludeResource: font Helvetica-Bold
%%IncludeResource: font Helvetica-Oblique
%%IncludeResource: font Times-BoldItalic
%%IncludeResource: font Courier
%%IncludeResource: font Times-Italic
%%IncludeResource: font Times-Bold
%%IncludeResource: font Symbol
%%IncludeResource: font ZapfDingbats
%FOPEndFontDict
%%BeginResource: encoding WinAnsiEncoding
/WinAnsiEncoding [
/.notdef /.notdef /.notdef /.notdef /.notdef
/.notdef /.notdef /.notdef /.notdef /.notdef
/.notdef /.notdef /.notdef /.notdef /.notdef
/.notdef /.notdef /.notdef /.notdef /.notdef
/.notdef /.notdef /.notdef /.notdef /.notdef
/.notdef /.notdef /.notdef /.notdef /.notdef
/.notdef /.notdef /space /exclam /quotedbl
/numbersign /dollar /percent /ampersand /quotesingle
/parenleft /parenright /asterisk /plus /comma
/hyphen /period /slash /zero /one
/two /three /four /five /six
/seven /eight /nine /colon /semicolon
/less /equal /greater /question /at
/A /B /C /D /E
/F /G /H /I /J
/K /L /M /N /O
/P /Q /R /S /T
/U /V /W /X /Y
/Z /bracketleft /backslash /bracketright /asciicircum
/underscore /quoteleft /a /b /c
/d /e /f /g /h
/i /j /k /l /m
/n /o /p /q /r
/s /t /u /v /w
/x /y /z /braceleft /bar
/braceright /asciitilde /bullet /Euro /bullet
/quotesinglbase /florin /quotedblbase /ellipsis /dagger
/daggerdbl /circumflex /perthousand /Scaron /guilsinglleft
/OE /bullet /Zcaron /bullet /bullet
/quoteleft /quoteright /quotedblleft /quotedblright /bullet
/endash /emdash /asciitilde /trademark /scaron
/guilsinglright /oe /bullet /zcaron /Ydieresis
/space /exclamdown /cent /sterling /currency
/yen /brokenbar /section /dieresis /copyright
/ordfeminine /guillemotleft /logicalnot /sfthyphen /registered
/macron /degree /plusminus /twosuperior /threesuperior
/acute /mu /paragraph /middot /cedilla
/onesuperior /ordmasculine /guillemotright /onequarter /onehalf
/threequarters /questiondown /Agrave /Aacute /Acircumflex
/Atilde /Adieresis /Aring /AE /Ccedilla
/Egrave /Eacute /Ecircumflex /Edieresis /Igrave
/Iacute /Icircumflex /Idieresis /Eth /Ntilde
/Ograve /Oacute /Ocircumflex /Otilde /Odieresis
/multiply /Oslash /Ugrave /Uacute /Ucircumflex
/Udieresis /Yacute /Thorn /germandbls /agrave
/aacute /acircumflex /atilde /adieresis /aring
/ae /ccedilla /egrave /eacute /ecircumflex
/edieresis /igrave /iacute /icircumflex /idieresis
/eth /ntilde /ograve /oacute /ocircumflex
/otilde /odieresis /divide /oslash /ugrave
/uacute /ucircumflex /udieresis /yacute /thorn
/ydieresis
] def
%%EndResource
%FOPBeginFontReencode
/Courier-Bold findfont
dup length dict begin
  {1 index /FID ne {def} {pop pop} ifelse} forall
  /Encoding WinAnsiEncoding def
  currentdict
end
/Courier-Bold exch definefont pop
/Helvetica findfont
dup length dict begin
  {1 index /FID ne {def} {pop pop} ifelse} forall
  /Encoding WinAnsiEncoding def
  currentdict
end
/Helvetica exch definefont pop
/Courier-BoldOblique findfont
dup length dict begin
  {1 index /FID ne {def} {pop pop} ifelse} forall
  /Encoding WinAnsiEncoding def
  currentdict
end
/Courier-BoldOblique exch definefont pop
/Courier-Oblique findfont
dup length dict begin
  {1 index /FID ne {def} {pop pop} ifelse} forall
  /Encoding WinAnsiEncoding def
  currentdict
end
/Courier-Oblique exch definefont pop
/Times-Roman findfont
dup length dict begin
  {1 index /FID ne {def} {pop pop} ifelse} forall
  /Encoding WinAnsiEncoding def
  currentdict
end
/Times-Roman exch definefont pop
/Helvetica-BoldOblique findfont
dup length dict begin
  {1 index /FID ne {def} {pop pop} ifelse} forall
  /Encoding WinAnsiEncoding def
  currentdict
end
/Helvetica-BoldOblique exch definefont pop
/Helvetica-Bold findfont
dup length dict begin
  {1 index /FID ne {def} {pop pop} ifelse} forall
  /Encoding WinAnsiEncoding def
  currentdict
end
/Helvetica-Bold exch definefont pop
/Helvetica-Oblique findfont
dup length dict begin
  {1 index /FID ne {def} {pop pop} ifelse} forall
  /Encoding WinAnsiEncoding def
  currentdict
end
/Helvetica-Oblique exch definefont pop
/Times-BoldItalic findfont
dup length dict begin
  {1 index /FID ne {def} {pop pop} ifelse} forall
  /Encoding WinAnsiEncoding def
  currentdict
end
/Times-BoldItalic exch definefont pop
/Courier findfont
dup length dict begin
  {1 index /FID ne {def} {pop pop} ifelse} forall
  /Encoding WinAnsiEncoding def
  currentdict
end
/Courier exch definefont pop
/Times-Italic findfont
dup length dict begin
  {1 index /FID ne {def} {pop pop} ifelse} forall
  /Encoding WinAnsiEncoding def
  currentdict
end
/Times-Italic exch definefont pop
/Times-Bold findfont
dup length dict begin
  {1 index /FID ne {def} {pop pop} ifelse} forall
  /Encoding WinAnsiEncoding def
  currentdict
end
/Times-Bold exch definefont pop
%FOPEndFontReencode
%%EndProlog
%%Page: 1 1
%%PageBoundingBox: 0 0 420 315
%%BeginPageSetup
[1 0 0 -1 0 315] CT
%%EndPageSetup
GS
[0.75 0 0 0.75 0 0] CT
1 GC
N
0 0 560 420 re
f
GR
GS
[0.75 0 0 0.75 0 0] CT
1 GC
N
0 0 560 420 re
f
GR
GS
[0.75 0 0 0.75 0 0] CT
1 GC
N
73 374 M
507 374 L
507 31 L
73 31 L
cp
f
GR
GS
[0.75 0 0 0.75 0 0] CT
0.149 GC
2 setlinecap
10.0 ML
N
73 374 M
507 374 L
S
GR
GS
[0.75 0 0 0.75 0 0] CT
0.149 GC
2 setlinecap
10.0 ML
N
73 31 M
507 31 L
S
GR
GS
[0.75 0 0 0.75 0 0] CT
0.149 GC
2 setlinecap
10.0 ML
N
73 374 M
73 369.66 L
S
GR
GS
[0.75 0 0 0.75 0 0] CT
0.149 GC
2 setlinecap
10.0 ML
N
145.333 374 M
145.333 369.66 L
S
GR
GS
[0.75 0 0 0.75 0 0] CT
0.149 GC
2 setlinecap
10.0 ML
N
217.667 374 M
217.667 369.66 L
S
GR
GS
[0.75 0 0 0.75 0 0] CT
0.149 GC
2 setlinecap
10.0 ML
N
290 374 M
290 369.66 L
S
GR
GS
[0.75 0 0 0.75 0 0] CT
0.149 GC
2 setlinecap
10.0 ML
N
362.333 374 M
362.333 369.66 L
S
GR
GS
[0.75 0 0 0.75 0 0] CT
0.149 GC
2 setlinecap
10.0 ML
N
434.667 374 M
434.667 369.66 L
S
GR
GS
[0.75 0 0 0.75 0 0] CT
0.149 GC
2 setlinecap
10.0 ML
N
507 374 M
507 369.66 L
S
GR
GS
[0.75 0 0 0.75 0 0] CT
0.149 GC
2 setlinecap
10.0 ML
N
73 31 M
73 35.34 L
S
GR
GS
[0.75 0 0 0.75 0 0] CT
0.149 GC
2 setlinecap
10.0 ML
N
145.333 31 M
145.333 35.34 L
S
GR
GS
[0.75 0 0 0.75 0 0] CT
0.149 GC
2 setlinecap
10.0 ML
N
217.667 31 M
217.667 35.34 L
S
GR
GS
[0.75 0 0 0.75 0 0] CT
0.149 GC
2 setlinecap
10.0 ML
N
290 31 M
290 35.34 L
S
GR
GS
[0.75 0 0 0.75 0 0] CT
0.149 GC
2 setlinecap
10.0 ML
N
362.333 31 M
362.333 35.34 L
S
GR
GS
[0.75 0 0 0.75 0 0] CT
0.149 GC
2 setlinecap
10.0 ML
N
434.667 31 M
434.667 35.34 L
S
GR
GS
[0.75 0 0 0.75 0 0] CT
0.149 GC
2 setlinecap
10.0 ML
N
507 31 M
507 35.34 L
S
GR
GS
[0.75 0 0 0.75 54.75 284.50005] CT
0.149 GC
/Helvetica 13 F
GS
[1 0 0 1 0 0] CT
-4 14 moveto 
1 -1 scale
(0) t 
GR
GR
GS
[0.75 0 0 0.75 109 284.50005] CT
0.149 GC
/Helvetica 13 F
GS
[1 0 0 1 0 0] CT
-11 14 moveto 
1 -1 scale
(200) t 
GR
GR
GS
[0.75 0 0 0.75 163.25 284.50005] CT
0.149 GC
/Helvetica 13 F
GS
[1 0 0 1 0 0] CT
-11 14 moveto 
1 -1 scale
(400) t 
GR
GR
GS
[0.75 0 0 0.75 217.5 284.50005] CT
0.149 GC
/Helvetica 13 F
GS
[1 0 0 1 0 0] CT
-11 14 moveto 
1 -1 scale
(600) t 
GR
GR
GS
[0.75 0 0 0.75 271.75001 284.50005] CT
0.149 GC
/Helvetica 13 F
GS
[1 0 0 1 0 0] CT
-11 14 moveto 
1 -1 scale
(800) t 
GR
GR
GS
[0.75 0 0 0.75 325.99999 284.50005] CT
0.149 GC
/Helvetica 13 F
GS
[1 0 0 1 0 0] CT
-14.5 14 moveto 
1 -1 scale
(1000) t 
GR
GR
GS
[0.75 0 0 0.75 380.25 284.50005] CT
0.149 GC
/Helvetica 13 F
GS
[1 0 0 1 0 0] CT
-14.5 14 moveto 
1 -1 scale
(1200) t 
GR
GR
GS
[0.75 0 0 0.75 0 0] CT
0.149 GC
2 setlinecap
10.0 ML
N
73 374 M
73 31 L
S
GR
GS
[0.75 0 0 0.75 0 0] CT
0.149 GC
2 setlinecap
10.0 ML
N
507 374 M
507 31 L
S
GR
GS
[0.75 0 0 0.75 0 0] CT
0.149 GC
2 setlinecap
10.0 ML
N
73 374 M
77.34 374 L
S
GR
GS
[0.75 0 0 0.75 0 0] CT
0.149 GC
2 setlinecap
10.0 ML
N
73 339.7 M
77.34 339.7 L
S
GR
GS
[0.75 0 0 0.75 0 0] CT
0.149 GC
2 setlinecap
10.0 ML
N
73 305.4 M
77.34 305.4 L
S
GR
GS
[0.75 0 0 0.75 0 0] CT
0.149 GC
2 setlinecap
10.0 ML
N
73 271.1 M
77.34 271.1 L
S
GR
GS
[0.75 0 0 0.75 0 0] CT
0.149 GC
2 setlinecap
10.0 ML
N
73 236.8 M
77.34 236.8 L
S
GR
GS
[0.75 0 0 0.75 0 0] CT
0.149 GC
2 setlinecap
10.0 ML
N
73 202.5 M
77.34 202.5 L
S
GR
GS
[0.75 0 0 0.75 0 0] CT
0.149 GC
2 setlinecap
10.0 ML
N
73 168.2 M
77.34 168.2 L
S
GR
GS
[0.75 0 0 0.75 0 0] CT
0.149 GC
2 setlinecap
10.0 ML
N
73 133.9 M
77.34 133.9 L
S
GR
GS
[0.75 0 0 0.75 0 0] CT
0.149 GC
2 setlinecap
10.0 ML
N
73 99.6 M
77.34 99.6 L
S
GR
GS
[0.75 0 0 0.75 0 0] CT
0.149 GC
2 setlinecap
10.0 ML
N
73 65.3 M
77.34 65.3 L
S
GR
GS
[0.75 0 0 0.75 0 0] CT
0.149 GC
2 setlinecap
10.0 ML
N
73 31 M
77.34 31 L
S
GR
GS
[0.75 0 0 0.75 0 0] CT
0.149 GC
2 setlinecap
10.0 ML
N
507 374 M
502.66 374 L
S
GR
GS
[0.75 0 0 0.75 0 0] CT
0.149 GC
2 setlinecap
10.0 ML
N
507 339.7 M
502.66 339.7 L
S
GR
GS
[0.75 0 0 0.75 0 0] CT
0.149 GC
2 setlinecap
10.0 ML
N
507 305.4 M
502.66 305.4 L
S
GR
GS
[0.75 0 0 0.75 0 0] CT
0.149 GC
2 setlinecap
10.0 ML
N
507 271.1 M
502.66 271.1 L
S
GR
GS
[0.75 0 0 0.75 0 0] CT
0.149 GC
2 setlinecap
10.0 ML
N
507 236.8 M
502.66 236.8 L
S
GR
GS
[0.75 0 0 0.75 0 0] CT
0.149 GC
2 setlinecap
10.0 ML
N
507 202.5 M
502.66 202.5 L
S
GR
GS
[0.75 0 0 0.75 0 0] CT
0.149 GC
2 setlinecap
10.0 ML
N
507 168.2 M
502.66 168.2 L
S
GR
GS
[0.75 0 0 0.75 0 0] CT
0.149 GC
2 setlinecap
10.0 ML
N
507 133.9 M
502.66 133.9 L
S
GR
GS
[0.75 0 0 0.75 0 0] CT
0.149 GC
2 setlinecap
10.0 ML
N
507 99.6 M
502.66 99.6 L
S
GR
GS
[0.75 0 0 0.75 0 0] CT
0.149 GC
2 setlinecap
10.0 ML
N
507 65.3 M
502.66 65.3 L
S
GR
GS
[0.75 0 0 0.75 0 0] CT
0.149 GC
2 setlinecap
10.0 ML
N
507 31 M
502.66 31 L
S
GR
GS
[0.75 0 0 0.75 50.75 280.5] CT
0.149 GC
/Helvetica 13 F
GS
[1 0 0 1 0 0] CT
-22 5.5 moveto 
1 -1 scale
(530) t 
GR
GR
GS
[0.75 0 0 0.75 50.75 254.77501] CT
0.149 GC
/Helvetica 13 F
GS
[1 0 0 1 0 0] CT
-22 5.5 moveto 
1 -1 scale
(540) t 
GR
GR
GS
[0.75 0 0 0.75 50.75 229.05] CT
0.149 GC
/Helvetica 13 F
GS
[1 0 0 1 0 0] CT
-22 5.5 moveto 
1 -1 scale
(550) t 
GR
GR
GS
[0.75 0 0 0.75 50.75 203.325] CT
0.149 GC
/Helvetica 13 F
GS
[1 0 0 1 0 0] CT
-22 5.5 moveto 
1 -1 scale
(560) t 
GR
GR
GS
[0.75 0 0 0.75 50.75 177.6] CT
0.149 GC
/Helvetica 13 F
GS
[1 0 0 1 0 0] CT
-22 5.5 moveto 
1 -1 scale
(570) t 
GR
GR
GS
[0.75 0 0 0.75 50.75 151.875] CT
0.149 GC
/Helvetica 13 F
GS
[1 0 0 1 0 0] CT
-22 5.5 moveto 
1 -1 scale
(580) t 
GR
GR
GS
[0.75 0 0 0.75 50.75 126.15] CT
0.149 GC
/Helvetica 13 F
GS
[1 0 0 1 0 0] CT
-22 5.5 moveto 
1 -1 scale
(590) t 
GR
GR
GS
[0.75 0 0 0.75 50.75 100.425] CT
0.149 GC
/Helvetica 13 F
GS
[1 0 0 1 0 0] CT
-22 5.5 moveto 
1 -1 scale
(600) t 
GR
GR
GS
[0.75 0 0 0.75 50.75 74.7] CT
0.149 GC
/Helvetica 13 F
GS
[1 0 0 1 0 0] CT
-22 5.5 moveto 
1 -1 scale
(610) t 
GR
GR
GS
[0.75 0 0 0.75 50.75 48.975] CT
0.149 GC
/Helvetica 13 F
GS
[1 0 0 1 0 0] CT
-22 5.5 moveto 
1 -1 scale
(620) t 
GR
GR
GS
[0.75 0 0 0.75 50.75 23.25] CT
0.149 GC
/Helvetica 13 F
GS
[1 0 0 1 0 0] CT
-22 5.5 moveto 
1 -1 scale
(630) t 
GR
GR
GS
[0.75 0 0 0.75 0 0] CT
0 0.447 0.741 RC
2 LJ
N
73.362 195.366 M
73.723 194.714 L
74.085 194.234 L
74.447 194.988 L
74.808 196.292 L
75.17 197.904 L
75.532 197.046 L
75.893 209.463 L
76.255 206.891 L
76.617 199.653 L
76.978 194.851 L
77.34 187.682 L
77.702 194.988 L
78.063 199.413 L
78.425 197.767 L
78.787 193.685 L
79.148 196.909 L
79.51 207.302 L
79.872 205.999 L
80.233 201.711 L
80.595 197.115 L
80.957 197.252 L
81.318 200.133 L
81.68 203.563 L
82.042 199.413 L
82.403 196.395 L
82.765 197.252 L
83.127 195.674 L
83.488 191.867 L
83.85 206.616 L
84.212 200.922 L
84.573 192.21 L
84.935 187.751 L
85.297 189.843 L
85.658 190.255 L
86.02 191.181 L
86.382 192.587 L
86.743 192.21 L
87.105 192.69 L
87.467 195.674 L
87.828 196.772 L
88.19 197.184 L
88.552 196.566 L
88.913 195.091 L
89.275 195.88 L
89.637 196.566 L
89.998 197.355 L
90.36 195.777 L
90.722 195.777 L
91.083 197.149 L
S
GR
GS
[0.75 0 0 0.75 0 0] CT
0 0.447 0.741 RC
2 LJ
N
91.083 197.149 M
91.445 198.761 L
91.807 199.447 L
92.168 200.579 L
92.53 202.294 L
92.892 202.569 L
93.253 205.93 L
93.615 202.912 L
93.977 202.088 L
94.338 200.579 L
94.7 200.922 L
95.062 198.967 L
95.423 200.545 L
95.785 200.785 L
96.147 193.308 L
96.508 192.964 L
96.87 192.381 L
97.232 191.078 L
97.593 190.666 L
97.955 192.69 L
98.317 194.851 L
98.678 195.777 L
99.04 188.403 L
99.402 191.044 L
99.763 172.968 L
100.125 155.543 L
100.487 162.163 L
100.848 186.996 L
101.21 187.82 L
101.572 186.722 L
101.933 190.632 L
102.295 193.068 L
102.657 196.875 L
103.018 201.3 L
103.38 204.592 L
103.742 206.17 L
104.103 202.054 L
104.465 198.075 L
104.827 200.442 L
105.188 206.616 L
105.55 216.151 L
105.912 215.431 L
106.273 210.972 L
106.635 216.975 L
106.997 218.312 L
107.358 210.286 L
107.72 209.84 L
108.082 212.413 L
108.443 210.526 L
108.805 211.246 L
S
GR
GS
[0.75 0 0 0.75 0 0] CT
0 0.447 0.741 RC
2 LJ
N
108.805 211.246 M
109.167 212.516 L
109.528 210.835 L
109.89 211.452 L
110.252 212.619 L
110.613 213.888 L
110.975 213.648 L
111.337 211.59 L
111.698 210.835 L
112.06 210.012 L
112.422 209.36 L
112.783 208.845 L
113.145 208.022 L
113.507 207.233 L
113.868 207.062 L
114.23 206.993 L
114.592 205.69 L
114.953 203.941 L
115.315 163.364 L
115.677 147.243 L
116.038 185.899 L
116.4 206.204 L
116.762 223.938 L
117.123 211.418 L
117.485 206.239 L
117.847 209.497 L
118.208 206.17 L
118.57 202.123 L
118.932 203.529 L
119.293 215.088 L
119.655 204.661 L
120.017 207.714 L
120.378 209.051 L
120.74 211.761 L
121.102 206.925 L
121.463 208.605 L
121.825 215.328 L
122.187 214.265 L
122.548 214.093 L
122.91 216.46 L
123.272 225.035 L
123.633 217.523 L
123.995 219.238 L
124.357 214.917 L
124.718 216.632 L
125.08 216.632 L
125.442 216.426 L
125.803 216.22 L
126.165 217.866 L
126.527 217.661 L
S
GR
GS
[0.75 0 0 0.75 0 0] CT
0 0.447 0.741 RC
2 LJ
N
126.527 217.661 M
126.888 220.027 L
127.25 220.439 L
127.612 215.637 L
127.973 214.334 L
128.335 213.202 L
128.697 213.442 L
129.058 212.756 L
129.42 213.064 L
129.782 215.328 L
130.143 215.02 L
130.505 213.751 L
130.867 211.624 L
131.228 210.801 L
131.59 212.79 L
131.952 210.32 L
132.313 208.983 L
132.675 210.115 L
133.037 208.262 L
133.398 208.16 L
133.76 208.125 L
134.122 209.394 L
134.483 209.566 L
134.845 209.223 L
135.207 208.503 L
135.568 209.086 L
135.93 208.674 L
136.292 209.257 L
136.653 208.948 L
137.015 207.748 L
137.377 206.719 L
137.738 206.445 L
138.1 206.376 L
138.462 206.513 L
138.823 207.233 L
139.185 207.199 L
139.547 206.822 L
139.908 205.518 L
140.27 207.13 L
140.632 210.115 L
140.993 209.257 L
141.355 210.595 L
141.717 211.658 L
142.078 213.27 L
142.44 210.766 L
142.802 210.972 L
143.163 210.904 L
143.525 211.692 L
143.887 211.178 L
144.248 206.033 L
S
GR
GS
[0.75 0 0 0.75 0 0] CT
0 0.447 0.741 RC
2 LJ
N
144.248 206.033 M
144.61 194.474 L
144.972 209.531 L
145.333 228.396 L
145.695 225.858 L
146.057 220.713 L
146.418 217.661 L
146.78 217.592 L
147.142 217.626 L
147.503 217.661 L
147.865 216.975 L
148.227 213.819 L
148.588 213.305 L
148.95 214.848 L
149.312 214.299 L
149.673 214.025 L
150.035 215.122 L
150.397 214.128 L
150.758 215.225 L
151.12 215.603 L
151.482 215.157 L
151.843 206.856 L
152.205 200.888 L
152.567 207.302 L
152.928 204.146 L
153.29 237.349 L
153.652 249.285 L
154.013 287.564 L
154.375 333.835 L
154.737 341.312 L
155.098 334.246 L
155.46 330.439 L
155.822 324.985 L
156.183 321.452 L
156.545 319.943 L
156.907 315.553 L
157.268 308.83 L
157.63 302.965 L
157.992 299.878 L
158.353 296.756 L
158.715 294.081 L
159.077 290.891 L
159.438 288.833 L
159.8 285.54 L
160.162 278.68 L
160.523 273.844 L
160.885 269.145 L
161.247 266.675 L
161.608 263.417 L
161.97 261.222 L
S
GR
GS
[0.75 0 0 0.75 0 0] CT
0 0.447 0.741 RC
2 LJ
N
161.97 261.222 M
162.332 259.781 L
162.693 259.781 L
163.055 260.433 L
163.417 261.427 L
163.778 262.422 L
164.14 260.227 L
164.502 258.478 L
164.863 258.341 L
165.225 258.203 L
165.587 258.992 L
165.948 259.472 L
166.31 259.644 L
166.672 261.119 L
167.033 260.879 L
167.395 259.884 L
167.757 257.449 L
168.118 254.876 L
168.48 253.813 L
168.842 255.013 L
169.203 255.494 L
169.565 256.488 L
169.927 256.797 L
170.288 257.586 L
170.65 258.443 L
171.012 257.311 L
171.373 255.528 L
171.735 254.396 L
172.097 254.807 L
172.458 256.763 L
172.82 263.005 L
173.182 261.187 L
173.543 260.021 L
173.905 259.61 L
174.267 259.507 L
174.628 255.082 L
174.99 254.567 L
175.352 255.219 L
175.713 258.443 L
176.075 260.673 L
176.437 257.826 L
176.798 256.797 L
177.16 256.591 L
177.522 254.979 L
177.883 253.127 L
178.245 252.338 L
178.607 251.446 L
178.968 248.874 L
179.33 249.011 L
179.692 249.011 L
S
GR
GS
[0.75 0 0 0.75 0 0] CT
0 0.447 0.741 RC
2 LJ
N
179.692 249.011 M
180.053 248.599 L
180.415 247.913 L
180.777 247.879 L
181.138 247.639 L
181.5 247.261 L
181.862 246.541 L
182.223 247.159 L
182.585 248.085 L
182.947 244.14 L
183.308 246.473 L
183.67 245.546 L
184.032 246.164 L
184.393 246.507 L
184.755 247.947 L
185.117 248.256 L
185.478 247.399 L
185.84 251.035 L
186.202 255.391 L
186.563 255.802 L
186.925 252.441 L
187.287 250.417 L
187.648 249.594 L
188.01 248.393 L
188.372 247.536 L
188.733 245.032 L
189.095 245.787 L
189.457 245.924 L
189.818 246.164 L
190.18 246.541 L
190.542 246.027 L
190.903 246.267 L
191.265 247.193 L
191.627 246.198 L
191.988 245.169 L
192.35 244.792 L
192.712 245.855 L
193.073 246.13 L
193.435 245.958 L
193.797 247.021 L
194.158 246.404 L
194.52 246.164 L
194.882 245.821 L
195.243 245.924 L
195.605 246.404 L
195.967 248.29 L
196.328 248.153 L
196.69 249.868 L
197.052 248.668 L
197.413 248.599 L
S
GR
GS
[0.75 0 0 0.75 0 0] CT
0 0.447 0.741 RC
2 LJ
N
197.413 248.599 M
197.775 245.752 L
198.137 245.615 L
198.498 204.627 L
198.86 247.982 L
199.222 253.127 L
199.583 251.823 L
199.945 250.691 L
200.307 251.343 L
200.668 251.137 L
201.03 249.766 L
201.392 250.314 L
201.753 247.982 L
202.115 250.691 L
202.477 249.697 L
202.838 249.731 L
203.2 249.834 L
203.562 250.246 L
203.923 248.359 L
204.285 247.913 L
204.647 248.016 L
205.008 195.023 L
205.37 228.294 L
205.732 246.541 L
206.093 250.005 L
206.455 250.863 L
206.817 251.309 L
207.178 250.451 L
207.54 251 L
207.902 250.691 L
208.263 250.829 L
208.625 251.035 L
208.987 251 L
209.348 250.726 L
209.71 250.932 L
210.072 252.166 L
210.433 252.921 L
210.795 251.72 L
211.157 252.269 L
211.518 251.618 L
211.88 251.652 L
212.242 251.48 L
212.603 251.48 L
212.965 254.053 L
213.327 256.351 L
213.688 254.807 L
214.05 254.636 L
214.412 254.636 L
214.773 253.779 L
215.135 253.024 L
S
GR
GS
[0.75 0 0 0.75 0 0] CT
0 0.447 0.741 RC
2 LJ
N
215.135 253.024 M
215.497 252.784 L
215.858 250.589 L
216.22 250.76 L
216.582 250.623 L
216.943 250.829 L
217.305 251.206 L
217.667 251.618 L
218.028 251.892 L
218.39 254.979 L
218.752 257.895 L
219.113 255.974 L
219.475 255.288 L
219.837 254.224 L
220.198 255.013 L
220.56 251.926 L
220.922 251.755 L
221.283 252.235 L
221.645 252.372 L
222.007 253.676 L
222.368 257.483 L
222.73 256.18 L
223.092 257.414 L
223.453 256.111 L
223.815 256.728 L
224.177 255.15 L
224.538 249.834 L
224.9 249.594 L
225.262 249.697 L
225.623 250.863 L
225.985 251.515 L
226.347 251.961 L
226.708 252.441 L
227.07 253.092 L
227.432 253.367 L
227.793 256.077 L
228.155 257.723 L
228.517 254.567 L
228.878 253.538 L
229.24 252.818 L
229.602 252.338 L
229.963 252.612 L
230.325 253.401 L
230.687 251.686 L
231.048 249.766 L
231.41 249.457 L
231.772 250.108 L
232.133 251.378 L
232.495 252.681 L
232.857 252.852 L
S
GR
GS
[0.75 0 0 0.75 0 0] CT
0 0.447 0.741 RC
2 LJ
N
232.857 252.852 M
233.218 252.132 L
233.58 250.417 L
233.942 249.182 L
234.303 248.874 L
234.665 250.28 L
235.027 252.235 L
235.388 253.264 L
235.75 254.087 L
236.112 254.327 L
236.473 254.945 L
236.835 255.494 L
237.197 256.317 L
237.558 256.625 L
237.92 256.831 L
238.282 256.934 L
238.643 256.248 L
239.005 254.979 L
239.367 254.704 L
239.728 254.567 L
240.09 254.567 L
240.452 256.111 L
240.813 255.288 L
241.175 255.391 L
241.537 254.979 L
241.898 254.979 L
242.26 254.293 L
242.622 253.779 L
242.983 154.789 L
243.345 251.686 L
243.707 256.968 L
244.068 258.341 L
244.43 258.203 L
244.792 261.736 L
245.153 262.696 L
245.515 259.61 L
245.877 259.678 L
246.238 260.364 L
246.6 260.09 L
246.962 260.536 L
247.323 261.668 L
247.685 259.026 L
248.047 258.512 L
248.408 258.752 L
248.77 257.826 L
249.132 256.934 L
249.493 256.66 L
249.855 257.895 L
250.217 256.248 L
250.578 254.773 L
S
GR
GS
[0.75 0 0 0.75 0 0] CT
0 0.447 0.741 RC
2 LJ
N
250.578 254.773 M
250.94 252.75 L
251.302 252.201 L
251.663 251.995 L
252.025 252.406 L
252.387 253.881 L
252.748 254.704 L
253.11 254.773 L
253.472 255.356 L
253.833 255.768 L
254.195 255.939 L
254.557 255.596 L
254.918 255.768 L
255.28 256.214 L
255.642 257.311 L
256.003 256.385 L
256.365 256.625 L
256.727 256.488 L
257.088 255.116 L
257.45 256.488 L
257.812 256.591 L
258.173 254.019 L
258.535 255.528 L
258.897 255.802 L
259.258 245.135 L
259.62 244.723 L
259.982 246.198 L
260.343 246.919 L
260.705 247.159 L
261.067 247.227 L
261.428 247.707 L
261.79 249.285 L
262.152 250.589 L
262.513 61.013 L
262.875 236.183 L
263.237 251.035 L
263.598 255.288 L
263.96 257.551 L
264.322 261.393 L
264.683 260.09 L
265.045 259.232 L
265.407 258.855 L
265.768 259.026 L
266.13 257.003 L
266.492 254.979 L
266.853 255.013 L
267.215 254.499 L
267.577 253.676 L
267.938 256.351 L
268.3 256.865 L
S
GR
GS
[0.75 0 0 0.75 0 0] CT
0 0.447 0.741 RC
2 LJ
N
268.3 256.865 M
268.662 255.836 L
269.023 255.185 L
269.385 251.926 L
269.747 250.417 L
270.108 248.634 L
270.47 248.805 L
270.832 249.525 L
271.193 250.794 L
271.555 252.201 L
271.917 250.726 L
272.278 251.035 L
272.64 251.686 L
273.002 252.304 L
273.363 253.23 L
273.725 252.75 L
274.087 252.475 L
274.448 252.372 L
274.81 252.544 L
275.172 252.647 L
275.533 252.818 L
275.895 253.161 L
276.257 253.401 L
276.618 253.573 L
276.98 253.435 L
277.342 253.504 L
277.703 252.887 L
278.065 253.161 L
278.427 253.333 L
278.788 253.298 L
279.15 253.23 L
279.512 253.058 L
279.873 253.847 L
280.235 254.087 L
280.597 253.984 L
280.958 256.488 L
281.32 259.507 L
281.682 256.968 L
282.043 257.62 L
282.405 258.375 L
282.767 258.169 L
283.128 258.066 L
283.49 258.855 L
283.852 258.821 L
284.213 255.562 L
284.575 254.911 L
284.937 254.156 L
285.298 256.934 L
285.66 259.678 L
286.022 258.958 L
S
GR
GS
[0.75 0 0 0.75 0 0] CT
0 0.447 0.741 RC
2 LJ
N
286.022 258.958 M
286.383 256.145 L
286.745 255.871 L
287.107 255.734 L
287.468 255.459 L
287.83 255.699 L
288.192 251.995 L
288.553 252.578 L
288.915 252.098 L
289.277 157.498 L
289.638 83.616 L
290 239.715 L
290.362 257.209 L
290.723 265.715 L
291.085 266.607 L
291.447 265.303 L
291.808 265.886 L
292.17 265.715 L
292.532 265.098 L
292.893 264.377 L
293.255 260.673 L
293.617 259.747 L
293.978 259.301 L
294.34 258.786 L
294.702 258.58 L
295.063 257.689 L
295.425 257.62 L
295.787 257.14 L
296.148 256.591 L
296.51 256.077 L
296.872 255.494 L
297.233 255.631 L
297.595 255.013 L
297.957 254.739 L
298.318 255.459 L
298.68 254.945 L
299.042 255.082 L
299.403 255.459 L
299.765 255.768 L
300.127 257.277 L
300.488 257.003 L
300.85 257.003 L
301.212 256.9 L
301.573 256.865 L
301.935 256.488 L
302.297 255.665 L
302.658 256.042 L
303.02 256.385 L
303.382 256.351 L
303.743 255.905 L
S
GR
GS
[0.75 0 0 0.75 0 0] CT
0 0.447 0.741 RC
2 LJ
N
303.743 255.905 M
304.105 256.591 L
304.467 256.214 L
304.828 256.145 L
305.19 256.797 L
305.552 256.111 L
305.913 255.802 L
306.275 255.768 L
306.637 256.522 L
306.998 256.282 L
307.36 255.768 L
307.722 255.802 L
308.083 255.494 L
308.445 254.807 L
308.807 255.116 L
309.168 255.391 L
309.53 232.204 L
309.892 231.003 L
310.253 258.958 L
310.615 259.507 L
310.977 260.227 L
311.338 260.056 L
311.7 261.976 L
312.062 258.546 L
312.423 258.58 L
312.785 258.443 L
313.147 259.061 L
313.508 259.61 L
313.87 264.686 L
314.232 261.565 L
314.593 263.04 L
314.955 261.565 L
315.317 260.158 L
315.678 261.839 L
316.04 258.889 L
316.402 259.198 L
316.763 258.718 L
317.125 258.272 L
317.487 258.066 L
317.848 247.227 L
318.21 244.106 L
318.572 257.654 L
318.933 275.284 L
319.295 272.506 L
319.657 272.095 L
320.018 265.098 L
320.38 263.211 L
320.742 257.62 L
321.103 257.895 L
321.465 255.459 L
S
GR
GS
[0.75 0 0 0.75 0 0] CT
0 0.447 0.741 RC
2 LJ
N
321.465 255.459 M
321.827 256.145 L
322.188 258.786 L
322.55 258.992 L
322.912 258.341 L
323.273 258.409 L
323.635 257.654 L
323.997 258.169 L
324.358 258.443 L
324.72 258.375 L
325.082 257.277 L
325.443 257.174 L
325.805 256.763 L
326.167 257.071 L
326.528 257.414 L
326.89 257.277 L
327.252 257.997 L
327.613 257.792 L
327.975 257.586 L
328.337 257.757 L
328.698 256.9 L
329.06 256.797 L
329.422 256.625 L
329.783 256.797 L
330.145 257.037 L
330.507 260.947 L
330.868 263.623 L
331.23 261.908 L
331.592 259.849 L
331.953 259.644 L
332.315 259.884 L
332.677 260.193 L
333.038 259.815 L
333.4 257.517 L
333.762 259.198 L
334.123 258.855 L
334.485 258.546 L
334.847 257.689 L
335.208 257.586 L
335.57 257.963 L
335.932 257.209 L
336.293 260.398 L
336.655 262.079 L
337.017 259.438 L
337.378 259.369 L
337.74 260.124 L
338.102 260.158 L
338.463 259.301 L
338.825 259.747 L
339.187 256.591 L
S
GR
GS
[0.75 0 0 0.75 0 0] CT
0 0.447 0.741 RC
2 LJ
N
339.187 256.591 M
339.548 257.037 L
339.91 257.174 L
340.272 258.237 L
340.633 257.723 L
340.995 257.654 L
341.357 257.963 L
341.718 257.106 L
342.08 257.243 L
342.442 257.86 L
342.803 258.237 L
343.165 257.551 L
343.527 258.649 L
343.888 260.81 L
344.25 259.644 L
344.612 259.575 L
344.973 259.575 L
345.335 260.364 L
345.697 257.723 L
346.058 257.243 L
346.42 257.071 L
346.782 256.111 L
347.143 258.237 L
347.505 257.586 L
347.867 257.346 L
348.228 257.071 L
348.59 256.728 L
348.952 257.037 L
349.313 257.792 L
349.675 258.375 L
350.037 260.227 L
350.398 260.33 L
350.76 260.021 L
351.122 258.718 L
351.483 259.747 L
351.845 259.061 L
352.207 257.311 L
352.568 257.14 L
352.93 258.478 L
353.292 258.546 L
353.653 258.58 L
354.015 259.712 L
354.377 259.644 L
354.738 260.056 L
355.1 259.953 L
355.462 259.061 L
355.823 262.354 L
356.185 181.92 L
356.547 255.459 L
356.908 262.594 L
S
GR
GS
[0.75 0 0 0.75 0 0] CT
0 0.447 0.741 RC
2 LJ
N
356.908 262.594 M
357.27 265.646 L
357.632 263.348 L
357.993 262.01 L
358.355 262.045 L
358.717 261.805 L
359.078 261.359 L
359.44 262.045 L
359.802 263.52 L
360.163 260.947 L
360.525 260.604 L
360.887 263.005 L
361.248 263.52 L
361.61 262.216 L
361.972 262.354 L
362.333 262.902 L
362.695 259.712 L
363.057 259.438 L
363.418 259.541 L
363.78 259.369 L
364.142 258.992 L
364.503 259.335 L
364.865 259.575 L
365.227 259.095 L
365.588 258.512 L
365.95 259.404 L
366.312 258.443 L
366.673 259.301 L
367.035 263.691 L
367.397 261.668 L
367.758 260.158 L
368.12 260.227 L
368.482 260.673 L
368.843 259.747 L
369.205 257.929 L
369.567 257.449 L
369.928 257.38 L
370.29 258.478 L
370.652 258.134 L
371.013 258.1 L
371.375 257.654 L
371.737 257.38 L
372.098 257.483 L
372.46 259.164 L
372.822 259.747 L
373.183 259.644 L
373.545 259.541 L
373.907 259.507 L
374.268 258.958 L
374.63 257.689 L
S
GR
GS
[0.75 0 0 0.75 0 0] CT
0 0.447 0.741 RC
2 LJ
N
374.63 257.689 M
374.992 257.723 L
375.353 257.689 L
375.715 259.507 L
376.077 259.575 L
376.438 259.507 L
376.8 259.369 L
377.162 258.615 L
377.523 258.821 L
377.885 258.752 L
378.247 258.786 L
378.608 258.306 L
378.97 258.237 L
379.332 257.689 L
379.693 257.963 L
380.055 258.889 L
380.417 261.633 L
380.778 268.082 L
381.14 263.04 L
381.502 261.633 L
381.863 259.369 L
382.225 257.62 L
382.587 257.86 L
382.948 260.707 L
383.31 259.815 L
383.672 261.05 L
384.033 260.639 L
384.395 260.433 L
384.757 257.757 L
385.118 257.311 L
385.48 257.174 L
385.842 256.66 L
386.203 256.831 L
386.565 257.071 L
386.927 257.38 L
387.288 257.346 L
387.65 257.654 L
388.012 258.375 L
388.373 258.272 L
388.735 257.517 L
389.097 257.757 L
389.458 258.203 L
389.82 258.203 L
390.182 257.792 L
390.543 258.512 L
390.905 259.781 L
391.267 259.232 L
391.628 258.272 L
391.99 258.169 L
392.352 258.066 L
S
GR
GS
[0.75 0 0 0.75 0 0] CT
0 0.447 0.741 RC
2 LJ
N
392.352 258.066 M
392.713 258.718 L
393.075 259.747 L
393.437 259.712 L
393.798 259.438 L
394.16 259.232 L
394.522 260.398 L
394.883 259.507 L
395.245 259.747 L
395.607 259.266 L
395.968 258.443 L
396.33 258.821 L
396.692 258.992 L
397.053 258.992 L
397.415 260.124 L
397.777 259.095 L
398.138 258.889 L
398.5 258.752 L
398.862 259.164 L
399.223 259.438 L
399.585 259.541 L
399.947 259.301 L
400.308 259.781 L
400.67 260.056 L
401.032 260.227 L
401.393 261.873 L
401.755 263.314 L
402.117 261.05 L
402.478 261.05 L
402.84 261.462 L
403.202 261.976 L
403.563 259.266 L
403.925 259.678 L
404.287 259.987 L
404.648 260.433 L
405.01 259.849 L
405.372 263.554 L
405.733 262.662 L
406.095 261.53 L
406.457 261.908 L
406.818 262.834 L
407.18 263.04 L
407.542 263.863 L
407.903 260.536 L
408.265 258.855 L
408.627 258.718 L
408.988 258.134 L
409.35 258.375 L
409.712 258.58 L
410.073 258.341 L
S
GR
GS
[0.75 0 0 0.75 0 0] CT
0 0.447 0.741 RC
2 LJ
N
410.073 258.341 M
410.435 258.58 L
410.797 259.129 L
411.158 258.341 L
411.52 258.066 L
411.882 257.997 L
412.243 257.86 L
412.605 257.689 L
412.967 258.032 L
413.328 258.134 L
413.69 257.346 L
414.052 257.62 L
414.413 258.958 L
414.775 259.266 L
415.137 259.472 L
415.498 258.786 L
415.86 258.786 L
416.222 258.683 L
416.583 258.272 L
416.945 257.346 L
417.307 257.963 L
417.668 260.433 L
418.03 263.177 L
418.392 262.079 L
418.753 261.222 L
419.115 260.673 L
419.477 260.776 L
419.838 258.169 L
420.2 259.507 L
420.562 259.678 L
420.923 259.541 L
421.285 259.232 L
421.647 258.443 L
422.008 258.375 L
422.37 258.58 L
422.732 258.443 L
423.093 258.341 L
423.455 257.895 L
423.817 260.021 L
424.178 261.736 L
424.54 262.113 L
424.902 261.222 L
425.263 261.359 L
425.625 261.976 L
425.987 259.541 L
426.348 259.438 L
426.71 258.786 L
427.072 258.683 L
427.433 258.409 L
427.795 257.895 L
S
GR
GS
[0.75 0 0 0.75 0 0] CT
0 0.447 0.741 RC
2 LJ
N
427.795 257.895 M
428.157 257.551 L
428.518 261.736 L
428.88 262.456 L
429.242 260.124 L
429.603 259.335 L
429.965 260.879 L
430.327 260.295 L
430.688 259.61 L
431.05 258.237 L
431.412 257.003 L
431.773 257.14 L
432.135 257.106 L
432.497 257.62 L
432.858 257.62 L
433.22 256.728 L
433.582 256.111 L
433.943 256.248 L
434.305 257.14 L
434.667 257.14 L
435.028 256.351 L
435.39 255.768 L
435.752 256.248 L
436.113 256.419 L
436.475 256.214 L
436.837 256.694 L
437.198 258.341 L
437.56 257.517 L
437.922 257.14 L
438.283 257.723 L
438.645 257.62 L
439.007 257.346 L
439.368 256.625 L
439.73 257.483 L
440.092 257.311 L
440.453 257.037 L
440.815 258.272 L
441.177 258.649 L
441.538 257.86 L
441.9 257.277 L
442.262 257.174 L
442.623 256.317 L
442.985 256.351 L
443.347 257.071 L
443.708 257.003 L
444.07 256.968 L
444.432 256.763 L
444.793 256.351 L
445.155 256.18 L
445.517 255.905 L
S
GR
GS
[0.75 0 0 0.75 0 0] CT
0 0.447 0.741 RC
2 LJ
N
445.517 255.905 M
445.878 256.488 L
446.24 256.625 L
446.602 257.414 L
446.963 258.958 L
447.325 263.828 L
447.687 262.182 L
448.048 259.507 L
448.41 258.134 L
448.772 259.232 L
449.133 256.9 L
449.495 255.596 L
449.857 255.288 L
450.218 255.802 L
450.58 255.699 L
450.942 255.905 L
451.303 256.042 L
451.665 257.997 L
452.027 258.958 L
452.388 259.438 L
452.75 259.301 L
453.112 258.924 L
453.473 260.056 L
453.835 257.243 L
454.197 257.209 L
454.558 256.831 L
454.92 256.351 L
455.282 257.003 L
455.643 256.968 L
456.005 257.654 L
456.367 258.032 L
456.728 257.929 L
457.09 258.066 L
457.452 257.483 L
457.813 257.826 L
458.175 258.924 L
458.537 258.786 L
458.898 257.86 L
459.26 256.934 L
459.622 255.699 L
459.983 254.945 L
460.345 254.121 L
460.707 254.224 L
461.068 254.911 L
461.43 254.636 L
461.792 255.219 L
462.153 254.567 L
462.515 255.699 L
462.877 256.385 L
463.238 256.351 L
S
GR
GS
[0.75 0 0 0.75 0 0] CT
0 0.447 0.741 RC
2 LJ
N
463.238 256.351 M
463.6 256.008 L
463.962 255.391 L
464.323 255.494 L
464.685 255.836 L
465.047 256.522 L
465.408 256.008 L
465.77 256.865 L
466.132 257.792 L
466.493 257.38 L
466.855 257.071 L
467.217 257.209 L
467.578 257.174 L
467.94 257.414 L
468.302 258.375 L
468.663 256.797 L
469.025 256.831 L
469.387 257.243 L
469.748 256.728 L
470.11 257.311 L
470.472 261.187 L
470.833 264.995 L
471.195 266.332 L
471.557 262.937 L
471.918 260.124 L
472.28 259.953 L
472.642 258.58 L
473.003 258.066 L
473.365 257.14 L
473.727 255.734 L
474.088 257.449 L
474.45 261.427 L
474.812 259.815 L
475.173 259.026 L
475.535 260.364 L
475.897 260.124 L
476.258 259.575 L
476.62 259.061 L
476.982 256.317 L
477.343 256.18 L
477.705 256.728 L
478.067 256.282 L
478.428 255.391 L
478.79 255.322 L
479.152 254.465 L
479.513 254.327 L
479.875 255.699 L
480.237 256.488 L
480.598 255.631 L
480.96 254.945 L
S
GR
GS
[0.75 0 0 0.75 0 0] CT
0 0.447 0.741 RC
2 LJ
N
480.96 254.945 M
481.322 255.631 L
481.683 255.768 L
S
GR
%%Trailer
%%Pages: 1
%%EOF
