%!PS-Adobe-3.0 EPSF-3.0
%%Creator: (MATLAB, The Mathworks, Inc. Version 8.5.0.197613 \(R2015a\). Operating System: Windows 8)
%%Title: (C:/Users/aleja/Desktop/TFG/Documentaci\363n/Obtenci\363n de datos/matlab_plot/plots/alvaro12-13.eps)
%%CreationDate: 2019-05-22T00:34:18
%%Pages: (atend)
%%BoundingBox: 0 0 420 315
%%LanguageLevel: 2
%%EndComments
%%BeginProlog
%%BeginResource: procset (Apache XML Graphics Std ProcSet) 1.2 0
%%Version: 1.2 0
%%Copyright: (Copyright 2001-2003,2010 The Apache Software Foundation. License terms: http://www.apache.org/licenses/LICENSE-2.0)
/bd{bind def}bind def
/ld{load def}bd
/GR/grestore ld
/M/moveto ld
/LJ/setlinejoin ld
/C/curveto ld
/f/fill ld
/LW/setlinewidth ld
/GC/setgray ld
/t/show ld
/N/newpath ld
/CT/concat ld
/cp/closepath ld
/S/stroke ld
/L/lineto ld
/CC/setcmykcolor ld
/A/ashow ld
/GS/gsave ld
/RC/setrgbcolor ld
/RM/rmoveto ld
/ML/setmiterlimit ld
/re {4 2 roll M
1 index 0 rlineto
0 exch rlineto
neg 0 rlineto
cp } bd
/_ctm matrix def
/_tm matrix def
/BT { _ctm currentmatrix pop matrix _tm copy pop 0 0 moveto } bd
/ET { _ctm setmatrix } bd
/iTm { _ctm setmatrix _tm concat } bd
/Tm { _tm astore pop iTm 0 0 moveto } bd
/ux 0.0 def
/uy 0.0 def
/F {
  /Tp exch def
  /Tf exch def
  Tf findfont Tp scalefont setfont
  /cf Tf def  /cs Tp def
} bd
/ULS {currentpoint /uy exch def /ux exch def} bd
/ULE {
  /Tcx currentpoint pop def
  gsave
  newpath
  cf findfont cs scalefont dup
  /FontMatrix get 0 get /Ts exch def /FontInfo get dup
  /UnderlinePosition get Ts mul /To exch def
  /UnderlineThickness get Ts mul /Tt exch def
  ux uy To add moveto  Tcx uy To add lineto
  Tt setlinewidth stroke
  grestore
} bd
/OLE {
  /Tcx currentpoint pop def
  gsave
  newpath
  cf findfont cs scalefont dup
  /FontMatrix get 0 get /Ts exch def /FontInfo get dup
  /UnderlinePosition get Ts mul /To exch def
  /UnderlineThickness get Ts mul /Tt exch def
  ux uy To add cs add moveto Tcx uy To add cs add lineto
  Tt setlinewidth stroke
  grestore
} bd
/SOE {
  /Tcx currentpoint pop def
  gsave
  newpath
  cf findfont cs scalefont dup
  /FontMatrix get 0 get /Ts exch def /FontInfo get dup
  /UnderlinePosition get Ts mul /To exch def
  /UnderlineThickness get Ts mul /Tt exch def
  ux uy To add cs 10 mul 26 idiv add moveto Tcx uy To add cs 10 mul 26 idiv add lineto
  Tt setlinewidth stroke
  grestore
} bd
/QT {
/Y22 exch store
/X22 exch store
/Y21 exch store
/X21 exch store
currentpoint
/Y21 load 2 mul add 3 div exch
/X21 load 2 mul add 3 div exch
/X21 load 2 mul /X22 load add 3 div
/Y21 load 2 mul /Y22 load add 3 div
/X22 load /Y22 load curveto
} bd
/SSPD {
dup length /d exch dict def
{
/v exch def
/k exch def
currentpagedevice k known {
/cpdv currentpagedevice k get def
v cpdv ne {
/upd false def
/nullv v type /nulltype eq def
/nullcpdv cpdv type /nulltype eq def
nullv nullcpdv or
{
/upd true def
} {
/sametype v type cpdv type eq def
sametype {
v type /arraytype eq {
/vlen v length def
/cpdvlen cpdv length def
vlen cpdvlen eq {
0 1 vlen 1 sub {
/i exch def
/obj v i get def
/cpdobj cpdv i get def
obj cpdobj ne {
/upd true def
exit
} if
} for
} {
/upd true def
} ifelse
} {
v type /dicttype eq {
v {
/dv exch def
/dk exch def
/cpddv cpdv dk get def
dv cpddv ne {
/upd true def
exit
} if
} forall
} {
/upd true def
} ifelse
} ifelse
} if
} ifelse
upd true eq {
d k v put
} if
} if
} if
} forall
d length 0 gt {
d setpagedevice
} if
} bd
%%EndResource
%%BeginResource: procset (Apache XML Graphics EPS ProcSet) 1.0 0
%%Version: 1.0 0
%%Copyright: (Copyright 2002-2003 The Apache Software Foundation. License terms: http://www.apache.org/licenses/LICENSE-2.0)
/BeginEPSF { %def
/b4_Inc_state save def         % Save state for cleanup
/dict_count countdictstack def % Count objects on dict stack
/op_count count 1 sub def      % Count objects on operand stack
userdict begin                 % Push userdict on dict stack
/showpage { } def              % Redefine showpage, { } = null proc
0 setgray 0 setlinecap         % Prepare graphics state
1 setlinewidth 0 setlinejoin
10 setmiterlimit [ ] 0 setdash newpath
/languagelevel where           % If level not equal to 1 then
{pop languagelevel             % set strokeadjust and
1 ne                           % overprint to their defaults.
{false setstrokeadjust false setoverprint
} if
} if
} bd
/EndEPSF { %def
count op_count sub {pop} repeat            % Clean up stacks
countdictstack dict_count sub {end} repeat
b4_Inc_state restore
} bd
%%EndResource
%FOPBeginFontDict
%%IncludeResource: font Courier-Bold
%%IncludeResource: font Helvetica
%%IncludeResource: font Courier-BoldOblique
%%IncludeResource: font Courier-Oblique
%%IncludeResource: font Times-Roman
%%IncludeResource: font Helvetica-BoldOblique
%%IncludeResource: font Helvetica-Bold
%%IncludeResource: font Helvetica-Oblique
%%IncludeResource: font Times-BoldItalic
%%IncludeResource: font Courier
%%IncludeResource: font Times-Italic
%%IncludeResource: font Times-Bold
%%IncludeResource: font Symbol
%%IncludeResource: font ZapfDingbats
%FOPEndFontDict
%%BeginResource: encoding WinAnsiEncoding
/WinAnsiEncoding [
/.notdef /.notdef /.notdef /.notdef /.notdef
/.notdef /.notdef /.notdef /.notdef /.notdef
/.notdef /.notdef /.notdef /.notdef /.notdef
/.notdef /.notdef /.notdef /.notdef /.notdef
/.notdef /.notdef /.notdef /.notdef /.notdef
/.notdef /.notdef /.notdef /.notdef /.notdef
/.notdef /.notdef /space /exclam /quotedbl
/numbersign /dollar /percent /ampersand /quotesingle
/parenleft /parenright /asterisk /plus /comma
/hyphen /period /slash /zero /one
/two /three /four /five /six
/seven /eight /nine /colon /semicolon
/less /equal /greater /question /at
/A /B /C /D /E
/F /G /H /I /J
/K /L /M /N /O
/P /Q /R /S /T
/U /V /W /X /Y
/Z /bracketleft /backslash /bracketright /asciicircum
/underscore /quoteleft /a /b /c
/d /e /f /g /h
/i /j /k /l /m
/n /o /p /q /r
/s /t /u /v /w
/x /y /z /braceleft /bar
/braceright /asciitilde /bullet /Euro /bullet
/quotesinglbase /florin /quotedblbase /ellipsis /dagger
/daggerdbl /circumflex /perthousand /Scaron /guilsinglleft
/OE /bullet /Zcaron /bullet /bullet
/quoteleft /quoteright /quotedblleft /quotedblright /bullet
/endash /emdash /asciitilde /trademark /scaron
/guilsinglright /oe /bullet /zcaron /Ydieresis
/space /exclamdown /cent /sterling /currency
/yen /brokenbar /section /dieresis /copyright
/ordfeminine /guillemotleft /logicalnot /sfthyphen /registered
/macron /degree /plusminus /twosuperior /threesuperior
/acute /mu /paragraph /middot /cedilla
/onesuperior /ordmasculine /guillemotright /onequarter /onehalf
/threequarters /questiondown /Agrave /Aacute /Acircumflex
/Atilde /Adieresis /Aring /AE /Ccedilla
/Egrave /Eacute /Ecircumflex /Edieresis /Igrave
/Iacute /Icircumflex /Idieresis /Eth /Ntilde
/Ograve /Oacute /Ocircumflex /Otilde /Odieresis
/multiply /Oslash /Ugrave /Uacute /Ucircumflex
/Udieresis /Yacute /Thorn /germandbls /agrave
/aacute /acircumflex /atilde /adieresis /aring
/ae /ccedilla /egrave /eacute /ecircumflex
/edieresis /igrave /iacute /icircumflex /idieresis
/eth /ntilde /ograve /oacute /ocircumflex
/otilde /odieresis /divide /oslash /ugrave
/uacute /ucircumflex /udieresis /yacute /thorn
/ydieresis
] def
%%EndResource
%FOPBeginFontReencode
/Courier-Bold findfont
dup length dict begin
  {1 index /FID ne {def} {pop pop} ifelse} forall
  /Encoding WinAnsiEncoding def
  currentdict
end
/Courier-Bold exch definefont pop
/Helvetica findfont
dup length dict begin
  {1 index /FID ne {def} {pop pop} ifelse} forall
  /Encoding WinAnsiEncoding def
  currentdict
end
/Helvetica exch definefont pop
/Courier-BoldOblique findfont
dup length dict begin
  {1 index /FID ne {def} {pop pop} ifelse} forall
  /Encoding WinAnsiEncoding def
  currentdict
end
/Courier-BoldOblique exch definefont pop
/Courier-Oblique findfont
dup length dict begin
  {1 index /FID ne {def} {pop pop} ifelse} forall
  /Encoding WinAnsiEncoding def
  currentdict
end
/Courier-Oblique exch definefont pop
/Times-Roman findfont
dup length dict begin
  {1 index /FID ne {def} {pop pop} ifelse} forall
  /Encoding WinAnsiEncoding def
  currentdict
end
/Times-Roman exch definefont pop
/Helvetica-BoldOblique findfont
dup length dict begin
  {1 index /FID ne {def} {pop pop} ifelse} forall
  /Encoding WinAnsiEncoding def
  currentdict
end
/Helvetica-BoldOblique exch definefont pop
/Helvetica-Bold findfont
dup length dict begin
  {1 index /FID ne {def} {pop pop} ifelse} forall
  /Encoding WinAnsiEncoding def
  currentdict
end
/Helvetica-Bold exch definefont pop
/Helvetica-Oblique findfont
dup length dict begin
  {1 index /FID ne {def} {pop pop} ifelse} forall
  /Encoding WinAnsiEncoding def
  currentdict
end
/Helvetica-Oblique exch definefont pop
/Times-BoldItalic findfont
dup length dict begin
  {1 index /FID ne {def} {pop pop} ifelse} forall
  /Encoding WinAnsiEncoding def
  currentdict
end
/Times-BoldItalic exch definefont pop
/Courier findfont
dup length dict begin
  {1 index /FID ne {def} {pop pop} ifelse} forall
  /Encoding WinAnsiEncoding def
  currentdict
end
/Courier exch definefont pop
/Times-Italic findfont
dup length dict begin
  {1 index /FID ne {def} {pop pop} ifelse} forall
  /Encoding WinAnsiEncoding def
  currentdict
end
/Times-Italic exch definefont pop
/Times-Bold findfont
dup length dict begin
  {1 index /FID ne {def} {pop pop} ifelse} forall
  /Encoding WinAnsiEncoding def
  currentdict
end
/Times-Bold exch definefont pop
%FOPEndFontReencode
%%EndProlog
%%Page: 1 1
%%PageBoundingBox: 0 0 420 315
%%BeginPageSetup
[1 0 0 -1 0 315] CT
%%EndPageSetup
GS
[0.75 0 0 0.75 0 0] CT
1 GC
N
0 0 560 420 re
f
GR
GS
[0.75 0 0 0.75 0 0] CT
1 GC
N
0 0 560 420 re
f
GR
GS
[0.75 0 0 0.75 0 0] CT
1 GC
N
73 374 M
507 374 L
507 31 L
73 31 L
cp
f
GR
GS
[0.75 0 0 0.75 0 0] CT
0.149 GC
2 setlinecap
10.0 ML
N
73 374 M
507 374 L
S
GR
GS
[0.75 0 0 0.75 0 0] CT
0.149 GC
2 setlinecap
10.0 ML
N
73 31 M
507 31 L
S
GR
GS
[0.75 0 0 0.75 0 0] CT
0.149 GC
2 setlinecap
10.0 ML
N
73 374 M
73 369.66 L
S
GR
GS
[0.75 0 0 0.75 0 0] CT
0.149 GC
2 setlinecap
10.0 ML
N
116.4 374 M
116.4 369.66 L
S
GR
GS
[0.75 0 0 0.75 0 0] CT
0.149 GC
2 setlinecap
10.0 ML
N
159.8 374 M
159.8 369.66 L
S
GR
GS
[0.75 0 0 0.75 0 0] CT
0.149 GC
2 setlinecap
10.0 ML
N
203.2 374 M
203.2 369.66 L
S
GR
GS
[0.75 0 0 0.75 0 0] CT
0.149 GC
2 setlinecap
10.0 ML
N
246.6 374 M
246.6 369.66 L
S
GR
GS
[0.75 0 0 0.75 0 0] CT
0.149 GC
2 setlinecap
10.0 ML
N
290 374 M
290 369.66 L
S
GR
GS
[0.75 0 0 0.75 0 0] CT
0.149 GC
2 setlinecap
10.0 ML
N
333.4 374 M
333.4 369.66 L
S
GR
GS
[0.75 0 0 0.75 0 0] CT
0.149 GC
2 setlinecap
10.0 ML
N
376.8 374 M
376.8 369.66 L
S
GR
GS
[0.75 0 0 0.75 0 0] CT
0.149 GC
2 setlinecap
10.0 ML
N
420.2 374 M
420.2 369.66 L
S
GR
GS
[0.75 0 0 0.75 0 0] CT
0.149 GC
2 setlinecap
10.0 ML
N
463.6 374 M
463.6 369.66 L
S
GR
GS
[0.75 0 0 0.75 0 0] CT
0.149 GC
2 setlinecap
10.0 ML
N
507 374 M
507 369.66 L
S
GR
GS
[0.75 0 0 0.75 0 0] CT
0.149 GC
2 setlinecap
10.0 ML
N
73 31 M
73 35.34 L
S
GR
GS
[0.75 0 0 0.75 0 0] CT
0.149 GC
2 setlinecap
10.0 ML
N
116.4 31 M
116.4 35.34 L
S
GR
GS
[0.75 0 0 0.75 0 0] CT
0.149 GC
2 setlinecap
10.0 ML
N
159.8 31 M
159.8 35.34 L
S
GR
GS
[0.75 0 0 0.75 0 0] CT
0.149 GC
2 setlinecap
10.0 ML
N
203.2 31 M
203.2 35.34 L
S
GR
GS
[0.75 0 0 0.75 0 0] CT
0.149 GC
2 setlinecap
10.0 ML
N
246.6 31 M
246.6 35.34 L
S
GR
GS
[0.75 0 0 0.75 0 0] CT
0.149 GC
2 setlinecap
10.0 ML
N
290 31 M
290 35.34 L
S
GR
GS
[0.75 0 0 0.75 0 0] CT
0.149 GC
2 setlinecap
10.0 ML
N
333.4 31 M
333.4 35.34 L
S
GR
GS
[0.75 0 0 0.75 0 0] CT
0.149 GC
2 setlinecap
10.0 ML
N
376.8 31 M
376.8 35.34 L
S
GR
GS
[0.75 0 0 0.75 0 0] CT
0.149 GC
2 setlinecap
10.0 ML
N
420.2 31 M
420.2 35.34 L
S
GR
GS
[0.75 0 0 0.75 0 0] CT
0.149 GC
2 setlinecap
10.0 ML
N
463.6 31 M
463.6 35.34 L
S
GR
GS
[0.75 0 0 0.75 0 0] CT
0.149 GC
2 setlinecap
10.0 ML
N
507 31 M
507 35.34 L
S
GR
GS
[0.75 0 0 0.75 54.75 284.49998] CT
0.149 GC
/Helvetica 13 F
GS
[1 0 0 1 0 0] CT
-4 14 moveto 
1 -1 scale
(0) t 
GR
GR
GS
[0.75 0 0 0.75 87.3 284.49998] CT
0.149 GC
/Helvetica 13 F
GS
[1 0 0 1 0 0] CT
-11 14 moveto 
1 -1 scale
(100) t 
GR
GR
GS
[0.75 0 0 0.75 119.85 284.49998] CT
0.149 GC
/Helvetica 13 F
GS
[1 0 0 1 0 0] CT
-11 14 moveto 
1 -1 scale
(200) t 
GR
GR
GS
[0.75 0 0 0.75 152.4 284.49998] CT
0.149 GC
/Helvetica 13 F
GS
[1 0 0 1 0 0] CT
-11 14 moveto 
1 -1 scale
(300) t 
GR
GR
GS
[0.75 0 0 0.75 184.95 284.49998] CT
0.149 GC
/Helvetica 13 F
GS
[1 0 0 1 0 0] CT
-11 14 moveto 
1 -1 scale
(400) t 
GR
GR
GS
[0.75 0 0 0.75 217.5 284.49998] CT
0.149 GC
/Helvetica 13 F
GS
[1 0 0 1 0 0] CT
-11 14 moveto 
1 -1 scale
(500) t 
GR
GR
GS
[0.75 0 0 0.75 250.05 284.49998] CT
0.149 GC
/Helvetica 13 F
GS
[1 0 0 1 0 0] CT
-11 14 moveto 
1 -1 scale
(600) t 
GR
GR
GS
[0.75 0 0 0.75 282.59999 284.49998] CT
0.149 GC
/Helvetica 13 F
GS
[1 0 0 1 0 0] CT
-11 14 moveto 
1 -1 scale
(700) t 
GR
GR
GS
[0.75 0 0 0.75 315.15001 284.49998] CT
0.149 GC
/Helvetica 13 F
GS
[1 0 0 1 0 0] CT
-11 14 moveto 
1 -1 scale
(800) t 
GR
GR
GS
[0.75 0 0 0.75 347.7 284.49998] CT
0.149 GC
/Helvetica 13 F
GS
[1 0 0 1 0 0] CT
-11 14 moveto 
1 -1 scale
(900) t 
GR
GR
GS
[0.75 0 0 0.75 380.25 284.49998] CT
0.149 GC
/Helvetica 13 F
GS
[1 0 0 1 0 0] CT
-14.5 14 moveto 
1 -1 scale
(1000) t 
GR
GR
GS
[0.75 0 0 0.75 0 0] CT
0.149 GC
2 setlinecap
10.0 ML
N
73 374 M
73 31 L
S
GR
GS
[0.75 0 0 0.75 0 0] CT
0.149 GC
2 setlinecap
10.0 ML
N
507 374 M
507 31 L
S
GR
GS
[0.75 0 0 0.75 0 0] CT
0.149 GC
2 setlinecap
10.0 ML
N
73 374 M
77.34 374 L
S
GR
GS
[0.75 0 0 0.75 0 0] CT
0.149 GC
2 setlinecap
10.0 ML
N
73 335.889 M
77.34 335.889 L
S
GR
GS
[0.75 0 0 0.75 0 0] CT
0.149 GC
2 setlinecap
10.0 ML
N
73 297.778 M
77.34 297.778 L
S
GR
GS
[0.75 0 0 0.75 0 0] CT
0.149 GC
2 setlinecap
10.0 ML
N
73 259.667 M
77.34 259.667 L
S
GR
GS
[0.75 0 0 0.75 0 0] CT
0.149 GC
2 setlinecap
10.0 ML
N
73 221.556 M
77.34 221.556 L
S
GR
GS
[0.75 0 0 0.75 0 0] CT
0.149 GC
2 setlinecap
10.0 ML
N
73 183.444 M
77.34 183.444 L
S
GR
GS
[0.75 0 0 0.75 0 0] CT
0.149 GC
2 setlinecap
10.0 ML
N
73 145.333 M
77.34 145.333 L
S
GR
GS
[0.75 0 0 0.75 0 0] CT
0.149 GC
2 setlinecap
10.0 ML
N
73 107.222 M
77.34 107.222 L
S
GR
GS
[0.75 0 0 0.75 0 0] CT
0.149 GC
2 setlinecap
10.0 ML
N
73 69.111 M
77.34 69.111 L
S
GR
GS
[0.75 0 0 0.75 0 0] CT
0.149 GC
2 setlinecap
10.0 ML
N
73 31 M
77.34 31 L
S
GR
GS
[0.75 0 0 0.75 0 0] CT
0.149 GC
2 setlinecap
10.0 ML
N
507 374 M
502.66 374 L
S
GR
GS
[0.75 0 0 0.75 0 0] CT
0.149 GC
2 setlinecap
10.0 ML
N
507 335.889 M
502.66 335.889 L
S
GR
GS
[0.75 0 0 0.75 0 0] CT
0.149 GC
2 setlinecap
10.0 ML
N
507 297.778 M
502.66 297.778 L
S
GR
GS
[0.75 0 0 0.75 0 0] CT
0.149 GC
2 setlinecap
10.0 ML
N
507 259.667 M
502.66 259.667 L
S
GR
GS
[0.75 0 0 0.75 0 0] CT
0.149 GC
2 setlinecap
10.0 ML
N
507 221.556 M
502.66 221.556 L
S
GR
GS
[0.75 0 0 0.75 0 0] CT
0.149 GC
2 setlinecap
10.0 ML
N
507 183.444 M
502.66 183.444 L
S
GR
GS
[0.75 0 0 0.75 0 0] CT
0.149 GC
2 setlinecap
10.0 ML
N
507 145.333 M
502.66 145.333 L
S
GR
GS
[0.75 0 0 0.75 0 0] CT
0.149 GC
2 setlinecap
10.0 ML
N
507 107.222 M
502.66 107.222 L
S
GR
GS
[0.75 0 0 0.75 0 0] CT
0.149 GC
2 setlinecap
10.0 ML
N
507 69.111 M
502.66 69.111 L
S
GR
GS
[0.75 0 0 0.75 0 0] CT
0.149 GC
2 setlinecap
10.0 ML
N
507 31 M
502.66 31 L
S
GR
GS
[0.75 0 0 0.75 50.75 280.5] CT
0.149 GC
/Helvetica 13 F
GS
[1 0 0 1 0 0] CT
-22 5.5 moveto 
1 -1 scale
(440) t 
GR
GR
GS
[0.75 0 0 0.75 50.75 251.91666] CT
0.149 GC
/Helvetica 13 F
GS
[1 0 0 1 0 0] CT
-22 5.5 moveto 
1 -1 scale
(460) t 
GR
GR
GS
[0.75 0 0 0.75 50.75 223.33333] CT
0.149 GC
/Helvetica 13 F
GS
[1 0 0 1 0 0] CT
-22 5.5 moveto 
1 -1 scale
(480) t 
GR
GR
GS
[0.75 0 0 0.75 50.75 194.74999] CT
0.149 GC
/Helvetica 13 F
GS
[1 0 0 1 0 0] CT
-22 5.5 moveto 
1 -1 scale
(500) t 
GR
GR
GS
[0.75 0 0 0.75 50.75 166.16667] CT
0.149 GC
/Helvetica 13 F
GS
[1 0 0 1 0 0] CT
-22 5.5 moveto 
1 -1 scale
(520) t 
GR
GR
GS
[0.75 0 0 0.75 50.75 137.58333] CT
0.149 GC
/Helvetica 13 F
GS
[1 0 0 1 0 0] CT
-22 5.5 moveto 
1 -1 scale
(540) t 
GR
GR
GS
[0.75 0 0 0.75 50.75 109] CT
0.149 GC
/Helvetica 13 F
GS
[1 0 0 1 0 0] CT
-22 5.5 moveto 
1 -1 scale
(560) t 
GR
GR
GS
[0.75 0 0 0.75 50.75 80.41667] CT
0.149 GC
/Helvetica 13 F
GS
[1 0 0 1 0 0] CT
-22 5.5 moveto 
1 -1 scale
(580) t 
GR
GR
GS
[0.75 0 0 0.75 50.75 51.83334] CT
0.149 GC
/Helvetica 13 F
GS
[1 0 0 1 0 0] CT
-22 5.5 moveto 
1 -1 scale
(600) t 
GR
GR
GS
[0.75 0 0 0.75 50.75 23.25] CT
0.149 GC
/Helvetica 13 F
GS
[1 0 0 1 0 0] CT
-22 5.5 moveto 
1 -1 scale
(620) t 
GR
GR
GS
[0.75 0 0 0.75 0 0] CT
0 0.447 0.741 RC
2 LJ
N
73.434 128.26 M
73.868 122.943 L
74.302 119.799 L
74.736 115.969 L
75.17 108.08 L
75.604 105.965 L
76.038 105.774 L
76.472 103.259 L
76.906 99.543 L
77.34 99.181 L
77.774 100.115 L
78.208 107.241 L
78.642 105.221 L
79.076 101.391 L
79.51 99.752 L
79.944 100.286 L
80.378 99.733 L
80.812 100.591 L
81.246 102.001 L
81.68 103.087 L
82.114 103.087 L
82.548 100.915 L
82.982 105.126 L
83.416 164.884 L
83.85 268.165 L
84.284 239.353 L
84.718 199.718 L
85.152 179.195 L
85.586 169.724 L
86.02 154.785 L
86.454 144.514 L
86.888 135.653 L
87.322 127.936 L
87.756 122.066 L
88.19 116.369 L
88.624 112.272 L
89.058 108.918 L
89.492 105.736 L
89.926 102.401 L
90.36 99.448 L
90.794 96.361 L
91.228 94.15 L
91.662 92.873 L
92.096 91.292 L
92.53 90.606 L
92.964 90.53 L
93.398 90.949 L
93.832 90.377 L
94.266 89.501 L
94.7 89.1 L
S
GR
GS
[0.75 0 0 0.75 0 0] CT
0 0.447 0.741 RC
2 LJ
N
94.7 89.1 M
95.134 89.024 L
95.568 88.796 L
96.002 87.557 L
96.436 86.414 L
96.87 85.404 L
97.304 86.013 L
97.738 87.347 L
98.172 92.492 L
98.606 167.609 L
99.04 315.709 L
99.474 225.424 L
99.908 144.247 L
100.342 134.319 L
100.776 128.564 L
101.21 166.714 L
101.644 149.602 L
102.078 132.547 L
102.512 118.617 L
102.946 112.52 L
103.38 108.747 L
103.814 107.622 L
104.248 108.537 L
104.682 106.974 L
105.116 103.068 L
105.55 100.153 L
105.984 97.923 L
106.418 96.494 L
106.852 97.694 L
107.286 98.571 L
107.72 97.428 L
108.154 96.818 L
108.588 96.456 L
109.022 94.284 L
109.456 89.1 L
109.89 88.243 L
110.324 87.233 L
110.758 86.204 L
111.192 88.395 L
111.626 96.38 L
112.06 107.756 L
112.494 114.158 L
112.928 111.11 L
113.362 106.517 L
113.796 103.068 L
114.23 100.743 L
114.664 104.021 L
115.098 111.529 L
115.532 109.433 L
115.966 104.802 L
S
GR
GS
[0.75 0 0 0.75 0 0] CT
0 0.447 0.741 RC
2 LJ
N
115.966 104.802 M
116.4 102.249 L
116.834 100.591 L
117.268 97.847 L
117.702 91.501 L
118.136 86.109 L
118.57 85.118 L
119.004 93.502 L
119.438 103.182 L
119.872 95.694 L
120.306 87.671 L
120.74 83.25 L
121.174 80.907 L
121.608 78.753 L
122.042 77.229 L
122.476 75.361 L
122.91 72.922 L
123.344 69.702 L
123.778 67.968 L
124.212 66.615 L
124.646 66.786 L
125.08 65.948 L
125.514 64.709 L
125.948 63.528 L
126.382 62.937 L
126.816 63.776 L
127.25 65.681 L
127.684 64.881 L
128.118 64.766 L
128.552 68.235 L
128.986 115.073 L
129.42 257.418 L
129.854 364.472 L
130.288 275.959 L
130.722 244.784 L
131.156 249.586 L
131.59 246.099 L
132.024 235.904 L
132.458 221.136 L
132.892 231.274 L
133.326 245.794 L
133.76 256.713 L
134.194 227.272 L
134.628 198.212 L
135.062 178.09 L
135.496 171.916 L
135.93 179.957 L
136.364 181.101 L
136.798 172.43 L
137.232 162.331 L
S
GR
GS
[0.75 0 0 0.75 0 0] CT
0 0.447 0.741 RC
2 LJ
N
137.232 162.331 M
137.666 150.936 L
138.1 157.3 L
138.534 172.335 L
138.968 132.318 L
139.402 135.348 L
139.836 151.298 L
140.27 166.371 L
140.704 199.985 L
141.138 196.212 L
141.572 179.9 L
142.006 152.479 L
142.44 130.203 L
142.874 111.624 L
143.308 95.065 L
143.742 83.917 L
144.176 54.762 L
144.61 44.225 L
145.044 60.879 L
145.478 63.471 L
145.912 63.452 L
146.346 62.099 L
146.78 61.756 L
147.214 64.69 L
147.648 67.777 L
148.082 70.273 L
148.516 71.874 L
148.95 72.674 L
149.384 75.476 L
149.818 79.401 L
150.252 74.027 L
150.686 72.084 L
151.12 71.398 L
151.554 73.017 L
151.988 78.315 L
152.422 80.945 L
152.856 82.012 L
153.29 81.459 L
153.724 80.449 L
154.158 79.687 L
154.592 79.23 L
155.026 78.372 L
155.46 78.772 L
155.894 80.221 L
156.328 83.155 L
156.762 83.727 L
157.196 84.317 L
157.63 84.336 L
158.064 84.527 L
158.498 84.984 L
S
GR
GS
[0.75 0 0 0.75 0 0] CT
0 0.447 0.741 RC
2 LJ
N
158.498 84.984 M
158.932 84.489 L
159.366 84.451 L
159.8 86.109 L
160.234 87.805 L
160.668 88.148 L
161.102 88.414 L
161.536 89.215 L
161.97 89.767 L
162.404 90.396 L
162.838 88.395 L
163.272 88.052 L
163.706 88.662 L
164.14 88.548 L
164.574 88.662 L
165.008 87.976 L
165.442 87.671 L
165.876 86.547 L
166.31 85.747 L
166.744 84.908 L
167.178 84.641 L
167.612 84.336 L
168.046 83.765 L
168.48 83.327 L
168.914 82.907 L
169.348 82.564 L
169.782 82.374 L
170.216 82.107 L
170.65 82.45 L
171.084 82.717 L
171.518 82.526 L
171.952 83.936 L
172.386 85.823 L
172.82 85.042 L
173.254 85.728 L
173.688 86.356 L
174.122 86.642 L
174.556 85.08 L
174.99 87.042 L
175.424 90.053 L
175.858 83.117 L
176.292 81.745 L
176.726 80.926 L
177.16 80.678 L
177.594 82.355 L
178.028 82.679 L
178.462 82.793 L
178.896 87.023 L
179.33 95.579 L
179.764 100.991 L
S
GR
GS
[0.75 0 0 0.75 0 0] CT
0 0.447 0.741 RC
2 LJ
N
179.764 100.991 M
180.198 102.516 L
180.632 100.21 L
181.066 98.838 L
181.5 95.732 L
181.934 92.206 L
182.368 90.892 L
182.802 89.71 L
183.236 90.167 L
183.67 91.254 L
184.104 91.863 L
184.538 90.72 L
184.972 90.606 L
185.406 90.72 L
185.84 90.472 L
186.274 93.502 L
186.708 94.245 L
187.142 92.187 L
187.576 89.386 L
188.01 89.92 L
188.444 91.559 L
188.878 96.094 L
189.312 98.152 L
189.746 96.323 L
190.18 91.863 L
190.614 88.243 L
191.048 91.063 L
191.482 91.406 L
191.916 90.434 L
192.35 87.347 L
192.784 206.692 L
193.218 333.983 L
193.652 308.087 L
194.086 297.759 L
194.52 277.903 L
194.954 259.59 L
195.388 249.605 L
195.822 261.915 L
196.256 270.776 L
196.69 258.009 L
197.124 331.773 L
197.558 337.985 L
197.992 296.063 L
198.426 258.39 L
198.86 235.809 L
199.294 238.744 L
199.728 247.605 L
200.162 214.829 L
200.596 195.373 L
201.03 188.818 L
S
GR
GS
[0.75 0 0 0.75 0 0] CT
0 0.447 0.741 RC
2 LJ
N
201.03 188.818 M
201.464 179.671 L
201.898 173.326 L
202.332 173.269 L
202.766 174.05 L
203.2 174.965 L
203.634 174.469 L
204.068 175.536 L
204.502 173.307 L
204.936 171.706 L
205.37 174.431 L
205.804 175.594 L
206.238 176.222 L
206.672 174.755 L
207.106 172.316 L
207.54 171.001 L
207.974 173.231 L
208.408 174.317 L
208.842 173.193 L
209.276 166.942 L
209.71 161.416 L
210.144 161.95 L
210.578 161.321 L
211.012 159.949 L
211.446 158.672 L
211.88 156.633 L
212.314 154.785 L
212.748 152.422 L
213.182 149.945 L
213.616 148.058 L
214.05 146.324 L
214.484 144.781 L
214.918 143.237 L
215.352 143.504 L
215.786 145.333 L
216.22 145.543 L
216.654 142.513 L
217.088 140.932 L
217.522 140.15 L
217.956 140.855 L
218.39 140.741 L
218.824 140.093 L
219.258 139.388 L
219.692 139.903 L
220.126 139.521 L
220.56 138.359 L
220.994 135.253 L
221.428 132.642 L
221.862 130.603 L
222.296 129.593 L
S
GR
GS
[0.75 0 0 0.75 0 0] CT
0 0.447 0.741 RC
2 LJ
N
222.296 129.593 M
222.73 127.802 L
223.164 126.392 L
223.598 125.134 L
224.032 123.915 L
224.466 121.914 L
224.9 121.571 L
225.334 121.304 L
225.768 118.617 L
226.202 118.37 L
226.636 119.837 L
227.07 120.161 L
227.504 119.551 L
227.938 119.989 L
228.372 119.627 L
228.806 120.98 L
229.24 119.875 L
229.674 118.922 L
230.108 119.018 L
230.542 119.608 L
230.976 120.942 L
231.41 124.429 L
231.844 124.639 L
232.278 123.972 L
232.712 120.885 L
233.146 108.861 L
233.58 110.919 L
234.014 109.814 L
234.448 113.129 L
234.882 117.112 L
235.316 122.543 L
235.75 125.916 L
236.184 127.897 L
236.618 131.937 L
237.052 133.062 L
237.486 130.946 L
237.92 133.29 L
238.354 132.547 L
238.788 126.487 L
239.222 125.935 L
239.656 128.012 L
240.09 128.431 L
240.524 127.554 L
240.958 124.258 L
241.392 125.363 L
241.826 126.83 L
242.26 127.631 L
242.694 128.469 L
243.128 128.412 L
243.562 127.802 L
S
GR
GS
[0.75 0 0 0.75 0 0] CT
0 0.447 0.741 RC
2 LJ
N
243.562 127.802 M
243.996 127.764 L
244.43 127.745 L
244.864 127.497 L
245.298 126.907 L
245.732 126.506 L
246.166 127.554 L
246.6 127.897 L
247.034 126.945 L
247.468 127.459 L
247.902 137.806 L
248.336 139.559 L
248.77 136.758 L
249.204 131.994 L
249.638 129.25 L
250.072 125.897 L
250.506 118.694 L
250.94 114.349 L
251.374 109.89 L
251.808 107.889 L
252.242 108.08 L
252.676 110.633 L
253.11 110.728 L
253.544 110.805 L
253.978 113.511 L
254.412 107.375 L
254.846 100.038 L
255.28 105.431 L
255.714 111.071 L
256.148 114.768 L
256.582 112.901 L
257.016 111.434 L
257.45 106.022 L
257.884 102.611 L
258.318 111.7 L
258.752 107.813 L
259.186 108.956 L
259.62 111.7 L
260.054 116.769 L
260.488 121.533 L
260.922 128.107 L
261.356 138.035 L
261.79 146.839 L
262.224 168.181 L
262.658 160.254 L
263.092 156.557 L
263.526 140.874 L
263.96 138.454 L
264.394 137.273 L
264.828 132.471 L
S
GR
GS
[0.75 0 0 0.75 0 0] CT
0 0.447 0.741 RC
2 LJ
N
264.828 132.471 M
265.262 129.955 L
265.696 128.698 L
266.13 124.944 L
266.564 128.469 L
266.998 131.899 L
267.432 123.534 L
267.866 132.166 L
268.3 140.303 L
268.734 120.98 L
269.168 117.779 L
269.602 121.971 L
270.036 116.788 L
270.47 120.961 L
270.904 163.188 L
271.338 156.081 L
271.772 139.216 L
272.206 147.773 L
272.64 139.045 L
273.074 139.35 L
273.508 137.273 L
273.942 123.477 L
274.376 112.348 L
274.81 110.195 L
275.244 106.479 L
275.678 115.092 L
276.112 108.232 L
276.546 114.921 L
276.98 113.53 L
277.414 110.157 L
277.848 117.493 L
278.282 114.063 L
278.716 105.679 L
279.15 109.166 L
279.584 109.395 L
280.018 108.023 L
280.452 110.614 L
280.886 113.129 L
281.32 111.357 L
281.754 106.593 L
282.188 113.682 L
282.622 104.478 L
283.056 108.48 L
283.49 112.729 L
283.924 107.984 L
284.358 101.391 L
284.792 105.583 L
285.226 107.775 L
285.66 112.672 L
286.094 110.767 L
S
GR
GS
[0.75 0 0 0.75 0 0] CT
0 0.447 0.741 RC
2 LJ
N
286.094 110.767 M
286.528 120.294 L
286.962 137.216 L
287.396 151.622 L
287.83 149.068 L
288.264 149.392 L
288.698 147.258 L
289.132 127.307 L
289.566 119.704 L
290 122.333 L
290.434 116.807 L
290.868 118.732 L
291.302 116.312 L
291.736 116.255 L
292.17 118.446 L
292.604 118.503 L
293.038 153.985 L
293.472 206.597 L
293.906 272.358 L
294.34 254.445 L
294.774 223.366 L
295.208 186.893 L
295.642 167.342 L
296.076 156.138 L
296.51 149.049 L
296.944 140.874 L
297.378 136.149 L
297.812 127.211 L
298.246 123.248 L
298.68 120.618 L
299.114 121.857 L
299.548 129.27 L
299.982 128.66 L
300.416 121.19 L
300.85 119.113 L
301.284 118.198 L
301.718 113.491 L
302.152 108.194 L
302.586 102.287 L
303.02 104.688 L
303.454 103.735 L
303.888 104.554 L
304.322 106.384 L
304.756 106.67 L
305.19 106.403 L
305.624 105.031 L
306.058 106.555 L
306.492 109.966 L
306.926 117.226 L
307.36 115.035 L
S
GR
GS
[0.75 0 0 0.75 0 0] CT
0 0.447 0.741 RC
2 LJ
N
307.36 115.035 M
307.794 111.605 L
308.228 108.67 L
308.662 108.194 L
309.096 105.583 L
309.53 102.82 L
309.964 100.82 L
310.398 100.229 L
310.832 98.666 L
311.266 97.847 L
311.7 100.343 L
312.134 98.247 L
312.568 98.781 L
313.002 101.182 L
313.436 104.192 L
313.87 106.612 L
314.304 109.528 L
314.738 113.301 L
315.172 118.255 L
315.606 122.409 L
316.04 125.096 L
316.474 128.488 L
316.908 129.613 L
317.342 134.052 L
317.776 139.96 L
318.21 141.332 L
318.644 144.419 L
319.078 146.439 L
319.512 147.696 L
319.946 148.497 L
320.38 150.288 L
320.814 150.65 L
321.248 148.592 L
321.682 146.972 L
322.116 154.213 L
322.55 157.205 L
322.984 155.909 L
323.418 151.45 L
323.852 149.03 L
324.286 146.934 L
324.72 144.724 L
325.154 144.476 L
325.588 144.838 L
326.022 142.627 L
326.456 140.836 L
326.89 139.007 L
327.324 137.94 L
327.758 134.338 L
328.192 133.405 L
328.626 132.49 L
S
GR
GS
[0.75 0 0 0.75 0 0] CT
0 0.447 0.741 RC
2 LJ
N
328.626 132.49 M
329.06 131.137 L
329.494 132.033 L
329.928 132.928 L
330.362 129.632 L
330.796 128.126 L
331.23 126.506 L
331.664 125.039 L
332.098 124.677 L
332.532 123 L
332.966 122.829 L
333.4 121.743 L
333.834 121.781 L
334.268 121.152 L
334.702 120.523 L
335.136 118.979 L
335.57 119.018 L
336.004 118.065 L
336.438 116.598 L
336.872 117.722 L
337.306 117.188 L
337.74 116.617 L
338.174 116.312 L
338.608 116.255 L
339.042 116.197 L
339.476 115.321 L
339.91 113.129 L
340.344 112.71 L
340.778 111.11 L
341.212 110.9 L
341.646 111.796 L
342.08 111.91 L
342.514 111.777 L
342.948 113.873 L
343.382 119.627 L
343.816 118.37 L
344.25 116.293 L
344.684 113.682 L
345.118 113.453 L
345.552 114.311 L
345.986 113.148 L
346.42 111.052 L
346.854 110.424 L
347.288 110.347 L
347.722 111.605 L
348.156 112.005 L
348.59 112.901 L
349.024 114.178 L
349.458 114.406 L
349.892 114.235 L
S
GR
GS
[0.75 0 0 0.75 0 0] CT
0 0.447 0.741 RC
2 LJ
N
349.892 114.235 M
350.326 112.596 L
350.76 111.986 L
351.194 112.405 L
351.628 111.071 L
352.062 111.51 L
352.496 109.509 L
352.93 110.481 L
353.364 109.204 L
353.798 109.509 L
354.232 108.366 L
354.666 108.994 L
355.1 109.128 L
355.534 108.766 L
355.968 107.375 L
356.402 107.775 L
356.836 108.08 L
357.27 107.756 L
357.704 108.27 L
358.138 109.166 L
358.572 111.834 L
359.006 110.195 L
359.44 108.709 L
359.874 106.155 L
360.308 107.165 L
360.742 106.041 L
361.176 104.326 L
361.61 103.087 L
362.044 103.468 L
362.478 103.926 L
362.912 103.468 L
363.346 102.801 L
363.78 103.449 L
364.214 103.849 L
364.648 103.259 L
365.082 102.172 L
365.516 103.125 L
365.95 103.907 L
366.384 105.603 L
366.818 105.679 L
367.252 105.793 L
367.686 105.069 L
368.12 105.202 L
368.554 103.773 L
368.988 104.25 L
369.422 104.288 L
369.856 103.64 L
370.29 102.82 L
370.724 103.221 L
371.158 102.058 L
S
GR
GS
[0.75 0 0 0.75 0 0] CT
0 0.447 0.741 RC
2 LJ
N
371.158 102.058 M
371.592 102.306 L
372.026 101.925 L
372.46 101.887 L
372.894 101.086 L
373.328 101.506 L
373.762 99.924 L
374.196 99.314 L
374.63 99.905 L
375.064 101.563 L
375.498 102.153 L
375.932 101.277 L
376.366 100.858 L
376.8 100.286 L
377.234 101.563 L
377.668 102.077 L
378.102 101.944 L
378.536 101.906 L
378.97 101.829 L
379.404 102.115 L
379.838 101.143 L
380.272 101.353 L
380.706 99.772 L
381.14 99.352 L
381.574 100.724 L
382.008 100.61 L
382.442 100.038 L
382.876 101.467 L
383.31 101.525 L
383.744 101.772 L
384.178 102.172 L
384.612 99.905 L
385.046 98.152 L
385.48 98.037 L
385.914 98.438 L
386.348 100.038 L
386.782 99.39 L
387.216 99.333 L
387.65 97.313 L
388.084 98.114 L
388.518 98.19 L
388.952 97.256 L
389.386 97.237 L
389.82 98.476 L
390.254 98.399 L
390.688 98.59 L
391.122 110.157 L
391.556 124.277 L
391.99 142.818 L
392.424 154.652 L
S
GR
GS
[0.75 0 0 0.75 0 0] CT
0 0.447 0.741 RC
2 LJ
N
392.424 154.652 M
392.858 138.569 L
393.292 124.029 L
393.726 101.277 L
394.16 78.887 L
394.594 66.958 L
395.028 65.205 L
395.462 63.013 L
395.896 57.811 L
396.33 62.308 L
396.764 71.341 L
397.198 71.722 L
397.632 74.675 L
398.066 77.134 L
398.5 78.353 L
398.934 78.753 L
399.368 76.981 L
399.802 74.885 L
400.236 75.704 L
400.67 75.38 L
401.104 74.142 L
401.538 74.504 L
401.972 72.998 L
402.406 73.818 L
402.84 73.017 L
403.274 69.435 L
403.708 68.844 L
404.142 69.321 L
404.576 65.167 L
405.01 64.538 L
405.444 65.376 L
405.878 66.348 L
406.312 64.633 L
406.746 63.109 L
407.18 58.345 L
407.614 45.654 L
408.048 67.529 L
408.482 85.785 L
408.916 100.877 L
409.35 97.771 L
409.784 83.155 L
410.218 83.993 L
410.652 82.317 L
411.086 82.145 L
411.52 81.192 L
411.954 78.868 L
412.388 77.038 L
412.822 77.991 L
413.256 83.098 L
413.69 86.509 L
S
GR
GS
[0.75 0 0 0.75 0 0] CT
0 0.447 0.741 RC
2 LJ
N
413.69 86.509 M
414.124 87.29 L
414.558 82.393 L
414.992 80.544 L
415.426 74.656 L
415.86 66.691 L
416.294 63.318 L
416.728 63.509 L
417.162 61.965 L
417.596 62.137 L
418.03 62.213 L
418.464 61.394 L
418.898 60.917 L
419.332 60.536 L
419.766 60.25 L
420.2 60.689 L
420.634 60.079 L
421.068 59.412 L
421.502 59.297 L
421.936 58.516 L
422.37 57.697 L
422.804 56.096 L
423.238 55.086 L
423.672 54.629 L
424.106 54.305 L
424.54 54.362 L
424.974 54.21 L
425.408 53.371 L
425.842 54.305 L
426.276 55.029 L
426.71 56.191 L
427.144 56.306 L
427.578 54.457 L
428.012 56.401 L
428.446 58.135 L
428.88 59.717 L
429.314 60.365 L
429.748 60.803 L
430.182 60.288 L
430.616 61.565 L
431.05 61.832 L
431.484 63.071 L
431.918 62.613 L
432.352 62.823 L
432.786 62.804 L
433.22 62.861 L
433.654 63.757 L
434.088 64.233 L
434.522 64.652 L
434.956 65.09 L
S
GR
GS
[0.75 0 0 0.75 0 0] CT
0 0.447 0.741 RC
2 LJ
N
434.956 65.09 M
435.39 65.395 L
435.824 64.119 L
436.258 64.233 L
436.692 65.815 L
437.126 66.329 L
437.56 66.234 L
437.994 66.691 L
438.428 65.357 L
438.862 65.643 L
439.296 87.614 L
439.73 122.352 L
440.164 121.38 L
440.598 119.761 L
441.032 116.293 L
441.466 94.112 L
441.9 83.346 L
442.334 87.023 L
442.768 88.738 L
443.202 87.233 L
443.636 85.366 L
444.07 84.298 L
444.504 82.907 L
444.938 82.24 L
445.372 82.031 L
445.806 81.974 L
446.24 84.699 L
446.674 86.718 L
447.108 87.9 L
447.542 89.653 L
447.976 90.72 L
448.41 90.987 L
448.844 88.357 L
449.278 84.927 L
449.712 81.383 L
450.146 80.392 L
450.58 79.439 L
451.014 78.715 L
451.448 78.525 L
451.882 77.419 L
452.316 76.124 L
452.75 75.704 L
453.184 77.61 L
453.618 85.042 L
454.052 113.834 L
454.486 115.912 L
454.92 106.212 L
455.354 91.139 L
455.788 93.274 L
456.222 91.921 L
S
GR
GS
[0.75 0 0 0.75 0 0] CT
0 0.447 0.741 RC
2 LJ
N
456.222 91.921 M
456.656 88.376 L
457.09 87.423 L
457.524 87.385 L
457.958 87.957 L
458.392 87.957 L
458.826 87.957 L
459.26 87.709 L
459.694 85.689 L
460.128 85.594 L
460.562 85.632 L
460.996 86.776 L
461.43 101.734 L
461.864 99.009 L
462.298 82.583 L
462.732 78.048 L
463.166 72.56 L
463.6 68.844 L
464.034 65.586 L
464.468 62.708 L
464.902 64.271 L
465.336 66.901 L
465.77 70.026 L
466.204 75.571 L
466.638 78.696 L
467.072 82.317 L
467.506 86.204 L
467.94 89.501 L
468.374 90.587 L
468.808 89.234 L
469.242 89.196 L
469.676 90.32 L
470.11 91.12 L
470.544 90.491 L
470.978 87.957 L
471.412 87.5 L
471.846 88.052 L
S
GR
%%Trailer
%%Pages: 1
%%EOF
