%!PS-Adobe-3.0 EPSF-3.0
%%Creator: (MATLAB, The Mathworks, Inc. Version 8.5.0.197613 \(R2015a\). Operating System: Windows 8)
%%Title: (C:/Users/aleja/Desktop/TFG/Documentaci\363n/Obtenci\363n de datos/matlab_plot/plots/Jota12-01.eps)
%%CreationDate: 2019-05-22T11:22:12
%%Pages: (atend)
%%BoundingBox: 0 0 420 315
%%LanguageLevel: 2
%%EndComments
%%BeginProlog
%%BeginResource: procset (Apache XML Graphics Std ProcSet) 1.2 0
%%Version: 1.2 0
%%Copyright: (Copyright 2001-2003,2010 The Apache Software Foundation. License terms: http://www.apache.org/licenses/LICENSE-2.0)
/bd{bind def}bind def
/ld{load def}bd
/GR/grestore ld
/M/moveto ld
/LJ/setlinejoin ld
/C/curveto ld
/f/fill ld
/LW/setlinewidth ld
/GC/setgray ld
/t/show ld
/N/newpath ld
/CT/concat ld
/cp/closepath ld
/S/stroke ld
/L/lineto ld
/CC/setcmykcolor ld
/A/ashow ld
/GS/gsave ld
/RC/setrgbcolor ld
/RM/rmoveto ld
/ML/setmiterlimit ld
/re {4 2 roll M
1 index 0 rlineto
0 exch rlineto
neg 0 rlineto
cp } bd
/_ctm matrix def
/_tm matrix def
/BT { _ctm currentmatrix pop matrix _tm copy pop 0 0 moveto } bd
/ET { _ctm setmatrix } bd
/iTm { _ctm setmatrix _tm concat } bd
/Tm { _tm astore pop iTm 0 0 moveto } bd
/ux 0.0 def
/uy 0.0 def
/F {
  /Tp exch def
  /Tf exch def
  Tf findfont Tp scalefont setfont
  /cf Tf def  /cs Tp def
} bd
/ULS {currentpoint /uy exch def /ux exch def} bd
/ULE {
  /Tcx currentpoint pop def
  gsave
  newpath
  cf findfont cs scalefont dup
  /FontMatrix get 0 get /Ts exch def /FontInfo get dup
  /UnderlinePosition get Ts mul /To exch def
  /UnderlineThickness get Ts mul /Tt exch def
  ux uy To add moveto  Tcx uy To add lineto
  Tt setlinewidth stroke
  grestore
} bd
/OLE {
  /Tcx currentpoint pop def
  gsave
  newpath
  cf findfont cs scalefont dup
  /FontMatrix get 0 get /Ts exch def /FontInfo get dup
  /UnderlinePosition get Ts mul /To exch def
  /UnderlineThickness get Ts mul /Tt exch def
  ux uy To add cs add moveto Tcx uy To add cs add lineto
  Tt setlinewidth stroke
  grestore
} bd
/SOE {
  /Tcx currentpoint pop def
  gsave
  newpath
  cf findfont cs scalefont dup
  /FontMatrix get 0 get /Ts exch def /FontInfo get dup
  /UnderlinePosition get Ts mul /To exch def
  /UnderlineThickness get Ts mul /Tt exch def
  ux uy To add cs 10 mul 26 idiv add moveto Tcx uy To add cs 10 mul 26 idiv add lineto
  Tt setlinewidth stroke
  grestore
} bd
/QT {
/Y22 exch store
/X22 exch store
/Y21 exch store
/X21 exch store
currentpoint
/Y21 load 2 mul add 3 div exch
/X21 load 2 mul add 3 div exch
/X21 load 2 mul /X22 load add 3 div
/Y21 load 2 mul /Y22 load add 3 div
/X22 load /Y22 load curveto
} bd
/SSPD {
dup length /d exch dict def
{
/v exch def
/k exch def
currentpagedevice k known {
/cpdv currentpagedevice k get def
v cpdv ne {
/upd false def
/nullv v type /nulltype eq def
/nullcpdv cpdv type /nulltype eq def
nullv nullcpdv or
{
/upd true def
} {
/sametype v type cpdv type eq def
sametype {
v type /arraytype eq {
/vlen v length def
/cpdvlen cpdv length def
vlen cpdvlen eq {
0 1 vlen 1 sub {
/i exch def
/obj v i get def
/cpdobj cpdv i get def
obj cpdobj ne {
/upd true def
exit
} if
} for
} {
/upd true def
} ifelse
} {
v type /dicttype eq {
v {
/dv exch def
/dk exch def
/cpddv cpdv dk get def
dv cpddv ne {
/upd true def
exit
} if
} forall
} {
/upd true def
} ifelse
} ifelse
} if
} ifelse
upd true eq {
d k v put
} if
} if
} if
} forall
d length 0 gt {
d setpagedevice
} if
} bd
%%EndResource
%%BeginResource: procset (Apache XML Graphics EPS ProcSet) 1.0 0
%%Version: 1.0 0
%%Copyright: (Copyright 2002-2003 The Apache Software Foundation. License terms: http://www.apache.org/licenses/LICENSE-2.0)
/BeginEPSF { %def
/b4_Inc_state save def         % Save state for cleanup
/dict_count countdictstack def % Count objects on dict stack
/op_count count 1 sub def      % Count objects on operand stack
userdict begin                 % Push userdict on dict stack
/showpage { } def              % Redefine showpage, { } = null proc
0 setgray 0 setlinecap         % Prepare graphics state
1 setlinewidth 0 setlinejoin
10 setmiterlimit [ ] 0 setdash newpath
/languagelevel where           % If level not equal to 1 then
{pop languagelevel             % set strokeadjust and
1 ne                           % overprint to their defaults.
{false setstrokeadjust false setoverprint
} if
} if
} bd
/EndEPSF { %def
count op_count sub {pop} repeat            % Clean up stacks
countdictstack dict_count sub {end} repeat
b4_Inc_state restore
} bd
%%EndResource
%FOPBeginFontDict
%%IncludeResource: font Courier-Bold
%%IncludeResource: font Helvetica
%%IncludeResource: font Courier-BoldOblique
%%IncludeResource: font Courier-Oblique
%%IncludeResource: font Times-Roman
%%IncludeResource: font Helvetica-BoldOblique
%%IncludeResource: font Helvetica-Bold
%%IncludeResource: font Helvetica-Oblique
%%IncludeResource: font Times-BoldItalic
%%IncludeResource: font Courier
%%IncludeResource: font Times-Italic
%%IncludeResource: font Times-Bold
%%IncludeResource: font Symbol
%%IncludeResource: font ZapfDingbats
%FOPEndFontDict
%%BeginResource: encoding WinAnsiEncoding
/WinAnsiEncoding [
/.notdef /.notdef /.notdef /.notdef /.notdef
/.notdef /.notdef /.notdef /.notdef /.notdef
/.notdef /.notdef /.notdef /.notdef /.notdef
/.notdef /.notdef /.notdef /.notdef /.notdef
/.notdef /.notdef /.notdef /.notdef /.notdef
/.notdef /.notdef /.notdef /.notdef /.notdef
/.notdef /.notdef /space /exclam /quotedbl
/numbersign /dollar /percent /ampersand /quotesingle
/parenleft /parenright /asterisk /plus /comma
/hyphen /period /slash /zero /one
/two /three /four /five /six
/seven /eight /nine /colon /semicolon
/less /equal /greater /question /at
/A /B /C /D /E
/F /G /H /I /J
/K /L /M /N /O
/P /Q /R /S /T
/U /V /W /X /Y
/Z /bracketleft /backslash /bracketright /asciicircum
/underscore /quoteleft /a /b /c
/d /e /f /g /h
/i /j /k /l /m
/n /o /p /q /r
/s /t /u /v /w
/x /y /z /braceleft /bar
/braceright /asciitilde /bullet /Euro /bullet
/quotesinglbase /florin /quotedblbase /ellipsis /dagger
/daggerdbl /circumflex /perthousand /Scaron /guilsinglleft
/OE /bullet /Zcaron /bullet /bullet
/quoteleft /quoteright /quotedblleft /quotedblright /bullet
/endash /emdash /asciitilde /trademark /scaron
/guilsinglright /oe /bullet /zcaron /Ydieresis
/space /exclamdown /cent /sterling /currency
/yen /brokenbar /section /dieresis /copyright
/ordfeminine /guillemotleft /logicalnot /sfthyphen /registered
/macron /degree /plusminus /twosuperior /threesuperior
/acute /mu /paragraph /middot /cedilla
/onesuperior /ordmasculine /guillemotright /onequarter /onehalf
/threequarters /questiondown /Agrave /Aacute /Acircumflex
/Atilde /Adieresis /Aring /AE /Ccedilla
/Egrave /Eacute /Ecircumflex /Edieresis /Igrave
/Iacute /Icircumflex /Idieresis /Eth /Ntilde
/Ograve /Oacute /Ocircumflex /Otilde /Odieresis
/multiply /Oslash /Ugrave /Uacute /Ucircumflex
/Udieresis /Yacute /Thorn /germandbls /agrave
/aacute /acircumflex /atilde /adieresis /aring
/ae /ccedilla /egrave /eacute /ecircumflex
/edieresis /igrave /iacute /icircumflex /idieresis
/eth /ntilde /ograve /oacute /ocircumflex
/otilde /odieresis /divide /oslash /ugrave
/uacute /ucircumflex /udieresis /yacute /thorn
/ydieresis
] def
%%EndResource
%FOPBeginFontReencode
/Courier-Bold findfont
dup length dict begin
  {1 index /FID ne {def} {pop pop} ifelse} forall
  /Encoding WinAnsiEncoding def
  currentdict
end
/Courier-Bold exch definefont pop
/Helvetica findfont
dup length dict begin
  {1 index /FID ne {def} {pop pop} ifelse} forall
  /Encoding WinAnsiEncoding def
  currentdict
end
/Helvetica exch definefont pop
/Courier-BoldOblique findfont
dup length dict begin
  {1 index /FID ne {def} {pop pop} ifelse} forall
  /Encoding WinAnsiEncoding def
  currentdict
end
/Courier-BoldOblique exch definefont pop
/Courier-Oblique findfont
dup length dict begin
  {1 index /FID ne {def} {pop pop} ifelse} forall
  /Encoding WinAnsiEncoding def
  currentdict
end
/Courier-Oblique exch definefont pop
/Times-Roman findfont
dup length dict begin
  {1 index /FID ne {def} {pop pop} ifelse} forall
  /Encoding WinAnsiEncoding def
  currentdict
end
/Times-Roman exch definefont pop
/Helvetica-BoldOblique findfont
dup length dict begin
  {1 index /FID ne {def} {pop pop} ifelse} forall
  /Encoding WinAnsiEncoding def
  currentdict
end
/Helvetica-BoldOblique exch definefont pop
/Helvetica-Bold findfont
dup length dict begin
  {1 index /FID ne {def} {pop pop} ifelse} forall
  /Encoding WinAnsiEncoding def
  currentdict
end
/Helvetica-Bold exch definefont pop
/Helvetica-Oblique findfont
dup length dict begin
  {1 index /FID ne {def} {pop pop} ifelse} forall
  /Encoding WinAnsiEncoding def
  currentdict
end
/Helvetica-Oblique exch definefont pop
/Times-BoldItalic findfont
dup length dict begin
  {1 index /FID ne {def} {pop pop} ifelse} forall
  /Encoding WinAnsiEncoding def
  currentdict
end
/Times-BoldItalic exch definefont pop
/Courier findfont
dup length dict begin
  {1 index /FID ne {def} {pop pop} ifelse} forall
  /Encoding WinAnsiEncoding def
  currentdict
end
/Courier exch definefont pop
/Times-Italic findfont
dup length dict begin
  {1 index /FID ne {def} {pop pop} ifelse} forall
  /Encoding WinAnsiEncoding def
  currentdict
end
/Times-Italic exch definefont pop
/Times-Bold findfont
dup length dict begin
  {1 index /FID ne {def} {pop pop} ifelse} forall
  /Encoding WinAnsiEncoding def
  currentdict
end
/Times-Bold exch definefont pop
%FOPEndFontReencode
%%EndProlog
%%Page: 1 1
%%PageBoundingBox: 0 0 420 315
%%BeginPageSetup
[1 0 0 -1 0 315] CT
%%EndPageSetup
GS
[0.75 0 0 0.75 0 0] CT
1 GC
N
0 0 560 420 re
f
GR
GS
[0.75 0 0 0.75 0 0] CT
1 GC
N
0 0 560 420 re
f
GR
GS
[0.75 0 0 0.75 0 0] CT
1 GC
N
73 374 M
507 374 L
507 31 L
73 31 L
cp
f
GR
GS
[0.75 0 0 0.75 0 0] CT
0.149 GC
2 setlinecap
10.0 ML
N
73 374 M
507 374 L
S
GR
GS
[0.75 0 0 0.75 0 0] CT
0.149 GC
2 setlinecap
10.0 ML
N
73 31 M
507 31 L
S
GR
GS
[0.75 0 0 0.75 0 0] CT
0.149 GC
2 setlinecap
10.0 ML
N
73 374 M
73 369.66 L
S
GR
GS
[0.75 0 0 0.75 0 0] CT
0.149 GC
2 setlinecap
10.0 ML
N
135 374 M
135 369.66 L
S
GR
GS
[0.75 0 0 0.75 0 0] CT
0.149 GC
2 setlinecap
10.0 ML
N
197 374 M
197 369.66 L
S
GR
GS
[0.75 0 0 0.75 0 0] CT
0.149 GC
2 setlinecap
10.0 ML
N
259 374 M
259 369.66 L
S
GR
GS
[0.75 0 0 0.75 0 0] CT
0.149 GC
2 setlinecap
10.0 ML
N
321 374 M
321 369.66 L
S
GR
GS
[0.75 0 0 0.75 0 0] CT
0.149 GC
2 setlinecap
10.0 ML
N
383 374 M
383 369.66 L
S
GR
GS
[0.75 0 0 0.75 0 0] CT
0.149 GC
2 setlinecap
10.0 ML
N
445 374 M
445 369.66 L
S
GR
GS
[0.75 0 0 0.75 0 0] CT
0.149 GC
2 setlinecap
10.0 ML
N
507 374 M
507 369.66 L
S
GR
GS
[0.75 0 0 0.75 0 0] CT
0.149 GC
2 setlinecap
10.0 ML
N
73 31 M
73 35.34 L
S
GR
GS
[0.75 0 0 0.75 0 0] CT
0.149 GC
2 setlinecap
10.0 ML
N
135 31 M
135 35.34 L
S
GR
GS
[0.75 0 0 0.75 0 0] CT
0.149 GC
2 setlinecap
10.0 ML
N
197 31 M
197 35.34 L
S
GR
GS
[0.75 0 0 0.75 0 0] CT
0.149 GC
2 setlinecap
10.0 ML
N
259 31 M
259 35.34 L
S
GR
GS
[0.75 0 0 0.75 0 0] CT
0.149 GC
2 setlinecap
10.0 ML
N
321 31 M
321 35.34 L
S
GR
GS
[0.75 0 0 0.75 0 0] CT
0.149 GC
2 setlinecap
10.0 ML
N
383 31 M
383 35.34 L
S
GR
GS
[0.75 0 0 0.75 0 0] CT
0.149 GC
2 setlinecap
10.0 ML
N
445 31 M
445 35.34 L
S
GR
GS
[0.75 0 0 0.75 0 0] CT
0.149 GC
2 setlinecap
10.0 ML
N
507 31 M
507 35.34 L
S
GR
GS
[0.75 0 0 0.75 54.75 284.50001] CT
0.149 GC
/Helvetica 13 F
GS
[1 0 0 1 0 0] CT
-4 14 moveto 
1 -1 scale
(0) t 
GR
GR
GS
[0.75 0 0 0.75 101.25 284.50001] CT
0.149 GC
/Helvetica 13 F
GS
[1 0 0 1 0 0] CT
-11 14 moveto 
1 -1 scale
(100) t 
GR
GR
GS
[0.75 0 0 0.75 147.75 284.50001] CT
0.149 GC
/Helvetica 13 F
GS
[1 0 0 1 0 0] CT
-11 14 moveto 
1 -1 scale
(200) t 
GR
GR
GS
[0.75 0 0 0.75 194.25 284.50001] CT
0.149 GC
/Helvetica 13 F
GS
[1 0 0 1 0 0] CT
-11 14 moveto 
1 -1 scale
(300) t 
GR
GR
GS
[0.75 0 0 0.75 240.75 284.50001] CT
0.149 GC
/Helvetica 13 F
GS
[1 0 0 1 0 0] CT
-11 14 moveto 
1 -1 scale
(400) t 
GR
GR
GS
[0.75 0 0 0.75 287.25 284.50001] CT
0.149 GC
/Helvetica 13 F
GS
[1 0 0 1 0 0] CT
-11 14 moveto 
1 -1 scale
(500) t 
GR
GR
GS
[0.75 0 0 0.75 333.75 284.50001] CT
0.149 GC
/Helvetica 13 F
GS
[1 0 0 1 0 0] CT
-11 14 moveto 
1 -1 scale
(600) t 
GR
GR
GS
[0.75 0 0 0.75 380.25 284.50001] CT
0.149 GC
/Helvetica 13 F
GS
[1 0 0 1 0 0] CT
-11 14 moveto 
1 -1 scale
(700) t 
GR
GR
GS
[0.75 0 0 0.75 0 0] CT
0.149 GC
2 setlinecap
10.0 ML
N
73 374 M
73 31 L
S
GR
GS
[0.75 0 0 0.75 0 0] CT
0.149 GC
2 setlinecap
10.0 ML
N
507 374 M
507 31 L
S
GR
GS
[0.75 0 0 0.75 0 0] CT
0.149 GC
2 setlinecap
10.0 ML
N
73 374 M
77.34 374 L
S
GR
GS
[0.75 0 0 0.75 0 0] CT
0.149 GC
2 setlinecap
10.0 ML
N
73 325 M
77.34 325 L
S
GR
GS
[0.75 0 0 0.75 0 0] CT
0.149 GC
2 setlinecap
10.0 ML
N
73 276 M
77.34 276 L
S
GR
GS
[0.75 0 0 0.75 0 0] CT
0.149 GC
2 setlinecap
10.0 ML
N
73 227 M
77.34 227 L
S
GR
GS
[0.75 0 0 0.75 0 0] CT
0.149 GC
2 setlinecap
10.0 ML
N
73 178 M
77.34 178 L
S
GR
GS
[0.75 0 0 0.75 0 0] CT
0.149 GC
2 setlinecap
10.0 ML
N
73 129 M
77.34 129 L
S
GR
GS
[0.75 0 0 0.75 0 0] CT
0.149 GC
2 setlinecap
10.0 ML
N
73 80 M
77.34 80 L
S
GR
GS
[0.75 0 0 0.75 0 0] CT
0.149 GC
2 setlinecap
10.0 ML
N
73 31 M
77.34 31 L
S
GR
GS
[0.75 0 0 0.75 0 0] CT
0.149 GC
2 setlinecap
10.0 ML
N
507 374 M
502.66 374 L
S
GR
GS
[0.75 0 0 0.75 0 0] CT
0.149 GC
2 setlinecap
10.0 ML
N
507 325 M
502.66 325 L
S
GR
GS
[0.75 0 0 0.75 0 0] CT
0.149 GC
2 setlinecap
10.0 ML
N
507 276 M
502.66 276 L
S
GR
GS
[0.75 0 0 0.75 0 0] CT
0.149 GC
2 setlinecap
10.0 ML
N
507 227 M
502.66 227 L
S
GR
GS
[0.75 0 0 0.75 0 0] CT
0.149 GC
2 setlinecap
10.0 ML
N
507 178 M
502.66 178 L
S
GR
GS
[0.75 0 0 0.75 0 0] CT
0.149 GC
2 setlinecap
10.0 ML
N
507 129 M
502.66 129 L
S
GR
GS
[0.75 0 0 0.75 0 0] CT
0.149 GC
2 setlinecap
10.0 ML
N
507 80 M
502.66 80 L
S
GR
GS
[0.75 0 0 0.75 0 0] CT
0.149 GC
2 setlinecap
10.0 ML
N
507 31 M
502.66 31 L
S
GR
GS
[0.75 0 0 0.75 50.75 280.5] CT
0.149 GC
/Helvetica 13 F
GS
[1 0 0 1 0 0] CT
-22 5.5 moveto 
1 -1 scale
(620) t 
GR
GR
GS
[0.75 0 0 0.75 50.75 243.75] CT
0.149 GC
/Helvetica 13 F
GS
[1 0 0 1 0 0] CT
-22 5.5 moveto 
1 -1 scale
(630) t 
GR
GR
GS
[0.75 0 0 0.75 50.75 207] CT
0.149 GC
/Helvetica 13 F
GS
[1 0 0 1 0 0] CT
-22 5.5 moveto 
1 -1 scale
(640) t 
GR
GR
GS
[0.75 0 0 0.75 50.75 170.25] CT
0.149 GC
/Helvetica 13 F
GS
[1 0 0 1 0 0] CT
-22 5.5 moveto 
1 -1 scale
(650) t 
GR
GR
GS
[0.75 0 0 0.75 50.75 133.5] CT
0.149 GC
/Helvetica 13 F
GS
[1 0 0 1 0 0] CT
-22 5.5 moveto 
1 -1 scale
(660) t 
GR
GR
GS
[0.75 0 0 0.75 50.75 96.75] CT
0.149 GC
/Helvetica 13 F
GS
[1 0 0 1 0 0] CT
-22 5.5 moveto 
1 -1 scale
(670) t 
GR
GR
GS
[0.75 0 0 0.75 50.75 60] CT
0.149 GC
/Helvetica 13 F
GS
[1 0 0 1 0 0] CT
-22 5.5 moveto 
1 -1 scale
(680) t 
GR
GR
GS
[0.75 0 0 0.75 50.75 23.25] CT
0.149 GC
/Helvetica 13 F
GS
[1 0 0 1 0 0] CT
-22 5.5 moveto 
1 -1 scale
(690) t 
GR
GR
GS
[0.75 0 0 0.75 0 0] CT
0 0.447 0.741 RC
2 LJ
N
73.62 331.468 M
74.24 329.802 L
74.86 330.39 L
75.48 330.047 L
76.1 331.419 L
76.72 332.938 L
77.34 330.733 L
77.96 334.114 L
78.58 333.281 L
79.2 332.448 L
79.82 332.791 L
80.44 332.595 L
81.06 333.085 L
81.68 331.272 L
82.3 332.399 L
82.92 332.693 L
83.54 331.468 L
84.16 330.782 L
84.78 330.439 L
85.4 330.194 L
86.02 331.664 L
86.64 331.713 L
87.26 331.321 L
87.88 331.027 L
88.5 331.37 L
89.12 330.194 L
89.74 329.41 L
90.36 330.978 L
90.98 330.831 L
91.6 330.341 L
92.22 331.566 L
92.84 331.174 L
93.46 330.39 L
94.08 330.488 L
94.7 329.361 L
95.32 331.419 L
95.94 330.635 L
96.56 330.145 L
97.18 331.909 L
97.8 329.165 L
98.42 328.43 L
99.04 329.263 L
99.66 331.125 L
100.28 329.949 L
100.9 328.577 L
101.52 329.263 L
102.14 328.528 L
102.76 329.655 L
103.38 330.831 L
104 330.145 L
S
GR
GS
[0.75 0 0 0.75 0 0] CT
0 0.447 0.741 RC
2 LJ
N
104 330.145 M
104.62 332.154 L
105.24 330.733 L
105.86 331.517 L
106.48 332.399 L
107.1 333.183 L
107.72 331.909 L
108.34 332.497 L
108.96 332.546 L
109.58 332.742 L
110.2 332.252 L
110.82 332.987 L
111.44 330.096 L
112.06 329.655 L
112.68 330.88 L
113.3 332.399 L
113.92 330.684 L
114.54 330.733 L
115.16 329.949 L
115.78 330.439 L
116.4 330.292 L
117.02 331.517 L
117.64 330.292 L
118.26 331.027 L
118.88 331.958 L
119.5 333.036 L
120.12 330.488 L
120.74 330.88 L
121.36 331.958 L
121.98 332.644 L
122.6 331.762 L
123.22 332.35 L
123.84 332.742 L
124.46 332.203 L
125.08 332.791 L
125.7 334.212 L
126.32 331.321 L
126.94 332.203 L
127.56 332.987 L
128.18 332.35 L
128.8 329.802 L
129.42 330.88 L
130.04 329.704 L
130.66 329.459 L
131.28 329.949 L
131.9 329.361 L
132.52 331.664 L
133.14 330.194 L
133.76 329.263 L
134.38 331.37 L
S
GR
GS
[0.75 0 0 0.75 0 0] CT
0 0.447 0.741 RC
2 LJ
N
134.38 331.37 M
135 330.047 L
135.62 329.361 L
136.24 330.733 L
136.86 331.909 L
137.48 332.399 L
138.1 332.301 L
138.72 332.644 L
139.34 331.125 L
139.96 332.399 L
140.58 332.987 L
141.2 333.183 L
141.82 334.653 L
142.44 332.203 L
143.06 331.517 L
143.68 331.713 L
144.3 331.566 L
144.92 332.399 L
145.54 333.771 L
146.16 274.383 L
146.78 320.247 L
147.4 339.602 L
148.02 338.867 L
148.64 336.907 L
149.26 335.437 L
149.88 335.241 L
150.5 334.702 L
151.12 333.722 L
151.74 332.546 L
152.36 331.125 L
152.98 331.909 L
153.6 332.693 L
154.22 332.889 L
154.84 331.615 L
155.46 331.86 L
156.08 330.194 L
156.7 331.321 L
157.32 331.958 L
157.94 330.831 L
158.56 329.116 L
159.18 330.047 L
159.8 329.655 L
160.42 332.105 L
161.04 330.733 L
161.66 329.949 L
162.28 331.027 L
162.9 328.087 L
163.52 329.263 L
164.14 329.165 L
164.76 331.566 L
S
GR
GS
[0.75 0 0 0.75 0 0] CT
0 0.447 0.741 RC
2 LJ
N
164.76 331.566 M
165.38 329.851 L
166 328.675 L
166.62 327.548 L
167.24 329.508 L
167.86 327.646 L
168.48 327.401 L
169.1 329.851 L
169.72 330.145 L
170.34 331.615 L
170.96 330.88 L
171.58 329.312 L
172.2 330.488 L
172.82 330.39 L
173.44 328.528 L
174.06 328.92 L
174.68 328.577 L
175.3 330.096 L
175.92 329.802 L
176.54 327.646 L
177.16 326.225 L
177.78 328.822 L
178.4 328.381 L
179.02 326.813 L
179.64 328.43 L
180.26 329.851 L
180.88 330.684 L
181.5 329.361 L
182.12 330.537 L
182.74 329.263 L
183.36 330.292 L
183.98 329.557 L
184.6 329.802 L
185.22 329.165 L
185.84 328.136 L
186.46 329.165 L
187.08 331.174 L
187.7 330.194 L
188.32 328.577 L
188.94 329.067 L
189.56 328.822 L
190.18 328.92 L
190.8 329.067 L
191.42 329.067 L
192.04 328.528 L
192.66 327.646 L
193.28 326.323 L
193.9 327.891 L
194.52 324.608 L
195.14 318.728 L
S
GR
GS
[0.75 0 0 0.75 0 0] CT
0 0.447 0.741 RC
2 LJ
N
195.14 318.728 M
195.76 316.719 L
196.38 321.031 L
197 323.138 L
197.62 324.902 L
198.24 320.982 L
198.86 320.982 L
199.48 322.991 L
200.1 325.686 L
200.72 328.969 L
201.34 326.862 L
201.96 328.234 L
202.58 330.733 L
203.2 331.811 L
203.82 334.898 L
204.44 340.435 L
205.06 340.043 L
205.68 339.602 L
206.3 339.945 L
206.92 333.673 L
207.54 348.765 L
208.16 355.037 L
208.78 349.059 L
209.4 344.208 L
210.02 343.914 L
210.64 338.328 L
211.26 335.192 L
211.88 335.388 L
212.5 335.927 L
213.12 331.762 L
213.74 329.557 L
214.36 319.61 L
214.98 322.158 L
215.6 333.477 L
216.22 332.448 L
216.84 333.281 L
217.46 333.183 L
218.08 334.212 L
218.7 336.123 L
219.32 331.37 L
219.94 333.085 L
220.56 333.82 L
221.18 331.468 L
221.8 327.744 L
222.42 327.45 L
223.04 330.39 L
223.66 330.684 L
224.28 329.508 L
224.9 328.626 L
225.52 332.301 L
S
GR
GS
[0.75 0 0 0.75 0 0] CT
0 0.447 0.741 RC
2 LJ
N
225.52 332.301 M
226.14 333.526 L
226.76 332.056 L
227.38 330.537 L
228 330.586 L
228.62 327.303 L
229.24 321.178 L
229.86 325.343 L
230.48 329.508 L
231.1 328.038 L
231.72 324.853 L
232.34 326.617 L
232.96 337.397 L
233.58 350.823 L
234.2 348.863 L
234.82 339.749 L
235.44 333.379 L
236.06 329.9 L
236.68 331.468 L
237.3 331.321 L
237.92 328.577 L
238.54 327.156 L
239.16 327.205 L
239.78 331.272 L
240.4 333.526 L
241.02 326.813 L
241.64 323.726 L
242.26 323.236 L
242.88 325.98 L
243.5 327.94 L
244.12 325.882 L
244.74 323.726 L
245.36 322.55 L
245.98 322.648 L
246.6 330.047 L
247.22 329.116 L
247.84 331.566 L
248.46 334.653 L
249.08 336.319 L
249.7 337.593 L
250.32 323.236 L
250.94 319.806 L
251.56 321.423 L
252.18 325.784 L
252.8 328.283 L
253.42 331.86 L
254.04 333.428 L
254.66 334.114 L
255.28 336.172 L
255.9 336.417 L
S
GR
GS
[0.75 0 0 0.75 0 0] CT
0 0.447 0.741 RC
2 LJ
N
255.9 336.417 M
256.52 333.673 L
257.14 330.341 L
257.76 328.724 L
258.38 328.675 L
259 327.303 L
259.62 331.664 L
260.24 339.014 L
260.86 345.286 L
261.48 347.148 L
262.1 343.62 L
262.72 337.446 L
263.34 314.269 L
263.96 291.435 L
264.58 293.297 L
265.2 299.226 L
265.82 304.371 L
266.44 308.487 L
267.06 310.741 L
267.68 314.514 L
268.3 316.67 L
268.92 316.131 L
269.54 317.846 L
270.16 317.748 L
270.78 318.042 L
271.4 319.316 L
272.02 317.258 L
272.64 315.151 L
273.26 318.532 L
273.88 319.953 L
274.5 319.806 L
275.12 321.423 L
275.74 322.55 L
276.36 322.501 L
276.98 323.922 L
277.6 324.265 L
278.22 326.176 L
278.84 326.715 L
279.46 326.176 L
280.08 324.118 L
280.7 322.942 L
281.32 323.334 L
281.94 323.53 L
282.56 325.245 L
283.18 323.236 L
283.8 321.031 L
284.42 320.688 L
285.04 323.922 L
285.66 322.452 L
286.28 322.256 L
S
GR
GS
[0.75 0 0 0.75 0 0] CT
0 0.447 0.741 RC
2 LJ
N
286.28 322.256 M
286.9 322.599 L
287.52 323.628 L
288.14 324.853 L
288.76 326.862 L
289.38 326.519 L
290 326.274 L
290.62 324.167 L
291.24 321.962 L
291.86 322.55 L
292.48 324.608 L
293.1 323.922 L
293.72 323.481 L
294.34 323.873 L
294.96 324.755 L
295.58 325.343 L
296.2 325.294 L
296.82 324.559 L
297.44 321.619 L
298.06 321.423 L
298.68 322.011 L
299.3 322.991 L
299.92 324.265 L
300.54 325.637 L
301.16 325.686 L
301.78 324.265 L
302.4 325.392 L
303.02 325.637 L
303.64 326.029 L
304.26 327.45 L
304.88 330.194 L
305.5 329.214 L
306.12 330.194 L
306.74 332.35 L
307.36 333.82 L
307.98 333.526 L
308.6 330.39 L
309.22 327.548 L
309.84 330.096 L
310.46 331.076 L
311.08 329.41 L
311.7 326.813 L
312.32 326.862 L
312.94 327.009 L
313.56 327.058 L
314.18 325.539 L
314.8 323.236 L
315.42 325.147 L
316.04 324.657 L
316.66 325.833 L
S
GR
GS
[0.75 0 0 0.75 0 0] CT
0 0.447 0.741 RC
2 LJ
N
316.66 325.833 M
317.28 323.138 L
317.9 321.178 L
318.52 320.933 L
319.14 321.08 L
319.76 322.648 L
320.38 323.873 L
321 325 L
321.62 322.256 L
322.24 319.708 L
322.86 320.051 L
323.48 320.786 L
324.1 319.267 L
324.72 320.786 L
325.34 321.178 L
325.96 322.158 L
326.58 322.599 L
327.2 320.541 L
327.82 321.374 L
328.44 323.089 L
329.06 326.421 L
329.68 324.461 L
330.3 325.931 L
330.92 324.804 L
331.54 320.394 L
332.16 316.621 L
332.78 327.45 L
333.4 334.947 L
334.02 333.281 L
334.64 330.537 L
335.26 352.097 L
335.88 356.948 L
336.5 335.731 L
337.12 336.221 L
337.74 354.988 L
338.36 357.977 L
338.98 352.685 L
339.6 347.638 L
340.22 343.326 L
340.84 340.435 L
341.46 338.279 L
342.08 335.731 L
342.7 333.526 L
343.32 331.958 L
343.94 330.586 L
344.56 332.301 L
345.18 332.889 L
345.8 331.86 L
346.42 332.35 L
347.04 331.958 L
S
GR
GS
[0.75 0 0 0.75 0 0] CT
0 0.447 0.741 RC
2 LJ
N
347.04 331.958 M
347.66 336.613 L
348.28 338.573 L
348.9 342.052 L
349.52 345.041 L
350.14 346.07 L
350.76 345.923 L
351.38 345.58 L
352 344.159 L
352.62 341.023 L
353.24 337.691 L
353.86 328.332 L
354.48 326.225 L
355.1 316.327 L
355.72 315.788 L
356.34 319.365 L
356.96 323.922 L
357.58 320.786 L
358.2 318.532 L
358.82 315.053 L
359.44 311.182 L
360.06 312.701 L
360.68 315.69 L
361.3 314.22 L
361.92 315.543 L
362.54 312.162 L
363.16 314.661 L
363.78 316.376 L
364.4 316.327 L
365.02 315.298 L
365.64 317.748 L
366.26 320.982 L
366.88 321.668 L
367.5 321.374 L
368.12 320.688 L
368.74 319.855 L
369.36 320.296 L
369.98 322.109 L
370.6 321.668 L
371.22 320.492 L
371.84 321.766 L
372.46 318.973 L
373.08 317.699 L
373.7 318.973 L
374.32 323.236 L
374.94 325.588 L
375.56 321.619 L
376.18 321.178 L
376.8 322.305 L
377.42 322.942 L
S
GR
GS
[0.75 0 0 0.75 0 0] CT
0 0.447 0.741 RC
2 LJ
N
377.42 322.942 M
378.04 323.53 L
378.66 321.031 L
379.28 321.766 L
379.9 326.862 L
380.52 325.441 L
381.14 323.236 L
381.76 323.285 L
382.38 322.256 L
383 321.472 L
383.62 321.08 L
384.24 321.08 L
384.86 322.452 L
385.48 323.432 L
386.1 321.864 L
386.72 323.971 L
387.34 321.08 L
387.96 320.149 L
388.58 323.53 L
389.2 324.804 L
389.82 323.726 L
390.44 324.657 L
391.06 324.118 L
391.68 318.287 L
392.3 316.572 L
392.92 318.581 L
393.54 318.826 L
394.16 317.699 L
394.78 315.837 L
395.4 311.476 L
396.02 313.044 L
396.64 318.091 L
397.26 317.65 L
397.88 317.797 L
398.5 318.532 L
399.12 321.129 L
399.74 323.285 L
400.36 325.539 L
400.98 323.138 L
401.6 322.011 L
402.22 321.227 L
402.84 320.933 L
403.46 320.149 L
404.08 316.817 L
404.7 317.258 L
405.32 317.944 L
405.94 318.238 L
406.56 316.572 L
407.18 318.63 L
407.8 318.875 L
S
GR
GS
[0.75 0 0 0.75 0 0] CT
0 0.447 0.741 RC
2 LJ
N
407.8 318.875 M
408.42 318.14 L
409.04 318.385 L
409.66 318.385 L
410.28 319.61 L
410.9 322.354 L
411.52 322.746 L
412.14 321.227 L
412.76 323.285 L
413.38 323.628 L
414 324.51 L
414.62 321.521 L
415.24 321.962 L
415.86 321.08 L
416.48 322.403 L
417.1 321.962 L
417.72 318.777 L
418.34 319.414 L
418.96 317.601 L
419.58 317.699 L
420.2 317.65 L
420.82 318.973 L
421.44 321.325 L
422.06 321.423 L
422.68 323.236 L
423.3 318.679 L
423.92 318.924 L
424.54 322.403 L
425.16 322.256 L
425.78 318.973 L
426.4 319.365 L
427.02 318.826 L
427.64 317.16 L
428.26 317.699 L
428.88 317.454 L
429.5 318.189 L
430.12 316.719 L
430.74 318.532 L
431.36 68.191 L
431.98 328.43 L
432.6 350.872 L
433.22 350.97 L
433.84 347.54 L
434.46 340.582 L
435.08 334.506 L
435.7 333.722 L
436.32 332.448 L
436.94 329.018 L
437.56 329.214 L
438.18 327.352 L
S
GR
GS
[0.75 0 0 0.75 0 0] CT
0 0.447 0.741 RC
2 LJ
N
438.18 327.352 M
438.8 326.666 L
439.42 324.608 L
440.04 323.138 L
440.66 322.011 L
441.28 320.835 L
441.9 320.59 L
442.52 318.532 L
443.14 318.532 L
443.76 319.757 L
444.38 322.746 L
445 321.717 L
445.62 321.521 L
446.24 319.806 L
446.86 319.414 L
447.48 317.944 L
448.1 317.797 L
448.72 317.944 L
449.34 318.091 L
449.96 316.915 L
450.58 316.572 L
451.2 315.886 L
451.82 316.964 L
452.44 317.601 L
453.06 319.757 L
453.68 316.621 L
454.3 317.111 L
454.92 318.042 L
455.54 319.708 L
456.16 318.777 L
456.78 318.091 L
457.4 318.875 L
458.02 318.336 L
458.64 321.766 L
459.26 321.227 L
459.88 320.933 L
460.5 320.1 L
461.12 319.904 L
461.74 320.541 L
462.36 318.287 L
462.98 318.63 L
463.6 318.532 L
464.22 318.924 L
464.84 318.581 L
465.46 318.483 L
466.08 318.434 L
466.7 319.169 L
467.32 321.227 L
467.94 321.129 L
468.56 321.962 L
S
GR
GS
[0.75 0 0 0.75 0 0] CT
0 0.447 0.741 RC
2 LJ
N
468.56 321.962 M
469.18 319.071 L
S
GR
%%Trailer
%%Pages: 1
%%EOF
