\babel@toc {spanish}{}
\contentsline {chapter}{\numberline {1}Circuito electr\IeC {\'o}nico}{5}{chapter.1}
\contentsline {section}{\numberline {1.1}Filtro paso alto}{6}{section.1.1}
\contentsline {section}{\numberline {1.2}Filtro paso bajo activo}{7}{section.1.2}
\contentsline {section}{\numberline {1.3}Filtro paso bajo pasivo}{8}{section.1.3}
\contentsline {section}{\numberline {1.4}Gr\IeC {\'a}fica filtro paso alto pasivo}{9}{section.1.4}
\contentsline {section}{\numberline {1.5}Gr\IeC {\'a}fica filtro paso bajo activo}{9}{section.1.5}
\contentsline {section}{\numberline {1.6}Gr\IeC {\'a}fica filtro paso bajo pasivo}{10}{section.1.6}
\contentsline {section}{\numberline {1.7}Gr\IeC {\'a}fica filtro paso banda}{11}{section.1.7}
