\relax 
\providecommand\hyper@newdestlabel[2]{}
\catcode `"\active 
\catcode `<\active 
\catcode `>\active 
\@nameuse{es@quoting}
\providecommand\HyperFirstAtBeginDocument{\AtBeginDocument}
\HyperFirstAtBeginDocument{\ifx\hyper@anchor\@undefined
\global\let\oldcontentsline\contentsline
\gdef\contentsline#1#2#3#4{\oldcontentsline{#1}{#2}{#3}}
\global\let\oldnewlabel\newlabel
\gdef\newlabel#1#2{\newlabelxx{#1}#2}
\gdef\newlabelxx#1#2#3#4#5#6{\oldnewlabel{#1}{{#2}{#3}}}
\AtEndDocument{\ifx\hyper@anchor\@undefined
\let\contentsline\oldcontentsline
\let\newlabel\oldnewlabel
\fi}
\fi}
\global\let\hyper@last\relax 
\gdef\HyperFirstAtBeginDocument#1{#1}
\providecommand\HyField@AuxAddToFields[1]{}
\providecommand\HyField@AuxAddToCoFields[2]{}
\babel@aux{spanish}{}
\@writefile{toc}{\contentsline {chapter}{\numberline {1}Circuito electr\IeC {\'o}nico}{5}{chapter.1}}
\@writefile{lof}{\addvspace {10\p@ }}
\@writefile{lot}{\addvspace {10\p@ }}
\@writefile{toc}{\contentsline {section}{\numberline {1.1}Filtro paso alto}{6}{section.1.1}}
\@writefile{lof}{\contentsline {figure}{\numberline {1.1}{\ignorespaces Filtro paso alto pasivo\relax }}{6}{figure.caption.4}}
\providecommand*\caption@xref[2]{\@setref\relax\@undefined{#1}}
\newlabel{Filtro_paso_alto}{{1.1}{6}{Filtro paso alto pasivo\relax }{figure.caption.4}{}}
\@writefile{lot}{\contentsline {table}{\numberline {1.1}{\ignorespaces F\IeC {\'o}rmulas para calculo frecuencia de corte 0.75Hz\relax }}{6}{table.caption.5}}
\newlabel{Formulas_frecuencia_corte_0.05}{{1.1}{6}{Fórmulas para calculo frecuencia de corte 0.75Hz\relax }{table.caption.5}{}}
\@writefile{toc}{\contentsline {section}{\numberline {1.2}Filtro paso bajo activo}{7}{section.1.2}}
\@writefile{lof}{\contentsline {figure}{\numberline {1.2}{\ignorespaces Filtro paso bajo activo\relax }}{7}{figure.caption.6}}
\newlabel{Filtro_paso_bajo_activo}{{1.2}{7}{Filtro paso bajo activo\relax }{figure.caption.6}{}}
\@writefile{lot}{\contentsline {table}{\numberline {1.2}{\ignorespaces F\IeC {\'o}rmulas para calculo frecuencia de corte 60Hz\relax }}{7}{table.caption.7}}
\newlabel{Formulas_frecuencia_corte_60}{{1.2}{7}{Fórmulas para calculo frecuencia de corte 60Hz\relax }{table.caption.7}{}}
\@writefile{lot}{\contentsline {table}{\numberline {1.3}{\ignorespaces F\IeC {\'o}rmulas para calculo de Ganancia amplificador\relax }}{8}{table.caption.8}}
\newlabel{Formula_ganancia_amplificador}{{1.3}{8}{Fórmulas para calculo de Ganancia amplificador\relax }{table.caption.8}{}}
\@writefile{toc}{\contentsline {section}{\numberline {1.3}Filtro paso bajo pasivo}{8}{section.1.3}}
\@writefile{lof}{\contentsline {figure}{\numberline {1.3}{\ignorespaces Filtro paso bajo pasivo\relax }}{8}{figure.caption.9}}
\newlabel{Filtro_paso_bajo_pasivo}{{1.3}{8}{Filtro paso bajo pasivo\relax }{figure.caption.9}{}}
\@writefile{lot}{\contentsline {table}{\numberline {1.4}{\ignorespaces F\IeC {\'o}rmulas para calculo frecuencia de corte 25Hz\relax }}{9}{table.caption.10}}
\newlabel{Formulas_frecuencia_corte_25}{{1.4}{9}{Fórmulas para calculo frecuencia de corte 25Hz\relax }{table.caption.10}{}}
\@writefile{toc}{\contentsline {section}{\numberline {1.4}Gr\IeC {\'a}fica filtro paso alto pasivo}{9}{section.1.4}}
\@writefile{lof}{\contentsline {figure}{\numberline {1.4}{\ignorespaces Gr\IeC {\'a}fico Bode Filtro paso Alto\relax }}{9}{figure.caption.11}}
\newlabel{G_B_F_A}{{1.4}{9}{Gráfico Bode Filtro paso Alto\relax }{figure.caption.11}{}}
\@writefile{toc}{\contentsline {section}{\numberline {1.5}Gr\IeC {\'a}fica filtro paso bajo activo}{9}{section.1.5}}
\@writefile{lof}{\contentsline {figure}{\numberline {1.5}{\ignorespaces Gr\IeC {\'a}fico Bode Filtro paso bajo\relax }}{10}{figure.caption.12}}
\newlabel{G_B_F_B_a}{{1.5}{10}{Gráfico Bode Filtro paso bajo\relax }{figure.caption.12}{}}
\@writefile{toc}{\contentsline {section}{\numberline {1.6}Gr\IeC {\'a}fica filtro paso bajo pasivo}{10}{section.1.6}}
\@writefile{lof}{\contentsline {figure}{\numberline {1.6}{\ignorespaces Gr\IeC {\'a}fico Bode Filtro paso Bajo\relax }}{11}{figure.caption.13}}
\newlabel{G_B_F_B_p}{{1.6}{11}{Gráfico Bode Filtro paso Bajo\relax }{figure.caption.13}{}}
\@writefile{toc}{\contentsline {section}{\numberline {1.7}Gr\IeC {\'a}fica filtro paso banda}{11}{section.1.7}}
\@writefile{lof}{\contentsline {figure}{\numberline {1.7}{\ignorespaces Gr\IeC {\'a}fico Bode Filtro paso Banda\relax }}{12}{figure.caption.14}}
\newlabel{G_B_F_P_B}{{1.7}{12}{Gráfico Bode Filtro paso Banda\relax }{figure.caption.14}{}}
