%!PS-Adobe-3.0 EPSF-3.0
%%Creator: (MATLAB, The Mathworks, Inc. Version 8.5.0.197613 \(R2015a\). Operating System: Windows 8)
%%Title: C:/Users/aleja/Desktop/TFG/Documentacion/Memoria_V2/matlab_plot/plots/alvaro12-16.eps
%%CreationDate: 2019-06-16T13:21:56
%%Pages: (atend)
%%BoundingBox: 0 0 420 315
%%LanguageLevel: 2
%%EndComments
%%BeginProlog
%%BeginResource: procset (Apache XML Graphics Std ProcSet) 1.2 0
%%Version: 1.2 0
%%Copyright: (Copyright 2001-2003,2010 The Apache Software Foundation. License terms: http://www.apache.org/licenses/LICENSE-2.0)
/bd{bind def}bind def
/ld{load def}bd
/GR/grestore ld
/M/moveto ld
/LJ/setlinejoin ld
/C/curveto ld
/f/fill ld
/LW/setlinewidth ld
/GC/setgray ld
/t/show ld
/N/newpath ld
/CT/concat ld
/cp/closepath ld
/S/stroke ld
/L/lineto ld
/CC/setcmykcolor ld
/A/ashow ld
/GS/gsave ld
/RC/setrgbcolor ld
/RM/rmoveto ld
/ML/setmiterlimit ld
/re {4 2 roll M
1 index 0 rlineto
0 exch rlineto
neg 0 rlineto
cp } bd
/_ctm matrix def
/_tm matrix def
/BT { _ctm currentmatrix pop matrix _tm copy pop 0 0 moveto } bd
/ET { _ctm setmatrix } bd
/iTm { _ctm setmatrix _tm concat } bd
/Tm { _tm astore pop iTm 0 0 moveto } bd
/ux 0.0 def
/uy 0.0 def
/F {
  /Tp exch def
  /Tf exch def
  Tf findfont Tp scalefont setfont
  /cf Tf def  /cs Tp def
} bd
/ULS {currentpoint /uy exch def /ux exch def} bd
/ULE {
  /Tcx currentpoint pop def
  gsave
  newpath
  cf findfont cs scalefont dup
  /FontMatrix get 0 get /Ts exch def /FontInfo get dup
  /UnderlinePosition get Ts mul /To exch def
  /UnderlineThickness get Ts mul /Tt exch def
  ux uy To add moveto  Tcx uy To add lineto
  Tt setlinewidth stroke
  grestore
} bd
/OLE {
  /Tcx currentpoint pop def
  gsave
  newpath
  cf findfont cs scalefont dup
  /FontMatrix get 0 get /Ts exch def /FontInfo get dup
  /UnderlinePosition get Ts mul /To exch def
  /UnderlineThickness get Ts mul /Tt exch def
  ux uy To add cs add moveto Tcx uy To add cs add lineto
  Tt setlinewidth stroke
  grestore
} bd
/SOE {
  /Tcx currentpoint pop def
  gsave
  newpath
  cf findfont cs scalefont dup
  /FontMatrix get 0 get /Ts exch def /FontInfo get dup
  /UnderlinePosition get Ts mul /To exch def
  /UnderlineThickness get Ts mul /Tt exch def
  ux uy To add cs 10 mul 26 idiv add moveto Tcx uy To add cs 10 mul 26 idiv add lineto
  Tt setlinewidth stroke
  grestore
} bd
/QT {
/Y22 exch store
/X22 exch store
/Y21 exch store
/X21 exch store
currentpoint
/Y21 load 2 mul add 3 div exch
/X21 load 2 mul add 3 div exch
/X21 load 2 mul /X22 load add 3 div
/Y21 load 2 mul /Y22 load add 3 div
/X22 load /Y22 load curveto
} bd
/SSPD {
dup length /d exch dict def
{
/v exch def
/k exch def
currentpagedevice k known {
/cpdv currentpagedevice k get def
v cpdv ne {
/upd false def
/nullv v type /nulltype eq def
/nullcpdv cpdv type /nulltype eq def
nullv nullcpdv or
{
/upd true def
} {
/sametype v type cpdv type eq def
sametype {
v type /arraytype eq {
/vlen v length def
/cpdvlen cpdv length def
vlen cpdvlen eq {
0 1 vlen 1 sub {
/i exch def
/obj v i get def
/cpdobj cpdv i get def
obj cpdobj ne {
/upd true def
exit
} if
} for
} {
/upd true def
} ifelse
} {
v type /dicttype eq {
v {
/dv exch def
/dk exch def
/cpddv cpdv dk get def
dv cpddv ne {
/upd true def
exit
} if
} forall
} {
/upd true def
} ifelse
} ifelse
} if
} ifelse
upd true eq {
d k v put
} if
} if
} if
} forall
d length 0 gt {
d setpagedevice
} if
} bd
%%EndResource
%%BeginResource: procset (Apache XML Graphics EPS ProcSet) 1.0 0
%%Version: 1.0 0
%%Copyright: (Copyright 2002-2003 The Apache Software Foundation. License terms: http://www.apache.org/licenses/LICENSE-2.0)
/BeginEPSF { %def
/b4_Inc_state save def         % Save state for cleanup
/dict_count countdictstack def % Count objects on dict stack
/op_count count 1 sub def      % Count objects on operand stack
userdict begin                 % Push userdict on dict stack
/showpage { } def              % Redefine showpage, { } = null proc
0 setgray 0 setlinecap         % Prepare graphics state
1 setlinewidth 0 setlinejoin
10 setmiterlimit [ ] 0 setdash newpath
/languagelevel where           % If level not equal to 1 then
{pop languagelevel             % set strokeadjust and
1 ne                           % overprint to their defaults.
{false setstrokeadjust false setoverprint
} if
} if
} bd
/EndEPSF { %def
count op_count sub {pop} repeat            % Clean up stacks
countdictstack dict_count sub {end} repeat
b4_Inc_state restore
} bd
%%EndResource
%FOPBeginFontDict
%%IncludeResource: font Courier-Bold
%%IncludeResource: font Helvetica
%%IncludeResource: font Courier-BoldOblique
%%IncludeResource: font Courier-Oblique
%%IncludeResource: font Times-Roman
%%IncludeResource: font Helvetica-BoldOblique
%%IncludeResource: font Helvetica-Bold
%%IncludeResource: font Helvetica-Oblique
%%IncludeResource: font Times-BoldItalic
%%IncludeResource: font Courier
%%IncludeResource: font Times-Italic
%%IncludeResource: font Times-Bold
%%IncludeResource: font Symbol
%%IncludeResource: font ZapfDingbats
%FOPEndFontDict
%%BeginResource: encoding WinAnsiEncoding
/WinAnsiEncoding [
/.notdef /.notdef /.notdef /.notdef /.notdef
/.notdef /.notdef /.notdef /.notdef /.notdef
/.notdef /.notdef /.notdef /.notdef /.notdef
/.notdef /.notdef /.notdef /.notdef /.notdef
/.notdef /.notdef /.notdef /.notdef /.notdef
/.notdef /.notdef /.notdef /.notdef /.notdef
/.notdef /.notdef /space /exclam /quotedbl
/numbersign /dollar /percent /ampersand /quotesingle
/parenleft /parenright /asterisk /plus /comma
/hyphen /period /slash /zero /one
/two /three /four /five /six
/seven /eight /nine /colon /semicolon
/less /equal /greater /question /at
/A /B /C /D /E
/F /G /H /I /J
/K /L /M /N /O
/P /Q /R /S /T
/U /V /W /X /Y
/Z /bracketleft /backslash /bracketright /asciicircum
/underscore /quoteleft /a /b /c
/d /e /f /g /h
/i /j /k /l /m
/n /o /p /q /r
/s /t /u /v /w
/x /y /z /braceleft /bar
/braceright /asciitilde /bullet /Euro /bullet
/quotesinglbase /florin /quotedblbase /ellipsis /dagger
/daggerdbl /circumflex /perthousand /Scaron /guilsinglleft
/OE /bullet /Zcaron /bullet /bullet
/quoteleft /quoteright /quotedblleft /quotedblright /bullet
/endash /emdash /asciitilde /trademark /scaron
/guilsinglright /oe /bullet /zcaron /Ydieresis
/space /exclamdown /cent /sterling /currency
/yen /brokenbar /section /dieresis /copyright
/ordfeminine /guillemotleft /logicalnot /sfthyphen /registered
/macron /degree /plusminus /twosuperior /threesuperior
/acute /mu /paragraph /middot /cedilla
/onesuperior /ordmasculine /guillemotright /onequarter /onehalf
/threequarters /questiondown /Agrave /Aacute /Acircumflex
/Atilde /Adieresis /Aring /AE /Ccedilla
/Egrave /Eacute /Ecircumflex /Edieresis /Igrave
/Iacute /Icircumflex /Idieresis /Eth /Ntilde
/Ograve /Oacute /Ocircumflex /Otilde /Odieresis
/multiply /Oslash /Ugrave /Uacute /Ucircumflex
/Udieresis /Yacute /Thorn /germandbls /agrave
/aacute /acircumflex /atilde /adieresis /aring
/ae /ccedilla /egrave /eacute /ecircumflex
/edieresis /igrave /iacute /icircumflex /idieresis
/eth /ntilde /ograve /oacute /ocircumflex
/otilde /odieresis /divide /oslash /ugrave
/uacute /ucircumflex /udieresis /yacute /thorn
/ydieresis
] def
%%EndResource
%FOPBeginFontReencode
/Courier-Bold findfont
dup length dict begin
  {1 index /FID ne {def} {pop pop} ifelse} forall
  /Encoding WinAnsiEncoding def
  currentdict
end
/Courier-Bold exch definefont pop
/Helvetica findfont
dup length dict begin
  {1 index /FID ne {def} {pop pop} ifelse} forall
  /Encoding WinAnsiEncoding def
  currentdict
end
/Helvetica exch definefont pop
/Courier-BoldOblique findfont
dup length dict begin
  {1 index /FID ne {def} {pop pop} ifelse} forall
  /Encoding WinAnsiEncoding def
  currentdict
end
/Courier-BoldOblique exch definefont pop
/Courier-Oblique findfont
dup length dict begin
  {1 index /FID ne {def} {pop pop} ifelse} forall
  /Encoding WinAnsiEncoding def
  currentdict
end
/Courier-Oblique exch definefont pop
/Times-Roman findfont
dup length dict begin
  {1 index /FID ne {def} {pop pop} ifelse} forall
  /Encoding WinAnsiEncoding def
  currentdict
end
/Times-Roman exch definefont pop
/Helvetica-BoldOblique findfont
dup length dict begin
  {1 index /FID ne {def} {pop pop} ifelse} forall
  /Encoding WinAnsiEncoding def
  currentdict
end
/Helvetica-BoldOblique exch definefont pop
/Helvetica-Bold findfont
dup length dict begin
  {1 index /FID ne {def} {pop pop} ifelse} forall
  /Encoding WinAnsiEncoding def
  currentdict
end
/Helvetica-Bold exch definefont pop
/Helvetica-Oblique findfont
dup length dict begin
  {1 index /FID ne {def} {pop pop} ifelse} forall
  /Encoding WinAnsiEncoding def
  currentdict
end
/Helvetica-Oblique exch definefont pop
/Times-BoldItalic findfont
dup length dict begin
  {1 index /FID ne {def} {pop pop} ifelse} forall
  /Encoding WinAnsiEncoding def
  currentdict
end
/Times-BoldItalic exch definefont pop
/Courier findfont
dup length dict begin
  {1 index /FID ne {def} {pop pop} ifelse} forall
  /Encoding WinAnsiEncoding def
  currentdict
end
/Courier exch definefont pop
/Times-Italic findfont
dup length dict begin
  {1 index /FID ne {def} {pop pop} ifelse} forall
  /Encoding WinAnsiEncoding def
  currentdict
end
/Times-Italic exch definefont pop
/Times-Bold findfont
dup length dict begin
  {1 index /FID ne {def} {pop pop} ifelse} forall
  /Encoding WinAnsiEncoding def
  currentdict
end
/Times-Bold exch definefont pop
%FOPEndFontReencode
%%EndProlog
%%Page: 1 1
%%PageBoundingBox: 0 0 420 315
%%BeginPageSetup
[1 0 0 -1 0 315] CT
%%EndPageSetup
GS
[0.75 0 0 0.75 0 0] CT
1 GC
N
0 0 560 420 re
f
GR
GS
[0.75 0 0 0.75 0 0] CT
1 GC
N
0 0 560 420 re
f
GR
GS
[0.75 0 0 0.75 0 0] CT
1 GC
N
73 374 M
507 374 L
507 31 L
73 31 L
cp
f
GR
GS
[0.75 0 0 0.75 217.50016 298.25002] CT
0.149 GC
/Helvetica 15 F
GS
[1 0 0 1 0 0] CT
-67 16 moveto 
1 -1 scale
(N\272 Datas recolected) t 
GR
GR
GS
[0.75 0 0 0.75 0 0] CT
0.149 GC
2 setlinecap
10.0 ML
N
73 374 M
507 374 L
S
GR
GS
[0.75 0 0 0.75 0 0] CT
0.149 GC
2 setlinecap
10.0 ML
N
73 31 M
507 31 L
S
GR
GS
[0.75 0 0 0.75 0 0] CT
0.149 GC
2 setlinecap
10.0 ML
N
73 374 M
73 369.66 L
S
GR
GS
[0.75 0 0 0.75 0 0] CT
0.149 GC
2 setlinecap
10.0 ML
N
135 374 M
135 369.66 L
S
GR
GS
[0.75 0 0 0.75 0 0] CT
0.149 GC
2 setlinecap
10.0 ML
N
197 374 M
197 369.66 L
S
GR
GS
[0.75 0 0 0.75 0 0] CT
0.149 GC
2 setlinecap
10.0 ML
N
259 374 M
259 369.66 L
S
GR
GS
[0.75 0 0 0.75 0 0] CT
0.149 GC
2 setlinecap
10.0 ML
N
321 374 M
321 369.66 L
S
GR
GS
[0.75 0 0 0.75 0 0] CT
0.149 GC
2 setlinecap
10.0 ML
N
383 374 M
383 369.66 L
S
GR
GS
[0.75 0 0 0.75 0 0] CT
0.149 GC
2 setlinecap
10.0 ML
N
445 374 M
445 369.66 L
S
GR
GS
[0.75 0 0 0.75 0 0] CT
0.149 GC
2 setlinecap
10.0 ML
N
507 374 M
507 369.66 L
S
GR
GS
[0.75 0 0 0.75 0 0] CT
0.149 GC
2 setlinecap
10.0 ML
N
73 31 M
73 35.34 L
S
GR
GS
[0.75 0 0 0.75 0 0] CT
0.149 GC
2 setlinecap
10.0 ML
N
135 31 M
135 35.34 L
S
GR
GS
[0.75 0 0 0.75 0 0] CT
0.149 GC
2 setlinecap
10.0 ML
N
197 31 M
197 35.34 L
S
GR
GS
[0.75 0 0 0.75 0 0] CT
0.149 GC
2 setlinecap
10.0 ML
N
259 31 M
259 35.34 L
S
GR
GS
[0.75 0 0 0.75 0 0] CT
0.149 GC
2 setlinecap
10.0 ML
N
321 31 M
321 35.34 L
S
GR
GS
[0.75 0 0 0.75 0 0] CT
0.149 GC
2 setlinecap
10.0 ML
N
383 31 M
383 35.34 L
S
GR
GS
[0.75 0 0 0.75 0 0] CT
0.149 GC
2 setlinecap
10.0 ML
N
445 31 M
445 35.34 L
S
GR
GS
[0.75 0 0 0.75 0 0] CT
0.149 GC
2 setlinecap
10.0 ML
N
507 31 M
507 35.34 L
S
GR
GS
[0.75 0 0 0.75 54.75 284.50001] CT
0.149 GC
/Helvetica 13 F
GS
[1 0 0 1 0 0] CT
-4 14 moveto 
1 -1 scale
(0) t 
GR
GR
GS
[0.75 0 0 0.75 101.25 284.50001] CT
0.149 GC
/Helvetica 13 F
GS
[1 0 0 1 0 0] CT
-11 14 moveto 
1 -1 scale
(100) t 
GR
GR
GS
[0.75 0 0 0.75 147.75 284.50001] CT
0.149 GC
/Helvetica 13 F
GS
[1 0 0 1 0 0] CT
-11 14 moveto 
1 -1 scale
(200) t 
GR
GR
GS
[0.75 0 0 0.75 194.25 284.50001] CT
0.149 GC
/Helvetica 13 F
GS
[1 0 0 1 0 0] CT
-11 14 moveto 
1 -1 scale
(300) t 
GR
GR
GS
[0.75 0 0 0.75 240.75 284.50001] CT
0.149 GC
/Helvetica 13 F
GS
[1 0 0 1 0 0] CT
-11 14 moveto 
1 -1 scale
(400) t 
GR
GR
GS
[0.75 0 0 0.75 287.25 284.50001] CT
0.149 GC
/Helvetica 13 F
GS
[1 0 0 1 0 0] CT
-11 14 moveto 
1 -1 scale
(500) t 
GR
GR
GS
[0.75 0 0 0.75 333.75 284.50001] CT
0.149 GC
/Helvetica 13 F
GS
[1 0 0 1 0 0] CT
-11 14 moveto 
1 -1 scale
(600) t 
GR
GR
GS
[0.75 0 0 0.75 380.25 284.50001] CT
0.149 GC
/Helvetica 13 F
GS
[1 0 0 1 0 0] CT
-11 14 moveto 
1 -1 scale
(700) t 
GR
GR
GS
[0 -0.75 0.75 0 31.25 151.8749] CT
0.149 GC
/Helvetica 15 F
GS
[1 0 0 1 0 0] CT
-79 -4 moveto 
1 -1 scale
(Signal potency \(13-bits\)) t 
GR
GR
GS
[0.75 0 0 0.75 0 0] CT
0.149 GC
2 setlinecap
10.0 ML
N
73 374 M
73 31 L
S
GR
GS
[0.75 0 0 0.75 0 0] CT
0.149 GC
2 setlinecap
10.0 ML
N
507 374 M
507 31 L
S
GR
GS
[0.75 0 0 0.75 0 0] CT
0.149 GC
2 setlinecap
10.0 ML
N
73 374 M
77.34 374 L
S
GR
GS
[0.75 0 0 0.75 0 0] CT
0.149 GC
2 setlinecap
10.0 ML
N
73 331.125 M
77.34 331.125 L
S
GR
GS
[0.75 0 0 0.75 0 0] CT
0.149 GC
2 setlinecap
10.0 ML
N
73 288.25 M
77.34 288.25 L
S
GR
GS
[0.75 0 0 0.75 0 0] CT
0.149 GC
2 setlinecap
10.0 ML
N
73 245.375 M
77.34 245.375 L
S
GR
GS
[0.75 0 0 0.75 0 0] CT
0.149 GC
2 setlinecap
10.0 ML
N
73 202.5 M
77.34 202.5 L
S
GR
GS
[0.75 0 0 0.75 0 0] CT
0.149 GC
2 setlinecap
10.0 ML
N
73 159.625 M
77.34 159.625 L
S
GR
GS
[0.75 0 0 0.75 0 0] CT
0.149 GC
2 setlinecap
10.0 ML
N
73 116.75 M
77.34 116.75 L
S
GR
GS
[0.75 0 0 0.75 0 0] CT
0.149 GC
2 setlinecap
10.0 ML
N
73 73.875 M
77.34 73.875 L
S
GR
GS
[0.75 0 0 0.75 0 0] CT
0.149 GC
2 setlinecap
10.0 ML
N
73 31 M
77.34 31 L
S
GR
GS
[0.75 0 0 0.75 0 0] CT
0.149 GC
2 setlinecap
10.0 ML
N
507 374 M
502.66 374 L
S
GR
GS
[0.75 0 0 0.75 0 0] CT
0.149 GC
2 setlinecap
10.0 ML
N
507 331.125 M
502.66 331.125 L
S
GR
GS
[0.75 0 0 0.75 0 0] CT
0.149 GC
2 setlinecap
10.0 ML
N
507 288.25 M
502.66 288.25 L
S
GR
GS
[0.75 0 0 0.75 0 0] CT
0.149 GC
2 setlinecap
10.0 ML
N
507 245.375 M
502.66 245.375 L
S
GR
GS
[0.75 0 0 0.75 0 0] CT
0.149 GC
2 setlinecap
10.0 ML
N
507 202.5 M
502.66 202.5 L
S
GR
GS
[0.75 0 0 0.75 0 0] CT
0.149 GC
2 setlinecap
10.0 ML
N
507 159.625 M
502.66 159.625 L
S
GR
GS
[0.75 0 0 0.75 0 0] CT
0.149 GC
2 setlinecap
10.0 ML
N
507 116.75 M
502.66 116.75 L
S
GR
GS
[0.75 0 0 0.75 0 0] CT
0.149 GC
2 setlinecap
10.0 ML
N
507 73.875 M
502.66 73.875 L
S
GR
GS
[0.75 0 0 0.75 0 0] CT
0.149 GC
2 setlinecap
10.0 ML
N
507 31 M
502.66 31 L
S
GR
GS
[0.75 0 0 0.75 50.75 280.5] CT
0.149 GC
/Helvetica 13 F
GS
[1 0 0 1 0 0] CT
-22 5.5 moveto 
1 -1 scale
(560) t 
GR
GR
GS
[0.75 0 0 0.75 50.75 248.34375] CT
0.149 GC
/Helvetica 13 F
GS
[1 0 0 1 0 0] CT
-22 5.5 moveto 
1 -1 scale
(580) t 
GR
GR
GS
[0.75 0 0 0.75 50.75 216.1875] CT
0.149 GC
/Helvetica 13 F
GS
[1 0 0 1 0 0] CT
-22 5.5 moveto 
1 -1 scale
(600) t 
GR
GR
GS
[0.75 0 0 0.75 50.75 184.03125] CT
0.149 GC
/Helvetica 13 F
GS
[1 0 0 1 0 0] CT
-22 5.5 moveto 
1 -1 scale
(620) t 
GR
GR
GS
[0.75 0 0 0.75 50.75 151.875] CT
0.149 GC
/Helvetica 13 F
GS
[1 0 0 1 0 0] CT
-22 5.5 moveto 
1 -1 scale
(640) t 
GR
GR
GS
[0.75 0 0 0.75 50.75 119.71875] CT
0.149 GC
/Helvetica 13 F
GS
[1 0 0 1 0 0] CT
-22 5.5 moveto 
1 -1 scale
(660) t 
GR
GR
GS
[0.75 0 0 0.75 50.75 87.5625] CT
0.149 GC
/Helvetica 13 F
GS
[1 0 0 1 0 0] CT
-22 5.5 moveto 
1 -1 scale
(680) t 
GR
GR
GS
[0.75 0 0 0.75 50.75 55.40625] CT
0.149 GC
/Helvetica 13 F
GS
[1 0 0 1 0 0] CT
-22 5.5 moveto 
1 -1 scale
(700) t 
GR
GR
GS
[0.75 0 0 0.75 50.75 23.25] CT
0.149 GC
/Helvetica 13 F
GS
[1 0 0 1 0 0] CT
-22 5.5 moveto 
1 -1 scale
(720) t 
GR
GR
GS
[0.75 0 0 0.75 0 0] CT
0 0.447 0.741 RC
2 LJ
N
73.62 66.286 M
74.24 65.579 L
74.86 67.83 L
75.48 67.873 L
76.1 70.595 L
76.72 74.197 L
77.34 74.475 L
77.96 72.01 L
78.58 85.237 L
79.2 87.466 L
79.82 88.774 L
80.44 92.311 L
81.06 87.531 L
81.68 90.532 L
82.3 92.933 L
82.92 85.173 L
83.54 83.457 L
84.16 87.059 L
84.78 93.898 L
85.4 88.302 L
86.02 111.133 L
86.64 110.726 L
87.26 118.272 L
87.88 114.392 L
88.5 108.132 L
89.12 115.55 L
89.74 121.273 L
90.36 108.818 L
90.98 104.895 L
91.6 112.634 L
92.22 110.705 L
92.84 110.983 L
93.46 118.293 L
94.08 121.23 L
94.7 117.543 L
95.32 109.89 L
95.94 115.721 L
96.56 109.676 L
97.18 104.552 L
97.8 121.145 L
98.42 123.096 L
99.04 144.919 L
99.66 104.402 L
100.28 100.779 L
100.9 104.895 L
101.52 105.452 L
102.14 106.31 L
102.76 104.316 L
103.38 105.517 L
104 107.168 L
S
GR
GS
[0.75 0 0 0.75 0 0] CT
0 0.447 0.741 RC
2 LJ
N
104 107.168 M
104.62 103.201 L
105.24 100.222 L
105.86 100.929 L
106.48 102.13 L
107.1 105.217 L
107.72 109.911 L
108.34 111.391 L
108.96 114.435 L
109.58 126.075 L
110.2 130.341 L
110.82 127.169 L
111.44 130.899 L
112.06 116.386 L
112.68 117.2 L
113.3 136.322 L
113.92 121.531 L
114.54 117.865 L
115.16 124.982 L
115.78 126.44 L
116.4 106.653 L
117.02 103.309 L
117.64 118.872 L
118.26 133.257 L
118.88 126.075 L
119.5 123.589 L
120.12 122.624 L
120.74 124.36 L
121.36 121.145 L
121.98 113.856 L
122.6 114.971 L
123.22 112.698 L
123.84 106.074 L
124.46 97.07 L
125.08 95.012 L
125.7 100.029 L
126.32 101.143 L
126.94 101.444 L
127.56 103.652 L
128.18 106.76 L
128.8 107.853 L
129.42 106.546 L
130.04 104.038 L
130.66 99.686 L
131.28 104.595 L
131.9 110.49 L
132.52 109.718 L
133.14 103.33 L
133.76 109.183 L
134.38 111.819 L
S
GR
GS
[0.75 0 0 0.75 0 0] CT
0 0.447 0.741 RC
2 LJ
N
134.38 111.819 M
135 112.27 L
135.62 106.546 L
136.24 105.517 L
136.86 103.223 L
137.48 99.343 L
138.1 95.591 L
138.72 98.207 L
139.34 110.898 L
139.96 132.764 L
140.58 124.575 L
141.2 114.392 L
141.82 104.316 L
142.44 99.664 L
143.06 98.7 L
143.68 95.977 L
144.3 95.763 L
144.92 95.27 L
145.54 95.184 L
146.16 96.835 L
146.78 97.842 L
147.4 95.27 L
148.02 96.62 L
148.64 96.942 L
149.26 98.828 L
149.88 103.051 L
150.5 106.203 L
151.12 105.088 L
151.74 103.952 L
152.36 102.73 L
152.98 100.822 L
153.6 102.387 L
154.22 101.744 L
154.84 102.558 L
155.46 100.672 L
156.08 102.451 L
156.7 101.851 L
157.32 102.215 L
157.94 101.529 L
158.56 103.03 L
159.18 104.574 L
159.8 106.653 L
160.42 108.84 L
161.04 104.509 L
161.66 102.923 L
162.28 101.551 L
162.9 100.393 L
163.52 97.628 L
164.14 99.364 L
164.76 103.094 L
S
GR
GS
[0.75 0 0 0.75 0 0] CT
0 0.447 0.741 RC
2 LJ
N
164.76 103.094 M
165.38 100.822 L
166 101.915 L
166.62 100.993 L
167.24 98.785 L
167.86 99.15 L
168.48 99.45 L
169.1 102.408 L
169.72 103.909 L
170.34 102.644 L
170.96 105.152 L
171.58 104.616 L
172.2 104.509 L
172.82 104.616 L
173.44 105.002 L
174.06 104.831 L
174.68 102.923 L
175.3 103.073 L
175.92 101.808 L
176.54 102.065 L
177.16 101.572 L
177.78 101.679 L
178.4 102.28 L
179.02 101.422 L
179.64 102.344 L
180.26 101.572 L
180.88 102.044 L
181.5 102.344 L
182.12 102.365 L
182.74 104.445 L
183.36 104.916 L
183.98 104.209 L
184.6 96.492 L
185.22 84.487 L
185.84 80.435 L
186.46 82.557 L
187.08 90.253 L
187.7 101.208 L
188.32 106.782 L
188.94 108.046 L
189.56 106.181 L
190.18 105.581 L
190.8 104.23 L
191.42 101.829 L
192.04 106.996 L
192.66 106.181 L
193.28 104.638 L
193.9 103.137 L
194.52 104.188 L
195.14 103.266 L
S
GR
GS
[0.75 0 0 0.75 0 0] CT
0 0.447 0.741 RC
2 LJ
N
195.14 103.266 M
195.76 104.595 L
196.38 105.152 L
197 104.531 L
197.62 100.157 L
198.24 105.045 L
198.86 111.691 L
199.48 117.2 L
200.1 110.104 L
200.72 105.581 L
201.34 104.916 L
201.96 103.009 L
202.58 101.079 L
203.2 102.987 L
203.82 107.339 L
204.44 121.552 L
205.06 120.909 L
205.68 113.62 L
206.3 110.083 L
206.92 103.33 L
207.54 98.378 L
208.16 117.114 L
208.78 113.899 L
209.4 101.379 L
210.02 89.567 L
210.64 93.512 L
211.26 95.27 L
211.88 95.098 L
212.5 98.828 L
213.12 101.529 L
213.74 101.165 L
214.36 103.523 L
214.98 107.939 L
215.6 109.268 L
216.22 105.838 L
216.84 102.408 L
217.46 105.645 L
218.08 104.295 L
218.7 104.402 L
219.32 103.759 L
219.94 104.038 L
220.56 103.48 L
221.18 103.073 L
221.8 106.288 L
222.42 101.101 L
223.04 97.778 L
223.66 100.65 L
224.28 101.143 L
224.9 103.309 L
225.52 103.63 L
S
GR
GS
[0.75 0 0 0.75 0 0] CT
0 0.447 0.741 RC
2 LJ
N
225.52 103.63 M
226.14 101.208 L
226.76 101.765 L
227.38 104.123 L
228 107.789 L
228.62 107.039 L
229.24 103.909 L
229.86 100.715 L
230.48 100.029 L
231.1 103.159 L
231.72 103.909 L
232.34 99.407 L
232.96 99.471 L
233.58 93.898 L
234.2 95.613 L
234.82 107.425 L
235.44 110.233 L
236.06 110.705 L
236.68 106.417 L
237.3 104.488 L
237.92 100.415 L
238.54 100.522 L
239.16 100.522 L
239.78 111.348 L
240.4 111.648 L
241.02 105.238 L
241.64 99.514 L
242.26 93.855 L
242.88 91.668 L
243.5 90.896 L
244.12 94.133 L
244.74 102.751 L
245.36 102.623 L
245.98 98.85 L
246.6 99.943 L
247.22 102.494 L
247.84 106.953 L
248.46 109.054 L
249.08 108.99 L
249.7 109.954 L
250.32 109.89 L
250.94 111.326 L
251.56 115.464 L
252.18 131.885 L
252.8 109.14 L
253.42 98.507 L
254.04 117.457 L
254.66 129.184 L
255.28 131.585 L
255.9 128.819 L
S
GR
GS
[0.75 0 0 0.75 0 0] CT
0 0.447 0.741 RC
2 LJ
N
255.9 128.819 M
256.52 124.339 L
257.14 119.022 L
257.76 113.427 L
258.38 108.99 L
259 106.867 L
259.62 106.074 L
260.24 106.138 L
260.86 106.096 L
261.48 106.331 L
262.1 106.374 L
262.72 107.36 L
263.34 108.947 L
263.96 112.956 L
264.58 119.065 L
265.2 117.865 L
265.82 114.585 L
266.44 111.391 L
267.06 109.633 L
267.68 108.432 L
268.3 109.14 L
268.92 107.039 L
269.54 106.567 L
270.16 106.503 L
270.78 107.06 L
271.4 107.403 L
272.02 108.218 L
272.64 107.489 L
273.26 107.489 L
273.88 106.717 L
274.5 107.532 L
275.12 107.103 L
275.74 108.025 L
276.36 108.947 L
276.98 107.425 L
277.6 107.275 L
278.22 106.61 L
278.84 104.423 L
279.46 104.059 L
280.08 105.324 L
280.7 101.251 L
281.32 100.372 L
281.94 103.03 L
282.56 110.962 L
283.18 115.464 L
283.8 118.829 L
284.42 120.18 L
285.04 120.159 L
285.66 119.001 L
286.28 119.515 L
S
GR
GS
[0.75 0 0 0.75 0 0] CT
0 0.447 0.741 RC
2 LJ
N
286.28 119.515 M
286.9 123.203 L
287.52 119.408 L
288.14 119.194 L
288.76 121.616 L
289.38 125.196 L
290 126.89 L
290.62 127.254 L
291.24 125.839 L
291.86 119.494 L
292.48 117.457 L
293.1 116.128 L
293.72 116.943 L
294.34 117.329 L
294.96 115.892 L
295.58 117.972 L
296.2 113.727 L
296.82 124.103 L
297.44 131.563 L
298.06 134.843 L
298.68 126.976 L
299.3 128.391 L
299.92 128.198 L
300.54 124.725 L
301.16 127.019 L
301.78 126.032 L
302.4 125.304 L
303.02 125.389 L
303.64 126.868 L
304.26 273.244 L
304.88 373.443 L
305.5 353.892 L
306.12 327.545 L
306.74 184.407 L
307.36 56.746 L
307.98 57.925 L
308.6 61.591 L
309.22 71.217 L
309.84 78.505 L
310.46 82.707 L
311.08 86.395 L
311.7 91.797 L
312.32 97.199 L
312.94 102.923 L
313.56 105.002 L
314.18 108.99 L
314.8 113.449 L
315.42 116.085 L
316.04 116.171 L
316.66 118.444 L
S
GR
GS
[0.75 0 0 0.75 0 0] CT
0 0.447 0.741 RC
2 LJ
N
316.66 118.444 M
317.28 120.502 L
317.9 126.783 L
318.52 124.596 L
319.14 121.616 L
319.76 118.422 L
320.38 117.672 L
321 117.822 L
321.62 114.949 L
322.24 109.911 L
322.86 109.054 L
323.48 110.212 L
324.1 106.096 L
324.72 105.238 L
325.34 117.672 L
325.96 110.576 L
326.58 117.929 L
327.2 128.948 L
327.82 121.38 L
328.44 118.937 L
329.06 122.517 L
329.68 124.275 L
330.3 120.373 L
330.92 110.49 L
331.54 97.092 L
332.16 85.751 L
332.78 94.112 L
333.4 84.744 L
334.02 91.282 L
334.64 93.297 L
335.26 95.034 L
335.88 100.222 L
336.5 102.923 L
337.12 101.637 L
337.74 99.536 L
338.36 100.05 L
338.98 101.401 L
339.6 99.75 L
340.22 104.295 L
340.84 95.913 L
341.46 93.49 L
342.08 99.386 L
342.7 95.848 L
343.32 102.408 L
343.94 112.27 L
344.56 117.222 L
345.18 107.789 L
345.8 111.219 L
346.42 111.391 L
347.04 112.077 L
S
GR
GS
[0.75 0 0 0.75 0 0] CT
0 0.447 0.741 RC
2 LJ
N
347.04 112.077 M
347.66 113.856 L
348.28 111.069 L
348.9 108.368 L
349.52 109.654 L
350.14 108.775 L
350.76 107.918 L
351.38 107.039 L
352 107.425 L
352.62 108.454 L
353.24 108.947 L
353.86 110.362 L
354.48 109.161 L
355.1 109.633 L
355.72 109.611 L
356.34 108.711 L
356.96 107.661 L
357.58 107.682 L
358.2 108.775 L
358.82 109.526 L
359.44 109.568 L
360.06 109.161 L
360.68 108.861 L
361.3 109.483 L
361.92 109.118 L
362.54 109.44 L
363.16 108.947 L
363.78 109.568 L
364.4 109.268 L
365.02 108.754 L
365.64 108.282 L
366.26 107.039 L
366.88 106.91 L
367.5 107.06 L
368.12 107.425 L
368.74 107.918 L
369.36 108.175 L
369.98 107.789 L
370.6 107.875 L
371.22 109.097 L
371.84 108.797 L
372.46 107.725 L
373.08 108.347 L
373.7 108.497 L
374.32 108.775 L
374.94 108.668 L
375.56 107.468 L
376.18 107.339 L
376.8 107.575 L
377.42 109.611 L
S
GR
GS
[0.75 0 0 0.75 0 0] CT
0 0.447 0.741 RC
2 LJ
N
377.42 109.611 M
378.04 110.34 L
378.66 109.826 L
379.28 110.212 L
379.9 110.597 L
380.52 109.761 L
381.14 109.847 L
381.76 109.183 L
382.38 109.097 L
383 108.518 L
383.62 109.183 L
384.24 109.761 L
384.86 110.19 L
385.48 109.933 L
386.1 109.697 L
386.72 109.29 L
387.34 110.169 L
387.96 109.547 L
388.58 108.904 L
389.2 108.497 L
389.82 108.818 L
390.44 109.375 L
391.06 110.426 L
391.68 112.291 L
392.3 113.534 L
392.92 113.684 L
393.54 113.17 L
394.16 112.784 L
394.78 112.848 L
395.4 113.084 L
396.02 111.241 L
396.64 111.005 L
397.26 111.048 L
397.88 110.94 L
398.5 110.555 L
399.12 110.555 L
399.74 110.04 L
400.36 110.019 L
400.98 110.512 L
401.6 110.447 L
402.22 110.426 L
402.84 111.176 L
403.46 110.126 L
404.08 109.997 L
404.7 109.761 L
405.32 110.169 L
405.94 110.169 L
406.56 109.547 L
407.18 109.483 L
407.8 109.504 L
S
GR
GS
[0.75 0 0 0.75 0 0] CT
0 0.447 0.741 RC
2 LJ
N
407.8 109.504 M
408.42 110.512 L
409.04 110.062 L
409.66 110.812 L
410.28 110.555 L
410.9 110.555 L
411.52 110.383 L
412.14 111.669 L
412.76 112.998 L
413.38 111.412 L
414 109.526 L
414.62 106.782 L
415.24 109.633 L
415.86 124.575 L
416.48 124.618 L
417.1 122.131 L
417.72 116.986 L
418.34 118.422 L
418.96 119.044 L
419.58 111.927 L
420.2 108.539 L
420.82 111.584 L
421.44 111.927 L
422.06 112.055 L
422.68 125.561 L
423.3 116.793 L
423.92 117.393 L
424.54 117.586 L
425.16 113.106 L
425.78 112.27 L
426.4 113.577 L
427.02 112.956 L
427.64 109.29 L
428.26 109.526 L
428.88 108.561 L
429.5 109.804 L
430.12 109.761 L
430.74 108.968 L
431.36 114.177 L
431.98 113.513 L
432.6 114.07 L
433.22 114.199 L
433.84 111.133 L
434.46 110.34 L
435.08 107.468 L
435.7 108.84 L
436.32 105.174 L
436.94 108.389 L
437.56 109.375 L
438.18 109.954 L
S
GR
GS
[0.75 0 0 0.75 0 0] CT
0 0.447 0.741 RC
2 LJ
N
438.18 109.954 M
438.8 114.435 L
439.42 120.073 L
440.04 111.069 L
440.66 101.251 L
441.28 93.083 L
441.9 95.27 L
442.52 107.082 L
443.14 108.99 L
443.76 108.025 L
444.38 107.146 L
445 109.333 L
445.62 113.32 L
446.24 114.649 L
446.86 111.519 L
447.48 108.154 L
448.1 108.711 L
S
GR
%%Trailer
%%Pages: 1
%%EOF
