%!PS-Adobe-3.0 EPSF-3.0
%%Creator: (MATLAB, The Mathworks, Inc. Version 8.5.0.197613 \(R2015a\). Operating System: Windows 8)
%%Title: C:/Users/aleja/Desktop/TFG/Documentacion/Memoria_V2/matlab_plot/plots/alvaro_reposo_plot.eps
%%CreationDate: 2019-06-16T13:09:41
%%Pages: (atend)
%%BoundingBox: 0 0 420 315
%%LanguageLevel: 2
%%EndComments
%%BeginProlog
%%BeginResource: procset (Apache XML Graphics Std ProcSet) 1.2 0
%%Version: 1.2 0
%%Copyright: (Copyright 2001-2003,2010 The Apache Software Foundation. License terms: http://www.apache.org/licenses/LICENSE-2.0)
/bd{bind def}bind def
/ld{load def}bd
/GR/grestore ld
/M/moveto ld
/LJ/setlinejoin ld
/C/curveto ld
/f/fill ld
/LW/setlinewidth ld
/GC/setgray ld
/t/show ld
/N/newpath ld
/CT/concat ld
/cp/closepath ld
/S/stroke ld
/L/lineto ld
/CC/setcmykcolor ld
/A/ashow ld
/GS/gsave ld
/RC/setrgbcolor ld
/RM/rmoveto ld
/ML/setmiterlimit ld
/re {4 2 roll M
1 index 0 rlineto
0 exch rlineto
neg 0 rlineto
cp } bd
/_ctm matrix def
/_tm matrix def
/BT { _ctm currentmatrix pop matrix _tm copy pop 0 0 moveto } bd
/ET { _ctm setmatrix } bd
/iTm { _ctm setmatrix _tm concat } bd
/Tm { _tm astore pop iTm 0 0 moveto } bd
/ux 0.0 def
/uy 0.0 def
/F {
  /Tp exch def
  /Tf exch def
  Tf findfont Tp scalefont setfont
  /cf Tf def  /cs Tp def
} bd
/ULS {currentpoint /uy exch def /ux exch def} bd
/ULE {
  /Tcx currentpoint pop def
  gsave
  newpath
  cf findfont cs scalefont dup
  /FontMatrix get 0 get /Ts exch def /FontInfo get dup
  /UnderlinePosition get Ts mul /To exch def
  /UnderlineThickness get Ts mul /Tt exch def
  ux uy To add moveto  Tcx uy To add lineto
  Tt setlinewidth stroke
  grestore
} bd
/OLE {
  /Tcx currentpoint pop def
  gsave
  newpath
  cf findfont cs scalefont dup
  /FontMatrix get 0 get /Ts exch def /FontInfo get dup
  /UnderlinePosition get Ts mul /To exch def
  /UnderlineThickness get Ts mul /Tt exch def
  ux uy To add cs add moveto Tcx uy To add cs add lineto
  Tt setlinewidth stroke
  grestore
} bd
/SOE {
  /Tcx currentpoint pop def
  gsave
  newpath
  cf findfont cs scalefont dup
  /FontMatrix get 0 get /Ts exch def /FontInfo get dup
  /UnderlinePosition get Ts mul /To exch def
  /UnderlineThickness get Ts mul /Tt exch def
  ux uy To add cs 10 mul 26 idiv add moveto Tcx uy To add cs 10 mul 26 idiv add lineto
  Tt setlinewidth stroke
  grestore
} bd
/QT {
/Y22 exch store
/X22 exch store
/Y21 exch store
/X21 exch store
currentpoint
/Y21 load 2 mul add 3 div exch
/X21 load 2 mul add 3 div exch
/X21 load 2 mul /X22 load add 3 div
/Y21 load 2 mul /Y22 load add 3 div
/X22 load /Y22 load curveto
} bd
/SSPD {
dup length /d exch dict def
{
/v exch def
/k exch def
currentpagedevice k known {
/cpdv currentpagedevice k get def
v cpdv ne {
/upd false def
/nullv v type /nulltype eq def
/nullcpdv cpdv type /nulltype eq def
nullv nullcpdv or
{
/upd true def
} {
/sametype v type cpdv type eq def
sametype {
v type /arraytype eq {
/vlen v length def
/cpdvlen cpdv length def
vlen cpdvlen eq {
0 1 vlen 1 sub {
/i exch def
/obj v i get def
/cpdobj cpdv i get def
obj cpdobj ne {
/upd true def
exit
} if
} for
} {
/upd true def
} ifelse
} {
v type /dicttype eq {
v {
/dv exch def
/dk exch def
/cpddv cpdv dk get def
dv cpddv ne {
/upd true def
exit
} if
} forall
} {
/upd true def
} ifelse
} ifelse
} if
} ifelse
upd true eq {
d k v put
} if
} if
} if
} forall
d length 0 gt {
d setpagedevice
} if
} bd
%%EndResource
%%BeginResource: procset (Apache XML Graphics EPS ProcSet) 1.0 0
%%Version: 1.0 0
%%Copyright: (Copyright 2002-2003 The Apache Software Foundation. License terms: http://www.apache.org/licenses/LICENSE-2.0)
/BeginEPSF { %def
/b4_Inc_state save def         % Save state for cleanup
/dict_count countdictstack def % Count objects on dict stack
/op_count count 1 sub def      % Count objects on operand stack
userdict begin                 % Push userdict on dict stack
/showpage { } def              % Redefine showpage, { } = null proc
0 setgray 0 setlinecap         % Prepare graphics state
1 setlinewidth 0 setlinejoin
10 setmiterlimit [ ] 0 setdash newpath
/languagelevel where           % If level not equal to 1 then
{pop languagelevel             % set strokeadjust and
1 ne                           % overprint to their defaults.
{false setstrokeadjust false setoverprint
} if
} if
} bd
/EndEPSF { %def
count op_count sub {pop} repeat            % Clean up stacks
countdictstack dict_count sub {end} repeat
b4_Inc_state restore
} bd
%%EndResource
%FOPBeginFontDict
%%IncludeResource: font Courier-Bold
%%IncludeResource: font Helvetica
%%IncludeResource: font Courier-BoldOblique
%%IncludeResource: font Courier-Oblique
%%IncludeResource: font Times-Roman
%%IncludeResource: font Helvetica-BoldOblique
%%IncludeResource: font Helvetica-Bold
%%IncludeResource: font Helvetica-Oblique
%%IncludeResource: font Times-BoldItalic
%%IncludeResource: font Courier
%%IncludeResource: font Times-Italic
%%IncludeResource: font Times-Bold
%%IncludeResource: font Symbol
%%IncludeResource: font ZapfDingbats
%FOPEndFontDict
%%BeginResource: encoding WinAnsiEncoding
/WinAnsiEncoding [
/.notdef /.notdef /.notdef /.notdef /.notdef
/.notdef /.notdef /.notdef /.notdef /.notdef
/.notdef /.notdef /.notdef /.notdef /.notdef
/.notdef /.notdef /.notdef /.notdef /.notdef
/.notdef /.notdef /.notdef /.notdef /.notdef
/.notdef /.notdef /.notdef /.notdef /.notdef
/.notdef /.notdef /space /exclam /quotedbl
/numbersign /dollar /percent /ampersand /quotesingle
/parenleft /parenright /asterisk /plus /comma
/hyphen /period /slash /zero /one
/two /three /four /five /six
/seven /eight /nine /colon /semicolon
/less /equal /greater /question /at
/A /B /C /D /E
/F /G /H /I /J
/K /L /M /N /O
/P /Q /R /S /T
/U /V /W /X /Y
/Z /bracketleft /backslash /bracketright /asciicircum
/underscore /quoteleft /a /b /c
/d /e /f /g /h
/i /j /k /l /m
/n /o /p /q /r
/s /t /u /v /w
/x /y /z /braceleft /bar
/braceright /asciitilde /bullet /Euro /bullet
/quotesinglbase /florin /quotedblbase /ellipsis /dagger
/daggerdbl /circumflex /perthousand /Scaron /guilsinglleft
/OE /bullet /Zcaron /bullet /bullet
/quoteleft /quoteright /quotedblleft /quotedblright /bullet
/endash /emdash /asciitilde /trademark /scaron
/guilsinglright /oe /bullet /zcaron /Ydieresis
/space /exclamdown /cent /sterling /currency
/yen /brokenbar /section /dieresis /copyright
/ordfeminine /guillemotleft /logicalnot /sfthyphen /registered
/macron /degree /plusminus /twosuperior /threesuperior
/acute /mu /paragraph /middot /cedilla
/onesuperior /ordmasculine /guillemotright /onequarter /onehalf
/threequarters /questiondown /Agrave /Aacute /Acircumflex
/Atilde /Adieresis /Aring /AE /Ccedilla
/Egrave /Eacute /Ecircumflex /Edieresis /Igrave
/Iacute /Icircumflex /Idieresis /Eth /Ntilde
/Ograve /Oacute /Ocircumflex /Otilde /Odieresis
/multiply /Oslash /Ugrave /Uacute /Ucircumflex
/Udieresis /Yacute /Thorn /germandbls /agrave
/aacute /acircumflex /atilde /adieresis /aring
/ae /ccedilla /egrave /eacute /ecircumflex
/edieresis /igrave /iacute /icircumflex /idieresis
/eth /ntilde /ograve /oacute /ocircumflex
/otilde /odieresis /divide /oslash /ugrave
/uacute /ucircumflex /udieresis /yacute /thorn
/ydieresis
] def
%%EndResource
%FOPBeginFontReencode
/Courier-Bold findfont
dup length dict begin
  {1 index /FID ne {def} {pop pop} ifelse} forall
  /Encoding WinAnsiEncoding def
  currentdict
end
/Courier-Bold exch definefont pop
/Helvetica findfont
dup length dict begin
  {1 index /FID ne {def} {pop pop} ifelse} forall
  /Encoding WinAnsiEncoding def
  currentdict
end
/Helvetica exch definefont pop
/Courier-BoldOblique findfont
dup length dict begin
  {1 index /FID ne {def} {pop pop} ifelse} forall
  /Encoding WinAnsiEncoding def
  currentdict
end
/Courier-BoldOblique exch definefont pop
/Courier-Oblique findfont
dup length dict begin
  {1 index /FID ne {def} {pop pop} ifelse} forall
  /Encoding WinAnsiEncoding def
  currentdict
end
/Courier-Oblique exch definefont pop
/Times-Roman findfont
dup length dict begin
  {1 index /FID ne {def} {pop pop} ifelse} forall
  /Encoding WinAnsiEncoding def
  currentdict
end
/Times-Roman exch definefont pop
/Helvetica-BoldOblique findfont
dup length dict begin
  {1 index /FID ne {def} {pop pop} ifelse} forall
  /Encoding WinAnsiEncoding def
  currentdict
end
/Helvetica-BoldOblique exch definefont pop
/Helvetica-Bold findfont
dup length dict begin
  {1 index /FID ne {def} {pop pop} ifelse} forall
  /Encoding WinAnsiEncoding def
  currentdict
end
/Helvetica-Bold exch definefont pop
/Helvetica-Oblique findfont
dup length dict begin
  {1 index /FID ne {def} {pop pop} ifelse} forall
  /Encoding WinAnsiEncoding def
  currentdict
end
/Helvetica-Oblique exch definefont pop
/Times-BoldItalic findfont
dup length dict begin
  {1 index /FID ne {def} {pop pop} ifelse} forall
  /Encoding WinAnsiEncoding def
  currentdict
end
/Times-BoldItalic exch definefont pop
/Courier findfont
dup length dict begin
  {1 index /FID ne {def} {pop pop} ifelse} forall
  /Encoding WinAnsiEncoding def
  currentdict
end
/Courier exch definefont pop
/Times-Italic findfont
dup length dict begin
  {1 index /FID ne {def} {pop pop} ifelse} forall
  /Encoding WinAnsiEncoding def
  currentdict
end
/Times-Italic exch definefont pop
/Times-Bold findfont
dup length dict begin
  {1 index /FID ne {def} {pop pop} ifelse} forall
  /Encoding WinAnsiEncoding def
  currentdict
end
/Times-Bold exch definefont pop
%FOPEndFontReencode
%%EndProlog
%%Page: 1 1
%%PageBoundingBox: 0 0 420 315
%%BeginPageSetup
[1 0 0 -1 0 315] CT
%%EndPageSetup
GS
[0.75 0 0 0.75 0 0] CT
1 GC
N
0 0 560 420 re
f
GR
GS
[0.75 0 0 0.75 0 0] CT
1 GC
N
0 0 560 420 re
f
GR
GS
[0.75 0 0 0.75 0 0] CT
1 GC
N
73 374 M
507 374 L
507 31 L
73 31 L
cp
f
GR
GS
[0.75 0 0 0.75 217.50016 298.24999] CT
0.149 GC
/Helvetica 15 F
GS
[1 0 0 1 0 0] CT
-67 16 moveto 
1 -1 scale
(N\272 Datas recolected) t 
GR
GR
GS
[0.75 0 0 0.75 0 0] CT
0.149 GC
2 setlinecap
10.0 ML
N
73 374 M
507 374 L
S
GR
GS
[0.75 0 0 0.75 0 0] CT
0.149 GC
2 setlinecap
10.0 ML
N
73 31 M
507 31 L
S
GR
GS
[0.75 0 0 0.75 0 0] CT
0.149 GC
2 setlinecap
10.0 ML
N
73 374 M
73 369.66 L
S
GR
GS
[0.75 0 0 0.75 0 0] CT
0.149 GC
2 setlinecap
10.0 ML
N
145.333 374 M
145.333 369.66 L
S
GR
GS
[0.75 0 0 0.75 0 0] CT
0.149 GC
2 setlinecap
10.0 ML
N
217.667 374 M
217.667 369.66 L
S
GR
GS
[0.75 0 0 0.75 0 0] CT
0.149 GC
2 setlinecap
10.0 ML
N
290 374 M
290 369.66 L
S
GR
GS
[0.75 0 0 0.75 0 0] CT
0.149 GC
2 setlinecap
10.0 ML
N
362.333 374 M
362.333 369.66 L
S
GR
GS
[0.75 0 0 0.75 0 0] CT
0.149 GC
2 setlinecap
10.0 ML
N
434.667 374 M
434.667 369.66 L
S
GR
GS
[0.75 0 0 0.75 0 0] CT
0.149 GC
2 setlinecap
10.0 ML
N
507 374 M
507 369.66 L
S
GR
GS
[0.75 0 0 0.75 0 0] CT
0.149 GC
2 setlinecap
10.0 ML
N
73 31 M
73 35.34 L
S
GR
GS
[0.75 0 0 0.75 0 0] CT
0.149 GC
2 setlinecap
10.0 ML
N
145.333 31 M
145.333 35.34 L
S
GR
GS
[0.75 0 0 0.75 0 0] CT
0.149 GC
2 setlinecap
10.0 ML
N
217.667 31 M
217.667 35.34 L
S
GR
GS
[0.75 0 0 0.75 0 0] CT
0.149 GC
2 setlinecap
10.0 ML
N
290 31 M
290 35.34 L
S
GR
GS
[0.75 0 0 0.75 0 0] CT
0.149 GC
2 setlinecap
10.0 ML
N
362.333 31 M
362.333 35.34 L
S
GR
GS
[0.75 0 0 0.75 0 0] CT
0.149 GC
2 setlinecap
10.0 ML
N
434.667 31 M
434.667 35.34 L
S
GR
GS
[0.75 0 0 0.75 0 0] CT
0.149 GC
2 setlinecap
10.0 ML
N
507 31 M
507 35.34 L
S
GR
GS
[0.75 0 0 0.75 54.75 284.50001] CT
0.149 GC
/Helvetica 13 F
GS
[1 0 0 1 0 0] CT
-4 14 moveto 
1 -1 scale
(0) t 
GR
GR
GS
[0.75 0 0 0.75 109 284.50001] CT
0.149 GC
/Helvetica 13 F
GS
[1 0 0 1 0 0] CT
-11 14 moveto 
1 -1 scale
(200) t 
GR
GR
GS
[0.75 0 0 0.75 163.25 284.50001] CT
0.149 GC
/Helvetica 13 F
GS
[1 0 0 1 0 0] CT
-11 14 moveto 
1 -1 scale
(400) t 
GR
GR
GS
[0.75 0 0 0.75 217.5 284.50001] CT
0.149 GC
/Helvetica 13 F
GS
[1 0 0 1 0 0] CT
-11 14 moveto 
1 -1 scale
(600) t 
GR
GR
GS
[0.75 0 0 0.75 271.75001 284.50001] CT
0.149 GC
/Helvetica 13 F
GS
[1 0 0 1 0 0] CT
-11 14 moveto 
1 -1 scale
(800) t 
GR
GR
GS
[0.75 0 0 0.75 325.99999 284.50001] CT
0.149 GC
/Helvetica 13 F
GS
[1 0 0 1 0 0] CT
-14.5 14 moveto 
1 -1 scale
(1000) t 
GR
GR
GS
[0.75 0 0 0.75 380.25 284.50001] CT
0.149 GC
/Helvetica 13 F
GS
[1 0 0 1 0 0] CT
-14.5 14 moveto 
1 -1 scale
(1200) t 
GR
GR
GS
[0 -0.75 0.75 0 31.25 151.87489] CT
0.149 GC
/Helvetica 15 F
GS
[1 0 0 1 0 0] CT
-79 -4 moveto 
1 -1 scale
(Signal potency \(13-bits\)) t 
GR
GR
GS
[0.75 0 0 0.75 0 0] CT
0.149 GC
2 setlinecap
10.0 ML
N
73 374 M
73 31 L
S
GR
GS
[0.75 0 0 0.75 0 0] CT
0.149 GC
2 setlinecap
10.0 ML
N
507 374 M
507 31 L
S
GR
GS
[0.75 0 0 0.75 0 0] CT
0.149 GC
2 setlinecap
10.0 ML
N
73 374 M
77.34 374 L
S
GR
GS
[0.75 0 0 0.75 0 0] CT
0.149 GC
2 setlinecap
10.0 ML
N
73 331.125 M
77.34 331.125 L
S
GR
GS
[0.75 0 0 0.75 0 0] CT
0.149 GC
2 setlinecap
10.0 ML
N
73 288.25 M
77.34 288.25 L
S
GR
GS
[0.75 0 0 0.75 0 0] CT
0.149 GC
2 setlinecap
10.0 ML
N
73 245.375 M
77.34 245.375 L
S
GR
GS
[0.75 0 0 0.75 0 0] CT
0.149 GC
2 setlinecap
10.0 ML
N
73 202.5 M
77.34 202.5 L
S
GR
GS
[0.75 0 0 0.75 0 0] CT
0.149 GC
2 setlinecap
10.0 ML
N
73 159.625 M
77.34 159.625 L
S
GR
GS
[0.75 0 0 0.75 0 0] CT
0.149 GC
2 setlinecap
10.0 ML
N
73 116.75 M
77.34 116.75 L
S
GR
GS
[0.75 0 0 0.75 0 0] CT
0.149 GC
2 setlinecap
10.0 ML
N
73 73.875 M
77.34 73.875 L
S
GR
GS
[0.75 0 0 0.75 0 0] CT
0.149 GC
2 setlinecap
10.0 ML
N
73 31 M
77.34 31 L
S
GR
GS
[0.75 0 0 0.75 0 0] CT
0.149 GC
2 setlinecap
10.0 ML
N
507 374 M
502.66 374 L
S
GR
GS
[0.75 0 0 0.75 0 0] CT
0.149 GC
2 setlinecap
10.0 ML
N
507 331.125 M
502.66 331.125 L
S
GR
GS
[0.75 0 0 0.75 0 0] CT
0.149 GC
2 setlinecap
10.0 ML
N
507 288.25 M
502.66 288.25 L
S
GR
GS
[0.75 0 0 0.75 0 0] CT
0.149 GC
2 setlinecap
10.0 ML
N
507 245.375 M
502.66 245.375 L
S
GR
GS
[0.75 0 0 0.75 0 0] CT
0.149 GC
2 setlinecap
10.0 ML
N
507 202.5 M
502.66 202.5 L
S
GR
GS
[0.75 0 0 0.75 0 0] CT
0.149 GC
2 setlinecap
10.0 ML
N
507 159.625 M
502.66 159.625 L
S
GR
GS
[0.75 0 0 0.75 0 0] CT
0.149 GC
2 setlinecap
10.0 ML
N
507 116.75 M
502.66 116.75 L
S
GR
GS
[0.75 0 0 0.75 0 0] CT
0.149 GC
2 setlinecap
10.0 ML
N
507 73.875 M
502.66 73.875 L
S
GR
GS
[0.75 0 0 0.75 0 0] CT
0.149 GC
2 setlinecap
10.0 ML
N
507 31 M
502.66 31 L
S
GR
GS
[0.75 0 0 0.75 50.75 280.5] CT
0.149 GC
/Helvetica 13 F
GS
[1 0 0 1 0 0] CT
-22 5.5 moveto 
1 -1 scale
(450) t 
GR
GR
GS
[0.75 0 0 0.75 50.75 248.34375] CT
0.149 GC
/Helvetica 13 F
GS
[1 0 0 1 0 0] CT
-22 5.5 moveto 
1 -1 scale
(500) t 
GR
GR
GS
[0.75 0 0 0.75 50.75 216.1875] CT
0.149 GC
/Helvetica 13 F
GS
[1 0 0 1 0 0] CT
-22 5.5 moveto 
1 -1 scale
(550) t 
GR
GR
GS
[0.75 0 0 0.75 50.75 184.03125] CT
0.149 GC
/Helvetica 13 F
GS
[1 0 0 1 0 0] CT
-22 5.5 moveto 
1 -1 scale
(600) t 
GR
GR
GS
[0.75 0 0 0.75 50.75 151.875] CT
0.149 GC
/Helvetica 13 F
GS
[1 0 0 1 0 0] CT
-22 5.5 moveto 
1 -1 scale
(650) t 
GR
GR
GS
[0.75 0 0 0.75 50.75 119.71875] CT
0.149 GC
/Helvetica 13 F
GS
[1 0 0 1 0 0] CT
-22 5.5 moveto 
1 -1 scale
(700) t 
GR
GR
GS
[0.75 0 0 0.75 50.75 87.5625] CT
0.149 GC
/Helvetica 13 F
GS
[1 0 0 1 0 0] CT
-22 5.5 moveto 
1 -1 scale
(750) t 
GR
GR
GS
[0.75 0 0 0.75 50.75 55.40625] CT
0.149 GC
/Helvetica 13 F
GS
[1 0 0 1 0 0] CT
-22 5.5 moveto 
1 -1 scale
(800) t 
GR
GR
GS
[0.75 0 0 0.75 50.75 23.25] CT
0.149 GC
/Helvetica 13 F
GS
[1 0 0 1 0 0] CT
-22 5.5 moveto 
1 -1 scale
(850) t 
GR
GR
GS
[0.75 0 0 0.75 0 0] CT
0 0.447 0.741 RC
2 LJ
N
73.362 205.158 M
73.723 218.75 L
74.085 219.393 L
74.447 204.489 L
74.808 219.273 L
75.17 208.657 L
75.532 197.861 L
75.893 200.613 L
76.255 215.448 L
76.617 228.902 L
76.978 203.297 L
77.34 211.589 L
77.702 195.863 L
78.063 218.63 L
78.425 206.273 L
78.787 218.192 L
79.148 217.978 L
79.51 235.394 L
79.872 203.658 L
80.233 215.911 L
80.595 203.049 L
80.957 202.526 L
81.318 207.774 L
81.68 199.782 L
82.042 210.629 L
82.403 204.841 L
82.765 222.608 L
83.127 207.962 L
83.488 205.536 L
83.85 222.72 L
84.212 222.403 L
84.573 199.027 L
84.935 197.775 L
85.297 201.977 L
85.658 205.57 L
86.02 209.008 L
86.382 204.995 L
86.743 210.852 L
87.105 232.212 L
87.467 233.49 L
87.828 205.03 L
88.19 201.008 L
88.552 209.523 L
88.913 226.21 L
89.275 213.27 L
89.637 218.115 L
89.998 222.265 L
90.36 214.213 L
90.722 218.938 L
91.083 200.511 L
S
GR
GS
[0.75 0 0 0.75 0 0] CT
0 0.447 0.741 RC
2 LJ
N
91.083 200.511 M
91.445 199.525 L
91.807 209.034 L
92.168 226.021 L
92.53 215.337 L
92.892 220.422 L
93.253 228.825 L
93.615 216.46 L
93.977 213.056 L
94.338 205.793 L
94.7 212.31 L
95.062 216.186 L
95.423 216.426 L
95.785 239.63 L
96.147 219.521 L
96.508 220.662 L
96.87 216.957 L
97.232 219.873 L
97.593 235.119 L
97.955 217.618 L
98.317 231.441 L
98.678 219.213 L
99.04 235.848 L
99.402 233.627 L
99.763 216.597 L
100.125 214.565 L
100.487 217.884 L
100.848 216.88 L
101.21 220.628 L
101.572 219.65 L
101.933 219.693 L
102.295 218.698 L
102.657 224.212 L
103.018 229.451 L
103.38 221.597 L
103.742 243.351 L
104.103 238.301 L
104.465 221.802 L
104.827 238.275 L
105.188 220.645 L
105.55 232.127 L
105.912 211.907 L
106.273 215.397 L
106.635 217.086 L
106.997 214.797 L
107.358 218.578 L
107.72 216.006 L
108.082 218.741 L
108.443 216.529 L
108.805 217.129 L
S
GR
GS
[0.75 0 0 0.75 0 0] CT
0 0.447 0.741 RC
2 LJ
N
108.805 217.129 M
109.167 224.829 L
109.528 220.722 L
109.89 226.081 L
110.252 219.41 L
110.613 223.011 L
110.975 222.728 L
111.337 223.757 L
111.698 228.491 L
112.06 227.05 L
112.422 230.463 L
112.783 231.758 L
113.145 226.304 L
113.507 230.232 L
113.868 226.621 L
114.23 224.632 L
114.592 230.051 L
114.953 227.247 L
115.315 229.1 L
115.677 225.85 L
116.038 235.325 L
116.4 251.643 L
116.762 197.183 L
117.123 204.241 L
117.485 219.993 L
117.847 245.392 L
118.208 285.506 L
118.57 252.467 L
118.932 266.332 L
119.293 245.135 L
119.655 219.856 L
120.017 237.992 L
120.378 239.355 L
120.74 223.98 L
121.102 218.612 L
121.463 221.434 L
121.825 222.84 L
122.187 226.913 L
122.548 228.714 L
122.91 233.782 L
123.272 234.253 L
123.633 239.861 L
123.995 260.982 L
124.357 257.534 L
124.718 260.347 L
125.08 274.47 L
125.442 295.933 L
125.803 300.178 L
126.165 310.854 L
126.527 309.919 L
S
GR
GS
[0.75 0 0 0.75 0 0] CT
0 0.447 0.741 RC
2 LJ
N
126.527 309.919 M
126.888 308.041 L
127.25 305.151 L
127.612 303.539 L
127.973 300.478 L
128.335 298.034 L
128.697 296.448 L
129.058 295.273 L
129.42 293.927 L
129.782 292.066 L
130.143 289.836 L
130.505 288.662 L
130.867 285.978 L
131.228 282.736 L
131.59 288.036 L
131.952 287.787 L
132.313 281.313 L
132.675 275.911 L
133.037 282.539 L
133.398 283.088 L
133.76 280.301 L
134.122 279.975 L
134.483 280.953 L
134.845 279.349 L
135.207 276.374 L
135.568 275.516 L
135.93 276.562 L
136.292 277.677 L
136.653 278.869 L
137.015 279.821 L
137.377 280.97 L
137.738 282.676 L
138.1 283.877 L
138.462 283.251 L
138.823 282.968 L
139.185 283.174 L
139.547 284.143 L
139.908 284.091 L
140.27 283.079 L
140.632 283.174 L
140.993 283.98 L
141.355 294.038 L
141.717 280.061 L
142.078 284.914 L
142.44 287.504 L
142.802 289.528 L
143.163 289.811 L
143.525 290.154 L
143.887 291.303 L
144.248 293.121 L
S
GR
GS
[0.75 0 0 0.75 0 0] CT
0 0.447 0.741 RC
2 LJ
N
144.248 293.121 M
144.61 293.438 L
144.972 293.687 L
145.333 293.978 L
145.695 293.609 L
146.057 293.961 L
146.418 293.592 L
146.78 293.412 L
147.142 292.632 L
147.503 292.966 L
147.865 293.241 L
148.227 294.175 L
148.588 294.578 L
148.95 294.175 L
149.312 294.141 L
149.673 293.927 L
150.035 227.848 L
150.397 277.051 L
150.758 293.661 L
151.12 294.561 L
151.482 296.293 L
151.843 296.173 L
152.205 296.748 L
152.567 296.679 L
152.928 288.147 L
153.29 288.713 L
153.652 291.2 L
154.013 297.46 L
154.375 298.034 L
154.737 292.58 L
155.098 294.45 L
155.46 299.003 L
155.822 301.636 L
156.183 295.702 L
156.545 295.35 L
156.907 299.003 L
157.268 297.777 L
157.63 294.467 L
157.992 295.093 L
158.353 297.082 L
158.715 295.925 L
159.077 294.072 L
159.438 294.681 L
159.8 294.681 L
160.162 294.973 L
160.523 296.645 L
160.885 296.276 L
161.247 294.098 L
161.608 294.098 L
161.97 295.393 L
S
GR
GS
[0.75 0 0 0.75 0 0] CT
0 0.447 0.741 RC
2 LJ
N
161.97 295.393 M
162.332 296.473 L
162.693 295.187 L
163.055 295.453 L
163.417 295.53 L
163.778 295.822 L
164.14 294.535 L
164.502 293.995 L
164.863 295.213 L
165.225 295.762 L
165.587 297.074 L
165.948 296.516 L
166.31 296.156 L
166.672 297.219 L
167.033 298.128 L
167.395 297.854 L
167.757 286.672 L
168.118 292.392 L
168.48 294.698 L
168.842 295.47 L
169.203 295.153 L
169.565 295.77 L
169.927 296.645 L
170.288 297.631 L
170.65 297.031 L
171.012 296.885 L
171.373 298.086 L
171.735 298.154 L
172.097 297.237 L
172.458 296.362 L
172.82 296.679 L
173.182 296.533 L
173.543 296.388 L
173.905 296.816 L
174.267 296.954 L
174.628 296.448 L
174.99 295.324 L
175.352 295.805 L
175.713 295.616 L
176.075 295.976 L
176.437 296.962 L
176.798 297.151 L
177.16 297.434 L
177.522 296.465 L
177.883 291.105 L
178.245 286.475 L
178.607 290.008 L
178.968 290.6 L
179.33 291.44 L
179.692 291.551 L
S
GR
GS
[0.75 0 0 0.75 0 0] CT
0 0.447 0.741 RC
2 LJ
N
179.692 291.551 M
180.053 293.284 L
180.415 291.809 L
180.777 290.891 L
181.138 288.962 L
181.5 287.916 L
181.862 287.924 L
182.223 287.804 L
182.585 287.598 L
182.947 285.489 L
183.308 282.196 L
183.67 281.982 L
184.032 281.244 L
184.393 281.733 L
184.755 283.182 L
185.117 284.1 L
185.478 286.321 L
185.84 285.214 L
186.202 282.042 L
186.563 288.224 L
186.925 301.267 L
187.287 299.243 L
187.648 295.213 L
188.01 292.923 L
188.372 292.272 L
188.733 286.569 L
189.095 289.785 L
189.457 292.932 L
189.818 284.743 L
190.18 279.744 L
190.542 283.174 L
190.903 284.057 L
191.265 284.254 L
191.627 285.094 L
191.988 285.18 L
192.35 285.935 L
192.712 286.261 L
193.073 286.312 L
193.435 286.303 L
193.797 285.48 L
194.158 285.703 L
194.52 285.455 L
194.882 284.691 L
195.243 284.288 L
195.605 285.455 L
195.967 285.077 L
196.328 285.78 L
196.69 287.83 L
197.052 289.571 L
197.413 290.154 L
S
GR
GS
[0.75 0 0 0.75 0 0] CT
0 0.447 0.741 RC
2 LJ
N
197.413 290.154 M
197.775 288.267 L
198.137 290.54 L
198.498 290.677 L
198.86 287.247 L
199.222 287.298 L
199.583 294.484 L
199.945 292.435 L
200.307 286.338 L
200.668 285.858 L
201.03 285.54 L
201.392 285.703 L
201.753 285.42 L
202.115 284.7 L
202.477 284.194 L
202.838 283.054 L
203.2 283.422 L
203.562 284.408 L
203.923 284.786 L
204.285 284.82 L
204.647 284.889 L
205.008 284.048 L
205.37 284.203 L
205.732 283.851 L
206.093 283.988 L
206.455 284.803 L
206.817 286.801 L
207.178 286.544 L
207.54 284.631 L
207.902 284.065 L
208.263 284.76 L
208.625 284.614 L
208.987 284.597 L
209.348 284.503 L
209.71 284.631 L
210.072 284.949 L
210.433 284.863 L
210.795 284.769 L
211.157 282.625 L
211.518 282.822 L
211.88 283.517 L
212.242 283.645 L
212.603 283.457 L
212.965 283.234 L
213.327 283.825 L
213.688 284.366 L
214.05 284.914 L
214.412 285.137 L
214.773 284.889 L
215.135 284.383 L
S
GR
GS
[0.75 0 0 0.75 0 0] CT
0 0.447 0.741 RC
2 LJ
N
215.135 284.383 M
215.497 284.168 L
215.858 284.623 L
216.22 284.717 L
216.582 284.451 L
216.943 284.065 L
217.305 283.036 L
217.667 282.736 L
218.028 282.633 L
218.39 283.156 L
218.752 282.711 L
219.113 282.213 L
219.475 281.424 L
219.837 280.755 L
220.198 281.399 L
220.56 281.57 L
220.922 281.63 L
221.283 281.904 L
221.645 282.059 L
222.007 282.162 L
222.368 281.579 L
222.73 281.056 L
223.092 281.073 L
223.453 279.521 L
223.815 278.44 L
224.177 277.36 L
224.538 276.674 L
224.9 276.759 L
225.262 276.759 L
225.623 276.288 L
225.985 276.82 L
226.347 275.945 L
226.708 272.232 L
227.07 274.53 L
227.432 275.233 L
227.793 276.871 L
228.155 276.296 L
228.517 271.674 L
228.878 272.592 L
229.24 275.31 L
229.602 274.161 L
229.963 271.023 L
230.325 269.479 L
230.687 267.173 L
231.048 266.967 L
231.41 266.855 L
231.772 269.033 L
232.133 271.066 L
232.495 267.559 L
232.857 266.006 L
S
GR
GS
[0.75 0 0 0.75 0 0] CT
0 0.447 0.741 RC
2 LJ
N
232.857 266.006 M
233.218 261.873 L
233.58 262.954 L
233.942 262.902 L
234.303 260.013 L
234.665 260.921 L
235.027 262.825 L
235.388 263.588 L
235.75 263.597 L
236.112 262.611 L
236.473 261.968 L
236.835 261.951 L
237.197 263.554 L
237.558 263.726 L
237.92 263.468 L
238.282 264 L
238.643 263.948 L
239.005 262.688 L
239.367 260.939 L
239.728 261.436 L
240.09 262.448 L
240.452 261.822 L
240.813 262.276 L
241.175 262.757 L
241.537 262.722 L
241.898 263.177 L
242.26 263.211 L
242.622 266.727 L
242.983 266.058 L
243.345 267.113 L
243.707 266.555 L
244.068 263.46 L
244.43 264.823 L
244.792 268.39 L
245.153 263.383 L
245.515 262.345 L
245.877 267.576 L
246.238 268.399 L
246.6 266.838 L
246.962 266.495 L
247.323 265.826 L
247.685 265.338 L
248.047 264.746 L
248.408 265.106 L
248.77 266.092 L
249.132 265.912 L
249.493 265.663 L
249.855 265.355 L
250.217 265.603 L
250.578 265.441 L
S
GR
GS
[0.75 0 0 0.75 0 0] CT
0 0.447 0.741 RC
2 LJ
N
250.578 265.441 M
250.94 265.663 L
251.302 265.406 L
251.663 264.883 L
252.025 265.2 L
252.387 265.861 L
252.748 266.469 L
253.11 266.024 L
253.472 265.612 L
253.833 266.384 L
254.195 266.967 L
254.557 266.349 L
254.918 266.324 L
255.28 266.289 L
255.642 265.672 L
256.003 266.006 L
256.365 261.102 L
256.727 258.958 L
257.088 260.484 L
257.45 261.487 L
257.812 270.182 L
258.173 269.471 L
258.535 267.79 L
258.897 265.543 L
259.258 257.046 L
259.62 250.16 L
259.982 252.921 L
260.343 255.03 L
260.705 260.313 L
261.067 282.23 L
261.428 273.655 L
261.79 261.367 L
262.152 269.411 L
262.513 261.179 L
262.875 262.979 L
263.237 264.034 L
263.598 269.539 L
263.96 274.427 L
264.322 262.508 L
264.683 252.372 L
265.045 258.495 L
265.407 261.333 L
265.768 266.272 L
266.13 302.373 L
266.492 275.302 L
266.853 267.533 L
267.215 272.24 L
267.577 275.928 L
267.938 279.829 L
268.3 275.353 L
S
GR
GS
[0.75 0 0 0.75 0 0] CT
0 0.447 0.741 RC
2 LJ
N
268.3 275.353 M
268.662 277.025 L
269.023 273.355 L
269.385 272.301 L
269.747 273.655 L
270.108 274.367 L
270.47 273.767 L
270.832 271.932 L
271.193 272.498 L
271.555 243.068 L
271.917 172.325 L
272.278 138.728 L
272.64 151.693 L
273.002 158.673 L
273.363 255.931 L
273.725 277.454 L
274.087 276.442 L
274.448 276.931 L
274.81 277.231 L
275.172 277.034 L
275.533 277.008 L
275.895 277.197 L
276.257 277.557 L
276.618 277.231 L
276.98 276.579 L
277.342 275.902 L
277.703 275.559 L
278.065 274.719 L
278.427 273.715 L
278.788 272.969 L
279.15 272.558 L
279.512 272.155 L
279.873 272.163 L
280.235 271.829 L
280.597 271.529 L
280.958 271.177 L
281.32 270.946 L
281.682 270.654 L
282.043 270.508 L
282.405 270.32 L
282.767 269.899 L
283.128 269.822 L
283.49 270.208 L
283.852 269.625 L
284.213 268.51 L
284.575 268.545 L
284.937 268.682 L
285.298 269.205 L
285.66 268.991 L
286.022 269.033 L
S
GR
GS
[0.75 0 0 0.75 0 0] CT
0 0.447 0.741 RC
2 LJ
N
286.022 269.033 M
286.383 270.294 L
286.745 270.851 L
287.107 268.682 L
287.468 267.198 L
287.83 266.152 L
288.192 267.902 L
288.553 265.895 L
288.915 256.66 L
289.277 247.973 L
289.638 247.827 L
290 241.148 L
290.362 245.169 L
290.723 249.988 L
291.085 253.153 L
291.447 255.202 L
291.808 256.317 L
292.17 256.994 L
292.532 257.929 L
292.893 259.018 L
293.255 259.892 L
293.617 260.939 L
293.978 262.319 L
294.34 262.937 L
294.702 262.945 L
295.063 262.619 L
295.425 263.365 L
295.787 264.926 L
296.148 268.03 L
296.51 288.636 L
296.872 285.283 L
297.233 273.364 L
297.595 273.184 L
297.957 265.826 L
298.318 261.642 L
298.68 256.866 L
299.042 257.217 L
299.403 257.26 L
299.765 256.814 L
300.127 252.818 L
300.488 256.951 L
300.85 260.304 L
301.212 259.601 L
301.573 266.427 L
301.935 267.944 L
302.297 268.39 L
302.658 264.574 L
303.02 261.985 L
303.382 264.283 L
303.743 269.419 L
S
GR
GS
[0.75 0 0 0.75 0 0] CT
0 0.447 0.741 RC
2 LJ
N
303.743 269.419 M
304.105 292.855 L
304.467 286.243 L
304.828 275.739 L
305.19 274.007 L
305.552 270.697 L
305.913 269.711 L
306.275 268.69 L
306.637 268.708 L
306.998 266.787 L
307.36 260.184 L
307.722 259.138 L
308.083 260.193 L
308.445 260.99 L
308.807 261.796 L
309.168 264.54 L
309.53 271.417 L
309.892 293.121 L
310.253 246.01 L
310.615 247.116 L
310.977 256.008 L
311.338 263.914 L
311.7 274.23 L
312.062 239.518 L
312.423 258.958 L
312.785 248.136 L
313.147 212.593 L
313.508 263.091 L
313.87 229.185 L
314.232 275.996 L
314.593 207.576 L
314.955 267.001 L
315.317 234.107 L
315.678 275.096 L
316.04 258.752 L
316.402 226.064 L
316.763 232.856 L
317.125 259.541 L
317.487 254.01 L
317.848 260.553 L
318.21 280.198 L
318.572 227.136 L
318.933 255.468 L
319.295 248.265 L
319.657 276.091 L
320.018 263.383 L
320.38 270.388 L
320.742 262.353 L
321.103 274.007 L
321.465 292.126 L
S
GR
GS
[0.75 0 0 0.75 0 0] CT
0 0.447 0.741 RC
2 LJ
N
321.465 292.126 M
321.827 300.512 L
322.188 348.361 L
322.55 310.365 L
322.912 289.005 L
323.273 283.988 L
323.635 274.736 L
323.997 275.01 L
324.358 269.376 L
324.72 266.109 L
325.082 269.617 L
325.443 266.281 L
325.805 265.895 L
326.167 274.779 L
326.528 274.196 L
326.89 273.87 L
327.252 271.246 L
327.613 267.336 L
327.975 270.646 L
328.337 269.436 L
328.698 270.354 L
329.06 272.223 L
329.422 267.996 L
329.783 271.666 L
330.145 269.162 L
330.507 270.2 L
330.868 269.719 L
331.23 268.905 L
331.592 268.828 L
331.953 267.627 L
332.315 266.478 L
332.677 266.967 L
333.038 265.989 L
333.4 264.369 L
333.762 265.861 L
334.123 269.214 L
334.485 270.757 L
334.847 265.698 L
335.208 235.917 L
335.57 246.413 L
335.932 265.166 L
336.293 272.523 L
336.655 279.907 L
337.017 275.859 L
337.378 273.998 L
337.74 278.92 L
338.102 273.27 L
338.463 269.857 L
338.825 269.282 L
339.187 270.38 L
S
GR
GS
[0.75 0 0 0.75 0 0] CT
0 0.447 0.741 RC
2 LJ
N
339.187 270.38 M
339.548 270.637 L
339.91 269.102 L
340.272 271.966 L
340.633 271.837 L
340.995 267.73 L
341.357 266.006 L
341.718 269.316 L
342.08 267.661 L
342.442 267.104 L
342.803 268.648 L
343.165 271.906 L
343.527 276.005 L
343.888 271.4 L
344.25 270.088 L
344.612 268.159 L
344.973 267.276 L
345.335 264.334 L
345.697 266.555 L
346.058 268.03 L
346.42 267.378 L
346.782 267.156 L
347.143 267.318 L
347.505 267.396 L
347.867 267.147 L
348.228 267.627 L
348.59 268.047 L
348.952 268.425 L
349.313 268.69 L
349.675 268.888 L
350.037 269.059 L
350.398 268.999 L
350.76 269.334 L
351.122 269.788 L
351.483 270.671 L
351.845 270.414 L
352.207 270.105 L
352.568 270.277 L
352.93 270.568 L
353.292 270.234 L
353.653 270.388 L
354.015 270.448 L
354.377 269.934 L
354.738 269.925 L
355.1 269.762 L
355.462 269.788 L
355.823 269.728 L
356.185 269.788 L
356.547 269.762 L
356.908 269.805 L
S
GR
GS
[0.75 0 0 0.75 0 0] CT
0 0.447 0.741 RC
2 LJ
N
356.908 269.805 M
357.27 269.848 L
357.632 269.754 L
357.993 269.745 L
358.355 269.668 L
358.717 269.668 L
359.078 269.668 L
359.44 269.625 L
359.802 269.496 L
360.163 269.539 L
360.525 269.411 L
360.887 269.342 L
361.248 269.368 L
361.61 269.539 L
361.972 269.711 L
362.333 270.2 L
362.695 270.491 L
363.057 269.557 L
363.418 268.047 L
363.78 265.972 L
364.142 265.363 L
364.503 265.2 L
364.865 264.729 L
365.227 264.446 L
365.588 264.583 L
365.95 264.729 L
366.312 264.532 L
366.673 264.729 L
367.035 265.037 L
367.397 264.943 L
367.758 264.42 L
368.12 264.146 L
368.482 264.3 L
368.843 264.214 L
369.205 264.24 L
369.567 264.549 L
369.928 264.42 L
370.29 264.403 L
370.652 264.266 L
371.013 264.231 L
371.375 264.291 L
371.737 264.514 L
372.098 264.317 L
372.46 264.48 L
372.822 264.506 L
373.183 264.557 L
373.545 264.917 L
373.907 264.677 L
374.268 265.492 L
374.63 265.783 L
S
GR
GS
[0.75 0 0 0.75 0 0] CT
0 0.447 0.741 RC
2 LJ
N
374.63 265.783 M
374.992 265.561 L
375.353 265.895 L
375.715 266.135 L
376.077 265.912 L
376.438 266.701 L
376.8 266.795 L
377.162 267.147 L
377.523 267.267 L
377.885 267.85 L
378.247 267.25 L
378.608 267.404 L
378.97 267.91 L
379.332 267.567 L
379.693 267.619 L
380.055 267.696 L
380.417 267.276 L
380.778 267.464 L
381.14 268.184 L
381.502 268.699 L
381.863 268.022 L
382.225 268.03 L
382.587 268.733 L
382.948 268.622 L
383.31 268.888 L
383.672 268.853 L
384.033 268.656 L
384.395 268.673 L
384.757 268.733 L
385.118 268.399 L
385.48 268.013 L
385.842 267.816 L
386.203 268.708 L
386.565 268.236 L
386.927 268.142 L
387.288 267.661 L
387.65 268.004 L
388.012 268.047 L
388.373 268.733 L
388.735 268.956 L
389.097 269.076 L
389.458 268.322 L
389.82 268.245 L
390.182 268.819 L
390.543 268.579 L
390.905 268.699 L
391.267 268.725 L
391.628 269.179 L
391.99 268.819 L
392.352 268.742 L
S
GR
GS
[0.75 0 0 0.75 0 0] CT
0 0.447 0.741 RC
2 LJ
N
392.352 268.742 M
392.713 269.308 L
393.075 269.068 L
393.437 268.476 L
393.798 267.893 L
394.16 265.801 L
394.522 262.654 L
394.883 250.94 L
395.245 242.923 L
395.607 238.618 L
395.968 163.338 L
396.33 58.586 L
396.692 60.61 L
397.053 111.271 L
397.415 153.099 L
397.777 224.246 L
398.138 248.496 L
398.5 251.498 L
398.862 251.283 L
399.223 251.695 L
399.585 252.655 L
399.947 253.015 L
400.308 253.024 L
400.67 253.976 L
401.032 254.036 L
401.393 250.666 L
401.755 252.012 L
402.117 253.281 L
402.478 253.461 L
402.84 253.53 L
403.202 253.444 L
403.563 253.573 L
403.925 253.436 L
404.287 253.35 L
404.648 253.556 L
405.01 253.65 L
405.372 253.658 L
405.733 253.856 L
406.095 253.744 L
406.457 253.624 L
406.818 253.624 L
407.18 253.71 L
407.542 253.633 L
407.903 253.667 L
408.265 253.796 L
408.627 254.122 L
408.988 254.207 L
409.35 254.456 L
409.712 254.413 L
410.073 254.533 L
S
GR
GS
[0.75 0 0 0.75 0 0] CT
0 0.447 0.741 RC
2 LJ
N
410.073 254.533 M
410.435 254.507 L
410.797 254.85 L
411.158 254.91 L
411.52 255.03 L
411.882 255.082 L
412.243 254.988 L
412.605 255.193 L
412.967 255.296 L
413.328 255.519 L
413.69 255.519 L
414.052 255.519 L
414.413 255.562 L
414.775 255.725 L
415.137 255.716 L
415.498 255.648 L
415.86 255.845 L
416.222 255.819 L
416.583 255.905 L
416.945 256.12 L
417.307 256.154 L
417.668 256.051 L
418.03 256.48 L
418.392 256.745 L
418.753 257.011 L
419.115 258.289 L
419.477 255.742 L
419.838 242.211 L
420.2 245.118 L
420.562 250.254 L
420.923 255.073 L
421.285 253.924 L
421.647 254.516 L
422.008 256.72 L
422.37 258.538 L
422.732 260.407 L
423.093 261.239 L
423.455 259.978 L
423.817 260.39 L
424.178 258.906 L
424.54 257.509 L
424.902 259.001 L
425.263 258.332 L
425.625 258.966 L
425.987 260.158 L
426.348 258.478 L
426.71 259.489 L
427.072 258.863 L
427.433 261.625 L
427.795 264.634 L
S
GR
GS
[0.75 0 0 0.75 0 0] CT
0 0.447 0.741 RC
2 LJ
N
427.795 264.634 M
428.157 262.739 L
428.518 263.117 L
428.88 264.737 L
429.242 264.926 L
429.603 263.871 L
429.965 263.408 L
430.327 261.813 L
430.688 260.887 L
431.05 260.081 L
431.412 260.982 L
431.773 260.493 L
432.135 258.16 L
432.497 257.903 L
432.858 258.726 L
433.22 262.551 L
433.582 262.105 L
433.943 260.518 L
434.305 259.301 L
434.667 257.2 L
435.028 255.768 L
435.39 255.125 L
435.752 256.428 L
436.113 256.788 L
436.475 258.383 L
436.837 258.555 L
437.198 260.458 L
437.56 258.272 L
437.922 245.126 L
438.283 246.293 L
438.645 245.821 L
439.007 248.068 L
439.368 254.087 L
439.73 257.534 L
440.092 260.57 L
440.453 266.298 L
440.815 269.574 L
441.177 272.549 L
441.538 268.982 L
441.9 262.825 L
442.262 264.137 L
442.623 263.194 L
442.985 261.427 L
443.347 258.16 L
443.708 255.699 L
444.07 249.448 L
444.432 251.077 L
444.793 253.718 L
445.155 254.456 L
445.517 249.843 L
S
GR
GS
[0.75 0 0 0.75 0 0] CT
0 0.447 0.741 RC
2 LJ
N
445.517 249.843 M
445.878 254.542 L
446.24 257.457 L
446.602 260.15 L
446.963 259.335 L
447.325 253.247 L
447.687 256.342 L
448.048 260.33 L
448.41 258.863 L
448.772 257.826 L
449.133 258.358 L
449.495 258.263 L
449.857 256.951 L
450.218 257.449 L
450.58 261.71 L
450.942 256.3 L
451.303 258.984 L
451.665 262.268 L
452.027 260.716 L
452.388 259.91 L
452.75 258.16 L
453.112 252.955 L
453.473 258.769 L
453.835 262.431 L
454.197 262.439 L
454.558 257.406 L
454.92 255.665 L
455.282 257.174 L
455.643 257.997 L
456.005 258.469 L
456.367 261.042 L
456.728 258.443 L
457.09 256.788 L
457.452 256.265 L
457.813 255.948 L
458.175 255.742 L
458.537 255.305 L
458.898 255.914 L
459.26 256.059 L
459.622 255.416 L
459.983 255.159 L
460.345 255.648 L
460.707 255.631 L
461.068 255.682 L
461.43 255.905 L
461.792 256.154 L
462.153 257.251 L
462.515 256.505 L
462.877 255.425 L
463.238 256.291 L
S
GR
GS
[0.75 0 0 0.75 0 0] CT
0 0.447 0.741 RC
2 LJ
N
463.238 256.291 M
463.6 253.804 L
463.962 256.454 L
464.323 258.641 L
464.685 257.457 L
465.047 257.14 L
465.408 257.766 L
465.77 258.692 L
466.132 258.966 L
466.493 258.846 L
466.855 258.16 L
467.217 258.563 L
467.578 258.855 L
467.94 258.598 L
468.302 258.332 L
468.663 259.618 L
469.025 260.338 L
469.387 260.973 L
469.748 260.107 L
470.11 259.807 L
470.472 259.961 L
470.833 260.527 L
471.195 258.383 L
471.557 257.8 L
471.918 259.841 L
472.28 261.162 L
472.642 256.617 L
473.003 254.988 L
473.365 255.837 L
473.727 256.531 L
474.088 257.003 L
474.45 258.503 L
474.812 258.701 L
475.173 258.032 L
475.535 257.114 L
475.897 257.629 L
476.258 258.958 L
476.62 260.124 L
476.982 260.218 L
477.343 258.392 L
477.705 258.46 L
478.067 260.887 L
478.428 261.067 L
478.79 260.441 L
479.152 260.741 L
479.513 260.656 L
479.875 260.716 L
480.237 260.656 L
480.598 260.578 L
S
GR
%%Trailer
%%Pages: 1
%%EOF
