%!PS-Adobe-3.0 EPSF-3.0
%%Creator: (MATLAB, The Mathworks, Inc. Version 8.5.0.197613 \(R2015a\). Operating System: Windows 8)
%%Title: (C:/Users/aleja/Desktop/TFG/Documentaci\363n/Obtenci\363n de datos/matlab_plot/stems/jota11-59.eps)
%%CreationDate: 2019-05-22T11:20:01
%%Pages: (atend)
%%BoundingBox: 0 0 420 315
%%LanguageLevel: 2
%%EndComments
%%BeginProlog
%%BeginResource: procset (Apache XML Graphics Std ProcSet) 1.2 0
%%Version: 1.2 0
%%Copyright: (Copyright 2001-2003,2010 The Apache Software Foundation. License terms: http://www.apache.org/licenses/LICENSE-2.0)
/bd{bind def}bind def
/ld{load def}bd
/GR/grestore ld
/M/moveto ld
/LJ/setlinejoin ld
/C/curveto ld
/f/fill ld
/LW/setlinewidth ld
/GC/setgray ld
/t/show ld
/N/newpath ld
/CT/concat ld
/cp/closepath ld
/S/stroke ld
/L/lineto ld
/CC/setcmykcolor ld
/A/ashow ld
/GS/gsave ld
/RC/setrgbcolor ld
/RM/rmoveto ld
/ML/setmiterlimit ld
/re {4 2 roll M
1 index 0 rlineto
0 exch rlineto
neg 0 rlineto
cp } bd
/_ctm matrix def
/_tm matrix def
/BT { _ctm currentmatrix pop matrix _tm copy pop 0 0 moveto } bd
/ET { _ctm setmatrix } bd
/iTm { _ctm setmatrix _tm concat } bd
/Tm { _tm astore pop iTm 0 0 moveto } bd
/ux 0.0 def
/uy 0.0 def
/F {
  /Tp exch def
  /Tf exch def
  Tf findfont Tp scalefont setfont
  /cf Tf def  /cs Tp def
} bd
/ULS {currentpoint /uy exch def /ux exch def} bd
/ULE {
  /Tcx currentpoint pop def
  gsave
  newpath
  cf findfont cs scalefont dup
  /FontMatrix get 0 get /Ts exch def /FontInfo get dup
  /UnderlinePosition get Ts mul /To exch def
  /UnderlineThickness get Ts mul /Tt exch def
  ux uy To add moveto  Tcx uy To add lineto
  Tt setlinewidth stroke
  grestore
} bd
/OLE {
  /Tcx currentpoint pop def
  gsave
  newpath
  cf findfont cs scalefont dup
  /FontMatrix get 0 get /Ts exch def /FontInfo get dup
  /UnderlinePosition get Ts mul /To exch def
  /UnderlineThickness get Ts mul /Tt exch def
  ux uy To add cs add moveto Tcx uy To add cs add lineto
  Tt setlinewidth stroke
  grestore
} bd
/SOE {
  /Tcx currentpoint pop def
  gsave
  newpath
  cf findfont cs scalefont dup
  /FontMatrix get 0 get /Ts exch def /FontInfo get dup
  /UnderlinePosition get Ts mul /To exch def
  /UnderlineThickness get Ts mul /Tt exch def
  ux uy To add cs 10 mul 26 idiv add moveto Tcx uy To add cs 10 mul 26 idiv add lineto
  Tt setlinewidth stroke
  grestore
} bd
/QT {
/Y22 exch store
/X22 exch store
/Y21 exch store
/X21 exch store
currentpoint
/Y21 load 2 mul add 3 div exch
/X21 load 2 mul add 3 div exch
/X21 load 2 mul /X22 load add 3 div
/Y21 load 2 mul /Y22 load add 3 div
/X22 load /Y22 load curveto
} bd
/SSPD {
dup length /d exch dict def
{
/v exch def
/k exch def
currentpagedevice k known {
/cpdv currentpagedevice k get def
v cpdv ne {
/upd false def
/nullv v type /nulltype eq def
/nullcpdv cpdv type /nulltype eq def
nullv nullcpdv or
{
/upd true def
} {
/sametype v type cpdv type eq def
sametype {
v type /arraytype eq {
/vlen v length def
/cpdvlen cpdv length def
vlen cpdvlen eq {
0 1 vlen 1 sub {
/i exch def
/obj v i get def
/cpdobj cpdv i get def
obj cpdobj ne {
/upd true def
exit
} if
} for
} {
/upd true def
} ifelse
} {
v type /dicttype eq {
v {
/dv exch def
/dk exch def
/cpddv cpdv dk get def
dv cpddv ne {
/upd true def
exit
} if
} forall
} {
/upd true def
} ifelse
} ifelse
} if
} ifelse
upd true eq {
d k v put
} if
} if
} if
} forall
d length 0 gt {
d setpagedevice
} if
} bd
%%EndResource
%%BeginResource: procset (Apache XML Graphics EPS ProcSet) 1.0 0
%%Version: 1.0 0
%%Copyright: (Copyright 2002-2003 The Apache Software Foundation. License terms: http://www.apache.org/licenses/LICENSE-2.0)
/BeginEPSF { %def
/b4_Inc_state save def         % Save state for cleanup
/dict_count countdictstack def % Count objects on dict stack
/op_count count 1 sub def      % Count objects on operand stack
userdict begin                 % Push userdict on dict stack
/showpage { } def              % Redefine showpage, { } = null proc
0 setgray 0 setlinecap         % Prepare graphics state
1 setlinewidth 0 setlinejoin
10 setmiterlimit [ ] 0 setdash newpath
/languagelevel where           % If level not equal to 1 then
{pop languagelevel             % set strokeadjust and
1 ne                           % overprint to their defaults.
{false setstrokeadjust false setoverprint
} if
} if
} bd
/EndEPSF { %def
count op_count sub {pop} repeat            % Clean up stacks
countdictstack dict_count sub {end} repeat
b4_Inc_state restore
} bd
%%EndResource
%FOPBeginFontDict
%%IncludeResource: font Courier-Bold
%%IncludeResource: font Helvetica
%%IncludeResource: font Courier-BoldOblique
%%IncludeResource: font Courier-Oblique
%%IncludeResource: font Times-Roman
%%IncludeResource: font Helvetica-BoldOblique
%%IncludeResource: font Helvetica-Bold
%%IncludeResource: font Helvetica-Oblique
%%IncludeResource: font Times-BoldItalic
%%IncludeResource: font Courier
%%IncludeResource: font Times-Italic
%%IncludeResource: font Times-Bold
%%IncludeResource: font Symbol
%%IncludeResource: font ZapfDingbats
%FOPEndFontDict
%%BeginResource: encoding WinAnsiEncoding
/WinAnsiEncoding [
/.notdef /.notdef /.notdef /.notdef /.notdef
/.notdef /.notdef /.notdef /.notdef /.notdef
/.notdef /.notdef /.notdef /.notdef /.notdef
/.notdef /.notdef /.notdef /.notdef /.notdef
/.notdef /.notdef /.notdef /.notdef /.notdef
/.notdef /.notdef /.notdef /.notdef /.notdef
/.notdef /.notdef /space /exclam /quotedbl
/numbersign /dollar /percent /ampersand /quotesingle
/parenleft /parenright /asterisk /plus /comma
/hyphen /period /slash /zero /one
/two /three /four /five /six
/seven /eight /nine /colon /semicolon
/less /equal /greater /question /at
/A /B /C /D /E
/F /G /H /I /J
/K /L /M /N /O
/P /Q /R /S /T
/U /V /W /X /Y
/Z /bracketleft /backslash /bracketright /asciicircum
/underscore /quoteleft /a /b /c
/d /e /f /g /h
/i /j /k /l /m
/n /o /p /q /r
/s /t /u /v /w
/x /y /z /braceleft /bar
/braceright /asciitilde /bullet /Euro /bullet
/quotesinglbase /florin /quotedblbase /ellipsis /dagger
/daggerdbl /circumflex /perthousand /Scaron /guilsinglleft
/OE /bullet /Zcaron /bullet /bullet
/quoteleft /quoteright /quotedblleft /quotedblright /bullet
/endash /emdash /asciitilde /trademark /scaron
/guilsinglright /oe /bullet /zcaron /Ydieresis
/space /exclamdown /cent /sterling /currency
/yen /brokenbar /section /dieresis /copyright
/ordfeminine /guillemotleft /logicalnot /sfthyphen /registered
/macron /degree /plusminus /twosuperior /threesuperior
/acute /mu /paragraph /middot /cedilla
/onesuperior /ordmasculine /guillemotright /onequarter /onehalf
/threequarters /questiondown /Agrave /Aacute /Acircumflex
/Atilde /Adieresis /Aring /AE /Ccedilla
/Egrave /Eacute /Ecircumflex /Edieresis /Igrave
/Iacute /Icircumflex /Idieresis /Eth /Ntilde
/Ograve /Oacute /Ocircumflex /Otilde /Odieresis
/multiply /Oslash /Ugrave /Uacute /Ucircumflex
/Udieresis /Yacute /Thorn /germandbls /agrave
/aacute /acircumflex /atilde /adieresis /aring
/ae /ccedilla /egrave /eacute /ecircumflex
/edieresis /igrave /iacute /icircumflex /idieresis
/eth /ntilde /ograve /oacute /ocircumflex
/otilde /odieresis /divide /oslash /ugrave
/uacute /ucircumflex /udieresis /yacute /thorn
/ydieresis
] def
%%EndResource
%FOPBeginFontReencode
/Courier-Bold findfont
dup length dict begin
  {1 index /FID ne {def} {pop pop} ifelse} forall
  /Encoding WinAnsiEncoding def
  currentdict
end
/Courier-Bold exch definefont pop
/Helvetica findfont
dup length dict begin
  {1 index /FID ne {def} {pop pop} ifelse} forall
  /Encoding WinAnsiEncoding def
  currentdict
end
/Helvetica exch definefont pop
/Courier-BoldOblique findfont
dup length dict begin
  {1 index /FID ne {def} {pop pop} ifelse} forall
  /Encoding WinAnsiEncoding def
  currentdict
end
/Courier-BoldOblique exch definefont pop
/Courier-Oblique findfont
dup length dict begin
  {1 index /FID ne {def} {pop pop} ifelse} forall
  /Encoding WinAnsiEncoding def
  currentdict
end
/Courier-Oblique exch definefont pop
/Times-Roman findfont
dup length dict begin
  {1 index /FID ne {def} {pop pop} ifelse} forall
  /Encoding WinAnsiEncoding def
  currentdict
end
/Times-Roman exch definefont pop
/Helvetica-BoldOblique findfont
dup length dict begin
  {1 index /FID ne {def} {pop pop} ifelse} forall
  /Encoding WinAnsiEncoding def
  currentdict
end
/Helvetica-BoldOblique exch definefont pop
/Helvetica-Bold findfont
dup length dict begin
  {1 index /FID ne {def} {pop pop} ifelse} forall
  /Encoding WinAnsiEncoding def
  currentdict
end
/Helvetica-Bold exch definefont pop
/Helvetica-Oblique findfont
dup length dict begin
  {1 index /FID ne {def} {pop pop} ifelse} forall
  /Encoding WinAnsiEncoding def
  currentdict
end
/Helvetica-Oblique exch definefont pop
/Times-BoldItalic findfont
dup length dict begin
  {1 index /FID ne {def} {pop pop} ifelse} forall
  /Encoding WinAnsiEncoding def
  currentdict
end
/Times-BoldItalic exch definefont pop
/Courier findfont
dup length dict begin
  {1 index /FID ne {def} {pop pop} ifelse} forall
  /Encoding WinAnsiEncoding def
  currentdict
end
/Courier exch definefont pop
/Times-Italic findfont
dup length dict begin
  {1 index /FID ne {def} {pop pop} ifelse} forall
  /Encoding WinAnsiEncoding def
  currentdict
end
/Times-Italic exch definefont pop
/Times-Bold findfont
dup length dict begin
  {1 index /FID ne {def} {pop pop} ifelse} forall
  /Encoding WinAnsiEncoding def
  currentdict
end
/Times-Bold exch definefont pop
%FOPEndFontReencode
%%EndProlog
%%Page: 1 1
%%PageBoundingBox: 0 0 420 315
%%BeginPageSetup
[1 0 0 -1 0 315] CT
%%EndPageSetup
GS
[0.75 0 0 0.75 0 0] CT
1 GC
N
0 0 560 420 re
f
GR
GS
[0.75 0 0 0.75 0 0] CT
1 GC
N
0 0 560 420 re
f
GR
GS
[0.75 0 0 0.75 0 0] CT
1 GC
N
73 374 M
507 374 L
507 31 L
73 31 L
cp
f
GR
GS
[0.75 0 0 0.75 217.50016 298.24999] CT
0.149 GC
/Helvetica 15 F
GS
[1 0 0 1 0 0] CT
-52 16 moveto 
1 -1 scale
(Frequency \(Hz\)) t 
GR
GR
GS
[0.75 0 0 0.75 0 0] CT
0.149 GC
2 setlinecap
10.0 ML
N
73 374 M
507 374 L
S
GR
GS
[0.75 0 0 0.75 0 0] CT
0.149 GC
2 setlinecap
10.0 ML
N
73 31 M
507 31 L
S
GR
GS
[0.75 0 0 0.75 0 0] CT
0.149 GC
2 setlinecap
10.0 ML
N
73 374 M
73 369.66 L
S
GR
GS
[0.75 0 0 0.75 0 0] CT
0.149 GC
2 setlinecap
10.0 ML
N
116.4 374 M
116.4 369.66 L
S
GR
GS
[0.75 0 0 0.75 0 0] CT
0.149 GC
2 setlinecap
10.0 ML
N
159.8 374 M
159.8 369.66 L
S
GR
GS
[0.75 0 0 0.75 0 0] CT
0.149 GC
2 setlinecap
10.0 ML
N
203.2 374 M
203.2 369.66 L
S
GR
GS
[0.75 0 0 0.75 0 0] CT
0.149 GC
2 setlinecap
10.0 ML
N
246.6 374 M
246.6 369.66 L
S
GR
GS
[0.75 0 0 0.75 0 0] CT
0.149 GC
2 setlinecap
10.0 ML
N
290 374 M
290 369.66 L
S
GR
GS
[0.75 0 0 0.75 0 0] CT
0.149 GC
2 setlinecap
10.0 ML
N
333.4 374 M
333.4 369.66 L
S
GR
GS
[0.75 0 0 0.75 0 0] CT
0.149 GC
2 setlinecap
10.0 ML
N
376.8 374 M
376.8 369.66 L
S
GR
GS
[0.75 0 0 0.75 0 0] CT
0.149 GC
2 setlinecap
10.0 ML
N
420.2 374 M
420.2 369.66 L
S
GR
GS
[0.75 0 0 0.75 0 0] CT
0.149 GC
2 setlinecap
10.0 ML
N
463.6 374 M
463.6 369.66 L
S
GR
GS
[0.75 0 0 0.75 0 0] CT
0.149 GC
2 setlinecap
10.0 ML
N
507 374 M
507 369.66 L
S
GR
GS
[0.75 0 0 0.75 0 0] CT
0.149 GC
2 setlinecap
10.0 ML
N
73 31 M
73 35.34 L
S
GR
GS
[0.75 0 0 0.75 0 0] CT
0.149 GC
2 setlinecap
10.0 ML
N
116.4 31 M
116.4 35.34 L
S
GR
GS
[0.75 0 0 0.75 0 0] CT
0.149 GC
2 setlinecap
10.0 ML
N
159.8 31 M
159.8 35.34 L
S
GR
GS
[0.75 0 0 0.75 0 0] CT
0.149 GC
2 setlinecap
10.0 ML
N
203.2 31 M
203.2 35.34 L
S
GR
GS
[0.75 0 0 0.75 0 0] CT
0.149 GC
2 setlinecap
10.0 ML
N
246.6 31 M
246.6 35.34 L
S
GR
GS
[0.75 0 0 0.75 0 0] CT
0.149 GC
2 setlinecap
10.0 ML
N
290 31 M
290 35.34 L
S
GR
GS
[0.75 0 0 0.75 0 0] CT
0.149 GC
2 setlinecap
10.0 ML
N
333.4 31 M
333.4 35.34 L
S
GR
GS
[0.75 0 0 0.75 0 0] CT
0.149 GC
2 setlinecap
10.0 ML
N
376.8 31 M
376.8 35.34 L
S
GR
GS
[0.75 0 0 0.75 0 0] CT
0.149 GC
2 setlinecap
10.0 ML
N
420.2 31 M
420.2 35.34 L
S
GR
GS
[0.75 0 0 0.75 0 0] CT
0.149 GC
2 setlinecap
10.0 ML
N
463.6 31 M
463.6 35.34 L
S
GR
GS
[0.75 0 0 0.75 0 0] CT
0.149 GC
2 setlinecap
10.0 ML
N
507 31 M
507 35.34 L
S
GR
GS
[0.75 0 0 0.75 54.75 284.50001] CT
0.149 GC
/Helvetica 13 F
GS
[1 0 0 1 0 0] CT
-4 14 moveto 
1 -1 scale
(0) t 
GR
GR
GS
[0.75 0 0 0.75 87.3 284.50001] CT
0.149 GC
/Helvetica 13 F
GS
[1 0 0 1 0 0] CT
-7.5 14 moveto 
1 -1 scale
(10) t 
GR
GR
GS
[0.75 0 0 0.75 119.85 284.50001] CT
0.149 GC
/Helvetica 13 F
GS
[1 0 0 1 0 0] CT
-7.5 14 moveto 
1 -1 scale
(20) t 
GR
GR
GS
[0.75 0 0 0.75 152.4 284.50001] CT
0.149 GC
/Helvetica 13 F
GS
[1 0 0 1 0 0] CT
-7.5 14 moveto 
1 -1 scale
(30) t 
GR
GR
GS
[0.75 0 0 0.75 184.95 284.50001] CT
0.149 GC
/Helvetica 13 F
GS
[1 0 0 1 0 0] CT
-7.5 14 moveto 
1 -1 scale
(40) t 
GR
GR
GS
[0.75 0 0 0.75 217.5 284.50001] CT
0.149 GC
/Helvetica 13 F
GS
[1 0 0 1 0 0] CT
-7.5 14 moveto 
1 -1 scale
(50) t 
GR
GR
GS
[0.75 0 0 0.75 250.05 284.50001] CT
0.149 GC
/Helvetica 13 F
GS
[1 0 0 1 0 0] CT
-7.5 14 moveto 
1 -1 scale
(60) t 
GR
GR
GS
[0.75 0 0 0.75 282.59999 284.50001] CT
0.149 GC
/Helvetica 13 F
GS
[1 0 0 1 0 0] CT
-7.5 14 moveto 
1 -1 scale
(70) t 
GR
GR
GS
[0.75 0 0 0.75 315.15001 284.50001] CT
0.149 GC
/Helvetica 13 F
GS
[1 0 0 1 0 0] CT
-7.5 14 moveto 
1 -1 scale
(80) t 
GR
GR
GS
[0.75 0 0 0.75 347.7 284.50001] CT
0.149 GC
/Helvetica 13 F
GS
[1 0 0 1 0 0] CT
-7.5 14 moveto 
1 -1 scale
(90) t 
GR
GR
GS
[0.75 0 0 0.75 380.25 284.50001] CT
0.149 GC
/Helvetica 13 F
GS
[1 0 0 1 0 0] CT
-11 14 moveto 
1 -1 scale
(100) t 
GR
GR
GS
[0 -0.75 0.75 0 33.5 151.87486] CT
0.149 GC
/Helvetica 15 F
GS
[1 0 0 1 0 0] CT
-61.5 -4 moveto 
1 -1 scale
(|P\(f\)| MAgnitud dB) t 
GR
GR
GS
[0.75 0 0 0.75 0 0] CT
0.149 GC
2 setlinecap
10.0 ML
N
73 374 M
73 31 L
S
GR
GS
[0.75 0 0 0.75 0 0] CT
0.149 GC
2 setlinecap
10.0 ML
N
507 374 M
507 31 L
S
GR
GS
[0.75 0 0 0.75 0 0] CT
0.149 GC
2 setlinecap
10.0 ML
N
73 374 M
77.34 374 L
S
GR
GS
[0.75 0 0 0.75 0 0] CT
0.149 GC
2 setlinecap
10.0 ML
N
73 316.833 M
77.34 316.833 L
S
GR
GS
[0.75 0 0 0.75 0 0] CT
0.149 GC
2 setlinecap
10.0 ML
N
73 259.667 M
77.34 259.667 L
S
GR
GS
[0.75 0 0 0.75 0 0] CT
0.149 GC
2 setlinecap
10.0 ML
N
73 202.5 M
77.34 202.5 L
S
GR
GS
[0.75 0 0 0.75 0 0] CT
0.149 GC
2 setlinecap
10.0 ML
N
73 145.333 M
77.34 145.333 L
S
GR
GS
[0.75 0 0 0.75 0 0] CT
0.149 GC
2 setlinecap
10.0 ML
N
73 88.167 M
77.34 88.167 L
S
GR
GS
[0.75 0 0 0.75 0 0] CT
0.149 GC
2 setlinecap
10.0 ML
N
73 31 M
77.34 31 L
S
GR
GS
[0.75 0 0 0.75 0 0] CT
0.149 GC
2 setlinecap
10.0 ML
N
507 374 M
502.66 374 L
S
GR
GS
[0.75 0 0 0.75 0 0] CT
0.149 GC
2 setlinecap
10.0 ML
N
507 316.833 M
502.66 316.833 L
S
GR
GS
[0.75 0 0 0.75 0 0] CT
0.149 GC
2 setlinecap
10.0 ML
N
507 259.667 M
502.66 259.667 L
S
GR
GS
[0.75 0 0 0.75 0 0] CT
0.149 GC
2 setlinecap
10.0 ML
N
507 202.5 M
502.66 202.5 L
S
GR
GS
[0.75 0 0 0.75 0 0] CT
0.149 GC
2 setlinecap
10.0 ML
N
507 145.333 M
502.66 145.333 L
S
GR
GS
[0.75 0 0 0.75 0 0] CT
0.149 GC
2 setlinecap
10.0 ML
N
507 88.167 M
502.66 88.167 L
S
GR
GS
[0.75 0 0 0.75 0 0] CT
0.149 GC
2 setlinecap
10.0 ML
N
507 31 M
502.66 31 L
S
GR
GS
[0.75 0 0 0.75 50.75 280.5] CT
0.149 GC
/Helvetica 13 F
GS
[1 0 0 1 0 0] CT
-8 5.5 moveto 
1 -1 scale
(0) t 
GR
GR
GS
[0.75 0 0 0.75 50.75 237.62501] CT
0.149 GC
/Helvetica 13 F
GS
[1 0 0 1 0 0] CT
-19 5.5 moveto 
1 -1 scale
(0.2) t 
GR
GR
GS
[0.75 0 0 0.75 50.75 194.74999] CT
0.149 GC
/Helvetica 13 F
GS
[1 0 0 1 0 0] CT
-19 5.5 moveto 
1 -1 scale
(0.4) t 
GR
GR
GS
[0.75 0 0 0.75 50.75 151.875] CT
0.149 GC
/Helvetica 13 F
GS
[1 0 0 1 0 0] CT
-19 5.5 moveto 
1 -1 scale
(0.6) t 
GR
GR
GS
[0.75 0 0 0.75 50.75 109] CT
0.149 GC
/Helvetica 13 F
GS
[1 0 0 1 0 0] CT
-19 5.5 moveto 
1 -1 scale
(0.8) t 
GR
GR
GS
[0.75 0 0 0.75 50.75 66.125] CT
0.149 GC
/Helvetica 13 F
GS
[1 0 0 1 0 0] CT
-8 5.5 moveto 
1 -1 scale
(1) t 
GR
GR
GS
[0.75 0 0 0.75 50.75 23.24999] CT
0.149 GC
/Helvetica 13 F
GS
[1 0 0 1 0 0] CT
-19 5.5 moveto 
1 -1 scale
(1.2) t 
GR
GR
GS
[0.75 0 0 0.75 0 0] CT
0 0.447 0.741 RC
2 setlinecap
10.0 ML
N
80.5 356.5 M
79.736 354.149 L
77.736 352.696 L
75.264 352.696 L
73.264 354.149 L
72.5 356.5 L
73.264 358.851 L
75.264 360.304 L
77.736 360.304 L
79.736 358.851 L
80.5 356.5 L
S
GR
GS
[0.75 0 0 0.75 0 0] CT
0 0.447 0.741 RC
2 setlinecap
10.0 ML
N
85.5 255.5 M
84.736 253.149 L
82.736 251.696 L
80.264 251.696 L
78.264 253.149 L
77.5 255.5 L
78.264 257.851 L
80.264 259.304 L
82.736 259.304 L
84.736 257.851 L
85.5 255.5 L
S
GR
GS
[0.75 0 0 0.75 0 0] CT
0 0.447 0.741 RC
2 setlinecap
10.0 ML
N
90.5 269.5 M
89.736 267.149 L
87.736 265.696 L
85.264 265.696 L
83.264 267.149 L
82.5 269.5 L
83.264 271.851 L
85.264 273.304 L
87.736 273.304 L
89.736 271.851 L
90.5 269.5 L
S
GR
GS
[0.75 0 0 0.75 0 0] CT
0 0.447 0.741 RC
2 setlinecap
10.0 ML
N
95.5 303.5 M
94.736 301.149 L
92.736 299.696 L
90.264 299.696 L
88.264 301.149 L
87.5 303.5 L
88.264 305.851 L
90.264 307.304 L
92.736 307.304 L
94.736 305.851 L
95.5 303.5 L
S
GR
GS
[0.75 0 0 0.75 0 0] CT
0 0.447 0.741 RC
2 setlinecap
10.0 ML
N
100.5 311.5 M
99.736 309.149 L
97.736 307.696 L
95.264 307.696 L
93.264 309.149 L
92.5 311.5 L
93.264 313.851 L
95.264 315.304 L
97.736 315.304 L
99.736 313.851 L
100.5 311.5 L
S
GR
GS
[0.75 0 0 0.75 0 0] CT
0 0.447 0.741 RC
2 setlinecap
10.0 ML
N
105.5 275.5 M
104.736 273.149 L
102.736 271.696 L
100.264 271.696 L
98.264 273.149 L
97.5 275.5 L
98.264 277.851 L
100.264 279.304 L
102.736 279.304 L
104.736 277.851 L
105.5 275.5 L
S
GR
GS
[0.75 0 0 0.75 0 0] CT
0 0.447 0.741 RC
2 setlinecap
10.0 ML
N
110.5 305.5 M
109.736 303.149 L
107.736 301.696 L
105.264 301.696 L
103.264 303.149 L
102.5 305.5 L
103.264 307.851 L
105.264 309.304 L
107.736 309.304 L
109.736 307.851 L
110.5 305.5 L
S
GR
GS
[0.75 0 0 0.75 0 0] CT
0 0.447 0.741 RC
2 setlinecap
10.0 ML
N
115.5 327.5 M
114.736 325.149 L
112.736 323.696 L
110.264 323.696 L
108.264 325.149 L
107.5 327.5 L
108.264 329.851 L
110.264 331.304 L
112.736 331.304 L
114.736 329.851 L
115.5 327.5 L
S
GR
GS
[0.75 0 0 0.75 0 0] CT
0 0.447 0.741 RC
2 setlinecap
10.0 ML
N
119.5 353.5 M
118.736 351.149 L
116.736 349.696 L
114.264 349.696 L
112.264 351.149 L
111.5 353.5 L
112.264 355.851 L
114.264 357.304 L
116.736 357.304 L
118.736 355.851 L
119.5 353.5 L
S
GR
GS
[0.75 0 0 0.75 0 0] CT
0 0.447 0.741 RC
2 setlinecap
10.0 ML
N
124.5 349.5 M
123.736 347.149 L
121.736 345.696 L
119.264 345.696 L
117.264 347.149 L
116.5 349.5 L
117.264 351.851 L
119.264 353.304 L
121.736 353.304 L
123.736 351.851 L
124.5 349.5 L
S
GR
GS
[0.75 0 0 0.75 0 0] CT
0 0.447 0.741 RC
2 setlinecap
10.0 ML
N
129.5 299.5 M
128.736 297.149 L
126.736 295.696 L
124.264 295.696 L
122.264 297.149 L
121.5 299.5 L
122.264 301.851 L
124.264 303.304 L
126.736 303.304 L
128.736 301.851 L
129.5 299.5 L
S
GR
GS
[0.75 0 0 0.75 0 0] CT
0 0.447 0.741 RC
2 setlinecap
10.0 ML
N
134.5 294.5 M
133.736 292.149 L
131.736 290.696 L
129.264 290.696 L
127.264 292.149 L
126.5 294.5 L
127.264 296.851 L
129.264 298.304 L
131.736 298.304 L
133.736 296.851 L
134.5 294.5 L
S
GR
GS
[0.75 0 0 0.75 0 0] CT
0 0.447 0.741 RC
2 setlinecap
10.0 ML
N
139.5 286.5 M
138.736 284.149 L
136.736 282.696 L
134.264 282.696 L
132.264 284.149 L
131.5 286.5 L
132.264 288.851 L
134.264 290.304 L
136.736 290.304 L
138.736 288.851 L
139.5 286.5 L
S
GR
GS
[0.75 0 0 0.75 0 0] CT
0 0.447 0.741 RC
2 setlinecap
10.0 ML
N
144.5 313.5 M
143.736 311.149 L
141.736 309.696 L
139.264 309.696 L
137.264 311.149 L
136.5 313.5 L
137.264 315.851 L
139.264 317.304 L
141.736 317.304 L
143.736 315.851 L
144.5 313.5 L
S
GR
GS
[0.75 0 0 0.75 0 0] CT
0 0.447 0.741 RC
2 setlinecap
10.0 ML
N
149.5 268.5 M
148.736 266.149 L
146.736 264.696 L
144.264 264.696 L
142.264 266.149 L
141.5 268.5 L
142.264 270.851 L
144.264 272.304 L
146.736 272.304 L
148.736 270.851 L
149.5 268.5 L
S
GR
GS
[0.75 0 0 0.75 0 0] CT
0 0.447 0.741 RC
2 setlinecap
10.0 ML
N
154.5 315.5 M
153.736 313.149 L
151.736 311.696 L
149.264 311.696 L
147.264 313.149 L
146.5 315.5 L
147.264 317.851 L
149.264 319.304 L
151.736 319.304 L
153.736 317.851 L
154.5 315.5 L
S
GR
GS
[0.75 0 0 0.75 0 0] CT
0 0.447 0.741 RC
2 setlinecap
10.0 ML
N
159.5 301.5 M
158.736 299.149 L
156.736 297.696 L
154.264 297.696 L
152.264 299.149 L
151.5 301.5 L
152.264 303.851 L
154.264 305.304 L
156.736 305.304 L
158.736 303.851 L
159.5 301.5 L
S
GR
GS
[0.75 0 0 0.75 0 0] CT
0 0.447 0.741 RC
2 setlinecap
10.0 ML
N
164.5 334.5 M
163.736 332.149 L
161.736 330.696 L
159.264 330.696 L
157.264 332.149 L
156.5 334.5 L
157.264 336.851 L
159.264 338.304 L
161.736 338.304 L
163.736 336.851 L
164.5 334.5 L
S
GR
GS
[0.75 0 0 0.75 0 0] CT
0 0.447 0.741 RC
2 setlinecap
10.0 ML
N
169.5 296.5 M
168.736 294.149 L
166.736 292.696 L
164.264 292.696 L
162.264 294.149 L
161.5 296.5 L
162.264 298.851 L
164.264 300.304 L
166.736 300.304 L
168.736 298.851 L
169.5 296.5 L
S
GR
GS
[0.75 0 0 0.75 0 0] CT
0 0.447 0.741 RC
2 setlinecap
10.0 ML
N
173.5 289.5 M
172.736 287.149 L
170.736 285.696 L
168.264 285.696 L
166.264 287.149 L
165.5 289.5 L
166.264 291.851 L
168.264 293.304 L
170.736 293.304 L
172.736 291.851 L
173.5 289.5 L
S
GR
GS
[0.75 0 0 0.75 0 0] CT
0 0.447 0.741 RC
2 setlinecap
10.0 ML
N
178.5 313.5 M
177.736 311.149 L
175.736 309.696 L
173.264 309.696 L
171.264 311.149 L
170.5 313.5 L
171.264 315.851 L
173.264 317.304 L
175.736 317.304 L
177.736 315.851 L
178.5 313.5 L
S
GR
GS
[0.75 0 0 0.75 0 0] CT
0 0.447 0.741 RC
2 setlinecap
10.0 ML
N
183.5 280.5 M
182.736 278.149 L
180.736 276.696 L
178.264 276.696 L
176.264 278.149 L
175.5 280.5 L
176.264 282.851 L
178.264 284.304 L
180.736 284.304 L
182.736 282.851 L
183.5 280.5 L
S
GR
GS
[0.75 0 0 0.75 0 0] CT
0 0.447 0.741 RC
2 setlinecap
10.0 ML
N
188.5 315.5 M
187.736 313.149 L
185.736 311.696 L
183.264 311.696 L
181.264 313.149 L
180.5 315.5 L
181.264 317.851 L
183.264 319.304 L
185.736 319.304 L
187.736 317.851 L
188.5 315.5 L
S
GR
GS
[0.75 0 0 0.75 0 0] CT
0 0.447 0.741 RC
2 setlinecap
10.0 ML
N
193.5 282.5 M
192.736 280.149 L
190.736 278.696 L
188.264 278.696 L
186.264 280.149 L
185.5 282.5 L
186.264 284.851 L
188.264 286.304 L
190.736 286.304 L
192.736 284.851 L
193.5 282.5 L
S
GR
GS
[0.75 0 0 0.75 0 0] CT
0 0.447 0.741 RC
2 setlinecap
10.0 ML
N
198.5 300.5 M
197.736 298.149 L
195.736 296.696 L
193.264 296.696 L
191.264 298.149 L
190.5 300.5 L
191.264 302.851 L
193.264 304.304 L
195.736 304.304 L
197.736 302.851 L
198.5 300.5 L
S
GR
GS
[0.75 0 0 0.75 0 0] CT
0 0.447 0.741 RC
2 setlinecap
10.0 ML
N
203.5 295.5 M
202.736 293.149 L
200.736 291.696 L
198.264 291.696 L
196.264 293.149 L
195.5 295.5 L
196.264 297.851 L
198.264 299.304 L
200.736 299.304 L
202.736 297.851 L
203.5 295.5 L
S
GR
GS
[0.75 0 0 0.75 0 0] CT
0 0.447 0.741 RC
2 setlinecap
10.0 ML
N
208.5 323.5 M
207.736 321.149 L
205.736 319.696 L
203.264 319.696 L
201.264 321.149 L
200.5 323.5 L
201.264 325.851 L
203.264 327.304 L
205.736 327.304 L
207.736 325.851 L
208.5 323.5 L
S
GR
GS
[0.75 0 0 0.75 0 0] CT
0 0.447 0.741 RC
2 setlinecap
10.0 ML
N
213.5 324.5 M
212.736 322.149 L
210.736 320.696 L
208.264 320.696 L
206.264 322.149 L
205.5 324.5 L
206.264 326.851 L
208.264 328.304 L
210.736 328.304 L
212.736 326.851 L
213.5 324.5 L
S
GR
GS
[0.75 0 0 0.75 0 0] CT
0 0.447 0.741 RC
2 setlinecap
10.0 ML
N
218.5 309.5 M
217.736 307.149 L
215.736 305.696 L
213.264 305.696 L
211.264 307.149 L
210.5 309.5 L
211.264 311.851 L
213.264 313.304 L
215.736 313.304 L
217.736 311.851 L
218.5 309.5 L
S
GR
GS
[0.75 0 0 0.75 0 0] CT
0 0.447 0.741 RC
2 setlinecap
10.0 ML
N
223.5 296.5 M
222.736 294.149 L
220.736 292.696 L
218.264 292.696 L
216.264 294.149 L
215.5 296.5 L
216.264 298.851 L
218.264 300.304 L
220.736 300.304 L
222.736 298.851 L
223.5 296.5 L
S
GR
GS
[0.75 0 0 0.75 0 0] CT
0 0.447 0.741 RC
2 setlinecap
10.0 ML
N
228.5 282.5 M
227.736 280.149 L
225.736 278.696 L
223.264 278.696 L
221.264 280.149 L
220.5 282.5 L
221.264 284.851 L
223.264 286.304 L
225.736 286.304 L
227.736 284.851 L
228.5 282.5 L
S
GR
GS
[0.75 0 0 0.75 0 0] CT
0 0.447 0.741 RC
2 setlinecap
10.0 ML
N
232.5 298.5 M
231.736 296.149 L
229.736 294.696 L
227.264 294.696 L
225.264 296.149 L
224.5 298.5 L
225.264 300.851 L
227.264 302.304 L
229.736 302.304 L
231.736 300.851 L
232.5 298.5 L
S
GR
GS
[0.75 0 0 0.75 0 0] CT
0 0.447 0.741 RC
2 setlinecap
10.0 ML
N
237.5 296.5 M
236.736 294.149 L
234.736 292.696 L
232.264 292.696 L
230.264 294.149 L
229.5 296.5 L
230.264 298.851 L
232.264 300.304 L
234.736 300.304 L
236.736 298.851 L
237.5 296.5 L
S
GR
GS
[0.75 0 0 0.75 0 0] CT
0 0.447 0.741 RC
2 setlinecap
10.0 ML
N
242.5 304.5 M
241.736 302.149 L
239.736 300.696 L
237.264 300.696 L
235.264 302.149 L
234.5 304.5 L
235.264 306.851 L
237.264 308.304 L
239.736 308.304 L
241.736 306.851 L
242.5 304.5 L
S
GR
GS
[0.75 0 0 0.75 0 0] CT
0 0.447 0.741 RC
2 setlinecap
10.0 ML
N
247.5 297.5 M
246.736 295.149 L
244.736 293.696 L
242.264 293.696 L
240.264 295.149 L
239.5 297.5 L
240.264 299.851 L
242.264 301.304 L
244.736 301.304 L
246.736 299.851 L
247.5 297.5 L
S
GR
GS
[0.75 0 0 0.75 0 0] CT
0 0.447 0.741 RC
2 setlinecap
10.0 ML
N
252.5 311.5 M
251.736 309.149 L
249.736 307.696 L
247.264 307.696 L
245.264 309.149 L
244.5 311.5 L
245.264 313.851 L
247.264 315.304 L
249.736 315.304 L
251.736 313.851 L
252.5 311.5 L
S
GR
GS
[0.75 0 0 0.75 0 0] CT
0 0.447 0.741 RC
2 setlinecap
10.0 ML
N
257.5 321.5 M
256.736 319.149 L
254.736 317.696 L
252.264 317.696 L
250.264 319.149 L
249.5 321.5 L
250.264 323.851 L
252.264 325.304 L
254.736 325.304 L
256.736 323.851 L
257.5 321.5 L
S
GR
GS
[0.75 0 0 0.75 0 0] CT
0 0.447 0.741 RC
2 setlinecap
10.0 ML
N
262.5 340.5 M
261.736 338.149 L
259.736 336.696 L
257.264 336.696 L
255.264 338.149 L
254.5 340.5 L
255.264 342.851 L
257.264 344.304 L
259.736 344.304 L
261.736 342.851 L
262.5 340.5 L
S
GR
GS
[0.75 0 0 0.75 0 0] CT
0 0.447 0.741 RC
2 setlinecap
10.0 ML
N
267.5 305.5 M
266.736 303.149 L
264.736 301.696 L
262.264 301.696 L
260.264 303.149 L
259.5 305.5 L
260.264 307.851 L
262.264 309.304 L
264.736 309.304 L
266.736 307.851 L
267.5 305.5 L
S
GR
GS
[0.75 0 0 0.75 0 0] CT
0 0.447 0.741 RC
2 setlinecap
10.0 ML
N
272.5 292.5 M
271.736 290.149 L
269.736 288.696 L
267.264 288.696 L
265.264 290.149 L
264.5 292.5 L
265.264 294.851 L
267.264 296.304 L
269.736 296.304 L
271.736 294.851 L
272.5 292.5 L
S
GR
GS
[0.75 0 0 0.75 0 0] CT
0 0.447 0.741 RC
2 setlinecap
10.0 ML
N
277.5 269.5 M
276.736 267.149 L
274.736 265.696 L
272.264 265.696 L
270.264 267.149 L
269.5 269.5 L
270.264 271.851 L
272.264 273.304 L
274.736 273.304 L
276.736 271.851 L
277.5 269.5 L
S
GR
GS
[0.75 0 0 0.75 0 0] CT
0 0.447 0.741 RC
2 setlinecap
10.0 ML
N
282.5 288.5 M
281.736 286.149 L
279.736 284.696 L
277.264 284.696 L
275.264 286.149 L
274.5 288.5 L
275.264 290.851 L
277.264 292.304 L
279.736 292.304 L
281.736 290.851 L
282.5 288.5 L
S
GR
GS
[0.75 0 0 0.75 0 0] CT
0 0.447 0.741 RC
2 setlinecap
10.0 ML
N
286.5 280.5 M
285.736 278.149 L
283.736 276.696 L
281.264 276.696 L
279.264 278.149 L
278.5 280.5 L
279.264 282.851 L
281.264 284.304 L
283.736 284.304 L
285.736 282.851 L
286.5 280.5 L
S
GR
GS
[0.75 0 0 0.75 0 0] CT
0 0.447 0.741 RC
2 setlinecap
10.0 ML
N
291.5 322.5 M
290.736 320.149 L
288.736 318.696 L
286.264 318.696 L
284.264 320.149 L
283.5 322.5 L
284.264 324.851 L
286.264 326.304 L
288.736 326.304 L
290.736 324.851 L
291.5 322.5 L
S
GR
GS
[0.75 0 0 0.75 0 0] CT
0 0.447 0.741 RC
2 setlinecap
10.0 ML
N
296.5 316.5 M
295.736 314.149 L
293.736 312.696 L
291.264 312.696 L
289.264 314.149 L
288.5 316.5 L
289.264 318.851 L
291.264 320.304 L
293.736 320.304 L
295.736 318.851 L
296.5 316.5 L
S
GR
GS
[0.75 0 0 0.75 0 0] CT
0 0.447 0.741 RC
2 setlinecap
10.0 ML
N
301.5 338.5 M
300.736 336.149 L
298.736 334.696 L
296.264 334.696 L
294.264 336.149 L
293.5 338.5 L
294.264 340.851 L
296.264 342.304 L
298.736 342.304 L
300.736 340.851 L
301.5 338.5 L
S
GR
GS
[0.75 0 0 0.75 0 0] CT
0 0.447 0.741 RC
2 setlinecap
10.0 ML
N
306.5 341.5 M
305.736 339.149 L
303.736 337.696 L
301.264 337.696 L
299.264 339.149 L
298.5 341.5 L
299.264 343.851 L
301.264 345.304 L
303.736 345.304 L
305.736 343.851 L
306.5 341.5 L
S
GR
GS
[0.75 0 0 0.75 0 0] CT
0 0.447 0.741 RC
2 setlinecap
10.0 ML
N
311.5 312.5 M
310.736 310.149 L
308.736 308.696 L
306.264 308.696 L
304.264 310.149 L
303.5 312.5 L
304.264 314.851 L
306.264 316.304 L
308.736 316.304 L
310.736 314.851 L
311.5 312.5 L
S
GR
GS
[0.75 0 0 0.75 0 0] CT
0 0.447 0.741 RC
2 setlinecap
10.0 ML
N
316.5 296.5 M
315.736 294.149 L
313.736 292.696 L
311.264 292.696 L
309.264 294.149 L
308.5 296.5 L
309.264 298.851 L
311.264 300.304 L
313.736 300.304 L
315.736 298.851 L
316.5 296.5 L
S
GR
GS
[0.75 0 0 0.75 0 0] CT
0 0.447 0.741 RC
2 setlinecap
10.0 ML
N
321.5 230.5 M
320.736 228.149 L
318.736 226.696 L
316.264 226.696 L
314.264 228.149 L
313.5 230.5 L
314.264 232.851 L
316.264 234.304 L
318.736 234.304 L
320.736 232.851 L
321.5 230.5 L
S
GR
GS
[0.75 0 0 0.75 0 0] CT
0 0.447 0.741 RC
2 setlinecap
10.0 ML
N
326.5 217.5 M
325.736 215.149 L
323.736 213.696 L
321.264 213.696 L
319.264 215.149 L
318.5 217.5 L
319.264 219.851 L
321.264 221.304 L
323.736 221.304 L
325.736 219.851 L
326.5 217.5 L
S
GR
GS
[0.75 0 0 0.75 0 0] CT
0 0.447 0.741 RC
2 setlinecap
10.0 ML
N
331.5 147.5 M
330.736 145.149 L
328.736 143.696 L
326.264 143.696 L
324.264 145.149 L
323.5 147.5 L
324.264 149.851 L
326.264 151.304 L
328.736 151.304 L
330.736 149.851 L
331.5 147.5 L
S
GR
GS
[0.75 0 0 0.75 0 0] CT
0 0.447 0.741 RC
2 setlinecap
10.0 ML
N
336.5 72.5 M
335.736 70.149 L
333.736 68.696 L
331.264 68.696 L
329.264 70.149 L
328.5 72.5 L
329.264 74.851 L
331.264 76.304 L
333.736 76.304 L
335.736 74.851 L
336.5 72.5 L
S
GR
GS
[0.75 0 0 0.75 0 0] CT
0 0.447 0.741 RC
2 setlinecap
10.0 ML
N
340.5 135.5 M
339.736 133.149 L
337.736 131.696 L
335.264 131.696 L
333.264 133.149 L
332.5 135.5 L
333.264 137.851 L
335.264 139.304 L
337.736 139.304 L
339.736 137.851 L
340.5 135.5 L
S
GR
GS
[0.75 0 0 0.75 0 0] CT
0 0.447 0.741 RC
2 setlinecap
10.0 ML
N
345.5 205.5 M
344.736 203.149 L
342.736 201.696 L
340.264 201.696 L
338.264 203.149 L
337.5 205.5 L
338.264 207.851 L
340.264 209.304 L
342.736 209.304 L
344.736 207.851 L
345.5 205.5 L
S
GR
GS
[0.75 0 0 0.75 0 0] CT
0 0.447 0.741 RC
2 setlinecap
10.0 ML
N
350.5 218.5 M
349.736 216.149 L
347.736 214.696 L
345.264 214.696 L
343.264 216.149 L
342.5 218.5 L
343.264 220.851 L
345.264 222.304 L
347.736 222.304 L
349.736 220.851 L
350.5 218.5 L
S
GR
GS
[0.75 0 0 0.75 0 0] CT
0 0.447 0.741 RC
2 setlinecap
10.0 ML
N
355.5 262.5 M
354.736 260.149 L
352.736 258.696 L
350.264 258.696 L
348.264 260.149 L
347.5 262.5 L
348.264 264.851 L
350.264 266.304 L
352.736 266.304 L
354.736 264.851 L
355.5 262.5 L
S
GR
GS
[0.75 0 0 0.75 0 0] CT
0 0.447 0.741 RC
2 setlinecap
10.0 ML
N
360.5 280.5 M
359.736 278.149 L
357.736 276.696 L
355.264 276.696 L
353.264 278.149 L
352.5 280.5 L
353.264 282.851 L
355.264 284.304 L
357.736 284.304 L
359.736 282.851 L
360.5 280.5 L
S
GR
GS
[0.75 0 0 0.75 0 0] CT
0 0.447 0.741 RC
2 setlinecap
10.0 ML
N
365.5 328.5 M
364.736 326.149 L
362.736 324.696 L
360.264 324.696 L
358.264 326.149 L
357.5 328.5 L
358.264 330.851 L
360.264 332.304 L
362.736 332.304 L
364.736 330.851 L
365.5 328.5 L
S
GR
GS
[0.75 0 0 0.75 0 0] CT
0 0.447 0.741 RC
2 setlinecap
10.0 ML
N
370.5 347.5 M
369.736 345.149 L
367.736 343.696 L
365.264 343.696 L
363.264 345.149 L
362.5 347.5 L
363.264 349.851 L
365.264 351.304 L
367.736 351.304 L
369.736 349.851 L
370.5 347.5 L
S
GR
GS
[0.75 0 0 0.75 0 0] CT
0 0.447 0.741 RC
2 setlinecap
10.0 ML
N
375.5 321.5 M
374.736 319.149 L
372.736 317.696 L
370.264 317.696 L
368.264 319.149 L
367.5 321.5 L
368.264 323.851 L
370.264 325.304 L
372.736 325.304 L
374.736 323.851 L
375.5 321.5 L
S
GR
GS
[0.75 0 0 0.75 0 0] CT
0 0.447 0.741 RC
2 setlinecap
10.0 ML
N
380.5 316.5 M
379.736 314.149 L
377.736 312.696 L
375.264 312.696 L
373.264 314.149 L
372.5 316.5 L
373.264 318.851 L
375.264 320.304 L
377.736 320.304 L
379.736 318.851 L
380.5 316.5 L
S
GR
GS
[0.75 0 0 0.75 0 0] CT
0 0.447 0.741 RC
2 setlinecap
10.0 ML
N
385.5 297.5 M
384.736 295.149 L
382.736 293.696 L
380.264 293.696 L
378.264 295.149 L
377.5 297.5 L
378.264 299.851 L
380.264 301.304 L
382.736 301.304 L
384.736 299.851 L
385.5 297.5 L
S
GR
GS
[0.75 0 0 0.75 0 0] CT
0 0.447 0.741 RC
2 setlinecap
10.0 ML
N
390.5 312.5 M
389.736 310.149 L
387.736 308.696 L
385.264 308.696 L
383.264 310.149 L
382.5 312.5 L
383.264 314.851 L
385.264 316.304 L
387.736 316.304 L
389.736 314.851 L
390.5 312.5 L
S
GR
GS
[0.75 0 0 0.75 0 0] CT
0 0.447 0.741 RC
2 setlinecap
10.0 ML
N
394.5 292.5 M
393.736 290.149 L
391.736 288.696 L
389.264 288.696 L
387.264 290.149 L
386.5 292.5 L
387.264 294.851 L
389.264 296.304 L
391.736 296.304 L
393.736 294.851 L
394.5 292.5 L
S
GR
GS
[0.75 0 0 0.75 0 0] CT
0 0.447 0.741 RC
2 setlinecap
10.0 ML
N
399.5 301.5 M
398.736 299.149 L
396.736 297.696 L
394.264 297.696 L
392.264 299.149 L
391.5 301.5 L
392.264 303.851 L
394.264 305.304 L
396.736 305.304 L
398.736 303.851 L
399.5 301.5 L
S
GR
GS
[0.75 0 0 0.75 0 0] CT
0 0.447 0.741 RC
2 setlinecap
10.0 ML
N
404.5 292.5 M
403.736 290.149 L
401.736 288.696 L
399.264 288.696 L
397.264 290.149 L
396.5 292.5 L
397.264 294.851 L
399.264 296.304 L
401.736 296.304 L
403.736 294.851 L
404.5 292.5 L
S
GR
GS
[0.75 0 0 0.75 0 0] CT
0 0.447 0.741 RC
2 setlinecap
10.0 ML
N
409.5 311.5 M
408.736 309.149 L
406.736 307.696 L
404.264 307.696 L
402.264 309.149 L
401.5 311.5 L
402.264 313.851 L
404.264 315.304 L
406.736 315.304 L
408.736 313.851 L
409.5 311.5 L
S
GR
GS
[0.75 0 0 0.75 0 0] CT
0 0.447 0.741 RC
2 setlinecap
10.0 ML
N
414.5 317.5 M
413.736 315.149 L
411.736 313.696 L
409.264 313.696 L
407.264 315.149 L
406.5 317.5 L
407.264 319.851 L
409.264 321.304 L
411.736 321.304 L
413.736 319.851 L
414.5 317.5 L
S
GR
GS
[0.75 0 0 0.75 0 0] CT
0 0.447 0.741 RC
2 setlinecap
10.0 ML
N
419.5 334.5 M
418.736 332.149 L
416.736 330.696 L
414.264 330.696 L
412.264 332.149 L
411.5 334.5 L
412.264 336.851 L
414.264 338.304 L
416.736 338.304 L
418.736 336.851 L
419.5 334.5 L
S
GR
GS
[0.75 0 0 0.75 0 0] CT
0 0.447 0.741 RC
2 setlinecap
10.0 ML
N
424.5 316.5 M
423.736 314.149 L
421.736 312.696 L
419.264 312.696 L
417.264 314.149 L
416.5 316.5 L
417.264 318.851 L
419.264 320.304 L
421.736 320.304 L
423.736 318.851 L
424.5 316.5 L
S
GR
GS
[0.75 0 0 0.75 0 0] CT
0 0.447 0.741 RC
2 setlinecap
10.0 ML
N
429.5 305.5 M
428.736 303.149 L
426.736 301.696 L
424.264 301.696 L
422.264 303.149 L
421.5 305.5 L
422.264 307.851 L
424.264 309.304 L
426.736 309.304 L
428.736 307.851 L
429.5 305.5 L
S
GR
GS
[0.75 0 0 0.75 0 0] CT
0 0.447 0.741 RC
2 setlinecap
10.0 ML
N
434.5 298.5 M
433.736 296.149 L
431.736 294.696 L
429.264 294.696 L
427.264 296.149 L
426.5 298.5 L
427.264 300.851 L
429.264 302.304 L
431.736 302.304 L
433.736 300.851 L
434.5 298.5 L
S
GR
GS
[0.75 0 0 0.75 0 0] CT
0 0.447 0.741 RC
2 setlinecap
10.0 ML
N
439.5 306.5 M
438.736 304.149 L
436.736 302.696 L
434.264 302.696 L
432.264 304.149 L
431.5 306.5 L
432.264 308.851 L
434.264 310.304 L
436.736 310.304 L
438.736 308.851 L
439.5 306.5 L
S
GR
GS
[0.75 0 0 0.75 0 0] CT
0 0.447 0.741 RC
2 setlinecap
10.0 ML
N
444.5 313.5 M
443.736 311.149 L
441.736 309.696 L
439.264 309.696 L
437.264 311.149 L
436.5 313.5 L
437.264 315.851 L
439.264 317.304 L
441.736 317.304 L
443.736 315.851 L
444.5 313.5 L
S
GR
GS
[0.75 0 0 0.75 0 0] CT
0 0.447 0.741 RC
2 setlinecap
10.0 ML
N
449.5 302.5 M
448.736 300.149 L
446.736 298.696 L
444.264 298.696 L
442.264 300.149 L
441.5 302.5 L
442.264 304.851 L
444.264 306.304 L
446.736 306.304 L
448.736 304.851 L
449.5 302.5 L
S
GR
GS
[0.75 0 0 0.75 0 0] CT
0 0.447 0.741 RC
2 setlinecap
10.0 ML
N
453.5 311.5 M
452.736 309.149 L
450.736 307.696 L
448.264 307.696 L
446.264 309.149 L
445.5 311.5 L
446.264 313.851 L
448.264 315.304 L
450.736 315.304 L
452.736 313.851 L
453.5 311.5 L
S
GR
GS
[0.75 0 0 0.75 0 0] CT
0 0.447 0.741 RC
2 setlinecap
10.0 ML
N
458.5 301.5 M
457.736 299.149 L
455.736 297.696 L
453.264 297.696 L
451.264 299.149 L
450.5 301.5 L
451.264 303.851 L
453.264 305.304 L
455.736 305.304 L
457.736 303.851 L
458.5 301.5 L
S
GR
GS
[0.75 0 0 0.75 0 0] CT
0 0.447 0.741 RC
2 setlinecap
10.0 ML
N
463.5 325.5 M
462.736 323.149 L
460.736 321.696 L
458.264 321.696 L
456.264 323.149 L
455.5 325.5 L
456.264 327.851 L
458.264 329.304 L
460.736 329.304 L
462.736 327.851 L
463.5 325.5 L
S
GR
GS
[0.75 0 0 0.75 0 0] CT
0 0.447 0.741 RC
2 setlinecap
10.0 ML
N
468.5 313.5 M
467.736 311.149 L
465.736 309.696 L
463.264 309.696 L
461.264 311.149 L
460.5 313.5 L
461.264 315.851 L
463.264 317.304 L
465.736 317.304 L
467.736 315.851 L
468.5 313.5 L
S
GR
GS
[0.75 0 0 0.75 0 0] CT
0 0.447 0.741 RC
2 setlinecap
10.0 ML
N
473.5 326.5 M
472.736 324.149 L
470.736 322.696 L
468.264 322.696 L
466.264 324.149 L
465.5 326.5 L
466.264 328.851 L
468.264 330.304 L
470.736 330.304 L
472.736 328.851 L
473.5 326.5 L
S
GR
GS
[0.75 0 0 0.75 0 0] CT
0 0.447 0.741 RC
2 setlinecap
10.0 ML
N
478.5 292.5 M
477.736 290.149 L
475.736 288.696 L
473.264 288.696 L
471.264 290.149 L
470.5 292.5 L
471.264 294.851 L
473.264 296.304 L
475.736 296.304 L
477.736 294.851 L
478.5 292.5 L
S
GR
GS
[0.75 0 0 0.75 0 0] CT
0 0.447 0.741 RC
2 setlinecap
10.0 ML
N
483.5 305.5 M
482.736 303.149 L
480.736 301.696 L
478.264 301.696 L
476.264 303.149 L
475.5 305.5 L
476.264 307.851 L
478.264 309.304 L
480.736 309.304 L
482.736 307.851 L
483.5 305.5 L
S
GR
GS
[0.75 0 0 0.75 0 0] CT
0 0.447 0.741 RC
2 setlinecap
10.0 ML
N
488.5 301.5 M
487.736 299.149 L
485.736 297.696 L
483.264 297.696 L
481.264 299.149 L
480.5 301.5 L
481.264 303.851 L
483.264 305.304 L
485.736 305.304 L
487.736 303.851 L
488.5 301.5 L
S
GR
GS
[0.75 0 0 0.75 0 0] CT
0 0.447 0.741 RC
2 setlinecap
10.0 ML
N
493.5 320.5 M
492.736 318.149 L
490.736 316.696 L
488.264 316.696 L
486.264 318.149 L
485.5 320.5 L
486.264 322.851 L
488.264 324.304 L
490.736 324.304 L
492.736 322.851 L
493.5 320.5 L
S
GR
GS
[0.75 0 0 0.75 0 0] CT
0 0.447 0.741 RC
2 setlinecap
10.0 ML
N
498.5 313.5 M
497.736 311.149 L
495.736 309.696 L
493.264 309.696 L
491.264 311.149 L
490.5 313.5 L
491.264 315.851 L
493.264 317.304 L
495.736 317.304 L
497.736 315.851 L
498.5 313.5 L
S
GR
GS
[0.75 0 0 0.75 0 0] CT
0 0.447 0.741 RC
2 setlinecap
10.0 ML
N
503.5 309.5 M
502.736 307.149 L
500.736 305.696 L
498.264 305.696 L
496.264 307.149 L
495.5 309.5 L
496.264 311.851 L
498.264 313.304 L
500.736 313.304 L
502.736 311.851 L
503.5 309.5 L
S
GR
GS
[0.75 0 0 0.75 0 0] CT
0 0.447 0.741 RC
2 setlinecap
10.0 ML
N
507.5 307.5 M
506.736 305.149 L
504.736 303.696 L
502.264 303.696 L
500.264 305.149 L
499.5 307.5 L
500.264 309.851 L
502.264 311.304 L
504.736 311.304 L
506.736 309.851 L
507.5 307.5 L
S
GR
GS
[0.75 0 0 0.75 0 0] CT
0 0.447 0.741 RC
2 setlinecap
10.0 ML
N
76.683 374 M
76.683 356.279 L
S
GR
GS
[0.75 0 0 0.75 0 0] CT
0 0.447 0.741 RC
2 setlinecap
10.0 ML
N
81.594 374 M
81.594 255.392 L
S
GR
GS
[0.75 0 0 0.75 0 0] CT
0 0.447 0.741 RC
2 setlinecap
10.0 ML
N
86.505 374 M
86.505 269.237 L
S
GR
GS
[0.75 0 0 0.75 0 0] CT
0 0.447 0.741 RC
2 setlinecap
10.0 ML
N
91.416 374 M
91.416 303.231 L
S
GR
GS
[0.75 0 0 0.75 0 0] CT
0 0.447 0.741 RC
2 setlinecap
10.0 ML
N
96.327 374 M
96.327 311.408 L
S
GR
GS
[0.75 0 0 0.75 0 0] CT
0 0.447 0.741 RC
2 setlinecap
10.0 ML
N
101.238 374 M
101.238 275.35 L
S
GR
GS
[0.75 0 0 0.75 0 0] CT
0 0.447 0.741 RC
2 setlinecap
10.0 ML
N
106.149 374 M
106.149 305.037 L
S
GR
GS
[0.75 0 0 0.75 0 0] CT
0 0.447 0.741 RC
2 setlinecap
10.0 ML
N
111.059 374 M
111.059 327.138 L
S
GR
GS
[0.75 0 0 0.75 0 0] CT
0 0.447 0.741 RC
2 setlinecap
10.0 ML
N
115.97 374 M
115.97 353.279 L
S
GR
GS
[0.75 0 0 0.75 0 0] CT
0 0.447 0.741 RC
2 setlinecap
10.0 ML
N
120.881 374 M
120.881 349.467 L
S
GR
GS
[0.75 0 0 0.75 0 0] CT
0 0.447 0.741 RC
2 setlinecap
10.0 ML
N
125.792 374 M
125.792 299.513 L
S
GR
GS
[0.75 0 0 0.75 0 0] CT
0 0.447 0.741 RC
2 setlinecap
10.0 ML
N
130.703 374 M
130.703 294.063 L
S
GR
GS
[0.75 0 0 0.75 0 0] CT
0 0.447 0.741 RC
2 setlinecap
10.0 ML
N
135.614 374 M
135.614 286.612 L
S
GR
GS
[0.75 0 0 0.75 0 0] CT
0 0.447 0.741 RC
2 setlinecap
10.0 ML
N
140.525 374 M
140.525 313.647 L
S
GR
GS
[0.75 0 0 0.75 0 0] CT
0 0.447 0.741 RC
2 setlinecap
10.0 ML
N
145.436 374 M
145.436 268.173 L
S
GR
GS
[0.75 0 0 0.75 0 0] CT
0 0.447 0.741 RC
2 setlinecap
10.0 ML
N
150.347 374 M
150.347 315.682 L
S
GR
GS
[0.75 0 0 0.75 0 0] CT
0 0.447 0.741 RC
2 setlinecap
10.0 ML
N
155.257 374 M
155.257 301.587 L
S
GR
GS
[0.75 0 0 0.75 0 0] CT
0 0.447 0.741 RC
2 setlinecap
10.0 ML
N
160.168 374 M
160.168 334.721 L
S
GR
GS
[0.75 0 0 0.75 0 0] CT
0 0.447 0.741 RC
2 setlinecap
10.0 ML
N
165.079 374 M
165.079 296.179 L
S
GR
GS
[0.75 0 0 0.75 0 0] CT
0 0.447 0.741 RC
2 setlinecap
10.0 ML
N
169.99 374 M
169.99 289.564 L
S
GR
GS
[0.75 0 0 0.75 0 0] CT
0 0.447 0.741 RC
2 setlinecap
10.0 ML
N
174.901 374 M
174.901 313.367 L
S
GR
GS
[0.75 0 0 0.75 0 0] CT
0 0.447 0.741 RC
2 setlinecap
10.0 ML
N
179.812 374 M
179.812 280.031 L
S
GR
GS
[0.75 0 0 0.75 0 0] CT
0 0.447 0.741 RC
2 setlinecap
10.0 ML
N
184.723 374 M
184.723 315.43 L
S
GR
GS
[0.75 0 0 0.75 0 0] CT
0 0.447 0.741 RC
2 setlinecap
10.0 ML
N
189.634 374 M
189.634 282.4 L
S
GR
GS
[0.75 0 0 0.75 0 0] CT
0 0.447 0.741 RC
2 setlinecap
10.0 ML
N
194.545 374 M
194.545 300.742 L
S
GR
GS
[0.75 0 0 0.75 0 0] CT
0 0.447 0.741 RC
2 setlinecap
10.0 ML
N
199.455 374 M
199.455 295.915 L
S
GR
GS
[0.75 0 0 0.75 0 0] CT
0 0.447 0.741 RC
2 setlinecap
10.0 ML
N
204.366 374 M
204.366 323.754 L
S
GR
GS
[0.75 0 0 0.75 0 0] CT
0 0.447 0.741 RC
2 setlinecap
10.0 ML
N
209.277 374 M
209.277 324.882 L
S
GR
GS
[0.75 0 0 0.75 0 0] CT
0 0.447 0.741 RC
2 setlinecap
10.0 ML
N
214.188 374 M
214.188 309.152 L
S
GR
GS
[0.75 0 0 0.75 0 0] CT
0 0.447 0.741 RC
2 setlinecap
10.0 ML
N
219.099 374 M
219.099 296.09 L
S
GR
GS
[0.75 0 0 0.75 0 0] CT
0 0.447 0.741 RC
2 setlinecap
10.0 ML
N
224.01 374 M
224.01 282.637 L
S
GR
GS
[0.75 0 0 0.75 0 0] CT
0 0.447 0.741 RC
2 setlinecap
10.0 ML
N
228.921 374 M
228.921 298.071 L
S
GR
GS
[0.75 0 0 0.75 0 0] CT
0 0.447 0.741 RC
2 setlinecap
10.0 ML
N
233.832 374 M
233.832 296.096 L
S
GR
GS
[0.75 0 0 0.75 0 0] CT
0 0.447 0.741 RC
2 setlinecap
10.0 ML
N
238.743 374 M
238.743 304.625 L
S
GR
GS
[0.75 0 0 0.75 0 0] CT
0 0.447 0.741 RC
2 setlinecap
10.0 ML
N
243.653 374 M
243.653 297.532 L
S
GR
GS
[0.75 0 0 0.75 0 0] CT
0 0.447 0.741 RC
2 setlinecap
10.0 ML
N
248.564 374 M
248.564 311.067 L
S
GR
GS
[0.75 0 0 0.75 0 0] CT
0 0.447 0.741 RC
2 setlinecap
10.0 ML
N
253.475 374 M
253.475 321.563 L
S
GR
GS
[0.75 0 0 0.75 0 0] CT
0 0.447 0.741 RC
2 setlinecap
10.0 ML
N
258.386 374 M
258.386 340.053 L
S
GR
GS
[0.75 0 0 0.75 0 0] CT
0 0.447 0.741 RC
2 setlinecap
10.0 ML
N
263.297 374 M
263.297 305.926 L
S
GR
GS
[0.75 0 0 0.75 0 0] CT
0 0.447 0.741 RC
2 setlinecap
10.0 ML
N
268.208 374 M
268.208 292.363 L
S
GR
GS
[0.75 0 0 0.75 0 0] CT
0 0.447 0.741 RC
2 setlinecap
10.0 ML
N
273.119 374 M
273.119 269.325 L
S
GR
GS
[0.75 0 0 0.75 0 0] CT
0 0.447 0.741 RC
2 setlinecap
10.0 ML
N
278.03 374 M
278.03 288.845 L
S
GR
GS
[0.75 0 0 0.75 0 0] CT
0 0.447 0.741 RC
2 setlinecap
10.0 ML
N
282.941 374 M
282.941 280.753 L
S
GR
GS
[0.75 0 0 0.75 0 0] CT
0 0.447 0.741 RC
2 setlinecap
10.0 ML
N
287.852 374 M
287.852 322.492 L
S
GR
GS
[0.75 0 0 0.75 0 0] CT
0 0.447 0.741 RC
2 setlinecap
10.0 ML
N
292.762 374 M
292.762 316.993 L
S
GR
GS
[0.75 0 0 0.75 0 0] CT
0 0.447 0.741 RC
2 setlinecap
10.0 ML
N
297.673 374 M
297.673 338.623 L
S
GR
GS
[0.75 0 0 0.75 0 0] CT
0 0.447 0.741 RC
2 setlinecap
10.0 ML
N
302.584 374 M
302.584 341.689 L
S
GR
GS
[0.75 0 0 0.75 0 0] CT
0 0.447 0.741 RC
2 setlinecap
10.0 ML
N
307.495 374 M
307.495 312.86 L
S
GR
GS
[0.75 0 0 0.75 0 0] CT
0 0.447 0.741 RC
2 setlinecap
10.0 ML
N
312.406 374 M
312.406 296.787 L
S
GR
GS
[0.75 0 0 0.75 0 0] CT
0 0.447 0.741 RC
2 setlinecap
10.0 ML
N
317.317 374 M
317.317 230.263 L
S
GR
GS
[0.75 0 0 0.75 0 0] CT
0 0.447 0.741 RC
2 setlinecap
10.0 ML
N
322.228 374 M
322.228 217.241 L
S
GR
GS
[0.75 0 0 0.75 0 0] CT
0 0.447 0.741 RC
2 setlinecap
10.0 ML
N
327.139 374 M
327.139 147.137 L
S
GR
GS
[0.75 0 0 0.75 0 0] CT
0 0.447 0.741 RC
2 setlinecap
10.0 ML
N
332.049 374 M
332.049 72.204 L
S
GR
GS
[0.75 0 0 0.75 0 0] CT
0 0.447 0.741 RC
2 setlinecap
10.0 ML
N
336.96 374 M
336.96 135.575 L
S
GR
GS
[0.75 0 0 0.75 0 0] CT
0 0.447 0.741 RC
2 setlinecap
10.0 ML
N
341.871 374 M
341.871 205.249 L
S
GR
GS
[0.75 0 0 0.75 0 0] CT
0 0.447 0.741 RC
2 setlinecap
10.0 ML
N
346.782 374 M
346.782 218.965 L
S
GR
GS
[0.75 0 0 0.75 0 0] CT
0 0.447 0.741 RC
2 setlinecap
10.0 ML
N
351.693 374 M
351.693 262.27 L
S
GR
GS
[0.75 0 0 0.75 0 0] CT
0 0.447 0.741 RC
2 setlinecap
10.0 ML
N
356.604 374 M
356.604 280.164 L
S
GR
GS
[0.75 0 0 0.75 0 0] CT
0 0.447 0.741 RC
2 setlinecap
10.0 ML
N
361.515 374 M
361.515 328.216 L
S
GR
GS
[0.75 0 0 0.75 0 0] CT
0 0.447 0.741 RC
2 setlinecap
10.0 ML
N
366.426 374 M
366.426 347.775 L
S
GR
GS
[0.75 0 0 0.75 0 0] CT
0 0.447 0.741 RC
2 setlinecap
10.0 ML
N
371.337 374 M
371.337 321.586 L
S
GR
GS
[0.75 0 0 0.75 0 0] CT
0 0.447 0.741 RC
2 setlinecap
10.0 ML
N
376.248 374 M
376.248 316.631 L
S
GR
GS
[0.75 0 0 0.75 0 0] CT
0 0.447 0.741 RC
2 setlinecap
10.0 ML
N
381.158 374 M
381.158 297.859 L
S
GR
GS
[0.75 0 0 0.75 0 0] CT
0 0.447 0.741 RC
2 setlinecap
10.0 ML
N
386.069 374 M
386.069 312.383 L
S
GR
GS
[0.75 0 0 0.75 0 0] CT
0 0.447 0.741 RC
2 setlinecap
10.0 ML
N
390.98 374 M
390.98 292.451 L
S
GR
GS
[0.75 0 0 0.75 0 0] CT
0 0.447 0.741 RC
2 setlinecap
10.0 ML
N
395.891 374 M
395.891 301.365 L
S
GR
GS
[0.75 0 0 0.75 0 0] CT
0 0.447 0.741 RC
2 setlinecap
10.0 ML
N
400.802 374 M
400.802 292.466 L
S
GR
GS
[0.75 0 0 0.75 0 0] CT
0 0.447 0.741 RC
2 setlinecap
10.0 ML
N
405.713 374 M
405.713 311.379 L
S
GR
GS
[0.75 0 0 0.75 0 0] CT
0 0.447 0.741 RC
2 setlinecap
10.0 ML
N
410.624 374 M
410.624 317.031 L
S
GR
GS
[0.75 0 0 0.75 0 0] CT
0 0.447 0.741 RC
2 setlinecap
10.0 ML
N
415.535 374 M
415.535 334.783 L
S
GR
GS
[0.75 0 0 0.75 0 0] CT
0 0.447 0.741 RC
2 setlinecap
10.0 ML
N
420.446 374 M
420.446 316.491 L
S
GR
GS
[0.75 0 0 0.75 0 0] CT
0 0.447 0.741 RC
2 setlinecap
10.0 ML
N
425.356 374 M
425.356 305.06 L
S
GR
GS
[0.75 0 0 0.75 0 0] CT
0 0.447 0.741 RC
2 setlinecap
10.0 ML
N
430.267 374 M
430.267 298.519 L
S
GR
GS
[0.75 0 0 0.75 0 0] CT
0 0.447 0.741 RC
2 setlinecap
10.0 ML
N
435.178 374 M
435.178 306.911 L
S
GR
GS
[0.75 0 0 0.75 0 0] CT
0 0.447 0.741 RC
2 setlinecap
10.0 ML
N
440.089 374 M
440.089 313.072 L
S
GR
GS
[0.75 0 0 0.75 0 0] CT
0 0.447 0.741 RC
2 setlinecap
10.0 ML
N
445 374 M
445 302.801 L
S
GR
GS
[0.75 0 0 0.75 0 0] CT
0 0.447 0.741 RC
2 setlinecap
10.0 ML
N
449.911 374 M
449.911 311.81 L
S
GR
GS
[0.75 0 0 0.75 0 0] CT
0 0.447 0.741 RC
2 setlinecap
10.0 ML
N
454.822 374 M
454.822 301.259 L
S
GR
GS
[0.75 0 0 0.75 0 0] CT
0 0.447 0.741 RC
2 setlinecap
10.0 ML
N
459.733 374 M
459.733 325.151 L
S
GR
GS
[0.75 0 0 0.75 0 0] CT
0 0.447 0.741 RC
2 setlinecap
10.0 ML
N
464.644 374 M
464.644 313.157 L
S
GR
GS
[0.75 0 0 0.75 0 0] CT
0 0.447 0.741 RC
2 setlinecap
10.0 ML
N
469.554 374 M
469.554 326.41 L
S
GR
GS
[0.75 0 0 0.75 0 0] CT
0 0.447 0.741 RC
2 setlinecap
10.0 ML
N
474.465 374 M
474.465 292.106 L
S
GR
GS
[0.75 0 0 0.75 0 0] CT
0 0.447 0.741 RC
2 setlinecap
10.0 ML
N
479.376 374 M
479.376 305.635 L
S
GR
GS
[0.75 0 0 0.75 0 0] CT
0 0.447 0.741 RC
2 setlinecap
10.0 ML
N
484.287 374 M
484.287 301.834 L
S
GR
GS
[0.75 0 0 0.75 0 0] CT
0 0.447 0.741 RC
2 setlinecap
10.0 ML
N
489.198 374 M
489.198 320.804 L
S
GR
GS
[0.75 0 0 0.75 0 0] CT
0 0.447 0.741 RC
2 setlinecap
10.0 ML
N
494.109 374 M
494.109 313.392 L
S
GR
GS
[0.75 0 0 0.75 0 0] CT
0 0.447 0.741 RC
2 setlinecap
10.0 ML
N
499.02 374 M
499.02 309.291 L
S
GR
GS
[0.75 0 0 0.75 0 0] CT
0 0.447 0.741 RC
2 setlinecap
10.0 ML
N
503.931 374 M
503.931 307.016 L
S
GR
GS
[0.75 0 0 0.75 217.50021 21.18748] CT
/Helvetica-Bold 15 F
GS
[1 0 0 1 0 0] CT
-144 -4 moveto 
1 -1 scale
(Single-Sided Amplitude Spectrum of y\(t\)) t 
GR
GR
GS
[0.75 0 0 0.75 0 0] CT
0.149 GC
2 setlinecap
10.0 ML
N
73 374 M
507 374 L
S
GR
%%Trailer
%%Pages: 1
%%EOF
