%!PS-Adobe-3.0 EPSF-3.0
%%Creator: (MATLAB, The Mathworks, Inc. Version 8.5.0.197613 \(R2015a\). Operating System: Windows 8)
%%Title: C:/Users/aleja/Desktop/TFG/Documentacion/Memoria_V2/matlab_plot/plots/alvaro12-10.eps
%%CreationDate: 2019-06-16T13:20:29
%%Pages: (atend)
%%BoundingBox: 0 0 420 315
%%LanguageLevel: 2
%%EndComments
%%BeginProlog
%%BeginResource: procset (Apache XML Graphics Std ProcSet) 1.2 0
%%Version: 1.2 0
%%Copyright: (Copyright 2001-2003,2010 The Apache Software Foundation. License terms: http://www.apache.org/licenses/LICENSE-2.0)
/bd{bind def}bind def
/ld{load def}bd
/GR/grestore ld
/M/moveto ld
/LJ/setlinejoin ld
/C/curveto ld
/f/fill ld
/LW/setlinewidth ld
/GC/setgray ld
/t/show ld
/N/newpath ld
/CT/concat ld
/cp/closepath ld
/S/stroke ld
/L/lineto ld
/CC/setcmykcolor ld
/A/ashow ld
/GS/gsave ld
/RC/setrgbcolor ld
/RM/rmoveto ld
/ML/setmiterlimit ld
/re {4 2 roll M
1 index 0 rlineto
0 exch rlineto
neg 0 rlineto
cp } bd
/_ctm matrix def
/_tm matrix def
/BT { _ctm currentmatrix pop matrix _tm copy pop 0 0 moveto } bd
/ET { _ctm setmatrix } bd
/iTm { _ctm setmatrix _tm concat } bd
/Tm { _tm astore pop iTm 0 0 moveto } bd
/ux 0.0 def
/uy 0.0 def
/F {
  /Tp exch def
  /Tf exch def
  Tf findfont Tp scalefont setfont
  /cf Tf def  /cs Tp def
} bd
/ULS {currentpoint /uy exch def /ux exch def} bd
/ULE {
  /Tcx currentpoint pop def
  gsave
  newpath
  cf findfont cs scalefont dup
  /FontMatrix get 0 get /Ts exch def /FontInfo get dup
  /UnderlinePosition get Ts mul /To exch def
  /UnderlineThickness get Ts mul /Tt exch def
  ux uy To add moveto  Tcx uy To add lineto
  Tt setlinewidth stroke
  grestore
} bd
/OLE {
  /Tcx currentpoint pop def
  gsave
  newpath
  cf findfont cs scalefont dup
  /FontMatrix get 0 get /Ts exch def /FontInfo get dup
  /UnderlinePosition get Ts mul /To exch def
  /UnderlineThickness get Ts mul /Tt exch def
  ux uy To add cs add moveto Tcx uy To add cs add lineto
  Tt setlinewidth stroke
  grestore
} bd
/SOE {
  /Tcx currentpoint pop def
  gsave
  newpath
  cf findfont cs scalefont dup
  /FontMatrix get 0 get /Ts exch def /FontInfo get dup
  /UnderlinePosition get Ts mul /To exch def
  /UnderlineThickness get Ts mul /Tt exch def
  ux uy To add cs 10 mul 26 idiv add moveto Tcx uy To add cs 10 mul 26 idiv add lineto
  Tt setlinewidth stroke
  grestore
} bd
/QT {
/Y22 exch store
/X22 exch store
/Y21 exch store
/X21 exch store
currentpoint
/Y21 load 2 mul add 3 div exch
/X21 load 2 mul add 3 div exch
/X21 load 2 mul /X22 load add 3 div
/Y21 load 2 mul /Y22 load add 3 div
/X22 load /Y22 load curveto
} bd
/SSPD {
dup length /d exch dict def
{
/v exch def
/k exch def
currentpagedevice k known {
/cpdv currentpagedevice k get def
v cpdv ne {
/upd false def
/nullv v type /nulltype eq def
/nullcpdv cpdv type /nulltype eq def
nullv nullcpdv or
{
/upd true def
} {
/sametype v type cpdv type eq def
sametype {
v type /arraytype eq {
/vlen v length def
/cpdvlen cpdv length def
vlen cpdvlen eq {
0 1 vlen 1 sub {
/i exch def
/obj v i get def
/cpdobj cpdv i get def
obj cpdobj ne {
/upd true def
exit
} if
} for
} {
/upd true def
} ifelse
} {
v type /dicttype eq {
v {
/dv exch def
/dk exch def
/cpddv cpdv dk get def
dv cpddv ne {
/upd true def
exit
} if
} forall
} {
/upd true def
} ifelse
} ifelse
} if
} ifelse
upd true eq {
d k v put
} if
} if
} if
} forall
d length 0 gt {
d setpagedevice
} if
} bd
%%EndResource
%%BeginResource: procset (Apache XML Graphics EPS ProcSet) 1.0 0
%%Version: 1.0 0
%%Copyright: (Copyright 2002-2003 The Apache Software Foundation. License terms: http://www.apache.org/licenses/LICENSE-2.0)
/BeginEPSF { %def
/b4_Inc_state save def         % Save state for cleanup
/dict_count countdictstack def % Count objects on dict stack
/op_count count 1 sub def      % Count objects on operand stack
userdict begin                 % Push userdict on dict stack
/showpage { } def              % Redefine showpage, { } = null proc
0 setgray 0 setlinecap         % Prepare graphics state
1 setlinewidth 0 setlinejoin
10 setmiterlimit [ ] 0 setdash newpath
/languagelevel where           % If level not equal to 1 then
{pop languagelevel             % set strokeadjust and
1 ne                           % overprint to their defaults.
{false setstrokeadjust false setoverprint
} if
} if
} bd
/EndEPSF { %def
count op_count sub {pop} repeat            % Clean up stacks
countdictstack dict_count sub {end} repeat
b4_Inc_state restore
} bd
%%EndResource
%FOPBeginFontDict
%%IncludeResource: font Courier-Bold
%%IncludeResource: font Helvetica
%%IncludeResource: font Courier-BoldOblique
%%IncludeResource: font Courier-Oblique
%%IncludeResource: font Times-Roman
%%IncludeResource: font Helvetica-BoldOblique
%%IncludeResource: font Helvetica-Bold
%%IncludeResource: font Helvetica-Oblique
%%IncludeResource: font Times-BoldItalic
%%IncludeResource: font Courier
%%IncludeResource: font Times-Italic
%%IncludeResource: font Times-Bold
%%IncludeResource: font Symbol
%%IncludeResource: font ZapfDingbats
%FOPEndFontDict
%%BeginResource: encoding WinAnsiEncoding
/WinAnsiEncoding [
/.notdef /.notdef /.notdef /.notdef /.notdef
/.notdef /.notdef /.notdef /.notdef /.notdef
/.notdef /.notdef /.notdef /.notdef /.notdef
/.notdef /.notdef /.notdef /.notdef /.notdef
/.notdef /.notdef /.notdef /.notdef /.notdef
/.notdef /.notdef /.notdef /.notdef /.notdef
/.notdef /.notdef /space /exclam /quotedbl
/numbersign /dollar /percent /ampersand /quotesingle
/parenleft /parenright /asterisk /plus /comma
/hyphen /period /slash /zero /one
/two /three /four /five /six
/seven /eight /nine /colon /semicolon
/less /equal /greater /question /at
/A /B /C /D /E
/F /G /H /I /J
/K /L /M /N /O
/P /Q /R /S /T
/U /V /W /X /Y
/Z /bracketleft /backslash /bracketright /asciicircum
/underscore /quoteleft /a /b /c
/d /e /f /g /h
/i /j /k /l /m
/n /o /p /q /r
/s /t /u /v /w
/x /y /z /braceleft /bar
/braceright /asciitilde /bullet /Euro /bullet
/quotesinglbase /florin /quotedblbase /ellipsis /dagger
/daggerdbl /circumflex /perthousand /Scaron /guilsinglleft
/OE /bullet /Zcaron /bullet /bullet
/quoteleft /quoteright /quotedblleft /quotedblright /bullet
/endash /emdash /asciitilde /trademark /scaron
/guilsinglright /oe /bullet /zcaron /Ydieresis
/space /exclamdown /cent /sterling /currency
/yen /brokenbar /section /dieresis /copyright
/ordfeminine /guillemotleft /logicalnot /sfthyphen /registered
/macron /degree /plusminus /twosuperior /threesuperior
/acute /mu /paragraph /middot /cedilla
/onesuperior /ordmasculine /guillemotright /onequarter /onehalf
/threequarters /questiondown /Agrave /Aacute /Acircumflex
/Atilde /Adieresis /Aring /AE /Ccedilla
/Egrave /Eacute /Ecircumflex /Edieresis /Igrave
/Iacute /Icircumflex /Idieresis /Eth /Ntilde
/Ograve /Oacute /Ocircumflex /Otilde /Odieresis
/multiply /Oslash /Ugrave /Uacute /Ucircumflex
/Udieresis /Yacute /Thorn /germandbls /agrave
/aacute /acircumflex /atilde /adieresis /aring
/ae /ccedilla /egrave /eacute /ecircumflex
/edieresis /igrave /iacute /icircumflex /idieresis
/eth /ntilde /ograve /oacute /ocircumflex
/otilde /odieresis /divide /oslash /ugrave
/uacute /ucircumflex /udieresis /yacute /thorn
/ydieresis
] def
%%EndResource
%FOPBeginFontReencode
/Courier-Bold findfont
dup length dict begin
  {1 index /FID ne {def} {pop pop} ifelse} forall
  /Encoding WinAnsiEncoding def
  currentdict
end
/Courier-Bold exch definefont pop
/Helvetica findfont
dup length dict begin
  {1 index /FID ne {def} {pop pop} ifelse} forall
  /Encoding WinAnsiEncoding def
  currentdict
end
/Helvetica exch definefont pop
/Courier-BoldOblique findfont
dup length dict begin
  {1 index /FID ne {def} {pop pop} ifelse} forall
  /Encoding WinAnsiEncoding def
  currentdict
end
/Courier-BoldOblique exch definefont pop
/Courier-Oblique findfont
dup length dict begin
  {1 index /FID ne {def} {pop pop} ifelse} forall
  /Encoding WinAnsiEncoding def
  currentdict
end
/Courier-Oblique exch definefont pop
/Times-Roman findfont
dup length dict begin
  {1 index /FID ne {def} {pop pop} ifelse} forall
  /Encoding WinAnsiEncoding def
  currentdict
end
/Times-Roman exch definefont pop
/Helvetica-BoldOblique findfont
dup length dict begin
  {1 index /FID ne {def} {pop pop} ifelse} forall
  /Encoding WinAnsiEncoding def
  currentdict
end
/Helvetica-BoldOblique exch definefont pop
/Helvetica-Bold findfont
dup length dict begin
  {1 index /FID ne {def} {pop pop} ifelse} forall
  /Encoding WinAnsiEncoding def
  currentdict
end
/Helvetica-Bold exch definefont pop
/Helvetica-Oblique findfont
dup length dict begin
  {1 index /FID ne {def} {pop pop} ifelse} forall
  /Encoding WinAnsiEncoding def
  currentdict
end
/Helvetica-Oblique exch definefont pop
/Times-BoldItalic findfont
dup length dict begin
  {1 index /FID ne {def} {pop pop} ifelse} forall
  /Encoding WinAnsiEncoding def
  currentdict
end
/Times-BoldItalic exch definefont pop
/Courier findfont
dup length dict begin
  {1 index /FID ne {def} {pop pop} ifelse} forall
  /Encoding WinAnsiEncoding def
  currentdict
end
/Courier exch definefont pop
/Times-Italic findfont
dup length dict begin
  {1 index /FID ne {def} {pop pop} ifelse} forall
  /Encoding WinAnsiEncoding def
  currentdict
end
/Times-Italic exch definefont pop
/Times-Bold findfont
dup length dict begin
  {1 index /FID ne {def} {pop pop} ifelse} forall
  /Encoding WinAnsiEncoding def
  currentdict
end
/Times-Bold exch definefont pop
%FOPEndFontReencode
%%EndProlog
%%Page: 1 1
%%PageBoundingBox: 0 0 420 315
%%BeginPageSetup
[1 0 0 -1 0 315] CT
%%EndPageSetup
GS
[0.75 0 0 0.75 0 0] CT
1 GC
N
0 0 560 420 re
f
GR
GS
[0.75 0 0 0.75 0 0] CT
1 GC
N
0 0 560 420 re
f
GR
GS
[0.75 0 0 0.75 0 0] CT
1 GC
N
73 374 M
507 374 L
507 31 L
73 31 L
cp
f
GR
GS
[0.75 0 0 0.75 217.50016 298.25002] CT
0.149 GC
/Helvetica 15 F
GS
[1 0 0 1 0 0] CT
-67 16 moveto 
1 -1 scale
(N\272 Datas recolected) t 
GR
GR
GS
[0.75 0 0 0.75 0 0] CT
0.149 GC
2 setlinecap
10.0 ML
N
73 374 M
507 374 L
S
GR
GS
[0.75 0 0 0.75 0 0] CT
0.149 GC
2 setlinecap
10.0 ML
N
73 31 M
507 31 L
S
GR
GS
[0.75 0 0 0.75 0 0] CT
0.149 GC
2 setlinecap
10.0 ML
N
73 374 M
73 369.66 L
S
GR
GS
[0.75 0 0 0.75 0 0] CT
0.149 GC
2 setlinecap
10.0 ML
N
145.333 374 M
145.333 369.66 L
S
GR
GS
[0.75 0 0 0.75 0 0] CT
0.149 GC
2 setlinecap
10.0 ML
N
217.667 374 M
217.667 369.66 L
S
GR
GS
[0.75 0 0 0.75 0 0] CT
0.149 GC
2 setlinecap
10.0 ML
N
290 374 M
290 369.66 L
S
GR
GS
[0.75 0 0 0.75 0 0] CT
0.149 GC
2 setlinecap
10.0 ML
N
362.333 374 M
362.333 369.66 L
S
GR
GS
[0.75 0 0 0.75 0 0] CT
0.149 GC
2 setlinecap
10.0 ML
N
434.667 374 M
434.667 369.66 L
S
GR
GS
[0.75 0 0 0.75 0 0] CT
0.149 GC
2 setlinecap
10.0 ML
N
507 374 M
507 369.66 L
S
GR
GS
[0.75 0 0 0.75 0 0] CT
0.149 GC
2 setlinecap
10.0 ML
N
73 31 M
73 35.34 L
S
GR
GS
[0.75 0 0 0.75 0 0] CT
0.149 GC
2 setlinecap
10.0 ML
N
145.333 31 M
145.333 35.34 L
S
GR
GS
[0.75 0 0 0.75 0 0] CT
0.149 GC
2 setlinecap
10.0 ML
N
217.667 31 M
217.667 35.34 L
S
GR
GS
[0.75 0 0 0.75 0 0] CT
0.149 GC
2 setlinecap
10.0 ML
N
290 31 M
290 35.34 L
S
GR
GS
[0.75 0 0 0.75 0 0] CT
0.149 GC
2 setlinecap
10.0 ML
N
362.333 31 M
362.333 35.34 L
S
GR
GS
[0.75 0 0 0.75 0 0] CT
0.149 GC
2 setlinecap
10.0 ML
N
434.667 31 M
434.667 35.34 L
S
GR
GS
[0.75 0 0 0.75 0 0] CT
0.149 GC
2 setlinecap
10.0 ML
N
507 31 M
507 35.34 L
S
GR
GS
[0.75 0 0 0.75 54.75 284.49998] CT
0.149 GC
/Helvetica 13 F
GS
[1 0 0 1 0 0] CT
-4 14 moveto 
1 -1 scale
(0) t 
GR
GR
GS
[0.75 0 0 0.75 109 284.49998] CT
0.149 GC
/Helvetica 13 F
GS
[1 0 0 1 0 0] CT
-11 14 moveto 
1 -1 scale
(200) t 
GR
GR
GS
[0.75 0 0 0.75 163.25 284.49998] CT
0.149 GC
/Helvetica 13 F
GS
[1 0 0 1 0 0] CT
-11 14 moveto 
1 -1 scale
(400) t 
GR
GR
GS
[0.75 0 0 0.75 217.5 284.49998] CT
0.149 GC
/Helvetica 13 F
GS
[1 0 0 1 0 0] CT
-11 14 moveto 
1 -1 scale
(600) t 
GR
GR
GS
[0.75 0 0 0.75 271.75001 284.49998] CT
0.149 GC
/Helvetica 13 F
GS
[1 0 0 1 0 0] CT
-11 14 moveto 
1 -1 scale
(800) t 
GR
GR
GS
[0.75 0 0 0.75 325.99999 284.49998] CT
0.149 GC
/Helvetica 13 F
GS
[1 0 0 1 0 0] CT
-14.5 14 moveto 
1 -1 scale
(1000) t 
GR
GR
GS
[0.75 0 0 0.75 380.25 284.49998] CT
0.149 GC
/Helvetica 13 F
GS
[1 0 0 1 0 0] CT
-14.5 14 moveto 
1 -1 scale
(1200) t 
GR
GR
GS
[0 -0.75 0.75 0 31.25 151.87491] CT
0.149 GC
/Helvetica 15 F
GS
[1 0 0 1 0 0] CT
-79 -4 moveto 
1 -1 scale
(Signal potency \(13-bits\)) t 
GR
GR
GS
[0.75 0 0 0.75 0 0] CT
0.149 GC
2 setlinecap
10.0 ML
N
73 374 M
73 31 L
S
GR
GS
[0.75 0 0 0.75 0 0] CT
0.149 GC
2 setlinecap
10.0 ML
N
507 374 M
507 31 L
S
GR
GS
[0.75 0 0 0.75 0 0] CT
0.149 GC
2 setlinecap
10.0 ML
N
73 374 M
77.34 374 L
S
GR
GS
[0.75 0 0 0.75 0 0] CT
0.149 GC
2 setlinecap
10.0 ML
N
73 335.889 M
77.34 335.889 L
S
GR
GS
[0.75 0 0 0.75 0 0] CT
0.149 GC
2 setlinecap
10.0 ML
N
73 297.778 M
77.34 297.778 L
S
GR
GS
[0.75 0 0 0.75 0 0] CT
0.149 GC
2 setlinecap
10.0 ML
N
73 259.667 M
77.34 259.667 L
S
GR
GS
[0.75 0 0 0.75 0 0] CT
0.149 GC
2 setlinecap
10.0 ML
N
73 221.556 M
77.34 221.556 L
S
GR
GS
[0.75 0 0 0.75 0 0] CT
0.149 GC
2 setlinecap
10.0 ML
N
73 183.444 M
77.34 183.444 L
S
GR
GS
[0.75 0 0 0.75 0 0] CT
0.149 GC
2 setlinecap
10.0 ML
N
73 145.333 M
77.34 145.333 L
S
GR
GS
[0.75 0 0 0.75 0 0] CT
0.149 GC
2 setlinecap
10.0 ML
N
73 107.222 M
77.34 107.222 L
S
GR
GS
[0.75 0 0 0.75 0 0] CT
0.149 GC
2 setlinecap
10.0 ML
N
73 69.111 M
77.34 69.111 L
S
GR
GS
[0.75 0 0 0.75 0 0] CT
0.149 GC
2 setlinecap
10.0 ML
N
73 31 M
77.34 31 L
S
GR
GS
[0.75 0 0 0.75 0 0] CT
0.149 GC
2 setlinecap
10.0 ML
N
507 374 M
502.66 374 L
S
GR
GS
[0.75 0 0 0.75 0 0] CT
0.149 GC
2 setlinecap
10.0 ML
N
507 335.889 M
502.66 335.889 L
S
GR
GS
[0.75 0 0 0.75 0 0] CT
0.149 GC
2 setlinecap
10.0 ML
N
507 297.778 M
502.66 297.778 L
S
GR
GS
[0.75 0 0 0.75 0 0] CT
0.149 GC
2 setlinecap
10.0 ML
N
507 259.667 M
502.66 259.667 L
S
GR
GS
[0.75 0 0 0.75 0 0] CT
0.149 GC
2 setlinecap
10.0 ML
N
507 221.556 M
502.66 221.556 L
S
GR
GS
[0.75 0 0 0.75 0 0] CT
0.149 GC
2 setlinecap
10.0 ML
N
507 183.444 M
502.66 183.444 L
S
GR
GS
[0.75 0 0 0.75 0 0] CT
0.149 GC
2 setlinecap
10.0 ML
N
507 145.333 M
502.66 145.333 L
S
GR
GS
[0.75 0 0 0.75 0 0] CT
0.149 GC
2 setlinecap
10.0 ML
N
507 107.222 M
502.66 107.222 L
S
GR
GS
[0.75 0 0 0.75 0 0] CT
0.149 GC
2 setlinecap
10.0 ML
N
507 69.111 M
502.66 69.111 L
S
GR
GS
[0.75 0 0 0.75 0 0] CT
0.149 GC
2 setlinecap
10.0 ML
N
507 31 M
502.66 31 L
S
GR
GS
[0.75 0 0 0.75 50.75 280.5] CT
0.149 GC
/Helvetica 13 F
GS
[1 0 0 1 0 0] CT
-22 5.5 moveto 
1 -1 scale
(460) t 
GR
GR
GS
[0.75 0 0 0.75 50.75 251.91666] CT
0.149 GC
/Helvetica 13 F
GS
[1 0 0 1 0 0] CT
-22 5.5 moveto 
1 -1 scale
(480) t 
GR
GR
GS
[0.75 0 0 0.75 50.75 223.33333] CT
0.149 GC
/Helvetica 13 F
GS
[1 0 0 1 0 0] CT
-22 5.5 moveto 
1 -1 scale
(500) t 
GR
GR
GS
[0.75 0 0 0.75 50.75 194.74999] CT
0.149 GC
/Helvetica 13 F
GS
[1 0 0 1 0 0] CT
-22 5.5 moveto 
1 -1 scale
(520) t 
GR
GR
GS
[0.75 0 0 0.75 50.75 166.16667] CT
0.149 GC
/Helvetica 13 F
GS
[1 0 0 1 0 0] CT
-22 5.5 moveto 
1 -1 scale
(540) t 
GR
GR
GS
[0.75 0 0 0.75 50.75 137.58333] CT
0.149 GC
/Helvetica 13 F
GS
[1 0 0 1 0 0] CT
-22 5.5 moveto 
1 -1 scale
(560) t 
GR
GR
GS
[0.75 0 0 0.75 50.75 109] CT
0.149 GC
/Helvetica 13 F
GS
[1 0 0 1 0 0] CT
-22 5.5 moveto 
1 -1 scale
(580) t 
GR
GR
GS
[0.75 0 0 0.75 50.75 80.41667] CT
0.149 GC
/Helvetica 13 F
GS
[1 0 0 1 0 0] CT
-22 5.5 moveto 
1 -1 scale
(600) t 
GR
GR
GS
[0.75 0 0 0.75 50.75 51.83334] CT
0.149 GC
/Helvetica 13 F
GS
[1 0 0 1 0 0] CT
-22 5.5 moveto 
1 -1 scale
(620) t 
GR
GR
GS
[0.75 0 0 0.75 50.75 23.25] CT
0.149 GC
/Helvetica 13 F
GS
[1 0 0 1 0 0] CT
-22 5.5 moveto 
1 -1 scale
(640) t 
GR
GR
GS
[0.75 0 0 0.75 0 0] CT
0 0.447 0.741 RC
2 LJ
N
73.362 174.889 M
73.723 175.174 L
74.085 175.594 L
74.447 175.098 L
74.808 175.956 L
75.17 176.26 L
75.532 176.07 L
75.893 174.431 L
76.255 174.317 L
76.617 174.355 L
76.978 174.317 L
77.34 174.393 L
77.702 174.736 L
78.063 174.526 L
78.425 176.26 L
78.787 177.633 L
79.148 177.194 L
79.51 176.947 L
79.872 175.898 L
80.233 175.403 L
80.595 176.47 L
80.957 177.613 L
81.318 176.927 L
81.68 175.555 L
82.042 175.498 L
82.403 175.784 L
82.765 177.27 L
83.127 177.328 L
83.488 177.004 L
83.85 177.804 L
84.212 178.985 L
84.573 177.499 L
84.935 177.328 L
85.297 176.947 L
85.658 177.309 L
86.02 177.995 L
86.382 176.032 L
86.743 175.536 L
87.105 175.174 L
87.467 175.003 L
87.828 175.06 L
88.19 174.927 L
88.552 175.689 L
88.913 178.318 L
89.275 176.851 L
89.637 176.413 L
89.998 176.451 L
90.36 176.699 L
90.722 175.746 L
91.083 175.594 L
S
GR
GS
[0.75 0 0 0.75 0 0] CT
0 0.447 0.741 RC
2 LJ
N
91.083 175.594 M
91.445 175.498 L
91.807 174.05 L
92.168 173.993 L
92.53 173.974 L
92.892 173.669 L
93.253 173.402 L
93.615 174.145 L
93.977 176.241 L
94.338 176.356 L
94.7 176.241 L
95.062 175.746 L
95.423 176.089 L
95.785 176.737 L
96.147 176.775 L
96.508 177.042 L
96.87 177.309 L
97.232 176.508 L
97.593 176.565 L
97.955 177.404 L
98.317 177.27 L
98.678 176.908 L
99.04 175.613 L
99.402 174.679 L
99.763 175.746 L
100.125 177.613 L
100.487 179.5 L
100.848 181.558 L
101.21 181.31 L
101.572 181.882 L
101.933 181.272 L
102.295 181.71 L
102.657 180.11 L
103.018 182.797 L
103.38 190.171 L
103.742 185.522 L
104.103 177.652 L
104.465 174.012 L
104.827 171.42 L
105.188 172.145 L
105.55 173.021 L
105.912 173.917 L
106.273 173.936 L
106.635 173.326 L
106.997 171.573 L
107.358 172.373 L
107.72 174.488 L
108.082 173.307 L
108.443 172.488 L
108.805 172.183 L
S
GR
GS
[0.75 0 0 0.75 0 0] CT
0 0.447 0.741 RC
2 LJ
N
108.805 172.183 M
109.167 175.346 L
109.528 178.585 L
109.89 175.689 L
110.252 174.717 L
110.613 175.822 L
110.975 175.479 L
111.337 175.155 L
111.698 175.27 L
112.06 175.251 L
112.422 175.155 L
112.783 176.603 L
113.145 176.985 L
113.507 174.908 L
113.868 177.709 L
114.23 177.842 L
114.592 176.87 L
114.953 175.308 L
115.315 175.441 L
115.677 177.918 L
116.038 178.642 L
116.4 176.165 L
116.762 175.574 L
117.123 175.403 L
117.485 175.86 L
117.847 175.365 L
118.208 173.917 L
118.57 173.65 L
118.932 173.555 L
119.293 174.05 L
119.655 175.079 L
120.017 175.155 L
120.378 175.403 L
120.74 174.736 L
121.102 176.299 L
121.463 177.29 L
121.825 178.814 L
122.187 179.024 L
122.548 176.813 L
122.91 176.832 L
123.272 175.632 L
123.633 175.765 L
123.995 176.203 L
124.357 177.27 L
124.718 176.756 L
125.08 177.004 L
125.442 178.147 L
125.803 177.023 L
126.165 177.537 L
126.527 178.738 L
S
GR
GS
[0.75 0 0 0.75 0 0] CT
0 0.447 0.741 RC
2 LJ
N
126.527 178.738 M
126.888 178.947 L
127.25 179.938 L
127.612 179.405 L
127.973 178.471 L
128.335 177.347 L
128.697 178.318 L
129.058 178.528 L
129.42 178.909 L
129.782 178.223 L
130.143 178.033 L
130.505 177.899 L
130.867 177.956 L
131.228 177.48 L
131.59 176.146 L
131.952 176.832 L
132.313 177.27 L
132.675 175.708 L
133.037 175.746 L
133.398 176.394 L
133.76 177.385 L
134.122 176.26 L
134.483 177.347 L
134.845 176.623 L
135.207 175.86 L
135.568 177.652 L
135.93 175.46 L
136.292 176.661 L
136.653 177.004 L
137.015 176.699 L
137.377 175.975 L
137.738 176.508 L
138.1 176.394 L
138.462 175.289 L
138.823 175.67 L
139.185 176.661 L
139.547 176.222 L
139.908 176.241 L
140.27 175.994 L
140.632 177.251 L
140.993 176.146 L
141.355 176.813 L
141.717 176.947 L
142.078 177.995 L
142.44 177.194 L
142.802 178.719 L
143.163 180.014 L
143.525 177.728 L
143.887 176.337 L
144.248 176.013 L
S
GR
GS
[0.75 0 0 0.75 0 0] CT
0 0.447 0.741 RC
2 LJ
N
144.248 176.013 M
144.61 175.384 L
144.972 175.555 L
145.333 176.432 L
145.695 176.851 L
146.057 176.68 L
146.418 177.556 L
146.78 179.252 L
147.142 180.205 L
147.503 178.928 L
147.865 178.509 L
148.227 178.414 L
148.588 178.985 L
148.95 176.927 L
149.312 169.705 L
149.673 161.55 L
150.035 173.745 L
150.397 182.339 L
150.758 182.587 L
151.12 179.671 L
151.482 177.461 L
151.843 176.28 L
152.205 175.441 L
152.567 178.033 L
152.928 174.85 L
153.29 165.056 L
153.652 146.61 L
154.013 152.079 L
154.375 152.498 L
154.737 153.451 L
155.098 158.901 L
155.46 163.112 L
155.822 186.893 L
156.183 190.533 L
156.545 191.353 L
156.907 196.993 L
157.268 200.766 L
157.63 190.99 L
157.992 193.353 L
158.353 182.911 L
158.715 178.681 L
159.077 176.394 L
159.438 175.555 L
159.8 178.604 L
160.162 182.682 L
160.523 177.69 L
160.885 175.003 L
161.247 173.802 L
161.608 179.024 L
161.97 176.584 L
S
GR
GS
[0.75 0 0 0.75 0 0] CT
0 0.447 0.741 RC
2 LJ
N
161.97 176.584 M
162.332 176.699 L
162.693 176.546 L
163.055 172.964 L
163.417 176.299 L
163.778 186.15 L
164.14 176.985 L
164.502 175.212 L
164.863 173.879 L
165.225 171.973 L
165.587 170.277 L
165.948 169.61 L
166.31 168.772 L
166.672 167.685 L
167.033 167.533 L
167.395 168.086 L
167.757 167.476 L
168.118 167.609 L
168.48 168.257 L
168.842 169.172 L
169.203 169.172 L
169.565 168.41 L
169.927 168.333 L
170.288 168.829 L
170.65 168.181 L
171.012 167.362 L
171.373 167.838 L
171.735 169.267 L
172.097 168.124 L
172.458 170.677 L
172.82 175.479 L
173.182 172.373 L
173.543 169.077 L
173.905 168.2 L
174.267 166.104 L
174.628 170.734 L
174.99 171.306 L
175.352 173.231 L
175.713 175.841 L
176.075 180.415 L
176.437 179.767 L
176.798 175.27 L
177.16 174.279 L
177.522 172.03 L
177.883 169.934 L
178.245 166.428 L
178.607 165.265 L
178.968 170.163 L
179.33 171.687 L
179.692 176.222 L
S
GR
GS
[0.75 0 0 0.75 0 0] CT
0 0.447 0.741 RC
2 LJ
N
179.692 176.222 M
180.053 174.908 L
180.415 172.659 L
180.777 172.907 L
181.138 175.956 L
181.5 175.365 L
181.862 169.667 L
182.223 170.315 L
182.585 116.178 L
182.947 155.566 L
183.308 170.658 L
183.67 175.689 L
184.032 176.47 L
184.393 174.241 L
184.755 173.269 L
185.117 172.411 L
185.478 171.744 L
185.84 171.325 L
186.202 170.944 L
186.563 170.048 L
186.925 169.077 L
187.287 167.628 L
187.648 173.936 L
188.01 179.081 L
188.372 179.043 L
188.733 175.403 L
189.095 171.249 L
189.457 172.297 L
189.818 176.756 L
190.18 178.471 L
190.542 175.689 L
190.903 177.004 L
191.265 180.091 L
191.627 180.796 L
191.988 182.149 L
192.35 183.197 L
192.712 183.883 L
193.073 183.273 L
193.435 181.425 L
193.797 178.395 L
194.158 176.584 L
194.52 176.718 L
194.882 175.917 L
195.243 177.004 L
195.605 177.061 L
195.967 176.032 L
196.328 172.049 L
196.69 173.097 L
197.052 174.755 L
197.413 173.421 L
S
GR
GS
[0.75 0 0 0.75 0 0] CT
0 0.447 0.741 RC
2 LJ
N
197.413 173.421 M
197.775 174.565 L
198.137 174.088 L
198.498 173.383 L
198.86 175.079 L
199.222 175.784 L
199.583 173.478 L
199.945 173.555 L
200.307 171.344 L
200.668 156.29 L
201.03 154.575 L
201.392 153.718 L
201.753 157.986 L
202.115 161.378 L
202.477 163.893 L
202.838 165.971 L
203.2 168.562 L
203.562 170.315 L
203.923 172.049 L
204.285 172.068 L
204.647 171.23 L
205.008 164.103 L
205.37 179.081 L
205.732 329.715 L
206.093 325.084 L
206.455 310.45 L
206.817 197.717 L
207.178 236.667 L
207.54 207.931 L
207.902 192.591 L
208.263 184.988 L
208.625 180.872 L
208.987 177.785 L
209.348 175.632 L
209.71 166.142 L
210.072 157.662 L
210.433 153.032 L
210.795 148.668 L
211.157 145.2 L
211.518 144.381 L
211.88 145.047 L
212.242 147.372 L
212.603 148.611 L
212.965 150.059 L
213.327 151.85 L
213.688 153.089 L
214.05 154.556 L
214.412 155.109 L
214.773 156.805 L
215.135 159.739 L
S
GR
GS
[0.75 0 0 0.75 0 0] CT
0 0.447 0.741 RC
2 LJ
N
215.135 159.739 M
215.497 160.73 L
215.858 163.322 L
216.22 165.17 L
216.582 166.942 L
216.943 167.666 L
217.305 169.648 L
217.667 170.772 L
218.028 176.318 L
218.39 177.08 L
218.752 168.486 L
219.113 175.041 L
219.475 194.935 L
219.837 178.49 L
220.198 169.134 L
220.56 162.731 L
220.922 154.461 L
221.283 149.392 L
221.645 156.138 L
222.007 93.35 L
222.368 104.593 L
222.73 98.781 L
223.092 101.772 L
223.453 103.43 L
223.815 110.652 L
224.177 121.419 L
224.538 130.851 L
224.9 138.55 L
225.262 145.714 L
225.623 149.945 L
225.985 154.709 L
226.347 157.243 L
226.708 161.645 L
227.07 164.923 L
227.432 167.114 L
227.793 167.838 L
228.155 170.582 L
228.517 170.83 L
228.878 173.059 L
229.24 175.498 L
229.602 176.699 L
229.963 177.309 L
230.325 181.806 L
230.687 183.978 L
231.048 180.281 L
231.41 177.29 L
231.772 180.338 L
232.133 182.473 L
232.495 180.453 L
232.857 180.567 L
S
GR
GS
[0.75 0 0 0.75 0 0] CT
0 0.447 0.741 RC
2 LJ
N
232.857 180.567 M
233.218 181.482 L
233.58 179.938 L
233.942 180.281 L
234.303 180.148 L
234.665 178.604 L
235.027 178.681 L
235.388 178.966 L
235.75 177.861 L
236.112 177.88 L
236.473 177.88 L
236.835 179.062 L
237.197 179.271 L
237.558 178.28 L
237.92 177.652 L
238.282 178.681 L
238.643 178.871 L
239.005 176.661 L
239.367 176.584 L
239.728 177.347 L
240.09 182.301 L
240.452 177.499 L
240.813 171.935 L
241.175 84.641 L
241.537 127.783 L
241.898 165.399 L
242.26 171.897 L
242.622 171.878 L
242.983 172.449 L
243.345 172.945 L
243.707 171.439 L
244.068 165.57 L
244.43 165.856 L
244.792 167.342 L
245.153 164.98 L
245.515 163.608 L
245.877 163.207 L
246.238 161.721 L
246.6 161.664 L
246.962 162.826 L
247.323 163.817 L
247.685 165.399 L
248.047 166.39 L
248.408 166.885 L
248.77 167.342 L
249.132 168.695 L
249.493 170.106 L
249.855 170.582 L
250.217 170.449 L
250.578 170.658 L
S
GR
GS
[0.75 0 0 0.75 0 0] CT
0 0.447 0.741 RC
2 LJ
N
250.578 170.658 M
250.94 171.306 L
251.302 171.477 L
251.663 171.687 L
252.025 172.335 L
252.387 172.449 L
252.748 171.135 L
253.11 170.811 L
253.472 170.887 L
253.833 169.267 L
254.195 168.943 L
254.557 168.715 L
254.918 168.715 L
255.28 168.676 L
255.642 168.352 L
256.003 167.666 L
256.365 167.552 L
256.727 169.629 L
257.088 169.153 L
257.45 168.81 L
257.812 168.676 L
258.173 168.467 L
258.535 168.143 L
258.897 166.733 L
259.258 166.942 L
259.62 166.637 L
259.982 166.771 L
260.343 166.695 L
260.705 166.371 L
261.067 165.951 L
261.428 165.875 L
261.79 165.761 L
262.152 165.761 L
262.513 165.856 L
262.875 165.494 L
263.237 165.17 L
263.598 165.399 L
263.96 165.589 L
264.322 165.246 L
264.683 165.304 L
265.045 165.494 L
265.407 166.085 L
265.768 166.333 L
266.13 166.409 L
266.492 166.314 L
266.853 166.218 L
267.215 165.894 L
267.577 165.399 L
267.938 165.265 L
268.3 165.38 L
S
GR
GS
[0.75 0 0 0.75 0 0] CT
0 0.447 0.741 RC
2 LJ
N
268.3 165.38 M
268.662 165.094 L
269.023 164.656 L
269.385 163.741 L
269.747 162.826 L
270.108 62.747 L
270.47 75.723 L
270.832 145.314 L
271.193 166.047 L
271.555 172.583 L
271.917 173.84 L
272.278 174.622 L
272.64 174.793 L
273.002 174.05 L
273.363 173.173 L
273.725 173.516 L
274.087 173.078 L
274.448 172.564 L
274.81 171.592 L
275.172 171.039 L
275.533 170.449 L
275.895 167.8 L
276.257 167.304 L
276.618 166.733 L
276.98 165.342 L
277.342 162.769 L
277.703 162.35 L
278.065 153.946 L
278.427 190.076 L
278.788 354.316 L
279.15 321.178 L
279.512 277.331 L
279.873 225.176 L
280.235 199.051 L
280.597 194.287 L
280.958 190.171 L
281.32 188.285 L
281.682 189.466 L
282.043 189.637 L
282.405 185.064 L
282.767 181.806 L
283.128 176.07 L
283.49 172.602 L
283.852 170.849 L
284.213 171.516 L
284.575 142.913 L
284.937 46.626 L
285.298 167.266 L
285.66 182.034 L
286.022 187.427 L
S
GR
GS
[0.75 0 0 0.75 0 0] CT
0 0.447 0.741 RC
2 LJ
N
286.022 187.427 M
286.383 190.628 L
286.745 193.563 L
287.107 195.24 L
287.468 196.44 L
287.83 197.946 L
288.192 198.784 L
288.553 199.184 L
288.915 199.68 L
289.277 199.756 L
289.638 199.966 L
290 200.213 L
290.362 199.565 L
290.723 199.737 L
291.085 114.406 L
291.447 61.908 L
291.808 189.847 L
292.17 203.167 L
292.532 206.025 L
292.893 206.959 L
293.255 206.654 L
293.617 205.568 L
293.978 204.406 L
294.34 202.919 L
294.702 201.662 L
295.063 202.367 L
295.425 202.481 L
295.787 200.404 L
296.148 199.489 L
296.51 197.507 L
296.872 196.688 L
297.233 196.326 L
297.595 195.183 L
297.957 194.287 L
298.318 193.906 L
298.68 191.943 L
299.042 190.648 L
299.403 189.942 L
299.765 189.733 L
300.127 189.923 L
300.488 190.59 L
300.85 190.571 L
301.212 191.429 L
301.573 191.905 L
301.935 192.039 L
302.297 191.009 L
302.658 190.057 L
303.02 189.809 L
303.382 190.266 L
303.743 190.4 L
S
GR
GS
[0.75 0 0 0.75 0 0] CT
0 0.447 0.741 RC
2 LJ
N
303.743 190.4 M
304.105 190.209 L
304.467 190.838 L
304.828 192.553 L
305.19 195.735 L
305.552 197.241 L
305.913 197.431 L
306.275 198.879 L
306.637 197.317 L
306.998 197.812 L
307.36 196.212 L
307.722 195.583 L
308.083 196.135 L
308.445 195.259 L
308.807 193.83 L
309.168 191.257 L
309.53 190.838 L
309.892 189.504 L
310.253 187.827 L
310.615 184.264 L
310.977 184.912 L
311.338 184.931 L
311.7 184.683 L
312.062 183.826 L
312.423 184.188 L
312.785 182.816 L
313.147 183.063 L
313.508 183.559 L
313.87 183.444 L
314.232 183.559 L
314.593 183.044 L
314.955 182.778 L
315.317 183.559 L
315.678 183.121 L
316.04 182.492 L
316.402 182.415 L
316.763 182.244 L
317.125 183.14 L
317.487 183.578 L
317.848 184.054 L
318.21 184.855 L
318.572 185.541 L
318.933 198.879 L
319.295 218.221 L
319.657 213.705 L
320.018 206.597 L
320.38 203.319 L
320.742 200.251 L
321.103 200.061 L
321.465 200.766 L
S
GR
GS
[0.75 0 0 0.75 0 0] CT
0 0.447 0.741 RC
2 LJ
N
321.465 200.766 M
321.827 197.298 L
322.188 194.382 L
322.55 193.182 L
322.912 192.439 L
323.273 192.039 L
323.635 191.676 L
323.997 191.295 L
324.358 191.429 L
324.72 191.562 L
325.082 191.638 L
325.443 191.734 L
325.805 191.886 L
326.167 191.734 L
326.528 191.2 L
326.89 190.323 L
327.252 190.228 L
327.613 189.885 L
327.975 189.523 L
328.337 189.466 L
328.698 189.58 L
329.06 189.542 L
329.422 191.429 L
329.783 190.209 L
330.145 191.353 L
330.507 192.667 L
330.868 192.572 L
331.23 191.81 L
331.592 192.401 L
331.953 189.409 L
332.315 187.922 L
332.677 189.485 L
333.038 190.362 L
333.4 187.579 L
333.762 185.769 L
334.123 185.464 L
334.485 185.731 L
334.847 186.036 L
335.208 186.246 L
335.57 186.322 L
335.932 186.646 L
336.293 186.913 L
336.655 187.046 L
337.017 187.313 L
337.378 187.389 L
337.74 186.627 L
338.102 186.493 L
338.463 186.97 L
338.825 188.361 L
339.187 189.352 L
S
GR
GS
[0.75 0 0 0.75 0 0] CT
0 0.447 0.741 RC
2 LJ
N
339.187 189.352 M
339.548 128.241 L
339.91 180.777 L
340.272 189.657 L
340.633 191.924 L
340.995 193.449 L
341.357 191.581 L
341.718 190.666 L
342.08 190.19 L
342.442 189.733 L
342.803 190.133 L
343.165 190.609 L
343.527 189.714 L
343.888 189.256 L
344.25 187.122 L
344.612 186.208 L
344.973 186.112 L
345.335 185.769 L
345.697 185.903 L
346.058 185.617 L
346.42 185.731 L
346.782 188.227 L
347.143 189.028 L
347.505 187.961 L
347.867 186.608 L
348.228 186.646 L
348.59 185.922 L
348.952 185.826 L
349.313 186.017 L
349.675 183.768 L
350.037 183.673 L
350.398 183.521 L
350.76 183.349 L
351.122 183.197 L
351.483 183.197 L
351.845 183.178 L
352.207 183.654 L
352.568 183.654 L
352.93 183.749 L
353.292 183.654 L
353.653 183.997 L
354.015 183.787 L
354.377 183.425 L
354.738 183.368 L
355.1 183.464 L
355.462 183.578 L
355.823 184.016 L
356.185 183.635 L
356.547 184.245 L
356.908 185.198 L
S
GR
GS
[0.75 0 0 0.75 0 0] CT
0 0.447 0.741 RC
2 LJ
N
356.908 185.198 M
357.27 186.417 L
357.632 194.725 L
357.993 199.642 L
358.355 201.89 L
358.717 191.467 L
359.078 185.293 L
359.44 184.34 L
359.802 188.17 L
360.163 191.257 L
360.525 192.724 L
360.887 193.811 L
361.248 193.582 L
361.61 193.62 L
361.972 193.582 L
362.333 193.353 L
362.695 192.915 L
363.057 192.724 L
363.418 193.525 L
363.78 193.83 L
364.142 193.01 L
364.503 191.924 L
364.865 194.687 L
365.227 195.068 L
365.588 195.068 L
365.95 193.125 L
366.312 191.715 L
366.673 187.16 L
367.035 184.797 L
367.397 184.092 L
367.758 183.216 L
368.12 186.798 L
368.482 187.389 L
368.843 185.788 L
369.205 183.959 L
369.567 183.444 L
369.928 183.902 L
370.29 184.321 L
370.652 182.263 L
371.013 180.796 L
371.375 182.263 L
371.737 183.292 L
372.098 183.101 L
372.46 182.53 L
372.822 182.854 L
373.183 183.349 L
373.545 183.673 L
373.907 184.778 L
374.268 189.123 L
374.63 189.58 L
S
GR
GS
[0.75 0 0 0.75 0 0] CT
0 0.447 0.741 RC
2 LJ
N
374.63 189.58 M
374.992 189.942 L
375.353 189.904 L
375.715 189.352 L
376.077 188.666 L
376.438 186.893 L
376.8 185.807 L
377.162 185.56 L
377.523 185.826 L
377.885 185.788 L
378.247 186.36 L
378.608 188.532 L
378.97 187.618 L
379.332 186.76 L
379.693 190.038 L
380.055 190.781 L
380.417 194.706 L
380.778 200.976 L
381.14 203.186 L
381.502 197.374 L
381.863 186.989 L
382.225 181.425 L
382.587 178.642 L
382.948 177.042 L
383.31 175.308 L
383.672 171.573 L
384.033 171.001 L
384.395 171.763 L
384.757 173.516 L
385.118 172.716 L
385.48 172.811 L
385.842 172.145 L
386.203 172.43 L
386.565 176.546 L
386.927 180.091 L
387.288 178.585 L
387.65 172.888 L
388.012 173.764 L
388.373 176.127 L
388.735 172.83 L
389.097 173.135 L
389.458 173.955 L
389.82 174.66 L
390.182 175.879 L
390.543 174.145 L
390.905 174.526 L
391.267 174.298 L
391.628 173.669 L
391.99 173.25 L
392.352 174.26 L
S
GR
GS
[0.75 0 0 0.75 0 0] CT
0 0.447 0.741 RC
2 LJ
N
392.352 174.26 M
392.713 174.85 L
393.075 174.469 L
393.437 174.565 L
393.798 174.05 L
394.16 174.355 L
394.522 174.927 L
394.883 177.061 L
395.245 177.69 L
395.607 176.184 L
395.968 176.26 L
396.33 174.774 L
396.692 177.08 L
397.053 179.557 L
397.415 179.062 L
397.777 178.109 L
398.138 177.69 L
398.5 177.404 L
398.862 178.757 L
399.223 179.671 L
399.585 183.997 L
399.947 186.627 L
400.308 187.503 L
400.67 194.192 L
401.032 195.64 L
401.393 188.304 L
401.755 189.447 L
402.117 191.295 L
402.478 192.077 L
402.84 190.209 L
403.202 190.971 L
403.563 187.084 L
403.925 187.351 L
404.287 186.646 L
404.648 186.017 L
405.01 186.208 L
405.372 185.807 L
405.733 185.331 L
406.095 184.283 L
406.457 183.464 L
406.818 183.73 L
407.18 185.026 L
407.542 183.749 L
407.903 182.053 L
408.265 180.396 L
408.627 178.166 L
408.988 178.318 L
409.35 172.716 L
409.712 170.029 L
410.073 165.056 L
S
GR
GS
[0.75 0 0 0.75 0 0] CT
0 0.447 0.741 RC
2 LJ
N
410.073 165.056 M
410.435 166.885 L
410.797 164.046 L
411.158 162.14 L
411.52 162.083 L
411.882 161.34 L
412.243 161.073 L
412.605 161.169 L
412.967 162.464 L
413.328 162.388 L
413.69 160.997 L
414.052 161.283 L
414.413 162.369 L
414.775 161.778 L
415.137 161.683 L
415.498 161.893 L
415.86 162.007 L
416.222 164.084 L
416.583 164.389 L
416.945 163.989 L
417.307 164.16 L
417.668 163.874 L
418.03 163.417 L
418.392 163.836 L
418.753 164.427 L
419.115 164.122 L
419.477 176.241 L
419.838 174.946 L
420.2 171.192 L
420.562 165.494 L
420.923 164.084 L
421.285 163.379 L
421.647 165.208 L
422.008 166.904 L
422.37 169.267 L
422.732 178.376 L
423.093 180.3 L
423.455 174.965 L
423.817 172.411 L
424.178 172.697 L
424.54 166.466 L
424.902 165.628 L
425.263 167.647 L
425.625 168.943 L
425.987 170.963 L
426.348 173.307 L
426.71 172.659 L
427.072 174.679 L
427.433 173.688 L
427.795 173.574 L
S
GR
GS
[0.75 0 0 0.75 0 0] CT
0 0.447 0.741 RC
2 LJ
N
427.795 173.574 M
428.157 173.269 L
428.518 173.955 L
428.88 174.869 L
429.242 174.603 L
429.603 176.375 L
429.965 178.795 L
430.327 186.131 L
430.688 183.578 L
431.05 183.483 L
431.412 178.833 L
431.773 182.739 L
432.135 182.606 L
432.497 184.302 L
432.858 184.435 L
433.22 182.873 L
433.582 184.321 L
433.943 185.922 L
434.305 191.219 L
434.667 188.132 L
435.028 189.98 L
435.39 181.272 L
435.752 181.386 L
436.113 183.883 L
436.475 183.845 L
436.837 186.227 L
437.198 186.112 L
437.56 188.246 L
437.922 187.884 L
438.283 200.061 L
438.645 194.687 L
439.007 192.115 L
439.368 187.884 L
439.73 187.713 L
440.092 188.418 L
440.453 190.019 L
440.815 189.066 L
441.177 187.294 L
441.538 187.618 L
441.9 187.313 L
442.262 186.169 L
442.623 185.312 L
442.985 184.435 L
443.347 183.692 L
443.708 183.692 L
444.07 184.721 L
444.432 185.159 L
444.793 185.064 L
445.155 186.322 L
445.517 185.788 L
S
GR
GS
[0.75 0 0 0.75 0 0] CT
0 0.447 0.741 RC
2 LJ
N
445.517 185.788 M
445.878 185.331 L
446.24 185.312 L
446.602 185.922 L
446.963 184.721 L
447.325 183.711 L
447.687 182.949 L
448.048 184.188 L
448.41 183.997 L
448.772 183.978 L
449.133 184.607 L
449.495 185.312 L
449.857 187.275 L
450.218 188.037 L
450.58 188.227 L
450.942 189.085 L
451.303 190 L
451.665 188.971 L
452.027 190.381 L
452.388 192.858 L
452.75 193.468 L
453.112 192.077 L
453.473 190.209 L
453.835 189.714 L
454.197 189.428 L
454.558 189.39 L
454.92 178.318 L
455.282 173.669 L
455.643 197.031 L
456.005 198.956 L
456.367 191.753 L
456.728 190.762 L
457.09 190.609 L
457.452 190.323 L
457.813 188.723 L
458.175 187.999 L
458.537 188.589 L
458.898 190.057 L
459.26 189.98 L
459.622 188.494 L
459.983 188.094 L
460.345 189.39 L
460.707 185.769 L
461.068 186.036 L
461.43 184.816 L
461.792 181.082 L
462.153 179.367 L
462.515 176.661 L
462.877 177.995 L
463.238 185.636 L
S
GR
GS
[0.75 0 0 0.75 0 0] CT
0 0.447 0.741 RC
2 LJ
N
463.238 185.636 M
463.6 186.798 L
463.962 197.774 L
464.323 194.611 L
464.685 186.703 L
465.047 181.12 L
465.408 177.899 L
465.77 171.535 L
466.132 155.814 L
466.493 157.224 L
466.855 167.152 L
467.217 177.728 L
467.578 187.446 L
467.94 194.097 L
468.302 190.895 L
468.663 193.01 L
469.025 182.816 L
469.387 185.674 L
469.748 182.149 L
470.11 184.283 L
470.472 190.876 L
470.833 192.134 L
471.195 187.865 L
471.557 182.434 L
471.918 179.195 L
472.28 181.939 L
472.642 182.015 L
473.003 180.529 L
473.365 167.095 L
473.727 176.299 L
474.088 189.428 L
474.45 186.913 L
474.812 182.911 L
475.173 179.805 L
475.535 181.291 L
475.897 184.054 L
476.258 182.987 L
476.62 181.463 L
476.982 182.53 L
477.343 182.587 L
477.705 185.483 L
478.067 189.028 L
478.428 190.076 L
478.79 187.865 L
479.152 186.741 L
479.513 180.281 L
479.875 178.681 L
480.237 192.362 L
S
GR
%%Trailer
%%Pages: 1
%%EOF
