%!PS-Adobe-3.0 EPSF-3.0
%%Creator: (MATLAB, The Mathworks, Inc. Version 8.5.0.197613 \(R2015a\). Operating System: Windows 8)
%%Title: C:/Users/aleja/Desktop/TFG/Documentacion/Memoria_V2/matlab_plot/plots/alvaro12-20.eps
%%CreationDate: 2019-06-16T13:23:06
%%Pages: (atend)
%%BoundingBox: 0 0 420 315
%%LanguageLevel: 2
%%EndComments
%%BeginProlog
%%BeginResource: procset (Apache XML Graphics Std ProcSet) 1.2 0
%%Version: 1.2 0
%%Copyright: (Copyright 2001-2003,2010 The Apache Software Foundation. License terms: http://www.apache.org/licenses/LICENSE-2.0)
/bd{bind def}bind def
/ld{load def}bd
/GR/grestore ld
/M/moveto ld
/LJ/setlinejoin ld
/C/curveto ld
/f/fill ld
/LW/setlinewidth ld
/GC/setgray ld
/t/show ld
/N/newpath ld
/CT/concat ld
/cp/closepath ld
/S/stroke ld
/L/lineto ld
/CC/setcmykcolor ld
/A/ashow ld
/GS/gsave ld
/RC/setrgbcolor ld
/RM/rmoveto ld
/ML/setmiterlimit ld
/re {4 2 roll M
1 index 0 rlineto
0 exch rlineto
neg 0 rlineto
cp } bd
/_ctm matrix def
/_tm matrix def
/BT { _ctm currentmatrix pop matrix _tm copy pop 0 0 moveto } bd
/ET { _ctm setmatrix } bd
/iTm { _ctm setmatrix _tm concat } bd
/Tm { _tm astore pop iTm 0 0 moveto } bd
/ux 0.0 def
/uy 0.0 def
/F {
  /Tp exch def
  /Tf exch def
  Tf findfont Tp scalefont setfont
  /cf Tf def  /cs Tp def
} bd
/ULS {currentpoint /uy exch def /ux exch def} bd
/ULE {
  /Tcx currentpoint pop def
  gsave
  newpath
  cf findfont cs scalefont dup
  /FontMatrix get 0 get /Ts exch def /FontInfo get dup
  /UnderlinePosition get Ts mul /To exch def
  /UnderlineThickness get Ts mul /Tt exch def
  ux uy To add moveto  Tcx uy To add lineto
  Tt setlinewidth stroke
  grestore
} bd
/OLE {
  /Tcx currentpoint pop def
  gsave
  newpath
  cf findfont cs scalefont dup
  /FontMatrix get 0 get /Ts exch def /FontInfo get dup
  /UnderlinePosition get Ts mul /To exch def
  /UnderlineThickness get Ts mul /Tt exch def
  ux uy To add cs add moveto Tcx uy To add cs add lineto
  Tt setlinewidth stroke
  grestore
} bd
/SOE {
  /Tcx currentpoint pop def
  gsave
  newpath
  cf findfont cs scalefont dup
  /FontMatrix get 0 get /Ts exch def /FontInfo get dup
  /UnderlinePosition get Ts mul /To exch def
  /UnderlineThickness get Ts mul /Tt exch def
  ux uy To add cs 10 mul 26 idiv add moveto Tcx uy To add cs 10 mul 26 idiv add lineto
  Tt setlinewidth stroke
  grestore
} bd
/QT {
/Y22 exch store
/X22 exch store
/Y21 exch store
/X21 exch store
currentpoint
/Y21 load 2 mul add 3 div exch
/X21 load 2 mul add 3 div exch
/X21 load 2 mul /X22 load add 3 div
/Y21 load 2 mul /Y22 load add 3 div
/X22 load /Y22 load curveto
} bd
/SSPD {
dup length /d exch dict def
{
/v exch def
/k exch def
currentpagedevice k known {
/cpdv currentpagedevice k get def
v cpdv ne {
/upd false def
/nullv v type /nulltype eq def
/nullcpdv cpdv type /nulltype eq def
nullv nullcpdv or
{
/upd true def
} {
/sametype v type cpdv type eq def
sametype {
v type /arraytype eq {
/vlen v length def
/cpdvlen cpdv length def
vlen cpdvlen eq {
0 1 vlen 1 sub {
/i exch def
/obj v i get def
/cpdobj cpdv i get def
obj cpdobj ne {
/upd true def
exit
} if
} for
} {
/upd true def
} ifelse
} {
v type /dicttype eq {
v {
/dv exch def
/dk exch def
/cpddv cpdv dk get def
dv cpddv ne {
/upd true def
exit
} if
} forall
} {
/upd true def
} ifelse
} ifelse
} if
} ifelse
upd true eq {
d k v put
} if
} if
} if
} forall
d length 0 gt {
d setpagedevice
} if
} bd
%%EndResource
%%BeginResource: procset (Apache XML Graphics EPS ProcSet) 1.0 0
%%Version: 1.0 0
%%Copyright: (Copyright 2002-2003 The Apache Software Foundation. License terms: http://www.apache.org/licenses/LICENSE-2.0)
/BeginEPSF { %def
/b4_Inc_state save def         % Save state for cleanup
/dict_count countdictstack def % Count objects on dict stack
/op_count count 1 sub def      % Count objects on operand stack
userdict begin                 % Push userdict on dict stack
/showpage { } def              % Redefine showpage, { } = null proc
0 setgray 0 setlinecap         % Prepare graphics state
1 setlinewidth 0 setlinejoin
10 setmiterlimit [ ] 0 setdash newpath
/languagelevel where           % If level not equal to 1 then
{pop languagelevel             % set strokeadjust and
1 ne                           % overprint to their defaults.
{false setstrokeadjust false setoverprint
} if
} if
} bd
/EndEPSF { %def
count op_count sub {pop} repeat            % Clean up stacks
countdictstack dict_count sub {end} repeat
b4_Inc_state restore
} bd
%%EndResource
%FOPBeginFontDict
%%IncludeResource: font Courier-Bold
%%IncludeResource: font Helvetica
%%IncludeResource: font Courier-BoldOblique
%%IncludeResource: font Courier-Oblique
%%IncludeResource: font Times-Roman
%%IncludeResource: font Helvetica-BoldOblique
%%IncludeResource: font Helvetica-Bold
%%IncludeResource: font Helvetica-Oblique
%%IncludeResource: font Times-BoldItalic
%%IncludeResource: font Courier
%%IncludeResource: font Times-Italic
%%IncludeResource: font Times-Bold
%%IncludeResource: font Symbol
%%IncludeResource: font ZapfDingbats
%FOPEndFontDict
%%BeginResource: encoding WinAnsiEncoding
/WinAnsiEncoding [
/.notdef /.notdef /.notdef /.notdef /.notdef
/.notdef /.notdef /.notdef /.notdef /.notdef
/.notdef /.notdef /.notdef /.notdef /.notdef
/.notdef /.notdef /.notdef /.notdef /.notdef
/.notdef /.notdef /.notdef /.notdef /.notdef
/.notdef /.notdef /.notdef /.notdef /.notdef
/.notdef /.notdef /space /exclam /quotedbl
/numbersign /dollar /percent /ampersand /quotesingle
/parenleft /parenright /asterisk /plus /comma
/hyphen /period /slash /zero /one
/two /three /four /five /six
/seven /eight /nine /colon /semicolon
/less /equal /greater /question /at
/A /B /C /D /E
/F /G /H /I /J
/K /L /M /N /O
/P /Q /R /S /T
/U /V /W /X /Y
/Z /bracketleft /backslash /bracketright /asciicircum
/underscore /quoteleft /a /b /c
/d /e /f /g /h
/i /j /k /l /m
/n /o /p /q /r
/s /t /u /v /w
/x /y /z /braceleft /bar
/braceright /asciitilde /bullet /Euro /bullet
/quotesinglbase /florin /quotedblbase /ellipsis /dagger
/daggerdbl /circumflex /perthousand /Scaron /guilsinglleft
/OE /bullet /Zcaron /bullet /bullet
/quoteleft /quoteright /quotedblleft /quotedblright /bullet
/endash /emdash /asciitilde /trademark /scaron
/guilsinglright /oe /bullet /zcaron /Ydieresis
/space /exclamdown /cent /sterling /currency
/yen /brokenbar /section /dieresis /copyright
/ordfeminine /guillemotleft /logicalnot /sfthyphen /registered
/macron /degree /plusminus /twosuperior /threesuperior
/acute /mu /paragraph /middot /cedilla
/onesuperior /ordmasculine /guillemotright /onequarter /onehalf
/threequarters /questiondown /Agrave /Aacute /Acircumflex
/Atilde /Adieresis /Aring /AE /Ccedilla
/Egrave /Eacute /Ecircumflex /Edieresis /Igrave
/Iacute /Icircumflex /Idieresis /Eth /Ntilde
/Ograve /Oacute /Ocircumflex /Otilde /Odieresis
/multiply /Oslash /Ugrave /Uacute /Ucircumflex
/Udieresis /Yacute /Thorn /germandbls /agrave
/aacute /acircumflex /atilde /adieresis /aring
/ae /ccedilla /egrave /eacute /ecircumflex
/edieresis /igrave /iacute /icircumflex /idieresis
/eth /ntilde /ograve /oacute /ocircumflex
/otilde /odieresis /divide /oslash /ugrave
/uacute /ucircumflex /udieresis /yacute /thorn
/ydieresis
] def
%%EndResource
%FOPBeginFontReencode
/Courier-Bold findfont
dup length dict begin
  {1 index /FID ne {def} {pop pop} ifelse} forall
  /Encoding WinAnsiEncoding def
  currentdict
end
/Courier-Bold exch definefont pop
/Helvetica findfont
dup length dict begin
  {1 index /FID ne {def} {pop pop} ifelse} forall
  /Encoding WinAnsiEncoding def
  currentdict
end
/Helvetica exch definefont pop
/Courier-BoldOblique findfont
dup length dict begin
  {1 index /FID ne {def} {pop pop} ifelse} forall
  /Encoding WinAnsiEncoding def
  currentdict
end
/Courier-BoldOblique exch definefont pop
/Courier-Oblique findfont
dup length dict begin
  {1 index /FID ne {def} {pop pop} ifelse} forall
  /Encoding WinAnsiEncoding def
  currentdict
end
/Courier-Oblique exch definefont pop
/Times-Roman findfont
dup length dict begin
  {1 index /FID ne {def} {pop pop} ifelse} forall
  /Encoding WinAnsiEncoding def
  currentdict
end
/Times-Roman exch definefont pop
/Helvetica-BoldOblique findfont
dup length dict begin
  {1 index /FID ne {def} {pop pop} ifelse} forall
  /Encoding WinAnsiEncoding def
  currentdict
end
/Helvetica-BoldOblique exch definefont pop
/Helvetica-Bold findfont
dup length dict begin
  {1 index /FID ne {def} {pop pop} ifelse} forall
  /Encoding WinAnsiEncoding def
  currentdict
end
/Helvetica-Bold exch definefont pop
/Helvetica-Oblique findfont
dup length dict begin
  {1 index /FID ne {def} {pop pop} ifelse} forall
  /Encoding WinAnsiEncoding def
  currentdict
end
/Helvetica-Oblique exch definefont pop
/Times-BoldItalic findfont
dup length dict begin
  {1 index /FID ne {def} {pop pop} ifelse} forall
  /Encoding WinAnsiEncoding def
  currentdict
end
/Times-BoldItalic exch definefont pop
/Courier findfont
dup length dict begin
  {1 index /FID ne {def} {pop pop} ifelse} forall
  /Encoding WinAnsiEncoding def
  currentdict
end
/Courier exch definefont pop
/Times-Italic findfont
dup length dict begin
  {1 index /FID ne {def} {pop pop} ifelse} forall
  /Encoding WinAnsiEncoding def
  currentdict
end
/Times-Italic exch definefont pop
/Times-Bold findfont
dup length dict begin
  {1 index /FID ne {def} {pop pop} ifelse} forall
  /Encoding WinAnsiEncoding def
  currentdict
end
/Times-Bold exch definefont pop
%FOPEndFontReencode
%%EndProlog
%%Page: 1 1
%%PageBoundingBox: 0 0 420 315
%%BeginPageSetup
[1 0 0 -1 0 315] CT
%%EndPageSetup
GS
[0.75 0 0 0.75 0 0] CT
1 GC
N
0 0 560 420 re
f
GR
GS
[0.75 0 0 0.75 0 0] CT
1 GC
N
0 0 560 420 re
f
GR
GS
[0.75 0 0 0.75 0 0] CT
1 GC
N
73 374 M
507 374 L
507 31 L
73 31 L
cp
f
GR
GS
[0.75 0 0 0.75 217.50016 298.25031] CT
0.149 GC
/Helvetica 15 F
GS
[1 0 0 1 0 0] CT
-67 16 moveto 
1 -1 scale
(N\272 Datas recolected) t 
GR
GR
GS
[0.75 0 0 0.75 0 0] CT
0.149 GC
2 setlinecap
10.0 ML
N
73 374 M
507 374 L
S
GR
GS
[0.75 0 0 0.75 0 0] CT
0.149 GC
2 setlinecap
10.0 ML
N
73 31 M
507 31 L
S
GR
GS
[0.75 0 0 0.75 0 0] CT
0.149 GC
2 setlinecap
10.0 ML
N
73 374 M
73 369.661 L
S
GR
GS
[0.75 0 0 0.75 0 0] CT
0.149 GC
2 setlinecap
10.0 ML
N
116.4 374 M
116.4 369.661 L
S
GR
GS
[0.75 0 0 0.75 0 0] CT
0.149 GC
2 setlinecap
10.0 ML
N
159.8 374 M
159.8 369.661 L
S
GR
GS
[0.75 0 0 0.75 0 0] CT
0.149 GC
2 setlinecap
10.0 ML
N
203.2 374 M
203.2 369.661 L
S
GR
GS
[0.75 0 0 0.75 0 0] CT
0.149 GC
2 setlinecap
10.0 ML
N
246.6 374 M
246.6 369.661 L
S
GR
GS
[0.75 0 0 0.75 0 0] CT
0.149 GC
2 setlinecap
10.0 ML
N
290 374 M
290 369.661 L
S
GR
GS
[0.75 0 0 0.75 0 0] CT
0.149 GC
2 setlinecap
10.0 ML
N
333.4 374 M
333.4 369.661 L
S
GR
GS
[0.75 0 0 0.75 0 0] CT
0.149 GC
2 setlinecap
10.0 ML
N
376.8 374 M
376.8 369.661 L
S
GR
GS
[0.75 0 0 0.75 0 0] CT
0.149 GC
2 setlinecap
10.0 ML
N
420.2 374 M
420.2 369.661 L
S
GR
GS
[0.75 0 0 0.75 0 0] CT
0.149 GC
2 setlinecap
10.0 ML
N
463.6 374 M
463.6 369.661 L
S
GR
GS
[0.75 0 0 0.75 0 0] CT
0.149 GC
2 setlinecap
10.0 ML
N
507 374 M
507 369.661 L
S
GR
GS
[0.75 0 0 0.75 0 0] CT
0.149 GC
2 setlinecap
10.0 ML
N
73 31 M
73 35.339 L
S
GR
GS
[0.75 0 0 0.75 0 0] CT
0.149 GC
2 setlinecap
10.0 ML
N
116.4 31 M
116.4 35.339 L
S
GR
GS
[0.75 0 0 0.75 0 0] CT
0.149 GC
2 setlinecap
10.0 ML
N
159.8 31 M
159.8 35.339 L
S
GR
GS
[0.75 0 0 0.75 0 0] CT
0.149 GC
2 setlinecap
10.0 ML
N
203.2 31 M
203.2 35.339 L
S
GR
GS
[0.75 0 0 0.75 0 0] CT
0.149 GC
2 setlinecap
10.0 ML
N
246.6 31 M
246.6 35.339 L
S
GR
GS
[0.75 0 0 0.75 0 0] CT
0.149 GC
2 setlinecap
10.0 ML
N
290 31 M
290 35.339 L
S
GR
GS
[0.75 0 0 0.75 0 0] CT
0.149 GC
2 setlinecap
10.0 ML
N
333.4 31 M
333.4 35.339 L
S
GR
GS
[0.75 0 0 0.75 0 0] CT
0.149 GC
2 setlinecap
10.0 ML
N
376.8 31 M
376.8 35.339 L
S
GR
GS
[0.75 0 0 0.75 0 0] CT
0.149 GC
2 setlinecap
10.0 ML
N
420.2 31 M
420.2 35.339 L
S
GR
GS
[0.75 0 0 0.75 0 0] CT
0.149 GC
2 setlinecap
10.0 ML
N
463.6 31 M
463.6 35.339 L
S
GR
GS
[0.75 0 0 0.75 0 0] CT
0.149 GC
2 setlinecap
10.0 ML
N
507 31 M
507 35.339 L
S
GR
GS
[0.75 0 0 0.75 54.75 284.49989] CT
0.149 GC
/Helvetica 13 F
GS
[1 0 0 1 0 0] CT
-4 14 moveto 
1 -1 scale
(0) t 
GR
GR
GS
[0.75 0 0 0.75 87.3 284.49989] CT
0.149 GC
/Helvetica 13 F
GS
[1 0 0 1 0 0] CT
-7.5 14 moveto 
1 -1 scale
(50) t 
GR
GR
GS
[0.75 0 0 0.75 119.85 284.49989] CT
0.149 GC
/Helvetica 13 F
GS
[1 0 0 1 0 0] CT
-11 14 moveto 
1 -1 scale
(100) t 
GR
GR
GS
[0.75 0 0 0.75 152.4 284.49989] CT
0.149 GC
/Helvetica 13 F
GS
[1 0 0 1 0 0] CT
-11 14 moveto 
1 -1 scale
(150) t 
GR
GR
GS
[0.75 0 0 0.75 184.95 284.49989] CT
0.149 GC
/Helvetica 13 F
GS
[1 0 0 1 0 0] CT
-11 14 moveto 
1 -1 scale
(200) t 
GR
GR
GS
[0.75 0 0 0.75 217.5 284.49989] CT
0.149 GC
/Helvetica 13 F
GS
[1 0 0 1 0 0] CT
-11 14 moveto 
1 -1 scale
(250) t 
GR
GR
GS
[0.75 0 0 0.75 250.05 284.49989] CT
0.149 GC
/Helvetica 13 F
GS
[1 0 0 1 0 0] CT
-11 14 moveto 
1 -1 scale
(300) t 
GR
GR
GS
[0.75 0 0 0.75 282.59999 284.49989] CT
0.149 GC
/Helvetica 13 F
GS
[1 0 0 1 0 0] CT
-11 14 moveto 
1 -1 scale
(350) t 
GR
GR
GS
[0.75 0 0 0.75 315.15001 284.49989] CT
0.149 GC
/Helvetica 13 F
GS
[1 0 0 1 0 0] CT
-11 14 moveto 
1 -1 scale
(400) t 
GR
GR
GS
[0.75 0 0 0.75 347.7 284.49989] CT
0.149 GC
/Helvetica 13 F
GS
[1 0 0 1 0 0] CT
-11 14 moveto 
1 -1 scale
(450) t 
GR
GR
GS
[0.75 0 0 0.75 380.25 284.49989] CT
0.149 GC
/Helvetica 13 F
GS
[1 0 0 1 0 0] CT
-11 14 moveto 
1 -1 scale
(500) t 
GR
GR
GS
[0 -0.75 0.75 0 31.25 151.875] CT
0.149 GC
/Helvetica 15 F
GS
[1 0 0 1 0 0] CT
-79 -4 moveto 
1 -1 scale
(Signal potency \(13-bits\)) t 
GR
GR
GS
[0.75 0 0 0.75 0 0] CT
0.149 GC
2 setlinecap
10.0 ML
N
73 374 M
73 31 L
S
GR
GS
[0.75 0 0 0.75 0 0] CT
0.149 GC
2 setlinecap
10.0 ML
N
507 374 M
507 31 L
S
GR
GS
[0.75 0 0 0.75 0 0] CT
0.149 GC
2 setlinecap
10.0 ML
N
73 374 M
77.34 374 L
S
GR
GS
[0.75 0 0 0.75 0 0] CT
0.149 GC
2 setlinecap
10.0 ML
N
73 331.125 M
77.34 331.125 L
S
GR
GS
[0.75 0 0 0.75 0 0] CT
0.149 GC
2 setlinecap
10.0 ML
N
73 288.25 M
77.34 288.25 L
S
GR
GS
[0.75 0 0 0.75 0 0] CT
0.149 GC
2 setlinecap
10.0 ML
N
73 245.375 M
77.34 245.375 L
S
GR
GS
[0.75 0 0 0.75 0 0] CT
0.149 GC
2 setlinecap
10.0 ML
N
73 202.5 M
77.34 202.5 L
S
GR
GS
[0.75 0 0 0.75 0 0] CT
0.149 GC
2 setlinecap
10.0 ML
N
73 159.625 M
77.34 159.625 L
S
GR
GS
[0.75 0 0 0.75 0 0] CT
0.149 GC
2 setlinecap
10.0 ML
N
73 116.75 M
77.34 116.75 L
S
GR
GS
[0.75 0 0 0.75 0 0] CT
0.149 GC
2 setlinecap
10.0 ML
N
73 73.875 M
77.34 73.875 L
S
GR
GS
[0.75 0 0 0.75 0 0] CT
0.149 GC
2 setlinecap
10.0 ML
N
73 31 M
77.34 31 L
S
GR
GS
[0.75 0 0 0.75 0 0] CT
0.149 GC
2 setlinecap
10.0 ML
N
507 374 M
502.66 374 L
S
GR
GS
[0.75 0 0 0.75 0 0] CT
0.149 GC
2 setlinecap
10.0 ML
N
507 331.125 M
502.66 331.125 L
S
GR
GS
[0.75 0 0 0.75 0 0] CT
0.149 GC
2 setlinecap
10.0 ML
N
507 288.25 M
502.66 288.25 L
S
GR
GS
[0.75 0 0 0.75 0 0] CT
0.149 GC
2 setlinecap
10.0 ML
N
507 245.375 M
502.66 245.375 L
S
GR
GS
[0.75 0 0 0.75 0 0] CT
0.149 GC
2 setlinecap
10.0 ML
N
507 202.5 M
502.66 202.5 L
S
GR
GS
[0.75 0 0 0.75 0 0] CT
0.149 GC
2 setlinecap
10.0 ML
N
507 159.625 M
502.66 159.625 L
S
GR
GS
[0.75 0 0 0.75 0 0] CT
0.149 GC
2 setlinecap
10.0 ML
N
507 116.75 M
502.66 116.75 L
S
GR
GS
[0.75 0 0 0.75 0 0] CT
0.149 GC
2 setlinecap
10.0 ML
N
507 73.875 M
502.66 73.875 L
S
GR
GS
[0.75 0 0 0.75 0 0] CT
0.149 GC
2 setlinecap
10.0 ML
N
507 31 M
502.66 31 L
S
GR
GS
[0.75 0 0 0.75 50.75 280.5] CT
0.149 GC
/Helvetica 13 F
GS
[1 0 0 1 0 0] CT
-22 5.5 moveto 
1 -1 scale
(677) t 
GR
GR
GS
[0.75 0 0 0.75 50.75 248.34375] CT
0.149 GC
/Helvetica 13 F
GS
[1 0 0 1 0 0] CT
-22 5.5 moveto 
1 -1 scale
(678) t 
GR
GR
GS
[0.75 0 0 0.75 50.75 216.1875] CT
0.149 GC
/Helvetica 13 F
GS
[1 0 0 1 0 0] CT
-22 5.5 moveto 
1 -1 scale
(679) t 
GR
GR
GS
[0.75 0 0 0.75 50.75 184.03125] CT
0.149 GC
/Helvetica 13 F
GS
[1 0 0 1 0 0] CT
-22 5.5 moveto 
1 -1 scale
(680) t 
GR
GR
GS
[0.75 0 0 0.75 50.75 151.875] CT
0.149 GC
/Helvetica 13 F
GS
[1 0 0 1 0 0] CT
-22 5.5 moveto 
1 -1 scale
(681) t 
GR
GR
GS
[0.75 0 0 0.75 50.75 119.71875] CT
0.149 GC
/Helvetica 13 F
GS
[1 0 0 1 0 0] CT
-22 5.5 moveto 
1 -1 scale
(682) t 
GR
GR
GS
[0.75 0 0 0.75 50.75 87.5625] CT
0.149 GC
/Helvetica 13 F
GS
[1 0 0 1 0 0] CT
-22 5.5 moveto 
1 -1 scale
(683) t 
GR
GR
GS
[0.75 0 0 0.75 50.75 55.40625] CT
0.149 GC
/Helvetica 13 F
GS
[1 0 0 1 0 0] CT
-22 5.5 moveto 
1 -1 scale
(684) t 
GR
GR
GS
[0.75 0 0 0.75 50.75 23.25] CT
0.149 GC
/Helvetica 13 F
GS
[1 0 0 1 0 0] CT
-22 5.5 moveto 
1 -1 scale
(685) t 
GR
GR
GS
[0.75 0 0 0.75 0 0] CT
0 0.447 0.741 RC
2 LJ
N
73.868 192.64 M
74.736 174.63 L
75.604 168.63 L
76.472 169.485 L
77.34 195.212 L
78.208 211.505 L
79.076 214.077 L
79.944 221.365 L
80.812 214.506 L
81.68 190.923 L
82.548 178.919 L
83.416 198.214 L
84.284 190.067 L
85.152 188.78 L
86.02 198.64 L
86.888 214.077 L
87.756 197.355 L
88.624 173.774 L
89.492 178.061 L
90.36 175.489 L
91.228 166.484 L
92.096 182.35 L
92.964 164.341 L
93.832 176.347 L
94.7 189.209 L
95.568 189.209 L
96.436 202.071 L
97.304 178.919 L
98.172 175.918 L
99.04 167.771 L
99.908 162.197 L
100.776 170.773 L
101.644 161.768 L
102.512 177.203 L
103.38 168.201 L
104.248 184.922 L
105.116 180.633 L
105.984 182.777 L
106.852 159.625 L
107.72 174.204 L
108.588 173.774 L
109.456 188.351 L
110.324 178.061 L
111.192 187.921 L
112.06 181.063 L
112.928 192.64 L
113.796 154.48 L
114.664 171.202 L
115.532 180.204 L
116.4 197.355 L
S
GR
GS
[0.75 0 0 0.75 0 0] CT
0 0.447 0.741 RC
2 LJ
N
116.4 197.355 M
117.268 189.209 L
118.136 185.349 L
119.004 156.194 L
119.872 154.051 L
120.74 163.911 L
121.608 160.913 L
122.476 169.056 L
123.344 161.339 L
124.212 179.348 L
125.08 190.923 L
125.948 156.194 L
126.816 166.913 L
127.684 172.487 L
128.552 165.199 L
129.42 178.919 L
130.288 177.203 L
131.156 172.058 L
132.024 176.776 L
132.892 178.49 L
133.76 175.489 L
134.628 186.207 L
135.496 181.492 L
136.364 166.057 L
137.232 158.337 L
138.1 159.625 L
138.968 194.354 L
139.836 197.784 L
140.704 172.916 L
141.572 181.921 L
142.44 176.776 L
143.308 190.067 L
144.176 199.069 L
145.044 179.348 L
145.912 198.64 L
146.78 172.916 L
147.648 157.482 L
148.516 146.763 L
149.384 137.329 L
150.252 146.334 L
151.12 170.344 L
151.988 163.485 L
152.856 145.905 L
153.724 179.348 L
154.592 167.342 L
155.46 184.922 L
156.328 160.483 L
157.196 168.201 L
158.064 158.767 L
158.932 151.479 L
S
GR
GS
[0.75 0 0 0.75 0 0] CT
0 0.447 0.741 RC
2 LJ
N
158.932 151.479 M
159.8 138.188 L
160.668 124.896 L
161.536 151.479 L
162.404 160.913 L
163.272 165.628 L
164.14 166.913 L
165.008 164.341 L
165.876 182.35 L
166.744 161.339 L
167.612 152.337 L
168.48 159.196 L
169.348 168.201 L
170.216 169.485 L
171.084 200.786 L
171.952 168.201 L
172.82 174.63 L
173.688 160.913 L
174.556 145.905 L
175.424 153.622 L
176.292 132.184 L
177.16 147.619 L
178.028 173.345 L
178.896 155.339 L
179.764 169.056 L
180.632 163.056 L
181.5 172.916 L
182.368 186.207 L
183.236 186.636 L
184.104 190.923 L
184.972 164.341 L
185.84 168.63 L
186.708 183.635 L
187.576 179.348 L
188.444 155.765 L
189.312 157.482 L
190.18 152.337 L
191.048 136.9 L
191.916 143.761 L
192.784 171.631 L
193.652 158.767 L
194.52 185.349 L
195.388 178.49 L
196.256 177.203 L
197.124 164.77 L
197.992 179.775 L
198.86 164.77 L
199.728 143.332 L
200.596 134.328 L
201.464 148.048 L
S
GR
GS
[0.75 0 0 0.75 0 0] CT
0 0.447 0.741 RC
2 LJ
N
201.464 148.048 M
202.332 155.339 L
203.2 155.339 L
204.068 152.337 L
204.936 148.048 L
205.804 147.619 L
206.672 157.911 L
207.54 140.331 L
208.408 136.044 L
209.276 146.334 L
210.144 147.192 L
211.012 152.337 L
211.88 155.339 L
212.748 156.194 L
213.616 139.475 L
214.484 147.619 L
215.352 155.765 L
216.22 145.476 L
217.088 154.909 L
217.956 157.053 L
218.824 154.909 L
219.692 138.188 L
220.56 143.761 L
221.428 161.339 L
222.296 158.337 L
223.164 171.631 L
224.032 148.048 L
224.9 181.492 L
225.768 198.64 L
226.636 192.64 L
227.504 184.493 L
228.372 176.347 L
229.24 177.203 L
230.108 174.204 L
230.976 159.196 L
231.844 139.475 L
232.712 145.476 L
233.58 157.482 L
234.448 168.201 L
235.316 152.766 L
236.184 155.765 L
237.052 180.633 L
237.92 191.352 L
238.788 172.058 L
239.656 160.913 L
240.524 149.335 L
241.392 147.192 L
242.26 153.193 L
243.128 169.485 L
243.996 142.903 L
S
GR
GS
[0.75 0 0 0.75 0 0] CT
0 0.447 0.741 RC
2 LJ
N
243.996 142.903 M
244.864 151.049 L
245.732 159.196 L
246.6 155.765 L
247.468 139.902 L
248.336 145.905 L
249.204 144.62 L
250.072 151.908 L
250.94 143.761 L
251.808 142.474 L
252.676 130.899 L
253.544 133.043 L
254.412 137.758 L
255.28 141.618 L
256.148 143.332 L
257.016 137.329 L
257.884 152.337 L
258.752 169.056 L
259.62 164.341 L
260.488 158.767 L
261.356 161.339 L
262.224 169.485 L
263.092 159.196 L
263.96 160.054 L
264.828 170.773 L
265.696 168.201 L
266.564 149.335 L
267.432 146.334 L
268.3 127.04 L
269.168 126.61 L
270.036 145.476 L
270.904 151.908 L
271.772 180.204 L
272.64 178.919 L
273.508 170.344 L
274.376 166.057 L
275.244 172.487 L
276.112 159.625 L
276.98 160.483 L
277.848 157.482 L
278.716 152.766 L
279.584 156.194 L
280.452 153.193 L
281.32 160.483 L
282.188 155.339 L
283.056 137.329 L
283.924 153.193 L
284.792 141.618 L
285.66 156.194 L
286.528 168.63 L
S
GR
GS
[0.75 0 0 0.75 0 0] CT
0 0.447 0.741 RC
2 LJ
N
286.528 168.63 M
287.396 189.638 L
288.264 154.909 L
289.132 136.9 L
290 143.761 L
290.868 155.339 L
291.736 168.201 L
292.604 180.633 L
293.472 141.618 L
294.34 138.617 L
295.208 154.051 L
296.076 148.477 L
296.944 150.194 L
297.812 164.341 L
298.68 140.76 L
299.548 142.047 L
300.416 133.901 L
301.284 133.472 L
302.152 152.337 L
303.02 139.046 L
303.888 137.329 L
304.756 142.474 L
305.624 141.189 L
306.492 137.758 L
307.36 118.464 L
308.228 123.182 L
309.096 124.038 L
309.964 126.61 L
310.832 106.031 L
311.7 117.608 L
312.568 113.748 L
313.436 106.46 L
314.304 119.752 L
315.172 143.332 L
316.04 165.628 L
316.908 158.767 L
317.776 154.909 L
318.644 143.761 L
319.512 169.915 L
320.38 181.063 L
321.248 157.053 L
322.116 148.048 L
322.984 151.049 L
323.852 151.479 L
324.72 150.62 L
325.588 165.628 L
326.456 177.632 L
327.324 158.337 L
328.192 165.628 L
329.06 196.068 L
S
GR
GS
[0.75 0 0 0.75 0 0] CT
0 0.447 0.741 RC
2 LJ
N
329.06 196.068 M
329.928 183.206 L
330.796 156.194 L
331.664 126.61 L
332.532 149.335 L
333.4 224.796 L
334.268 265.954 L
335.136 203.358 L
336.004 213.219 L
336.872 278.819 L
337.74 335.411 L
338.608 330.696 L
339.476 313.547 L
340.344 315.691 L
341.212 292.966 L
342.08 262.097 L
342.948 368.426 L
343.816 298.54 L
344.684 346.559 L
345.552 347.418 L
346.42 325.98 L
347.288 334.556 L
348.156 335.411 L
349.024 326.839 L
349.892 293.395 L
350.76 295.538 L
351.628 294.682 L
352.496 301.541 L
353.364 261.239 L
354.232 255.235 L
355.1 252.234 L
355.968 250.52 L
356.836 253.521 L
357.704 238.087 L
358.572 259.524 L
359.44 262.953 L
360.308 269.385 L
361.176 259.095 L
362.044 247.518 L
362.912 271.957 L
363.78 246.233 L
364.648 242.803 L
365.516 250.949 L
366.384 242.373 L
367.252 248.806 L
368.12 260.809 L
368.988 261.668 L
369.856 255.235 L
370.724 258.237 L
371.592 256.094 L
S
GR
GS
[0.75 0 0 0.75 0 0] CT
0 0.447 0.741 RC
2 LJ
N
371.592 256.094 M
372.46 287.392 L
373.328 281.391 L
374.196 258.237 L
375.064 205.931 L
375.932 169.915 L
376.8 122.753 L
377.668 97.456 L
378.536 42.148 L
379.404 47.722 L
380.272 71.303 L
381.14 82.451 L
382.008 100.886 L
382.876 98.314 L
383.744 95.742 L
384.612 92.311 L
385.48 121.466 L
386.348 166.913 L
387.216 188.351 L
388.084 170.773 L
388.952 145.476 L
389.82 147.192 L
390.688 133.472 L
391.556 139.046 L
392.424 155.339 L
393.292 148.048 L
394.16 131.755 L
395.028 139.902 L
395.896 133.043 L
396.764 117.179 L
397.632 128.327 L
398.5 132.614 L
399.368 144.191 L
400.236 133.043 L
401.104 127.469 L
401.972 142.903 L
402.84 143.761 L
403.708 124.038 L
404.576 106.031 L
405.444 110.747 L
406.312 121.466 L
407.18 120.61 L
408.048 116.75 L
408.916 113.748 L
409.784 121.895 L
410.652 104.317 L
411.52 103.03 L
412.388 129.183 L
413.256 126.61 L
414.124 114.607 L
S
GR
GS
[0.75 0 0 0.75 0 0] CT
0 0.447 0.741 RC
2 LJ
N
414.124 114.607 M
414.992 112.464 L
415.86 114.178 L
416.728 119.322 L
417.596 138.188 L
418.464 119.322 L
419.332 108.604 L
420.2 105.173 L
421.068 108.174 L
421.936 118.038 L
422.804 114.607 L
423.672 97.027 L
424.54 106.031 L
425.408 121.036 L
426.276 115.892 L
427.144 99.599 L
428.012 105.173 L
428.88 113.748 L
429.748 97.885 L
430.616 105.173 L
431.484 100.886 L
432.352 106.46 L
433.22 114.178 L
434.088 127.898 L
434.956 136.9 L
435.824 122.753 L
436.692 123.182 L
437.56 142.903 L
438.428 125.326 L
439.296 111.176 L
440.164 115.036 L
441.032 118.893 L
441.9 116.75 L
442.768 125.755 L
443.636 124.896 L
444.504 108.604 L
445.372 115.892 L
446.24 135.186 L
447.108 109.462 L
447.976 107.319 L
448.844 138.617 L
449.712 159.625 L
450.58 142.474 L
451.448 141.189 L
452.316 155.339 L
453.184 157.911 L
454.052 157.911 L
454.92 151.908 L
455.788 129.183 L
456.656 126.181 L
S
GR
GS
[0.75 0 0 0.75 0 0] CT
0 0.447 0.741 RC
2 LJ
N
456.656 126.181 M
457.524 144.191 L
458.392 142.047 L
459.26 117.608 L
460.128 140.331 L
460.996 143.332 L
461.864 137.758 L
462.732 152.766 L
463.6 140.76 L
464.468 127.469 L
465.336 144.62 L
466.204 152.766 L
467.072 145.476 L
467.94 152.337 L
468.808 157.482 L
469.676 141.189 L
470.544 106.46 L
471.412 89.309 L
472.28 81.163 L
473.148 95.742 L
474.016 97.885 L
474.884 107.319 L
475.752 118.464 L
476.62 145.905 L
477.488 125.755 L
478.356 130.041 L
479.224 127.469 L
480.092 116.75 L
480.96 124.038 L
481.828 116.75 L
482.696 129.183 L
483.564 104.744 L
484.432 101.316 L
485.3 93.598 L
486.168 110.747 L
487.036 120.181 L
487.904 107.319 L
488.772 112.464 L
489.64 106.031 L
490.508 128.756 L
491.376 124.038 L
492.244 112.464 L
493.112 100.886 L
493.98 98.743 L
494.848 112.89 L
495.716 141.618 L
496.584 121.895 L
497.452 124.038 L
498.32 128.327 L
499.188 133.901 L
S
GR
%%Trailer
%%Pages: 1
%%EOF
