%!PS-Adobe-3.0 EPSF-3.0
%%Creator: (MATLAB, The Mathworks, Inc. Version 8.5.0.197613 \(R2015a\). Operating System: Windows 8)
%%Title: C:/Users/aleja/Desktop/TFG/Documentacion/Memoria_V2/matlab_plot/plots/Jota11-59.eps
%%CreationDate: 2019-06-16T13:18:28
%%Pages: (atend)
%%BoundingBox: 0 0 420 315
%%LanguageLevel: 2
%%EndComments
%%BeginProlog
%%BeginResource: procset (Apache XML Graphics Std ProcSet) 1.2 0
%%Version: 1.2 0
%%Copyright: (Copyright 2001-2003,2010 The Apache Software Foundation. License terms: http://www.apache.org/licenses/LICENSE-2.0)
/bd{bind def}bind def
/ld{load def}bd
/GR/grestore ld
/M/moveto ld
/LJ/setlinejoin ld
/C/curveto ld
/f/fill ld
/LW/setlinewidth ld
/GC/setgray ld
/t/show ld
/N/newpath ld
/CT/concat ld
/cp/closepath ld
/S/stroke ld
/L/lineto ld
/CC/setcmykcolor ld
/A/ashow ld
/GS/gsave ld
/RC/setrgbcolor ld
/RM/rmoveto ld
/ML/setmiterlimit ld
/re {4 2 roll M
1 index 0 rlineto
0 exch rlineto
neg 0 rlineto
cp } bd
/_ctm matrix def
/_tm matrix def
/BT { _ctm currentmatrix pop matrix _tm copy pop 0 0 moveto } bd
/ET { _ctm setmatrix } bd
/iTm { _ctm setmatrix _tm concat } bd
/Tm { _tm astore pop iTm 0 0 moveto } bd
/ux 0.0 def
/uy 0.0 def
/F {
  /Tp exch def
  /Tf exch def
  Tf findfont Tp scalefont setfont
  /cf Tf def  /cs Tp def
} bd
/ULS {currentpoint /uy exch def /ux exch def} bd
/ULE {
  /Tcx currentpoint pop def
  gsave
  newpath
  cf findfont cs scalefont dup
  /FontMatrix get 0 get /Ts exch def /FontInfo get dup
  /UnderlinePosition get Ts mul /To exch def
  /UnderlineThickness get Ts mul /Tt exch def
  ux uy To add moveto  Tcx uy To add lineto
  Tt setlinewidth stroke
  grestore
} bd
/OLE {
  /Tcx currentpoint pop def
  gsave
  newpath
  cf findfont cs scalefont dup
  /FontMatrix get 0 get /Ts exch def /FontInfo get dup
  /UnderlinePosition get Ts mul /To exch def
  /UnderlineThickness get Ts mul /Tt exch def
  ux uy To add cs add moveto Tcx uy To add cs add lineto
  Tt setlinewidth stroke
  grestore
} bd
/SOE {
  /Tcx currentpoint pop def
  gsave
  newpath
  cf findfont cs scalefont dup
  /FontMatrix get 0 get /Ts exch def /FontInfo get dup
  /UnderlinePosition get Ts mul /To exch def
  /UnderlineThickness get Ts mul /Tt exch def
  ux uy To add cs 10 mul 26 idiv add moveto Tcx uy To add cs 10 mul 26 idiv add lineto
  Tt setlinewidth stroke
  grestore
} bd
/QT {
/Y22 exch store
/X22 exch store
/Y21 exch store
/X21 exch store
currentpoint
/Y21 load 2 mul add 3 div exch
/X21 load 2 mul add 3 div exch
/X21 load 2 mul /X22 load add 3 div
/Y21 load 2 mul /Y22 load add 3 div
/X22 load /Y22 load curveto
} bd
/SSPD {
dup length /d exch dict def
{
/v exch def
/k exch def
currentpagedevice k known {
/cpdv currentpagedevice k get def
v cpdv ne {
/upd false def
/nullv v type /nulltype eq def
/nullcpdv cpdv type /nulltype eq def
nullv nullcpdv or
{
/upd true def
} {
/sametype v type cpdv type eq def
sametype {
v type /arraytype eq {
/vlen v length def
/cpdvlen cpdv length def
vlen cpdvlen eq {
0 1 vlen 1 sub {
/i exch def
/obj v i get def
/cpdobj cpdv i get def
obj cpdobj ne {
/upd true def
exit
} if
} for
} {
/upd true def
} ifelse
} {
v type /dicttype eq {
v {
/dv exch def
/dk exch def
/cpddv cpdv dk get def
dv cpddv ne {
/upd true def
exit
} if
} forall
} {
/upd true def
} ifelse
} ifelse
} if
} ifelse
upd true eq {
d k v put
} if
} if
} if
} forall
d length 0 gt {
d setpagedevice
} if
} bd
%%EndResource
%%BeginResource: procset (Apache XML Graphics EPS ProcSet) 1.0 0
%%Version: 1.0 0
%%Copyright: (Copyright 2002-2003 The Apache Software Foundation. License terms: http://www.apache.org/licenses/LICENSE-2.0)
/BeginEPSF { %def
/b4_Inc_state save def         % Save state for cleanup
/dict_count countdictstack def % Count objects on dict stack
/op_count count 1 sub def      % Count objects on operand stack
userdict begin                 % Push userdict on dict stack
/showpage { } def              % Redefine showpage, { } = null proc
0 setgray 0 setlinecap         % Prepare graphics state
1 setlinewidth 0 setlinejoin
10 setmiterlimit [ ] 0 setdash newpath
/languagelevel where           % If level not equal to 1 then
{pop languagelevel             % set strokeadjust and
1 ne                           % overprint to their defaults.
{false setstrokeadjust false setoverprint
} if
} if
} bd
/EndEPSF { %def
count op_count sub {pop} repeat            % Clean up stacks
countdictstack dict_count sub {end} repeat
b4_Inc_state restore
} bd
%%EndResource
%FOPBeginFontDict
%%IncludeResource: font Courier-Bold
%%IncludeResource: font Helvetica
%%IncludeResource: font Courier-BoldOblique
%%IncludeResource: font Courier-Oblique
%%IncludeResource: font Times-Roman
%%IncludeResource: font Helvetica-BoldOblique
%%IncludeResource: font Helvetica-Bold
%%IncludeResource: font Helvetica-Oblique
%%IncludeResource: font Times-BoldItalic
%%IncludeResource: font Courier
%%IncludeResource: font Times-Italic
%%IncludeResource: font Times-Bold
%%IncludeResource: font Symbol
%%IncludeResource: font ZapfDingbats
%FOPEndFontDict
%%BeginResource: encoding WinAnsiEncoding
/WinAnsiEncoding [
/.notdef /.notdef /.notdef /.notdef /.notdef
/.notdef /.notdef /.notdef /.notdef /.notdef
/.notdef /.notdef /.notdef /.notdef /.notdef
/.notdef /.notdef /.notdef /.notdef /.notdef
/.notdef /.notdef /.notdef /.notdef /.notdef
/.notdef /.notdef /.notdef /.notdef /.notdef
/.notdef /.notdef /space /exclam /quotedbl
/numbersign /dollar /percent /ampersand /quotesingle
/parenleft /parenright /asterisk /plus /comma
/hyphen /period /slash /zero /one
/two /three /four /five /six
/seven /eight /nine /colon /semicolon
/less /equal /greater /question /at
/A /B /C /D /E
/F /G /H /I /J
/K /L /M /N /O
/P /Q /R /S /T
/U /V /W /X /Y
/Z /bracketleft /backslash /bracketright /asciicircum
/underscore /quoteleft /a /b /c
/d /e /f /g /h
/i /j /k /l /m
/n /o /p /q /r
/s /t /u /v /w
/x /y /z /braceleft /bar
/braceright /asciitilde /bullet /Euro /bullet
/quotesinglbase /florin /quotedblbase /ellipsis /dagger
/daggerdbl /circumflex /perthousand /Scaron /guilsinglleft
/OE /bullet /Zcaron /bullet /bullet
/quoteleft /quoteright /quotedblleft /quotedblright /bullet
/endash /emdash /asciitilde /trademark /scaron
/guilsinglright /oe /bullet /zcaron /Ydieresis
/space /exclamdown /cent /sterling /currency
/yen /brokenbar /section /dieresis /copyright
/ordfeminine /guillemotleft /logicalnot /sfthyphen /registered
/macron /degree /plusminus /twosuperior /threesuperior
/acute /mu /paragraph /middot /cedilla
/onesuperior /ordmasculine /guillemotright /onequarter /onehalf
/threequarters /questiondown /Agrave /Aacute /Acircumflex
/Atilde /Adieresis /Aring /AE /Ccedilla
/Egrave /Eacute /Ecircumflex /Edieresis /Igrave
/Iacute /Icircumflex /Idieresis /Eth /Ntilde
/Ograve /Oacute /Ocircumflex /Otilde /Odieresis
/multiply /Oslash /Ugrave /Uacute /Ucircumflex
/Udieresis /Yacute /Thorn /germandbls /agrave
/aacute /acircumflex /atilde /adieresis /aring
/ae /ccedilla /egrave /eacute /ecircumflex
/edieresis /igrave /iacute /icircumflex /idieresis
/eth /ntilde /ograve /oacute /ocircumflex
/otilde /odieresis /divide /oslash /ugrave
/uacute /ucircumflex /udieresis /yacute /thorn
/ydieresis
] def
%%EndResource
%FOPBeginFontReencode
/Courier-Bold findfont
dup length dict begin
  {1 index /FID ne {def} {pop pop} ifelse} forall
  /Encoding WinAnsiEncoding def
  currentdict
end
/Courier-Bold exch definefont pop
/Helvetica findfont
dup length dict begin
  {1 index /FID ne {def} {pop pop} ifelse} forall
  /Encoding WinAnsiEncoding def
  currentdict
end
/Helvetica exch definefont pop
/Courier-BoldOblique findfont
dup length dict begin
  {1 index /FID ne {def} {pop pop} ifelse} forall
  /Encoding WinAnsiEncoding def
  currentdict
end
/Courier-BoldOblique exch definefont pop
/Courier-Oblique findfont
dup length dict begin
  {1 index /FID ne {def} {pop pop} ifelse} forall
  /Encoding WinAnsiEncoding def
  currentdict
end
/Courier-Oblique exch definefont pop
/Times-Roman findfont
dup length dict begin
  {1 index /FID ne {def} {pop pop} ifelse} forall
  /Encoding WinAnsiEncoding def
  currentdict
end
/Times-Roman exch definefont pop
/Helvetica-BoldOblique findfont
dup length dict begin
  {1 index /FID ne {def} {pop pop} ifelse} forall
  /Encoding WinAnsiEncoding def
  currentdict
end
/Helvetica-BoldOblique exch definefont pop
/Helvetica-Bold findfont
dup length dict begin
  {1 index /FID ne {def} {pop pop} ifelse} forall
  /Encoding WinAnsiEncoding def
  currentdict
end
/Helvetica-Bold exch definefont pop
/Helvetica-Oblique findfont
dup length dict begin
  {1 index /FID ne {def} {pop pop} ifelse} forall
  /Encoding WinAnsiEncoding def
  currentdict
end
/Helvetica-Oblique exch definefont pop
/Times-BoldItalic findfont
dup length dict begin
  {1 index /FID ne {def} {pop pop} ifelse} forall
  /Encoding WinAnsiEncoding def
  currentdict
end
/Times-BoldItalic exch definefont pop
/Courier findfont
dup length dict begin
  {1 index /FID ne {def} {pop pop} ifelse} forall
  /Encoding WinAnsiEncoding def
  currentdict
end
/Courier exch definefont pop
/Times-Italic findfont
dup length dict begin
  {1 index /FID ne {def} {pop pop} ifelse} forall
  /Encoding WinAnsiEncoding def
  currentdict
end
/Times-Italic exch definefont pop
/Times-Bold findfont
dup length dict begin
  {1 index /FID ne {def} {pop pop} ifelse} forall
  /Encoding WinAnsiEncoding def
  currentdict
end
/Times-Bold exch definefont pop
%FOPEndFontReencode
%%EndProlog
%%Page: 1 1
%%PageBoundingBox: 0 0 420 315
%%BeginPageSetup
[1 0 0 -1 0 315] CT
%%EndPageSetup
GS
[0.75 0 0 0.75 0 0] CT
1 GC
N
0 0 560 420 re
f
GR
GS
[0.75 0 0 0.75 0 0] CT
1 GC
N
0 0 560 420 re
f
GR
GS
[0.75 0 0 0.75 0 0] CT
1 GC
N
73 374 M
507 374 L
507 31 L
73 31 L
cp
f
GR
GS
[0.75 0 0 0.75 217.50016 298.24997] CT
0.149 GC
/Helvetica 15 F
GS
[1 0 0 1 0 0] CT
-67 16 moveto 
1 -1 scale
(N\272 Datas recolected) t 
GR
GR
GS
[0.75 0 0 0.75 0 0] CT
0.149 GC
2 setlinecap
10.0 ML
N
73 374 M
507 374 L
S
GR
GS
[0.75 0 0 0.75 0 0] CT
0.149 GC
2 setlinecap
10.0 ML
N
73 31 M
507 31 L
S
GR
GS
[0.75 0 0 0.75 0 0] CT
0.149 GC
2 setlinecap
10.0 ML
N
73 374 M
73 369.66 L
S
GR
GS
[0.75 0 0 0.75 0 0] CT
0.149 GC
2 setlinecap
10.0 ML
N
127.25 374 M
127.25 369.66 L
S
GR
GS
[0.75 0 0 0.75 0 0] CT
0.149 GC
2 setlinecap
10.0 ML
N
181.5 374 M
181.5 369.66 L
S
GR
GS
[0.75 0 0 0.75 0 0] CT
0.149 GC
2 setlinecap
10.0 ML
N
235.75 374 M
235.75 369.66 L
S
GR
GS
[0.75 0 0 0.75 0 0] CT
0.149 GC
2 setlinecap
10.0 ML
N
290 374 M
290 369.66 L
S
GR
GS
[0.75 0 0 0.75 0 0] CT
0.149 GC
2 setlinecap
10.0 ML
N
344.25 374 M
344.25 369.66 L
S
GR
GS
[0.75 0 0 0.75 0 0] CT
0.149 GC
2 setlinecap
10.0 ML
N
398.5 374 M
398.5 369.66 L
S
GR
GS
[0.75 0 0 0.75 0 0] CT
0.149 GC
2 setlinecap
10.0 ML
N
452.75 374 M
452.75 369.66 L
S
GR
GS
[0.75 0 0 0.75 0 0] CT
0.149 GC
2 setlinecap
10.0 ML
N
507 374 M
507 369.66 L
S
GR
GS
[0.75 0 0 0.75 0 0] CT
0.149 GC
2 setlinecap
10.0 ML
N
73 31 M
73 35.34 L
S
GR
GS
[0.75 0 0 0.75 0 0] CT
0.149 GC
2 setlinecap
10.0 ML
N
127.25 31 M
127.25 35.34 L
S
GR
GS
[0.75 0 0 0.75 0 0] CT
0.149 GC
2 setlinecap
10.0 ML
N
181.5 31 M
181.5 35.34 L
S
GR
GS
[0.75 0 0 0.75 0 0] CT
0.149 GC
2 setlinecap
10.0 ML
N
235.75 31 M
235.75 35.34 L
S
GR
GS
[0.75 0 0 0.75 0 0] CT
0.149 GC
2 setlinecap
10.0 ML
N
290 31 M
290 35.34 L
S
GR
GS
[0.75 0 0 0.75 0 0] CT
0.149 GC
2 setlinecap
10.0 ML
N
344.25 31 M
344.25 35.34 L
S
GR
GS
[0.75 0 0 0.75 0 0] CT
0.149 GC
2 setlinecap
10.0 ML
N
398.5 31 M
398.5 35.34 L
S
GR
GS
[0.75 0 0 0.75 0 0] CT
0.149 GC
2 setlinecap
10.0 ML
N
452.75 31 M
452.75 35.34 L
S
GR
GS
[0.75 0 0 0.75 0 0] CT
0.149 GC
2 setlinecap
10.0 ML
N
507 31 M
507 35.34 L
S
GR
GS
[0.75 0 0 0.75 54.75 284.49998] CT
0.149 GC
/Helvetica 13 F
GS
[1 0 0 1 0 0] CT
-4 14 moveto 
1 -1 scale
(0) t 
GR
GR
GS
[0.75 0 0 0.75 95.4375 284.49998] CT
0.149 GC
/Helvetica 13 F
GS
[1 0 0 1 0 0] CT
-11 14 moveto 
1 -1 scale
(100) t 
GR
GR
GS
[0.75 0 0 0.75 136.125 284.49998] CT
0.149 GC
/Helvetica 13 F
GS
[1 0 0 1 0 0] CT
-11 14 moveto 
1 -1 scale
(200) t 
GR
GR
GS
[0.75 0 0 0.75 176.8125 284.49998] CT
0.149 GC
/Helvetica 13 F
GS
[1 0 0 1 0 0] CT
-11 14 moveto 
1 -1 scale
(300) t 
GR
GR
GS
[0.75 0 0 0.75 217.5 284.49998] CT
0.149 GC
/Helvetica 13 F
GS
[1 0 0 1 0 0] CT
-11 14 moveto 
1 -1 scale
(400) t 
GR
GR
GS
[0.75 0 0 0.75 258.1875 284.49998] CT
0.149 GC
/Helvetica 13 F
GS
[1 0 0 1 0 0] CT
-11 14 moveto 
1 -1 scale
(500) t 
GR
GR
GS
[0.75 0 0 0.75 298.875 284.49998] CT
0.149 GC
/Helvetica 13 F
GS
[1 0 0 1 0 0] CT
-11 14 moveto 
1 -1 scale
(600) t 
GR
GR
GS
[0.75 0 0 0.75 339.5625 284.49998] CT
0.149 GC
/Helvetica 13 F
GS
[1 0 0 1 0 0] CT
-11 14 moveto 
1 -1 scale
(700) t 
GR
GR
GS
[0.75 0 0 0.75 380.25 284.49998] CT
0.149 GC
/Helvetica 13 F
GS
[1 0 0 1 0 0] CT
-11 14 moveto 
1 -1 scale
(800) t 
GR
GR
GS
[0 -0.75 0.75 0 31.25 151.87483] CT
0.149 GC
/Helvetica 15 F
GS
[1 0 0 1 0 0] CT
-79 -4 moveto 
1 -1 scale
(Signal potency \(13-bits\)) t 
GR
GR
GS
[0.75 0 0 0.75 0 0] CT
0.149 GC
2 setlinecap
10.0 ML
N
73 374 M
73 31 L
S
GR
GS
[0.75 0 0 0.75 0 0] CT
0.149 GC
2 setlinecap
10.0 ML
N
507 374 M
507 31 L
S
GR
GS
[0.75 0 0 0.75 0 0] CT
0.149 GC
2 setlinecap
10.0 ML
N
73 374 M
77.34 374 L
S
GR
GS
[0.75 0 0 0.75 0 0] CT
0.149 GC
2 setlinecap
10.0 ML
N
73 335.889 M
77.34 335.889 L
S
GR
GS
[0.75 0 0 0.75 0 0] CT
0.149 GC
2 setlinecap
10.0 ML
N
73 297.778 M
77.34 297.778 L
S
GR
GS
[0.75 0 0 0.75 0 0] CT
0.149 GC
2 setlinecap
10.0 ML
N
73 259.667 M
77.34 259.667 L
S
GR
GS
[0.75 0 0 0.75 0 0] CT
0.149 GC
2 setlinecap
10.0 ML
N
73 221.556 M
77.34 221.556 L
S
GR
GS
[0.75 0 0 0.75 0 0] CT
0.149 GC
2 setlinecap
10.0 ML
N
73 183.444 M
77.34 183.444 L
S
GR
GS
[0.75 0 0 0.75 0 0] CT
0.149 GC
2 setlinecap
10.0 ML
N
73 145.333 M
77.34 145.333 L
S
GR
GS
[0.75 0 0 0.75 0 0] CT
0.149 GC
2 setlinecap
10.0 ML
N
73 107.222 M
77.34 107.222 L
S
GR
GS
[0.75 0 0 0.75 0 0] CT
0.149 GC
2 setlinecap
10.0 ML
N
73 69.111 M
77.34 69.111 L
S
GR
GS
[0.75 0 0 0.75 0 0] CT
0.149 GC
2 setlinecap
10.0 ML
N
73 31 M
77.34 31 L
S
GR
GS
[0.75 0 0 0.75 0 0] CT
0.149 GC
2 setlinecap
10.0 ML
N
507 374 M
502.66 374 L
S
GR
GS
[0.75 0 0 0.75 0 0] CT
0.149 GC
2 setlinecap
10.0 ML
N
507 335.889 M
502.66 335.889 L
S
GR
GS
[0.75 0 0 0.75 0 0] CT
0.149 GC
2 setlinecap
10.0 ML
N
507 297.778 M
502.66 297.778 L
S
GR
GS
[0.75 0 0 0.75 0 0] CT
0.149 GC
2 setlinecap
10.0 ML
N
507 259.667 M
502.66 259.667 L
S
GR
GS
[0.75 0 0 0.75 0 0] CT
0.149 GC
2 setlinecap
10.0 ML
N
507 221.556 M
502.66 221.556 L
S
GR
GS
[0.75 0 0 0.75 0 0] CT
0.149 GC
2 setlinecap
10.0 ML
N
507 183.444 M
502.66 183.444 L
S
GR
GS
[0.75 0 0 0.75 0 0] CT
0.149 GC
2 setlinecap
10.0 ML
N
507 145.333 M
502.66 145.333 L
S
GR
GS
[0.75 0 0 0.75 0 0] CT
0.149 GC
2 setlinecap
10.0 ML
N
507 107.222 M
502.66 107.222 L
S
GR
GS
[0.75 0 0 0.75 0 0] CT
0.149 GC
2 setlinecap
10.0 ML
N
507 69.111 M
502.66 69.111 L
S
GR
GS
[0.75 0 0 0.75 0 0] CT
0.149 GC
2 setlinecap
10.0 ML
N
507 31 M
502.66 31 L
S
GR
GS
[0.75 0 0 0.75 50.75 280.5] CT
0.149 GC
/Helvetica 13 F
GS
[1 0 0 1 0 0] CT
-22 5.5 moveto 
1 -1 scale
(620) t 
GR
GR
GS
[0.75 0 0 0.75 50.75 251.91666] CT
0.149 GC
/Helvetica 13 F
GS
[1 0 0 1 0 0] CT
-22 5.5 moveto 
1 -1 scale
(630) t 
GR
GR
GS
[0.75 0 0 0.75 50.75 223.33333] CT
0.149 GC
/Helvetica 13 F
GS
[1 0 0 1 0 0] CT
-22 5.5 moveto 
1 -1 scale
(640) t 
GR
GR
GS
[0.75 0 0 0.75 50.75 194.74999] CT
0.149 GC
/Helvetica 13 F
GS
[1 0 0 1 0 0] CT
-22 5.5 moveto 
1 -1 scale
(650) t 
GR
GR
GS
[0.75 0 0 0.75 50.75 166.16667] CT
0.149 GC
/Helvetica 13 F
GS
[1 0 0 1 0 0] CT
-22 5.5 moveto 
1 -1 scale
(660) t 
GR
GR
GS
[0.75 0 0 0.75 50.75 137.58333] CT
0.149 GC
/Helvetica 13 F
GS
[1 0 0 1 0 0] CT
-22 5.5 moveto 
1 -1 scale
(670) t 
GR
GR
GS
[0.75 0 0 0.75 50.75 109] CT
0.149 GC
/Helvetica 13 F
GS
[1 0 0 1 0 0] CT
-22 5.5 moveto 
1 -1 scale
(680) t 
GR
GR
GS
[0.75 0 0 0.75 50.75 80.41667] CT
0.149 GC
/Helvetica 13 F
GS
[1 0 0 1 0 0] CT
-22 5.5 moveto 
1 -1 scale
(690) t 
GR
GR
GS
[0.75 0 0 0.75 50.75 51.83334] CT
0.149 GC
/Helvetica 13 F
GS
[1 0 0 1 0 0] CT
-22 5.5 moveto 
1 -1 scale
(700) t 
GR
GR
GS
[0.75 0 0 0.75 50.75 23.25] CT
0.149 GC
/Helvetica 13 F
GS
[1 0 0 1 0 0] CT
-22 5.5 moveto 
1 -1 scale
(710) t 
GR
GR
GS
[0.75 0 0 0.75 0 0] CT
0 0.447 0.741 RC
2 LJ
N
73.543 367.635 M
74.085 365.158 L
74.628 363.634 L
75.17 362.109 L
75.713 361.538 L
76.255 359.975 L
76.798 357.726 L
77.34 356.964 L
77.882 357.726 L
78.425 356.278 L
78.967 355.821 L
79.51 356.507 L
80.052 355.097 L
80.595 355.516 L
81.137 355.745 L
81.68 356.088 L
82.223 356.202 L
82.765 355.516 L
83.308 355.211 L
83.85 356.316 L
84.393 357.498 L
84.935 356.774 L
85.478 356.012 L
86.02 356.964 L
86.563 357.384 L
87.105 357.536 L
87.647 358.07 L
88.19 357.917 L
88.732 357.117 L
89.275 355.478 L
89.817 355.783 L
90.36 356.431 L
90.902 357.345 L
91.445 356.24 L
91.988 357.803 L
92.53 358.87 L
93.073 356.202 L
93.615 355.211 L
94.158 353.382 L
94.7 353.687 L
95.243 357.269 L
95.785 359.099 L
96.327 361.652 L
96.87 361.766 L
97.412 359.175 L
97.955 358.146 L
98.497 358.031 L
99.04 356.05 L
99.582 355.974 L
100.125 355.402 L
S
GR
GS
[0.75 0 0 0.75 0 0] CT
0 0.447 0.741 RC
2 LJ
N
100.125 355.402 M
100.668 354.258 L
101.21 353.725 L
101.753 353.458 L
102.295 354.335 L
102.838 353.649 L
103.38 353.153 L
103.923 352.81 L
104.465 353.877 L
105.007 354.144 L
105.55 353.954 L
106.092 355.097 L
106.635 355.211 L
107.177 356.507 L
107.72 356.888 L
108.262 356.469 L
108.805 357.002 L
109.348 356.278 L
109.89 355.554 L
110.433 355.897 L
110.975 357.345 L
111.518 358.222 L
112.06 357.612 L
112.603 355.325 L
113.145 357.65 L
113.688 358.451 L
114.23 356.659 L
114.772 355.364 L
115.315 355.44 L
115.857 356.621 L
116.4 356.774 L
116.942 358.565 L
117.485 357.498 L
118.027 355.554 L
118.57 356.202 L
119.113 355.173 L
119.655 355.135 L
120.198 356.393 L
120.74 356.202 L
121.283 356.202 L
121.825 354.868 L
122.368 355.745 L
122.91 357.574 L
123.452 357.079 L
123.995 356.736 L
124.537 356.926 L
125.08 357.193 L
125.622 355.897 L
126.165 356.126 L
126.707 356.126 L
S
GR
GS
[0.75 0 0 0.75 0 0] CT
0 0.447 0.741 RC
2 LJ
N
126.707 356.126 M
127.25 357.155 L
127.793 356.774 L
128.335 356.278 L
128.878 356.85 L
129.42 357.193 L
129.962 357.841 L
130.505 357.002 L
131.048 355.897 L
131.59 355.821 L
132.133 356.431 L
132.675 356.888 L
133.217 358.184 L
133.76 355.783 L
134.303 355.745 L
134.845 355.211 L
135.387 354.144 L
135.93 353.839 L
136.473 354.525 L
137.015 354.449 L
137.557 355.097 L
138.1 356.088 L
138.643 356.355 L
139.185 356.355 L
139.727 355.707 L
140.27 355.364 L
140.813 355.63 L
141.355 354.792 L
141.898 354.106 L
142.44 353.725 L
142.982 356.088 L
143.525 355.821 L
144.068 355.935 L
144.61 354.525 L
145.152 353.954 L
145.695 353.649 L
146.238 354.792 L
146.78 354.144 L
147.322 353.306 L
147.865 352.582 L
148.408 352.658 L
148.95 353.306 L
149.492 352.734 L
150.035 352.467 L
150.577 353.077 L
151.12 355.021 L
151.663 355.592 L
152.205 355.745 L
152.747 356.088 L
153.29 355.554 L
S
GR
GS
[0.75 0 0 0.75 0 0] CT
0 0.447 0.741 RC
2 LJ
N
153.29 355.554 M
153.833 353.763 L
154.375 353.001 L
154.917 353.458 L
155.46 353.611 L
156.003 352.81 L
156.545 352.81 L
157.087 353.306 L
157.63 353.877 L
158.173 353.077 L
158.715 353.534 L
159.258 355.249 L
159.8 358.184 L
160.342 362.529 L
160.885 364.434 L
161.428 368.169 L
161.97 369.617 L
162.512 371.789 L
163.055 371.789 L
163.598 372.247 L
164.14 370.989 L
164.682 369.922 L
165.225 369.236 L
165.768 365.616 L
166.31 364.091 L
166.852 362.719 L
167.395 361.538 L
167.938 358.756 L
168.48 357.65 L
169.023 357.117 L
169.565 358.489 L
170.107 359.785 L
170.65 361.347 L
171.193 359.594 L
171.735 357.841 L
172.277 358.07 L
172.82 358.222 L
173.363 358.108 L
173.905 358.146 L
174.447 358.222 L
174.99 357.269 L
175.533 357.498 L
176.075 358.108 L
176.617 358.451 L
177.16 358.07 L
177.702 357.65 L
178.245 357.46 L
178.788 359.022 L
179.33 358.984 L
179.872 360.471 L
S
GR
GS
[0.75 0 0 0.75 0 0] CT
0 0.447 0.741 RC
2 LJ
N
179.872 360.471 M
180.415 360.966 L
180.958 363.672 L
181.5 365.997 L
182.042 368.207 L
182.585 370.57 L
183.128 369.732 L
183.67 369.732 L
184.212 371.294 L
184.755 371.065 L
185.298 368.169 L
185.84 366.263 L
186.383 365.463 L
186.925 363.786 L
187.467 361.995 L
188.01 362.757 L
188.553 360.737 L
189.095 360.89 L
189.637 359.899 L
190.18 358.717 L
190.723 358.184 L
191.265 354.03 L
191.807 353.877 L
192.35 353.992 L
192.893 354.258 L
193.435 354.22 L
193.977 353.42 L
194.52 353.115 L
195.063 353.382 L
195.605 353.573 L
196.148 354.563 L
196.69 353.306 L
197.232 352.887 L
197.775 353.268 L
198.318 353.382 L
198.86 353.077 L
199.402 353.687 L
199.945 353.877 L
200.488 352.963 L
201.03 351.705 L
201.572 350.486 L
202.115 350.028 L
202.658 351.4 L
203.2 352.429 L
203.742 352.543 L
204.285 352.734 L
204.827 352.887 L
205.37 352.124 L
205.913 351.705 L
206.455 353.268 L
S
GR
GS
[0.75 0 0 0.75 0 0] CT
0 0.447 0.741 RC
2 LJ
N
206.455 353.268 M
206.997 356.24 L
207.54 354.563 L
208.083 355.44 L
208.625 354.678 L
209.167 355.173 L
209.71 354.449 L
210.253 353.649 L
210.795 353.573 L
211.337 353.649 L
211.88 354.487 L
212.423 354.868 L
212.965 355.669 L
213.508 355.364 L
214.05 355.288 L
214.592 355.478 L
215.135 355.059 L
215.678 355.783 L
216.22 356.926 L
216.762 356.85 L
217.305 356.698 L
217.848 356.202 L
218.39 356.659 L
218.932 354.182 L
219.475 354.487 L
220.018 354.487 L
220.56 354.525 L
221.102 354.182 L
221.645 354.106 L
222.188 354.297 L
222.73 353.915 L
223.273 353.42 L
223.815 353.153 L
224.357 353.992 L
224.9 354.944 L
225.443 356.088 L
225.985 355.325 L
226.527 354.639 L
227.07 353.954 L
227.613 354.487 L
228.155 353.077 L
228.697 352.696 L
229.24 354.906 L
229.783 355.554 L
230.325 355.325 L
230.867 353.573 L
231.41 355.135 L
231.952 355.021 L
232.495 354.449 L
233.038 354.106 L
S
GR
GS
[0.75 0 0 0.75 0 0] CT
0 0.447 0.741 RC
2 LJ
N
233.038 354.106 M
233.58 353.077 L
234.122 351.171 L
234.665 351.514 L
235.208 353.229 L
235.75 354.258 L
236.292 354.83 L
236.835 356.431 L
237.378 355.288 L
237.92 354.983 L
238.462 355.135 L
239.005 356.012 L
239.548 355.554 L
240.09 355.63 L
240.633 355.63 L
241.175 355.059 L
241.717 355.173 L
242.26 354.983 L
242.803 354.449 L
243.345 354.716 L
243.887 356.469 L
244.43 355.364 L
244.973 354.601 L
245.515 354.487 L
246.057 355.249 L
246.6 354.525 L
247.143 354.297 L
247.685 352.467 L
248.227 352.963 L
248.77 353.115 L
249.313 352.963 L
249.855 352.81 L
250.398 352.543 L
250.94 353.001 L
251.482 353.077 L
252.025 353.496 L
252.568 352.924 L
253.11 355.63 L
253.652 354.335 L
254.195 354.563 L
254.738 352.543 L
255.28 352.848 L
255.822 351.324 L
256.365 352.124 L
256.908 351.857 L
257.45 352.086 L
257.992 352.124 L
258.535 352.963 L
259.078 353.115 L
259.62 353.306 L
S
GR
GS
[0.75 0 0 0.75 0 0] CT
0 0.447 0.741 RC
2 LJ
N
259.62 353.306 M
260.163 353.42 L
260.705 353.992 L
261.247 353.306 L
261.79 354.068 L
262.332 355.669 L
262.875 354.373 L
263.418 354.106 L
263.96 353.687 L
264.503 353.649 L
265.045 352.582 L
265.587 351.057 L
266.13 351.781 L
266.672 351.934 L
267.215 351.934 L
267.758 351.4 L
268.3 351.21 L
268.842 350.981 L
269.385 350.028 L
269.927 350.219 L
270.47 350.371 L
271.013 351.896 L
271.555 353.306 L
272.098 351.819 L
272.64 351.286 L
273.182 352.543 L
273.725 351.819 L
274.267 353.115 L
274.81 352.467 L
275.353 353.306 L
275.895 352.81 L
276.438 353.153 L
276.98 352.924 L
277.522 352.505 L
278.065 352.582 L
278.608 352.124 L
279.15 350.752 L
279.693 349.571 L
280.235 349.914 L
280.777 350.371 L
281.32 350.943 L
281.862 350.447 L
282.405 351.057 L
282.948 351.514 L
283.49 349.304 L
284.033 349.99 L
284.575 350.333 L
285.117 349.647 L
285.66 349.647 L
286.203 348.885 L
S
GR
GS
[0.75 0 0 0.75 0 0] CT
0 0.447 0.741 RC
2 LJ
N
286.203 348.885 M
286.745 349.075 L
287.288 349.495 L
287.83 350.028 L
288.372 350.295 L
288.915 350.828 L
289.457 351.362 L
290 351.591 L
290.543 350.028 L
291.085 349.8 L
291.628 350.562 L
292.17 350.6 L
292.712 349.495 L
293.255 349.266 L
293.797 349.342 L
294.34 349.037 L
294.883 349.304 L
295.425 351.781 L
295.967 351.171 L
296.51 350.104 L
297.052 350.867 L
297.595 350.752 L
298.138 350.257 L
298.68 350.752 L
299.223 351.057 L
299.765 350.562 L
300.307 352.353 L
300.85 351.934 L
301.392 350.142 L
301.935 350.447 L
302.478 351.591 L
303.02 350.104 L
303.563 350.333 L
304.105 349.228 L
304.647 350.524 L
305.19 351.667 L
305.733 351.591 L
306.275 351.819 L
306.818 349.99 L
307.36 351.133 L
307.902 352.467 L
308.445 351.133 L
308.987 348.77 L
309.53 350.409 L
310.073 351.095 L
310.615 350.447 L
311.158 351.21 L
311.7 352.162 L
312.242 350.524 L
312.785 351.057 L
S
GR
GS
[0.75 0 0 0.75 0 0] CT
0 0.447 0.741 RC
2 LJ
N
312.785 351.057 M
313.328 351.019 L
313.87 350.333 L
314.413 349.99 L
314.955 350.752 L
315.497 350.447 L
316.04 351.667 L
316.582 351.171 L
317.125 352.582 L
317.668 354.449 L
318.21 355.44 L
318.753 354.144 L
319.295 353.725 L
319.837 353.611 L
320.38 352.81 L
320.922 351.324 L
321.465 351.667 L
322.008 354.22 L
322.55 353.725 L
323.092 352.963 L
323.635 352.963 L
324.177 352.658 L
324.72 352.887 L
325.263 352.201 L
325.805 352.353 L
326.348 351.248 L
326.89 350.181 L
327.432 350.486 L
327.975 352.505 L
328.517 352.391 L
329.06 350.714 L
329.603 348.694 L
330.145 349.418 L
330.688 349.113 L
331.23 348.389 L
331.772 348.732 L
332.315 348.847 L
332.858 351.171 L
333.4 351.21 L
333.943 349.19 L
334.485 347.284 L
335.027 348.237 L
335.57 348.389 L
336.112 348.008 L
336.655 348.275 L
337.198 348.885 L
337.74 348.542 L
338.283 349.113 L
338.825 349.8 L
339.367 348.847 L
S
GR
GS
[0.75 0 0 0.75 0 0] CT
0 0.447 0.741 RC
2 LJ
N
339.367 348.847 M
339.91 348.466 L
340.453 348.847 L
340.995 349.228 L
341.538 348.237 L
342.08 348.77 L
342.622 347.627 L
343.165 344.807 L
343.707 345.417 L
344.25 347.322 L
344.793 348.313 L
345.335 348.008 L
345.878 350.257 L
346.42 351.591 L
346.962 349.418 L
347.505 350.409 L
348.047 350.219 L
348.59 349.38 L
349.133 349.19 L
349.675 349.761 L
350.217 349.8 L
350.76 347.055 L
351.302 347.437 L
351.845 348.732 L
352.388 347.856 L
352.93 346.56 L
353.473 347.551 L
354.015 348.466 L
354.557 349.647 L
355.1 350.181 L
355.642 350.486 L
356.185 350.104 L
356.728 349.342 L
357.27 349.8 L
357.813 348.77 L
358.355 347.36 L
358.897 347.932 L
359.44 348.085 L
359.983 348.732 L
360.525 349.761 L
361.068 348.618 L
361.61 347.055 L
362.152 346.56 L
362.695 348.656 L
363.237 347.627 L
363.78 349.647 L
364.323 349.533 L
364.865 348.504 L
365.408 348.77 L
365.95 348.999 L
S
GR
GS
[0.75 0 0 0.75 0 0] CT
0 0.447 0.741 RC
2 LJ
N
365.95 348.999 M
366.492 345.836 L
367.035 346.865 L
367.578 348.123 L
368.12 347.932 L
368.663 348.123 L
369.205 346.522 L
369.747 347.437 L
370.29 349.037 L
370.832 50.78 L
371.375 358.489 L
371.918 373.238 L
372.46 372.895 L
373.003 370.951 L
373.545 366.835 L
374.087 363.443 L
374.63 361.576 L
375.172 358.794 L
375.715 356.545 L
376.258 355.211 L
376.8 353.725 L
377.342 352.429 L
377.885 352.124 L
378.427 350.867 L
378.97 351.591 L
379.513 349.8 L
380.055 349.8 L
380.598 348.085 L
381.14 345.645 L
381.682 347.322 L
382.225 348.275 L
382.767 348.389 L
383.31 348.961 L
383.853 349.495 L
384.395 350.752 L
384.938 351.095 L
385.48 351.591 L
386.022 348.542 L
386.565 345.302 L
387.108 345.95 L
387.65 350.142 L
388.193 353.496 L
388.735 354.754 L
389.277 358.26 L
389.82 364.32 L
390.362 364.32 L
390.905 366.34 L
391.448 367.064 L
391.99 368.131 L
392.533 368.017 L
S
GR
GS
[0.75 0 0 0.75 0 0] CT
0 0.447 0.741 RC
2 LJ
N
392.533 368.017 M
393.075 366.759 L
393.617 365.196 L
394.16 361.538 L
394.703 357.879 L
395.245 355.059 L
395.788 354.106 L
396.33 353.534 L
396.872 355.63 L
397.415 355.211 L
397.957 356.698 L
398.5 357.384 L
399.043 356.545 L
399.585 357.688 L
400.128 351.591 L
400.67 354.487 L
401.212 353.611 L
401.755 345.074 L
402.297 343.206 L
402.84 345.607 L
403.383 344.235 L
403.925 344.616 L
404.467 341.225 L
405.01 342.52 L
405.552 340.31 L
406.095 339.357 L
406.638 342.711 L
407.18 343.435 L
407.723 345.226 L
408.265 346.446 L
408.807 345.455 L
409.35 344.464 L
409.892 341.529 L
410.435 341.11 L
410.978 341.262 L
411.52 342.635 L
412.063 351.286 L
412.605 363.748 L
413.147 360.051 L
413.69 358.641 L
414.233 357.498 L
414.775 355.707 L
415.318 311.574 L
415.86 350.333 L
416.402 355.516 L
416.945 356.545 L
417.487 352.01 L
418.03 351.286 L
418.573 351.248 L
419.115 352.238 L
S
GR
GS
[0.75 0 0 0.75 0 0] CT
0 0.447 0.741 RC
2 LJ
N
419.115 352.238 M
419.658 350.981 L
420.2 348.961 L
420.742 348.618 L
421.285 343.435 L
421.828 340.31 L
422.37 340.805 L
422.913 342.253 L
423.455 341.415 L
423.997 341.225 L
424.54 340.5 L
425.082 341.796 L
425.625 344.273 L
426.168 342.673 L
426.71 343.778 L
427.253 343.321 L
427.795 343.168 L
428.337 343.854 L
428.88 342.749 L
429.422 343.168 L
429.965 343.854 L
430.508 344.54 L
431.05 345.34 L
431.592 343.702 L
432.135 343.968 L
432.677 344.159 L
433.22 344.997 L
433.763 344.769 L
434.305 345.455 L
434.848 346.141 L
435.39 344.807 L
435.932 345.112 L
436.475 344.273 L
437.017 343.206 L
437.56 345.379 L
438.103 344.045 L
438.645 344.693 L
439.188 345.455 L
439.73 346.293 L
440.272 346.369 L
440.815 345.912 L
441.358 345.874 L
441.9 345.95 L
442.443 345.531 L
442.985 347.055 L
443.527 347.894 L
444.07 347.322 L
444.612 346.217 L
445.155 347.094 L
445.698 346.293 L
S
GR
GS
[0.75 0 0 0.75 0 0] CT
0 0.447 0.741 RC
2 LJ
N
445.698 346.293 M
446.24 346.026 L
446.783 347.132 L
447.325 348.351 L
447.867 347.703 L
448.41 304.866 L
448.953 343.892 L
449.495 352.124 L
450.038 351.705 L
450.58 350.752 L
451.122 349.914 L
451.665 349.266 L
452.207 347.094 L
452.75 346.217 L
453.293 346.674 L
453.835 346.713 L
454.378 346.979 L
454.92 346.369 L
455.462 344.159 L
456.005 342.406 L
456.547 341.262 L
S
GR
%%Trailer
%%Pages: 1
%%EOF
