\relax 
\providecommand\hyper@newdestlabel[2]{}
\catcode `"\active 
\catcode `<\active 
\catcode `>\active 
\@nameuse{es@quoting}
\providecommand\HyperFirstAtBeginDocument{\AtBeginDocument}
\HyperFirstAtBeginDocument{\ifx\hyper@anchor\@undefined
\global\let\oldcontentsline\contentsline
\gdef\contentsline#1#2#3#4{\oldcontentsline{#1}{#2}{#3}}
\global\let\oldnewlabel\newlabel
\gdef\newlabel#1#2{\newlabelxx{#1}#2}
\gdef\newlabelxx#1#2#3#4#5#6{\oldnewlabel{#1}{{#2}{#3}}}
\AtEndDocument{\ifx\hyper@anchor\@undefined
\let\contentsline\oldcontentsline
\let\newlabel\oldnewlabel
\fi}
\fi}
\global\let\hyper@last\relax 
\gdef\HyperFirstAtBeginDocument#1{#1}
\providecommand\HyField@AuxAddToFields[1]{}
\providecommand\HyField@AuxAddToCoFields[2]{}
\babel@aux{spanish}{}
\@writefile{toc}{\contentsline {chapter}{\numberline {1}Obtenci\IeC {\'o}n de datos}{7}{chapter.1}}
\@writefile{lof}{\addvspace {10\p@ }}
\@writefile{lot}{\addvspace {10\p@ }}
\@writefile{lof}{\contentsline {figure}{\numberline {1.1}{\ignorespaces Disposici\IeC {\'o}n de los electrodos\relax }}{8}{figure.caption.4}}
\providecommand*\caption@xref[2]{\@setref\relax\@undefined{#1}}
\newlabel{eeg}{{1.1}{8}{Disposición de los electrodos\relax }{figure.caption.4}{}}
\@writefile{toc}{\contentsline {chapter}{\numberline {2}Pruebas de ejercicios}{9}{chapter.2}}
\@writefile{lof}{\addvspace {10\p@ }}
\@writefile{lot}{\addvspace {10\p@ }}
\@writefile{toc}{\contentsline {section}{\numberline {2.1}Usuario 1}{9}{section.2.1}}
\@writefile{toc}{\contentsline {subsection}{\numberline {2.1.1}11:46}{10}{subsection.2.1.1}}
\@writefile{lof}{\contentsline {figure}{\numberline {2.1}{\ignorespaces Ondas cerebrales en estado de activaci\IeC {\'o}n (Toma 1)\relax }}{10}{figure.caption.5}}
\newlabel{Jota11-46-plot}{{2.1}{10}{Ondas cerebrales en estado de activación (Toma 1)\relax }{figure.caption.5}{}}
\@writefile{lof}{\contentsline {figure}{\numberline {2.2}{\ignorespaces Frecuencias en estado activaci\IeC {\'o}n (Toma 1)\relax }}{10}{figure.caption.6}}
\newlabel{Jota11-46-stem}{{2.2}{10}{Frecuencias en estado activación (Toma 1)\relax }{figure.caption.6}{}}
\@writefile{lot}{\contentsline {table}{\numberline {2.1}{\ignorespaces Gr\IeC {\'a}fico de barras en estado de activaci\IeC {\'o}n (Toma 1)\relax }}{11}{table.caption.7}}
\newlabel{Jota11-46-barchar}{{2.1}{11}{Gráfico de barras en estado de activación (Toma 1)\relax }{table.caption.7}{}}
\@writefile{toc}{\contentsline {subsection}{\numberline {2.1.2}11:48}{11}{subsection.2.1.2}}
\@writefile{lof}{\contentsline {figure}{\numberline {2.3}{\ignorespaces Ondas cerebrales en estado de activaci\IeC {\'o}n (Toma 2)\relax }}{11}{figure.caption.8}}
\newlabel{Jota11-48-plot}{{2.3}{11}{Ondas cerebrales en estado de activación (Toma 2)\relax }{figure.caption.8}{}}
\@writefile{lof}{\contentsline {figure}{\numberline {2.4}{\ignorespaces Frecuencias en estado activaci\IeC {\'o}n (Toma 2)\relax }}{12}{figure.caption.9}}
\newlabel{Jota11-48-stem}{{2.4}{12}{Frecuencias en estado activación (Toma 2)\relax }{figure.caption.9}{}}
\@writefile{lot}{\contentsline {table}{\numberline {2.2}{\ignorespaces Gr\IeC {\'a}fico de barras en estado de activaci\IeC {\'o}n (Toma 2)\relax }}{12}{table.caption.10}}
\newlabel{Jota11-48-barchar}{{2.2}{12}{Gráfico de barras en estado de activación (Toma 2)\relax }{table.caption.10}{}}
\@writefile{toc}{\contentsline {section}{\numberline {2.2}Usuario 2}{13}{section.2.2}}
\@writefile{toc}{\contentsline {subsection}{\numberline {2.2.1}12:08}{13}{subsection.2.2.1}}
\@writefile{lof}{\contentsline {figure}{\numberline {2.5}{\ignorespaces Ondas cerebrales en estado de activaci\IeC {\'o}n (Toma 1)\relax }}{13}{figure.caption.11}}
\newlabel{alvaro12-08-plot}{{2.5}{13}{Ondas cerebrales en estado de activación (Toma 1)\relax }{figure.caption.11}{}}
\@writefile{lof}{\contentsline {figure}{\numberline {2.6}{\ignorespaces Frecuencias en estado activaci\IeC {\'o}n (Toma 1)\relax }}{13}{figure.caption.12}}
\newlabel{alvaro12-08-stem}{{2.6}{13}{Frecuencias en estado activación (Toma 1)\relax }{figure.caption.12}{}}
\@writefile{lot}{\contentsline {table}{\numberline {2.3}{\ignorespaces Gr\IeC {\'a}fico de barras en estado de activaci\IeC {\'o}n (Toma 1)\relax }}{14}{table.caption.13}}
\newlabel{alvaro12-08-barchar}{{2.3}{14}{Gráfico de barras en estado de activación (Toma 1)\relax }{table.caption.13}{}}
\@writefile{toc}{\contentsline {subsection}{\numberline {2.2.2}12:10}{14}{subsection.2.2.2}}
\@writefile{lof}{\contentsline {figure}{\numberline {2.7}{\ignorespaces Ondas cerebrales en estado de activaci\IeC {\'o}n (Toma 2)\relax }}{14}{figure.caption.14}}
\newlabel{alvaro12-10-plot}{{2.7}{14}{Ondas cerebrales en estado de activación (Toma 2)\relax }{figure.caption.14}{}}
\@writefile{lof}{\contentsline {figure}{\numberline {2.8}{\ignorespaces Frecuencias en estado activaci\IeC {\'o}n (Toma 2)\relax }}{15}{figure.caption.15}}
\newlabel{alvaro12-10-stem}{{2.8}{15}{Frecuencias en estado activación (Toma 2)\relax }{figure.caption.15}{}}
\@writefile{lot}{\contentsline {table}{\numberline {2.4}{\ignorespaces Gr\IeC {\'a}fico de barras en estado de activaci\IeC {\'o}n (Toma 2)\relax }}{15}{table.caption.16}}
\newlabel{alvaro12-10-barchar}{{2.4}{15}{Gráfico de barras en estado de activación (Toma 2)\relax }{table.caption.16}{}}
\@writefile{toc}{\contentsline {chapter}{\numberline {3}M\IeC {\'u}sica estridente}{16}{chapter.3}}
\@writefile{lof}{\addvspace {10\p@ }}
\@writefile{lot}{\addvspace {10\p@ }}
\@writefile{toc}{\contentsline {section}{\numberline {3.1}Usuario 1}{16}{section.3.1}}
\@writefile{toc}{\contentsline {subsection}{\numberline {3.1.1}11:51}{16}{subsection.3.1.1}}
\@writefile{lof}{\contentsline {figure}{\numberline {3.1}{\ignorespaces Ondas cerebrales en estado de escucha (Toma 1)\relax }}{17}{figure.caption.17}}
\newlabel{Jota11-51-plot}{{3.1}{17}{Ondas cerebrales en estado de escucha (Toma 1)\relax }{figure.caption.17}{}}
\@writefile{lof}{\contentsline {figure}{\numberline {3.2}{\ignorespaces Frecuencias en estado escucha (Toma 1)\relax }}{17}{figure.caption.18}}
\newlabel{Jota11-51-stem}{{3.2}{17}{Frecuencias en estado escucha (Toma 1)\relax }{figure.caption.18}{}}
\@writefile{lot}{\contentsline {table}{\numberline {3.1}{\ignorespaces Gr\IeC {\'a}fico de barras en estado de escucha (Toma 1)\relax }}{18}{table.caption.19}}
\newlabel{Jota11-51-barchar}{{3.1}{18}{Gráfico de barras en estado de escucha (Toma 1)\relax }{table.caption.19}{}}
\@writefile{toc}{\contentsline {subsection}{\numberline {3.1.2}11:53}{18}{subsection.3.1.2}}
\@writefile{lof}{\contentsline {figure}{\numberline {3.3}{\ignorespaces Ondas cerebrales en estado de escucha (Toma 2)\relax }}{18}{figure.caption.20}}
\newlabel{Jota11-53-plot}{{3.3}{18}{Ondas cerebrales en estado de escucha (Toma 2)\relax }{figure.caption.20}{}}
\@writefile{lof}{\contentsline {figure}{\numberline {3.4}{\ignorespaces Frecuencias en estado escucha (Toma 2)\relax }}{19}{figure.caption.21}}
\newlabel{Jota11-53-stem}{{3.4}{19}{Frecuencias en estado escucha (Toma 2)\relax }{figure.caption.21}{}}
\@writefile{lot}{\contentsline {table}{\numberline {3.2}{\ignorespaces Gr\IeC {\'a}fico de barras en estado de escucha (Toma 2)\relax }}{19}{table.caption.22}}
\newlabel{Jota11-53-barchar}{{3.2}{19}{Gráfico de barras en estado de escucha (Toma 2)\relax }{table.caption.22}{}}
\@writefile{toc}{\contentsline {subsection}{\numberline {3.1.3}11:55}{20}{subsection.3.1.3}}
\@writefile{lof}{\contentsline {figure}{\numberline {3.5}{\ignorespaces Ondas cerebrales en estado de escucha (Toma 3)\relax }}{20}{figure.caption.23}}
\newlabel{Jota11-55-plot}{{3.5}{20}{Ondas cerebrales en estado de escucha (Toma 3)\relax }{figure.caption.23}{}}
\@writefile{lof}{\contentsline {figure}{\numberline {3.6}{\ignorespaces Frecuencias en estado escucha (Toma 3)\relax }}{20}{figure.caption.24}}
\newlabel{Jota11-55-stem}{{3.6}{20}{Frecuencias en estado escucha (Toma 3)\relax }{figure.caption.24}{}}
\@writefile{lof}{\contentsline {figure}{\numberline {3.7}{\ignorespaces Frecuencias en estado escucha (Toma 3)[Ampliada]\relax }}{21}{figure.caption.25}}
\newlabel{Jota11-55_2-stem}{{3.7}{21}{Frecuencias en estado escucha (Toma 3)[Ampliada]\relax }{figure.caption.25}{}}
\@writefile{lot}{\contentsline {table}{\numberline {3.3}{\ignorespaces Gr\IeC {\'a}fico de barras en estado de escucha (Toma 3)\relax }}{22}{table.caption.26}}
\newlabel{Jota11-55-barchar}{{3.3}{22}{Gráfico de barras en estado de escucha (Toma 3)\relax }{table.caption.26}{}}
\@writefile{toc}{\contentsline {section}{\numberline {3.2}Usuario 2}{22}{section.3.2}}
\@writefile{toc}{\contentsline {subsection}{\numberline {3.2.1}12:13}{23}{subsection.3.2.1}}
\@writefile{lof}{\contentsline {figure}{\numberline {3.8}{\ignorespaces Ondas cerebrales en estado de escucha (Toma 1)\relax }}{23}{figure.caption.27}}
\newlabel{alvaro12-13-plot}{{3.8}{23}{Ondas cerebrales en estado de escucha (Toma 1)\relax }{figure.caption.27}{}}
\@writefile{lof}{\contentsline {figure}{\numberline {3.9}{\ignorespaces Frecuencias en estado escucha (Toma 1)\relax }}{23}{figure.caption.28}}
\newlabel{alvaro12-13-stem}{{3.9}{23}{Frecuencias en estado escucha (Toma 1)\relax }{figure.caption.28}{}}
\@writefile{lot}{\contentsline {table}{\numberline {3.4}{\ignorespaces Gr\IeC {\'a}fico de barras en estado de escucha (Toma 1)\relax }}{24}{table.caption.29}}
\newlabel{alvaro12-13-barchar}{{3.4}{24}{Gráfico de barras en estado de escucha (Toma 1)\relax }{table.caption.29}{}}
\@writefile{toc}{\contentsline {subsection}{\numberline {3.2.2}12:14}{24}{subsection.3.2.2}}
\@writefile{lof}{\contentsline {figure}{\numberline {3.10}{\ignorespaces Ondas cerebrales en estado de escucha (Toma 2)\relax }}{24}{figure.caption.30}}
\newlabel{alvaro12-14-plot}{{3.10}{24}{Ondas cerebrales en estado de escucha (Toma 2)\relax }{figure.caption.30}{}}
\@writefile{lof}{\contentsline {figure}{\numberline {3.11}{\ignorespaces Frecuencias en estado escucha (Toma 2)\relax }}{25}{figure.caption.31}}
\newlabel{alvaro12-14-stem}{{3.11}{25}{Frecuencias en estado escucha (Toma 2)\relax }{figure.caption.31}{}}
\@writefile{lot}{\contentsline {table}{\numberline {3.5}{\ignorespaces Gr\IeC {\'a}fico de barras en estado de escucha (Toma 2)\relax }}{26}{table.caption.32}}
\newlabel{alvaro12-14-barchar}{{3.5}{26}{Gráfico de barras en estado de escucha (Toma 2)\relax }{table.caption.32}{}}
\@writefile{toc}{\contentsline {subsection}{\numberline {3.2.3}12:16}{26}{subsection.3.2.3}}
\@writefile{lof}{\contentsline {figure}{\numberline {3.12}{\ignorespaces Ondas cerebrales en estado de escucha (Toma 3)\relax }}{26}{figure.caption.33}}
\newlabel{alvaro12-16-plot}{{3.12}{26}{Ondas cerebrales en estado de escucha (Toma 3)\relax }{figure.caption.33}{}}
\@writefile{lof}{\contentsline {figure}{\numberline {3.13}{\ignorespaces Frecuencias en estado escucha (Toma 3)\relax }}{27}{figure.caption.34}}
\newlabel{alvaro12-16-stem}{{3.13}{27}{Frecuencias en estado escucha (Toma 3)\relax }{figure.caption.34}{}}
\@writefile{lot}{\contentsline {table}{\numberline {3.6}{\ignorespaces Gr\IeC {\'a}fico de barras en estado de escucha (Toma 3)\relax }}{27}{table.caption.35}}
\newlabel{alvaro12-16-barchar}{{3.6}{27}{Gráfico de barras en estado de escucha (Toma 3)\relax }{table.caption.35}{}}
\@writefile{toc}{\contentsline {chapter}{\numberline {4}M\IeC {\'u}sica relajante}{28}{chapter.4}}
\@writefile{lof}{\addvspace {10\p@ }}
\@writefile{lot}{\addvspace {10\p@ }}
\@writefile{toc}{\contentsline {section}{\numberline {4.1}Usuario 1}{28}{section.4.1}}
\@writefile{toc}{\contentsline {subsection}{\numberline {4.1.1}11:58}{29}{subsection.4.1.1}}
\@writefile{lof}{\contentsline {figure}{\numberline {4.1}{\ignorespaces Ondas cerebrales en estado de relajaci\IeC {\'o}n (Toma 1)\relax }}{29}{figure.caption.36}}
\newlabel{Jota11-58-plot}{{4.1}{29}{Ondas cerebrales en estado de relajación (Toma 1)\relax }{figure.caption.36}{}}
\@writefile{lof}{\contentsline {figure}{\numberline {4.2}{\ignorespaces Frecuencias en estado relajaci\IeC {\'o}n (Toma 1)\relax }}{29}{figure.caption.37}}
\newlabel{Jota11-58-stem}{{4.2}{29}{Frecuencias en estado relajación (Toma 1)\relax }{figure.caption.37}{}}
\@writefile{lot}{\contentsline {table}{\numberline {4.1}{\ignorespaces Gr\IeC {\'a}fico de barras en estado de relajaci\IeC {\'o}n (Toma 1)\relax }}{30}{table.caption.38}}
\newlabel{Jota11-58-barchar}{{4.1}{30}{Gráfico de barras en estado de relajación (Toma 1)\relax }{table.caption.38}{}}
\@writefile{toc}{\contentsline {subsection}{\numberline {4.1.2}11:59}{30}{subsection.4.1.2}}
\@writefile{lof}{\contentsline {figure}{\numberline {4.3}{\ignorespaces Ondas cerebrales en estado de relajaci\IeC {\'o}n (Toma 2)\relax }}{30}{figure.caption.39}}
\newlabel{Jota11-59-plot}{{4.3}{30}{Ondas cerebrales en estado de relajación (Toma 2)\relax }{figure.caption.39}{}}
\@writefile{lof}{\contentsline {figure}{\numberline {4.4}{\ignorespaces Frecuencias en estado relajaci\IeC {\'o}n (Toma 2)\relax }}{31}{figure.caption.40}}
\newlabel{Jota11-59-stem}{{4.4}{31}{Frecuencias en estado relajación (Toma 2)\relax }{figure.caption.40}{}}
\@writefile{lot}{\contentsline {table}{\numberline {4.2}{\ignorespaces Gr\IeC {\'a}fico de barras en estado de relajaci\IeC {\'o}n (Toma 2)\relax }}{31}{table.caption.41}}
\newlabel{Jota11-59-barchar}{{4.2}{31}{Gráfico de barras en estado de relajación (Toma 2)\relax }{table.caption.41}{}}
\@writefile{toc}{\contentsline {subsection}{\numberline {4.1.3}12:01}{32}{subsection.4.1.3}}
\@writefile{lof}{\contentsline {figure}{\numberline {4.5}{\ignorespaces Ondas cerebrales en estado de relajaci\IeC {\'o}n (Toma 3)\relax }}{32}{figure.caption.42}}
\newlabel{Jota12-01-plot}{{4.5}{32}{Ondas cerebrales en estado de relajación (Toma 3)\relax }{figure.caption.42}{}}
\@writefile{lof}{\contentsline {figure}{\numberline {4.6}{\ignorespaces Frecuencias en estado relajaci\IeC {\'o}n (Toma 3)\relax }}{32}{figure.caption.43}}
\newlabel{Jota12-01-stem}{{4.6}{32}{Frecuencias en estado relajación (Toma 3)\relax }{figure.caption.43}{}}
\@writefile{lot}{\contentsline {table}{\numberline {4.3}{\ignorespaces Gr\IeC {\'a}fico de barras en estado de relajaci\IeC {\'o}n (Toma 3)\relax }}{33}{table.caption.44}}
\newlabel{Jota12-01-barchar}{{4.3}{33}{Gráfico de barras en estado de relajación (Toma 3)\relax }{table.caption.44}{}}
\@writefile{toc}{\contentsline {section}{\numberline {4.2}Usuario 2}{33}{section.4.2}}
\@writefile{toc}{\contentsline {subsection}{\numberline {4.2.1}12:17}{34}{subsection.4.2.1}}
\@writefile{lof}{\contentsline {figure}{\numberline {4.7}{\ignorespaces Ondas cerebrales en estado de relajaci\IeC {\'o}n (Toma 1)\relax }}{34}{figure.caption.45}}
\newlabel{alvaro12-17-plot}{{4.7}{34}{Ondas cerebrales en estado de relajación (Toma 1)\relax }{figure.caption.45}{}}
\@writefile{lof}{\contentsline {figure}{\numberline {4.8}{\ignorespaces Frecuencias en estado relajaci\IeC {\'o}n (Toma 1)\relax }}{34}{figure.caption.46}}
\newlabel{alvaro12-17-stem}{{4.8}{34}{Frecuencias en estado relajación (Toma 1)\relax }{figure.caption.46}{}}
\@writefile{lot}{\contentsline {table}{\numberline {4.4}{\ignorespaces Gr\IeC {\'a}fico de barras en estado de relajaci\IeC {\'o}n (Toma 1)\relax }}{35}{table.caption.47}}
\newlabel{alvaro12-17-barchar}{{4.4}{35}{Gráfico de barras en estado de relajación (Toma 1)\relax }{table.caption.47}{}}
\@writefile{toc}{\contentsline {subsection}{\numberline {4.2.2}12:19}{35}{subsection.4.2.2}}
\@writefile{lof}{\contentsline {figure}{\numberline {4.9}{\ignorespaces Ondas cerebrales en estado de relajaci\IeC {\'o}n (Toma 2)\relax }}{35}{figure.caption.48}}
\newlabel{alvaro12-19-plot}{{4.9}{35}{Ondas cerebrales en estado de relajación (Toma 2)\relax }{figure.caption.48}{}}
\@writefile{lof}{\contentsline {figure}{\numberline {4.10}{\ignorespaces Frecuencias en estado relajaci\IeC {\'o}n (Toma 2)\relax }}{36}{figure.caption.49}}
\newlabel{alvaro12-19-stem}{{4.10}{36}{Frecuencias en estado relajación (Toma 2)\relax }{figure.caption.49}{}}
\@writefile{lot}{\contentsline {table}{\numberline {4.5}{\ignorespaces Gr\IeC {\'a}fico de barras en estado de relajaci\IeC {\'o}n (Toma 2)\relax }}{36}{table.caption.50}}
\newlabel{alvaro12-19-barchar}{{4.5}{36}{Gráfico de barras en estado de relajación (Toma 2)\relax }{table.caption.50}{}}
\@writefile{toc}{\contentsline {subsection}{\numberline {4.2.3}12:20}{37}{subsection.4.2.3}}
\@writefile{lof}{\contentsline {figure}{\numberline {4.11}{\ignorespaces Ondas cerebrales en estado de relajaci\IeC {\'o}n (Toma 3)\relax }}{37}{figure.caption.51}}
\newlabel{alvaro12-20-plot}{{4.11}{37}{Ondas cerebrales en estado de relajación (Toma 3)\relax }{figure.caption.51}{}}
\@writefile{lof}{\contentsline {figure}{\numberline {4.12}{\ignorespaces Frecuencias en estado relajaci\IeC {\'o}n (Toma 3)\relax }}{37}{figure.caption.52}}
\newlabel{alvaro12-20-stem}{{4.12}{37}{Frecuencias en estado relajación (Toma 3)\relax }{figure.caption.52}{}}
\@writefile{lot}{\contentsline {table}{\numberline {4.6}{\ignorespaces Gr\IeC {\'a}fico de barras en estado de relajaci\IeC {\'o}n (Toma 3)\relax }}{38}{table.caption.53}}
\newlabel{alvaro12-20-barchar}{{4.6}{38}{Gráfico de barras en estado de relajación (Toma 3)\relax }{table.caption.53}{}}
\@writefile{toc}{\contentsline {chapter}{\numberline {5}Conclusiones}{39}{chapter.5}}
\@writefile{lof}{\addvspace {10\p@ }}
\@writefile{lot}{\addvspace {10\p@ }}
\@writefile{toc}{\contentsline {section}{\numberline {5.1}Prueba de ejercicio}{39}{section.5.1}}
\@writefile{lot}{\contentsline {table}{\numberline {5.1}{\ignorespaces Gr\IeC {\'a}fico comparativo entre usuarios, prueba de ejercicios\relax }}{40}{table.caption.54}}
\newlabel{P_ejercicio_comparacion}{{5.1}{40}{Gráfico comparativo entre usuarios, prueba de ejercicios\relax }{table.caption.54}{}}
\@writefile{toc}{\contentsline {section}{\numberline {5.2}M\IeC {\'u}sica estridente}{40}{section.5.2}}
\@writefile{lot}{\contentsline {table}{\numberline {5.2}{\ignorespaces Gr\IeC {\'a}fico comparativo entre usuarios, m\IeC {\'u}sica estridente\relax }}{41}{table.caption.55}}
\newlabel{M_estridente_comparacion}{{5.2}{41}{Gráfico comparativo entre usuarios, música estridente\relax }{table.caption.55}{}}
\@writefile{toc}{\contentsline {section}{\numberline {5.3}M\IeC {\'u}sica relajante}{41}{section.5.3}}
\@writefile{lot}{\contentsline {table}{\numberline {5.3}{\ignorespaces Gr\IeC {\'a}fico comparativo entre usuarios, m\IeC {\'u}sica relajante\relax }}{42}{table.caption.56}}
\newlabel{M_relajante_comparacion}{{5.3}{42}{Gráfico comparativo entre usuarios, música relajante\relax }{table.caption.56}{}}
\@writefile{toc}{\contentsline {section}{\numberline {5.4}Conclusi\IeC {\'o}n}{42}{section.5.4}}
