\babel@toc {spanish}{}
\contentsline {chapter}{\numberline {1}Obtenci\IeC {\'o}n de datos}{7}{chapter.1}
\contentsline {chapter}{\numberline {2}Pruebas de ejercicios}{9}{chapter.2}
\contentsline {section}{\numberline {2.1}Usuario 1}{9}{section.2.1}
\contentsline {subsection}{\numberline {2.1.1}11:46}{10}{subsection.2.1.1}
\contentsline {subsection}{\numberline {2.1.2}11:48}{11}{subsection.2.1.2}
\contentsline {section}{\numberline {2.2}Usuario 2}{13}{section.2.2}
\contentsline {subsection}{\numberline {2.2.1}12:08}{13}{subsection.2.2.1}
\contentsline {subsection}{\numberline {2.2.2}12:10}{14}{subsection.2.2.2}
\contentsline {chapter}{\numberline {3}M\IeC {\'u}sica estridente}{16}{chapter.3}
\contentsline {section}{\numberline {3.1}Usuario 1}{16}{section.3.1}
\contentsline {subsection}{\numberline {3.1.1}11:51}{16}{subsection.3.1.1}
\contentsline {subsection}{\numberline {3.1.2}11:53}{18}{subsection.3.1.2}
\contentsline {subsection}{\numberline {3.1.3}11:55}{20}{subsection.3.1.3}
\contentsline {section}{\numberline {3.2}Usuario 2}{22}{section.3.2}
\contentsline {subsection}{\numberline {3.2.1}12:13}{23}{subsection.3.2.1}
\contentsline {subsection}{\numberline {3.2.2}12:14}{24}{subsection.3.2.2}
\contentsline {subsection}{\numberline {3.2.3}12:16}{26}{subsection.3.2.3}
\contentsline {chapter}{\numberline {4}M\IeC {\'u}sica relajante}{28}{chapter.4}
\contentsline {section}{\numberline {4.1}Usuario 1}{28}{section.4.1}
\contentsline {subsection}{\numberline {4.1.1}11:58}{29}{subsection.4.1.1}
\contentsline {subsection}{\numberline {4.1.2}11:59}{30}{subsection.4.1.2}
\contentsline {subsection}{\numberline {4.1.3}12:01}{32}{subsection.4.1.3}
\contentsline {section}{\numberline {4.2}Usuario 2}{33}{section.4.2}
\contentsline {subsection}{\numberline {4.2.1}12:17}{34}{subsection.4.2.1}
\contentsline {subsection}{\numberline {4.2.2}12:19}{35}{subsection.4.2.2}
\contentsline {subsection}{\numberline {4.2.3}12:20}{37}{subsection.4.2.3}
\contentsline {chapter}{\numberline {5}Conclusiones}{39}{chapter.5}
\contentsline {section}{\numberline {5.1}Prueba de ejercicio}{39}{section.5.1}
\contentsline {section}{\numberline {5.2}M\IeC {\'u}sica estridente}{40}{section.5.2}
\contentsline {section}{\numberline {5.3}M\IeC {\'u}sica relajante}{41}{section.5.3}
\contentsline {section}{\numberline {5.4}Conclusi\IeC {\'o}n}{42}{section.5.4}
