\babel@toc {spanish}{}
\addvspace {10\p@ }
\contentsline {table}{\numberline {1.1}{\ignorespaces Tabla comparativa de los diferentes modelos\relax }}{13}{table.caption.6}
\contentsline {table}{\numberline {1.2}{\ignorespaces Grupos de frecuencias de la se\IeC {\~n}al EEG\relax }}{17}{table.caption.12}
\addvspace {10\p@ }
\contentsline {table}{\numberline {2.1}{\ignorespaces Tabla de caracter\IeC {\'\i }sticas de \textit {Teensy 3.6}\relax }}{25}{table.caption.28}
\contentsline {table}{\numberline {2.2}{\ignorespaces Tabla de componentes\relax }}{27}{table.caption.31}
\contentsline {table}{\numberline {2.3}{\ignorespaces C\IeC {\'o}digo STFT en Matlab\relax }}{38}{table.caption.46}
\contentsline {table}{\numberline {2.4}{\ignorespaces Librer\IeC {\'\i }a arduino.\relax }}{42}{table.caption.52}
\contentsline {table}{\numberline {2.5}{\ignorespaces Obtenci\IeC {\'o}n de datos.\relax }}{44}{table.caption.54}
\addvspace {10\p@ }
\contentsline {table}{\numberline {3.1}{\ignorespaces Gr\IeC {\'a}fico de barras en estado de activaci\IeC {\'o}n (Toma 1)\relax }}{51}{table.caption.60}
\contentsline {table}{\numberline {3.2}{\ignorespaces Gr\IeC {\'a}fico de barras en estado de activaci\IeC {\'o}n (11:48)\relax }}{52}{table.caption.63}
\contentsline {table}{\numberline {3.3}{\ignorespaces Gr\IeC {\'a}fico de barras en estado de activaci\IeC {\'o}n (12:08)\relax }}{53}{table.caption.66}
\contentsline {table}{\numberline {3.4}{\ignorespaces Gr\IeC {\'a}fico de barras en estado de activaci\IeC {\'o}n (12:10)\relax }}{54}{table.caption.69}
\contentsline {table}{\numberline {3.5}{\ignorespaces Gr\IeC {\'a}fico de barras en estado de escucha (11:53)\relax }}{55}{table.caption.72}
\contentsline {table}{\numberline {3.6}{\ignorespaces Gr\IeC {\'a}fico de barras en estado de escucha (11:55)\relax }}{57}{table.caption.76}
\contentsline {table}{\numberline {3.7}{\ignorespaces Gr\IeC {\'a}fico de barras en estado de escucha (12:14)\relax }}{58}{table.caption.79}
\contentsline {table}{\numberline {3.8}{\ignorespaces Gr\IeC {\'a}fico de barras en estado de escucha (12:16)\relax }}{59}{table.caption.82}
\contentsline {table}{\numberline {3.9}{\ignorespaces Gr\IeC {\'a}fico de barras en estado de relajaci\IeC {\'o}n (11:58)\relax }}{61}{table.caption.85}
\contentsline {table}{\numberline {3.10}{\ignorespaces Gr\IeC {\'a}fico de barras en estado de relajaci\IeC {\'o}n (11:59)\relax }}{62}{table.caption.88}
\contentsline {table}{\numberline {3.11}{\ignorespaces Gr\IeC {\'a}fico de barras en estado de relajaci\IeC {\'o}n (12:01)\relax }}{63}{table.caption.91}
\contentsline {table}{\numberline {3.12}{\ignorespaces Gr\IeC {\'a}fico de barras en estado de relajaci\IeC {\'o}n (12:17)\relax }}{64}{table.caption.94}
\contentsline {table}{\numberline {3.13}{\ignorespaces Gr\IeC {\'a}fico de barras en estado de relajaci\IeC {\'o}n (12:19)\relax }}{65}{table.caption.97}
\contentsline {table}{\numberline {3.14}{\ignorespaces Gr\IeC {\'a}fico de barras en estado de relajaci\IeC {\'o}n (12:20)\relax }}{66}{table.caption.100}
\contentsline {table}{\numberline {3.15}{\ignorespaces Gr\IeC {\'a}fico comparativo entre usuarios de las pruebas de ejercicios matem\IeC {\'a}ticos\relax }}{67}{table.caption.101}
\contentsline {table}{\numberline {3.16}{\ignorespaces Gr\IeC {\'a}fico comparativo entre usuarios, m\IeC {\'u}sica estridente\relax }}{68}{table.caption.102}
\contentsline {table}{\numberline {3.17}{\ignorespaces Gr\IeC {\'a}fico comparativo entre usuarios, m\IeC {\'u}sica relajante\relax }}{69}{table.caption.103}
\addvspace {10\p@ }
\addvspace {10\p@ }
\contentsline {table}{\numberline {A.1}{\ignorespaces F\IeC {\'o}rmulas para c\IeC {\'a}lculo frecuencia de corte 0.075 Hz\relax }}{90}{table.caption.106}
\contentsline {table}{\numberline {A.2}{\ignorespaces F\IeC {\'o}rmulas para c\IeC {\'a}lculo frecuencia de corte 60 Hz\relax }}{91}{table.caption.108}
\contentsline {table}{\numberline {A.3}{\ignorespaces F\IeC {\'o}rmulas para c\IeC {\'a}lculo de ganancia del amplificador\relax }}{92}{table.caption.109}
\contentsline {table}{\numberline {A.4}{\ignorespaces F\IeC {\'o}rmulas para c\IeC {\'a}lculo frecuencia de corte 25 Hz\relax }}{93}{table.caption.111}
\addvspace {10\p@ }
\addvspace {10\p@ }
\addvspace {10\p@ }
