\relax 
\providecommand\hyper@newdestlabel[2]{}
\catcode `"\active 
\catcode `<\active 
\catcode `>\active 
\@nameuse{es@quoting}
\providecommand\HyperFirstAtBeginDocument{\AtBeginDocument}
\HyperFirstAtBeginDocument{\ifx\hyper@anchor\@undefined
\global\let\oldcontentsline\contentsline
\gdef\contentsline#1#2#3#4{\oldcontentsline{#1}{#2}{#3}}
\global\let\oldnewlabel\newlabel
\gdef\newlabel#1#2{\newlabelxx{#1}#2}
\gdef\newlabelxx#1#2#3#4#5#6{\oldnewlabel{#1}{{#2}{#3}}}
\AtEndDocument{\ifx\hyper@anchor\@undefined
\let\contentsline\oldcontentsline
\let\newlabel\oldnewlabel
\fi}
\fi}
\global\let\hyper@last\relax 
\gdef\HyperFirstAtBeginDocument#1{#1}
\providecommand\HyField@AuxAddToFields[1]{}
\providecommand\HyField@AuxAddToCoFields[2]{}
\babel@aux{spanish}{}
\citation{lifeder-2019}
\citation{control-cerebral-interfases}
\citation{Waves}
\citation{instructables-2017}
\@writefile{toc}{\contentsline {chapter}{\numberline {1}Introducci\IeC {\'o}n}{9}{chapter.1}}
\@writefile{lof}{\addvspace {10\p@ }}
\@writefile{lot}{\addvspace {10\p@ }}
\@writefile{toc}{\contentsline {section}{\numberline {1.1}Resumen}{9}{section.1.1}}
\@writefile{toc}{\contentsline {section}{\numberline {1.2}Abstract}{10}{section.1.2}}
\@writefile{toc}{\contentsline {section}{\numberline {1.3}Motivaci\IeC {\'o}n}{11}{section.1.3}}
\@writefile{toc}{\contentsline {section}{\numberline {1.4}Estado del arte}{11}{section.1.4}}
\citation{eeg}
\citation{mindwave}
\citation{instructablesEEG2017}
\citation{experimental_brain_computer_interface}
\citation{google-sites}
\citation{ruiz}
\@writefile{lof}{\contentsline {figure}{\numberline {1.1}{\ignorespaces Electroencefalograma\relax }}{12}{figure.caption.4}}
\providecommand*\caption@xref[2]{\@setref\relax\@undefined{#1}}
\newlabel{electroencefalogram}{{1.1}{12}{Electroencefalograma\relax }{figure.caption.4}{}}
\@writefile{lof}{\contentsline {figure}{\numberline {1.2}{\ignorespaces Proyecto Mindwave\relax }}{12}{figure.caption.5}}
\newlabel{mindwave}{{1.2}{12}{Proyecto Mindwave\relax }{figure.caption.5}{}}
\citation{arduino}
\citation{pjrc-teensy}
\@writefile{lot}{\contentsline {table}{\numberline {1.1}{\ignorespaces Tabla comparativa de los diferentes modelos\relax }}{13}{table.caption.6}}
\newlabel{Tabla_comparativa}{{1.1}{13}{Tabla comparativa de los diferentes modelos\relax }{table.caption.6}{}}
\citation{cerebro-ejecutivo}
\citation{diamond_elson_scheibel_2014}
\citation{lobulotemporal}
\citation{benarroch_1999}
\citation{lifeder-2019}
\citation{lifeder-2019}
\@writefile{toc}{\contentsline {section}{\numberline {1.5}Fundamentos de Neurolog\IeC {\'\i }a}{14}{section.1.5}}
\newlabel{cap:dos}{{1.5}{14}{Fundamentos de Neurología}{section.1.5}{}}
\@writefile{toc}{\contentsline {subsection}{\numberline {1.5.1}El cerebro humano}{14}{subsection.1.5.1}}
\@writefile{lof}{\contentsline {figure}{\numberline {1.3}{\ignorespaces Mapa cerebral\relax }}{14}{figure.caption.7}}
\newlabel{Mapa_cerebral}{{1.3}{14}{Mapa cerebral\relax }{figure.caption.7}{}}
\citation{Tecinasbasicaseeg}
\citation{homan}
\@writefile{lof}{\contentsline {figure}{\numberline {1.4}{\ignorespaces Funciones del cerebro humano \cite  {lifeder-2019}\relax }}{15}{figure.caption.8}}
\newlabel{Funciones_cerebro}{{1.4}{15}{Funciones del cerebro humano \cite {lifeder-2019}\relax }{figure.caption.8}{}}
\@writefile{toc}{\contentsline {subsection}{\numberline {1.5.2}Electroencefalograma}{15}{subsection.1.5.2}}
\@writefile{toc}{\contentsline {subsubsection}{Posicionamiento de los electrodos}{15}{section*.9}}
\citation{control-cerebral-interfases}
\citation{control-cerebral-interfases}
\@writefile{lof}{\contentsline {figure}{\numberline {1.5}{\ignorespaces \textit  {Sistema internacional 10-20}\relax }}{16}{figure.caption.10}}
\newlabel{s_I_10-20}{{1.5}{16}{\textit {Sistema internacional 10-20}\relax }{figure.caption.10}{}}
\@writefile{toc}{\contentsline {subsection}{\numberline {1.5.3}Configuraci\IeC {\'o}n y montaje de electrodos}{16}{subsection.1.5.3}}
\@writefile{lof}{\contentsline {figure}{\numberline {1.6}{\ignorespaces Configuraciones de electrodos \cite  {control-cerebral-interfases}\relax }}{16}{figure.caption.11}}
\newlabel{Configuracion_elecrodos}{{1.6}{16}{Configuraciones de electrodos \cite {control-cerebral-interfases}\relax }{figure.caption.11}{}}
\citation{enrique}
\citation{EEG-signal-classification}
\citation{Waves}
\citation{Waves}
\@writefile{toc}{\contentsline {subsection}{\numberline {1.5.4}Ondas cerebrales}{17}{subsection.1.5.4}}
\@writefile{lot}{\contentsline {table}{\numberline {1.2}{\ignorespaces Grupos de frecuencias de la se\IeC {\~n}al EEG\relax }}{17}{table.caption.12}}
\newlabel{Bandas}{{1.2}{17}{Grupos de frecuencias de la señal EEG\relax }{table.caption.12}{}}
\@writefile{lof}{\contentsline {figure}{\numberline {1.7}{\ignorespaces Ondas cerebrales \cite  {Waves}\relax }}{18}{figure.caption.13}}
\newlabel{waves}{{1.7}{18}{Ondas cerebrales \cite {Waves}\relax }{figure.caption.13}{}}
\@writefile{toc}{\contentsline {subsubsection}{Ondas Delta}{18}{section*.14}}
\@writefile{lof}{\contentsline {figure}{\numberline {1.8}{\ignorespaces \textit  {Ondas Delta}\relax }}{18}{figure.caption.15}}
\newlabel{Delta_waves}{{1.8}{18}{\textit {Ondas Delta}\relax }{figure.caption.15}{}}
\@writefile{lof}{\contentsline {figure}{\numberline {1.9}{\ignorespaces \textit  {Ondas Theta}\relax }}{19}{figure.caption.17}}
\newlabel{Theta_waves}{{1.9}{19}{\textit {Ondas Theta}\relax }{figure.caption.17}{}}
\@writefile{toc}{\contentsline {subsubsection}{Ondas Alpha}{19}{section*.18}}
\@writefile{toc}{\contentsline {chapter}{\numberline {2}Memoria descriptiva}{21}{chapter.2}}
\@writefile{lof}{\addvspace {10\p@ }}
\@writefile{lot}{\addvspace {10\p@ }}
\newlabel{cap:tres}{{2}{21}{Memoria descriptiva}{chapter.2}{}}
\@writefile{toc}{\contentsline {section}{\numberline {2.1}Hardware}{21}{section.2.1}}
\@writefile{toc}{\contentsline {subsection}{\numberline {2.1.1}Sensores}{21}{subsection.2.1.1}}
\citation{openbci}
\@writefile{lof}{\contentsline {figure}{\numberline {2.1}{\ignorespaces \textit  {Disposici\IeC {\'o}n de los electrodos}\relax }}{22}{figure.caption.21}}
\newlabel{P_EEG}{{2.1}{22}{\textit {Disposición de los electrodos}\relax }{figure.caption.21}{}}
\@writefile{toc}{\contentsline {subsubsection}{OpenBCI EEG Headband Kit}{22}{section*.22}}
\@writefile{lof}{\contentsline {figure}{\numberline {2.2}{\ignorespaces \textit  {HeadBand Kit EEG}\relax }}{22}{figure.caption.23}}
\newlabel{HBK}{{2.2}{22}{\textit {HeadBand Kit EEG}\relax }{figure.caption.23}{}}
\@writefile{toc}{\contentsline {subsubsection}{EMG/ECG Snap Electrode Cables}{23}{section*.24}}
\@writefile{lof}{\contentsline {figure}{\numberline {2.3}{\ignorespaces Electrodos\relax }}{23}{figure.caption.25}}
\newlabel{electrodes}{{2.3}{23}{Electrodos\relax }{figure.caption.25}{}}
\@writefile{toc}{\contentsline {subsection}{\numberline {2.1.2}Placa de desarrollo}{23}{subsection.2.1.2}}
\@writefile{lof}{\contentsline {figure}{\numberline {2.4}{\ignorespaces Teensy 3.6\relax }}{24}{figure.caption.26}}
\newlabel{teensy}{{2.4}{24}{Teensy 3.6\relax }{figure.caption.26}{}}
\@writefile{toc}{\contentsline {subsubsection}{Teensy 3.6}{24}{section*.27}}
\@writefile{lot}{\contentsline {table}{\numberline {2.1}{\ignorespaces Tabla de caracter\IeC {\'\i }sticas de \textit  {Teensy 3.6}\relax }}{25}{table.caption.28}}
\newlabel{caract}{{2.1}{25}{Tabla de características de \textit {Teensy 3.6}\relax }{table.caption.28}{}}
\citation{eeg}
\@writefile{toc}{\contentsline {subsection}{\numberline {2.1.3}Teensy 3 - Bluetooth LE 4.0 Module}{26}{subsection.2.1.3}}
\@writefile{lof}{\contentsline {figure}{\numberline {2.5}{\ignorespaces Teensy 3 Bluetooth\relax }}{26}{figure.caption.29}}
\newlabel{teensyB}{{2.5}{26}{Teensy 3 Bluetooth\relax }{figure.caption.29}{}}
\@writefile{toc}{\contentsline {section}{\numberline {2.2}Esquem\IeC {\'a}tico}{26}{section.2.2}}
\citation{digikey}
\@writefile{lof}{\contentsline {figure}{\numberline {2.6}{\ignorespaces Esquema gr\IeC {\'a}fico del sistema\relax }}{27}{figure.caption.30}}
\newlabel{Esquema_TFG}{{2.6}{27}{Esquema gráfico del sistema\relax }{figure.caption.30}{}}
\@writefile{lot}{\contentsline {table}{\numberline {2.2}{\ignorespaces Tabla de componentes\relax }}{27}{table.caption.31}}
\newlabel{componentes}{{2.2}{27}{Tabla de componentes\relax }{table.caption.31}{}}
\@writefile{toc}{\contentsline {subsection}{\numberline {2.2.1}Circuito amplificador}{28}{subsection.2.2.1}}
\@writefile{lof}{\contentsline {figure}{\numberline {2.7}{\ignorespaces Etapa de amplificaci\IeC {\'o}n de la se\IeC {\~n}al de los electrodos\relax }}{28}{figure.caption.32}}
\newlabel{CA}{{2.7}{28}{Etapa de amplificación de la señal de los electrodos\relax }{figure.caption.32}{}}
\@writefile{toc}{\contentsline {section}{\numberline {2.3}Dise\IeC {\~n}o y construcci\IeC {\'o}n de placa}{29}{section.2.3}}
\@writefile{toc}{\contentsline {subsection}{\numberline {2.3.1}Kicad}{29}{subsection.2.3.1}}
\@writefile{lof}{\contentsline {figure}{\numberline {2.8}{\ignorespaces Circuito en Kicad.\relax }}{29}{figure.caption.33}}
\newlabel{circuito_kicad}{{2.8}{29}{Circuito en Kicad.\relax }{figure.caption.33}{}}
\@writefile{lof}{\contentsline {figure}{\numberline {2.9}{\ignorespaces PCB en Kicad.\relax }}{30}{figure.caption.34}}
\newlabel{PCB_kicad}{{2.9}{30}{PCB en Kicad.\relax }{figure.caption.34}{}}
\@writefile{toc}{\contentsline {subsubsection}{Impresi\IeC {\'o}n}{30}{section*.35}}
\citation{jlcpcb}
\@writefile{lof}{\contentsline {figure}{\numberline {2.10}{\ignorespaces Etapas para la impresi\IeC {\'o}n de la PCB\relax }}{31}{figure.caption.36}}
\newlabel{impresion_PCB}{{2.10}{31}{Etapas para la impresión de la PCB\relax }{figure.caption.36}{}}
\@writefile{lof}{\contentsline {figure}{\numberline {2.11}{\ignorespaces Etapas finales para la impresi\IeC {\'o}n de la PCB\relax }}{31}{figure.caption.37}}
\newlabel{PCB_finished}{{2.11}{31}{Etapas finales para la impresión de la PCB\relax }{figure.caption.37}{}}
\@writefile{lof}{\contentsline {figure}{\numberline {2.12}{\ignorespaces Soldadura de la PCB\relax }}{32}{figure.caption.38}}
\newlabel{PCB_solder}{{2.12}{32}{Soldadura de la PCB\relax }{figure.caption.38}{}}
\@writefile{toc}{\contentsline {subsection}{\numberline {2.3.2}Error de impresi\IeC {\'o}n}{32}{subsection.2.3.2}}
\@writefile{lof}{\contentsline {figure}{\numberline {2.13}{\ignorespaces Error paliado\relax }}{32}{figure.caption.39}}
\newlabel{Error}{{2.13}{32}{Error paliado\relax }{figure.caption.39}{}}
\@writefile{toc}{\contentsline {section}{\numberline {2.4}Simulaci\IeC {\'o}n}{33}{section.2.4}}
\newlabel{fig:Osci}{{2.14a}{33}{Osciloscopio\relax }{figure.caption.40}{}}
\newlabel{sub@fig:Osci}{{a}{33}{Osciloscopio\relax }{figure.caption.40}{}}
\newlabel{fig:Mult}{{2.14b}{33}{Multímetro\relax }{figure.caption.40}{}}
\newlabel{sub@fig:Mult}{{b}{33}{Multímetro\relax }{figure.caption.40}{}}
\@writefile{lof}{\contentsline {figure}{\numberline {2.14}{\ignorespaces Simulaci\IeC {\'o}n\relax }}{33}{figure.caption.40}}
\newlabel{fig:sim}{{2.14}{33}{Simulación\relax }{figure.caption.40}{}}
\citation{fritzing}
\@writefile{toc}{\contentsline {section}{\numberline {2.5}Protoboard}{34}{section.2.5}}
\@writefile{lof}{\contentsline {figure}{\numberline {2.15}{\ignorespaces Dise\IeC {\~n}o de circuito \textit  {Fritzing}\relax }}{34}{figure.caption.41}}
\newlabel{fritzing}{{2.15}{34}{Diseño de circuito \textit {Fritzing}\relax }{figure.caption.41}{}}
\citation{instructables-2017}
\citation{instructables-2017}
\citation{instructables-2017}
\newlabel{fig:vistacerca}{{2.16a}{35}{Protoboard\relax }{figure.caption.42}{}}
\newlabel{sub@fig:vistacerca}{{a}{35}{Protoboard\relax }{figure.caption.42}{}}
\newlabel{fig:vistaarriba}{{2.16b}{35}{Protoboard vista desde arriba\relax }{figure.caption.42}{}}
\newlabel{sub@fig:vistaarriba}{{b}{35}{Protoboard vista desde arriba\relax }{figure.caption.42}{}}
\@writefile{lof}{\contentsline {figure}{\numberline {2.16}{\ignorespaces Circuito en \textit  {protoboard}\relax }}{35}{figure.caption.42}}
\newlabel{fig:protoboard}{{2.16}{35}{Circuito en \textit {protoboard}\relax }{figure.caption.42}{}}
\@writefile{toc}{\contentsline {section}{\numberline {2.6}Osciloscopio virtual}{35}{section.2.6}}
\citation{Transformada-Fourier}
\@writefile{lof}{\contentsline {figure}{\numberline {2.17}{\ignorespaces Osciloscopio en \textit  {Processing} \cite  {instructables-2017}\relax }}{36}{figure.caption.43}}
\newlabel{OSPro}{{2.17}{36}{Osciloscopio en \textit {Processing} \cite {instructables-2017}\relax }{figure.caption.43}{}}
\@writefile{toc}{\contentsline {section}{\numberline {2.7}Transformada de Fourier}{36}{section.2.7}}
\@writefile{toc}{\contentsline {subsection}{\numberline {2.7.1}Short-Time Fourier Transform}{37}{subsection.2.7.1}}
\@writefile{lof}{\contentsline {figure}{\numberline {2.18}{\ignorespaces Se\IeC {\~n}al resultante de ejemplo\relax }}{37}{figure.caption.44}}
\newlabel{S_Resultante_ejemplo}{{2.18}{37}{Señal resultante de ejemplo\relax }{figure.caption.44}{}}
\citation{matlab-spectrogram}
\@writefile{lof}{\contentsline {figure}{\numberline {2.19}{\ignorespaces Ventana de la se\IeC {\~n}al resultante de ejemplo\relax }}{38}{figure.caption.45}}
\newlabel{S_Resultante_ejemplo_ventana}{{2.19}{38}{Ventana de la señal resultante de ejemplo\relax }{figure.caption.45}{}}
\@writefile{lol}{\contentsline {lstlisting}{./Code/Matlab/Estudio\textunderscore datos.m}{38}{lstlisting.2.-1}}
\@writefile{lot}{\contentsline {table}{\numberline {2.3}{\ignorespaces C\IeC {\'o}digo STFT en Matlab\relax }}{38}{table.caption.46}}
\newlabel{Matlab_code_spect}{{2.3}{38}{Código STFT en Matlab\relax }{table.caption.46}{}}
\@writefile{lof}{\contentsline {figure}{\numberline {2.20}{\ignorespaces Resultado del espectrograma\relax }}{38}{figure.caption.47}}
\newlabel{Resultado_ejemplo}{{2.20}{38}{Resultado del espectrograma\relax }{figure.caption.47}{}}
\@writefile{toc}{\contentsline {subsection}{\numberline {2.7.2}Fast Fourier Transform}{39}{subsection.2.7.2}}
\@writefile{lof}{\contentsline {figure}{\numberline {2.21}{\ignorespaces Ejemplo de demostraci\IeC {\'o}n de la t\IeC {\'e}cnica \textit  {FFT}\relax }}{39}{figure.caption.48}}
\newlabel{Ejemplo_FFT}{{2.21}{39}{Ejemplo de demostración de la técnica \textit {FFT}\relax }{figure.caption.48}{}}
\citation{matlab-spectrogram}
\citation{pwelchs}
\citation{moyes-jiang}
\@writefile{toc}{\contentsline {section}{\numberline {2.8}Estudio con Matlab}{40}{section.2.8}}
\@writefile{lof}{\contentsline {figure}{\numberline {2.22}{\ignorespaces Resultado de funci\IeC {\'o}n \textit  {spectrogram}\relax }}{40}{figure.caption.49}}
\newlabel{pwelch_result}{{2.22}{40}{Resultado de función \textit {spectrogram}\relax }{figure.caption.49}{}}
\citation{arduino}
\citation{pjrc-teensy}
\@writefile{toc}{\contentsline {section}{\numberline {2.9}C\IeC {\'o}digo Teensy}{41}{section.2.9}}
\@writefile{lof}{\contentsline {figure}{\numberline {2.23}{\ignorespaces Teensy bootloader\relax }}{41}{figure.caption.50}}
\newlabel{Teensy_bootloader}{{2.23}{41}{Teensy bootloader\relax }{figure.caption.50}{}}
\@writefile{lof}{\contentsline {figure}{\numberline {2.24}{\ignorespaces IDE Arduino con la configuraci\IeC {\'o}n de Teensy\relax }}{42}{figure.caption.51}}
\newlabel{Teensy_duino}{{2.24}{42}{IDE Arduino con la configuración de Teensy\relax }{figure.caption.51}{}}
\@writefile{lol}{\contentsline {lstlisting}{code/Arduino/EEG\textunderscore analogread\textunderscore fft\textunderscore 4chans.ino}{42}{lstlisting.2.-2}}
\@writefile{lot}{\contentsline {table}{\numberline {2.4}{\ignorespaces Librer\IeC {\'\i }a arduino.\relax }}{42}{table.caption.52}}
\newlabel{libreria_arduino}{{2.4}{42}{Librería arduino.\relax }{table.caption.52}{}}
\@writefile{toc}{\contentsline {subsection}{\numberline {2.9.1}Variables}{43}{subsection.2.9.1}}
\@writefile{toc}{\contentsline {subsection}{\numberline {2.9.2}Funcionamiento}{43}{subsection.2.9.2}}
\@writefile{lof}{\contentsline {figure}{\numberline {2.25}{\ignorespaces Diagrama del funcionamiento de la placa Teensy\relax }}{44}{figure.caption.53}}
\newlabel{Teensy_program}{{2.25}{44}{Diagrama del funcionamiento de la placa Teensy\relax }{figure.caption.53}{}}
\@writefile{lol}{\contentsline {lstlisting}{code/Arduino/EEG\textunderscore analogread\textunderscore fft\textunderscore 4chans.ino}{44}{lstlisting.2.-3}}
\@writefile{lot}{\contentsline {table}{\numberline {2.5}{\ignorespaces Obtenci\IeC {\'o}n de datos.\relax }}{44}{table.caption.54}}
\newlabel{Obtencion_datos}{{2.5}{44}{Obtención de datos.\relax }{table.caption.54}{}}
\citation{python.org}
\@writefile{toc}{\contentsline {section}{\numberline {2.10}Aplicaci\IeC {\'o}n Python}{45}{section.2.10}}
\@writefile{lof}{\contentsline {figure}{\numberline {2.26}{\ignorespaces Diagrama entidad-relaci\IeC {\'o}n.\relax }}{45}{figure.caption.55}}
\newlabel{E_R}{{2.26}{45}{Diagrama entidad-relación.\relax }{figure.caption.55}{}}
\@writefile{toc}{\contentsline {subsection}{\numberline {2.10.1}Funcionamiento}{46}{subsection.2.10.1}}
\@writefile{lof}{\contentsline {figure}{\numberline {2.27}{\ignorespaces Aplicaci\IeC {\'o}n de lectura de se\IeC {\~n}al EEG.\relax }}{46}{figure.caption.56}}
\newlabel{Python_app}{{2.27}{46}{Aplicación de lectura de señal EEG.\relax }{figure.caption.56}{}}
\@writefile{lof}{\contentsline {figure}{\numberline {2.28}{\ignorespaces Funcionamiento aplicaci\IeC {\'o}n\relax }}{47}{figure.caption.57}}
\newlabel{funcionamiento_app}{{2.28}{47}{Funcionamiento aplicación\relax }{figure.caption.57}{}}
\@writefile{toc}{\contentsline {chapter}{\numberline {3}Experimentaci\IeC {\'o}n}{49}{chapter.3}}
\@writefile{lof}{\addvspace {10\p@ }}
\@writefile{lot}{\addvspace {10\p@ }}
\newlabel{cap:cuatro}{{3}{49}{Experimentación}{chapter.3}{}}
\@writefile{toc}{\contentsline {section}{\numberline {3.1}Obtenci\IeC {\'o}n de datos}{49}{section.3.1}}
\@writefile{toc}{\contentsline {section}{\numberline {3.2}Pruebas de ejercicios matem\IeC {\'a}ticos}{49}{section.3.2}}
\@writefile{toc}{\contentsline {subsection}{\numberline {3.2.1}Usuario 1}{50}{subsection.3.2.1}}
\@writefile{toc}{\contentsline {subsubsection}{Primera toma de datos del Usuario 1}{50}{section*.58}}
\@writefile{lof}{\contentsline {figure}{\numberline {3.1}{\ignorespaces Ondas cerebrales en estado de activaci\IeC {\'o}n (11:46)\relax }}{50}{figure.caption.59}}
\newlabel{Jota11-46-plot}{{3.1}{50}{Ondas cerebrales en estado de activación (11:46)\relax }{figure.caption.59}{}}
\@writefile{lot}{\contentsline {table}{\numberline {3.1}{\ignorespaces Gr\IeC {\'a}fico de barras en estado de activaci\IeC {\'o}n (Toma 1)\relax }}{51}{table.caption.60}}
\newlabel{Jota11-46-barchar}{{3.1}{51}{Gráfico de barras en estado de activación (Toma 1)\relax }{table.caption.60}{}}
\@writefile{toc}{\contentsline {subsubsection}{Segunda toma de datos del Usuario 1}{51}{section*.61}}
\@writefile{lof}{\contentsline {figure}{\numberline {3.2}{\ignorespaces Ondas cerebrales en estado de activaci\IeC {\'o}n (11:48)\relax }}{51}{figure.caption.62}}
\newlabel{Jota11-48-plot}{{3.2}{51}{Ondas cerebrales en estado de activación (11:48)\relax }{figure.caption.62}{}}
\@writefile{lot}{\contentsline {table}{\numberline {3.2}{\ignorespaces Gr\IeC {\'a}fico de barras en estado de activaci\IeC {\'o}n (11:48)\relax }}{52}{table.caption.63}}
\newlabel{Jota11-48-barchar}{{3.2}{52}{Gráfico de barras en estado de activación (11:48)\relax }{table.caption.63}{}}
\@writefile{toc}{\contentsline {subsection}{\numberline {3.2.2}Usuario 2}{52}{subsection.3.2.2}}
\@writefile{toc}{\contentsline {subsubsection}{Primera toma de datos del Usuario 2}{52}{section*.64}}
\@writefile{lof}{\contentsline {figure}{\numberline {3.3}{\ignorespaces Ondas cerebrales en estado de activaci\IeC {\'o}n (12:08)\relax }}{52}{figure.caption.65}}
\newlabel{alvaro12-08-plot}{{3.3}{52}{Ondas cerebrales en estado de activación (12:08)\relax }{figure.caption.65}{}}
\@writefile{lot}{\contentsline {table}{\numberline {3.3}{\ignorespaces Gr\IeC {\'a}fico de barras en estado de activaci\IeC {\'o}n (12:08)\relax }}{53}{table.caption.66}}
\newlabel{alvaro12-08-barchar}{{3.3}{53}{Gráfico de barras en estado de activación (12:08)\relax }{table.caption.66}{}}
\@writefile{toc}{\contentsline {subsubsection}{Segunda toma de datos del Usuario 2}{53}{section*.67}}
\@writefile{lof}{\contentsline {figure}{\numberline {3.4}{\ignorespaces Ondas cerebrales en estado de activaci\IeC {\'o}n (12:10)\relax }}{53}{figure.caption.68}}
\newlabel{alvaro12-10-plot}{{3.4}{53}{Ondas cerebrales en estado de activación (12:10)\relax }{figure.caption.68}{}}
\@writefile{lot}{\contentsline {table}{\numberline {3.4}{\ignorespaces Gr\IeC {\'a}fico de barras en estado de activaci\IeC {\'o}n (12:10)\relax }}{54}{table.caption.69}}
\newlabel{alvaro12-10-barchar}{{3.4}{54}{Gráfico de barras en estado de activación (12:10)\relax }{table.caption.69}{}}
\@writefile{toc}{\contentsline {section}{\numberline {3.3}M\IeC {\'u}sica estridente}{54}{section.3.3}}
\@writefile{toc}{\contentsline {subsection}{\numberline {3.3.1}Usuario 1}{54}{subsection.3.3.1}}
\@writefile{toc}{\contentsline {subsubsection}{Segunda toma de datos del Usuario 1}{55}{section*.70}}
\@writefile{lof}{\contentsline {figure}{\numberline {3.5}{\ignorespaces Ondas cerebrales en estado de escucha (11:53)\relax }}{55}{figure.caption.71}}
\newlabel{Jota11-53-plot}{{3.5}{55}{Ondas cerebrales en estado de escucha (11:53)\relax }{figure.caption.71}{}}
\@writefile{lot}{\contentsline {table}{\numberline {3.5}{\ignorespaces Gr\IeC {\'a}fico de barras en estado de escucha (11:53)\relax }}{55}{table.caption.72}}
\newlabel{Jota11-53-barchar}{{3.5}{55}{Gráfico de barras en estado de escucha (11:53)\relax }{table.caption.72}{}}
\@writefile{toc}{\contentsline {subsubsection}{Tercera toma de datos del Usuario 1}{56}{section*.73}}
\@writefile{lof}{\contentsline {figure}{\numberline {3.6}{\ignorespaces Ondas cerebrales en estado de escucha (11:55)\relax }}{56}{figure.caption.74}}
\newlabel{Jota11-55-plot}{{3.6}{56}{Ondas cerebrales en estado de escucha (11:55)\relax }{figure.caption.74}{}}
\@writefile{lof}{\contentsline {figure}{\numberline {3.7}{\ignorespaces Frecuencias en estado escucha (11:55)[Ampliada]\relax }}{56}{figure.caption.75}}
\newlabel{Jota11-55_2-stem}{{3.7}{56}{Frecuencias en estado escucha (11:55)[Ampliada]\relax }{figure.caption.75}{}}
\@writefile{lot}{\contentsline {table}{\numberline {3.6}{\ignorespaces Gr\IeC {\'a}fico de barras en estado de escucha (11:55)\relax }}{57}{table.caption.76}}
\newlabel{Jota11-55-barchar}{{3.6}{57}{Gráfico de barras en estado de escucha (11:55)\relax }{table.caption.76}{}}
\@writefile{toc}{\contentsline {subsection}{\numberline {3.3.2}Usuario 2}{57}{subsection.3.3.2}}
\@writefile{toc}{\contentsline {subsubsection}{Segunda toma de datos del Usuario 2}{57}{section*.77}}
\@writefile{lof}{\contentsline {figure}{\numberline {3.8}{\ignorespaces Ondas cerebrales en estado de escucha (12:14)\relax }}{58}{figure.caption.78}}
\newlabel{alvaro12-14-plot}{{3.8}{58}{Ondas cerebrales en estado de escucha (12:14)\relax }{figure.caption.78}{}}
\@writefile{lot}{\contentsline {table}{\numberline {3.7}{\ignorespaces Gr\IeC {\'a}fico de barras en estado de escucha (12:14)\relax }}{58}{table.caption.79}}
\newlabel{alvaro12-14-barchar}{{3.7}{58}{Gráfico de barras en estado de escucha (12:14)\relax }{table.caption.79}{}}
\@writefile{toc}{\contentsline {subsubsection}{Tercera toma de datos del Usuario 2}{59}{section*.80}}
\@writefile{lof}{\contentsline {figure}{\numberline {3.9}{\ignorespaces Ondas cerebrales en estado de escucha (12:16)\relax }}{59}{figure.caption.81}}
\newlabel{alvaro12-16-plot}{{3.9}{59}{Ondas cerebrales en estado de escucha (12:16)\relax }{figure.caption.81}{}}
\@writefile{lot}{\contentsline {table}{\numberline {3.8}{\ignorespaces Gr\IeC {\'a}fico de barras en estado de escucha (12:16)\relax }}{59}{table.caption.82}}
\newlabel{alvaro12-16-barchar}{{3.8}{59}{Gráfico de barras en estado de escucha (12:16)\relax }{table.caption.82}{}}
\@writefile{toc}{\contentsline {section}{\numberline {3.4}M\IeC {\'u}sica relajante}{60}{section.3.4}}
\@writefile{toc}{\contentsline {subsection}{\numberline {3.4.1}Usuario 1}{60}{subsection.3.4.1}}
\@writefile{toc}{\contentsline {subsubsection}{Primera toma de datos del Usuario 1}{60}{section*.83}}
\@writefile{lof}{\contentsline {figure}{\numberline {3.10}{\ignorespaces Ondas cerebrales en estado de relajaci\IeC {\'o}n (11:58)\relax }}{60}{figure.caption.84}}
\newlabel{Jota11-58-plot}{{3.10}{60}{Ondas cerebrales en estado de relajación (11:58)\relax }{figure.caption.84}{}}
\@writefile{lot}{\contentsline {table}{\numberline {3.9}{\ignorespaces Gr\IeC {\'a}fico de barras en estado de relajaci\IeC {\'o}n (11:58)\relax }}{61}{table.caption.85}}
\newlabel{Jota11-58-barchar}{{3.9}{61}{Gráfico de barras en estado de relajación (11:58)\relax }{table.caption.85}{}}
\@writefile{toc}{\contentsline {subsubsection}{Segunda toma de datos del Usuario 1}{61}{section*.86}}
\@writefile{lof}{\contentsline {figure}{\numberline {3.11}{\ignorespaces Ondas cerebrales en estado de relajaci\IeC {\'o}n (11:59)\relax }}{61}{figure.caption.87}}
\newlabel{Jota11-59-plot}{{3.11}{61}{Ondas cerebrales en estado de relajación (11:59)\relax }{figure.caption.87}{}}
\@writefile{lot}{\contentsline {table}{\numberline {3.10}{\ignorespaces Gr\IeC {\'a}fico de barras en estado de relajaci\IeC {\'o}n (11:59)\relax }}{62}{table.caption.88}}
\newlabel{Jota11-59-barchar}{{3.10}{62}{Gráfico de barras en estado de relajación (11:59)\relax }{table.caption.88}{}}
\@writefile{toc}{\contentsline {subsubsection}{Tercera toma de datos del Usuario 1}{62}{section*.89}}
\@writefile{lof}{\contentsline {figure}{\numberline {3.12}{\ignorespaces Ondas cerebrales en estado de relajaci\IeC {\'o}n (12:01)\relax }}{62}{figure.caption.90}}
\newlabel{Jota12-01-plot}{{3.12}{62}{Ondas cerebrales en estado de relajación (12:01)\relax }{figure.caption.90}{}}
\@writefile{lot}{\contentsline {table}{\numberline {3.11}{\ignorespaces Gr\IeC {\'a}fico de barras en estado de relajaci\IeC {\'o}n (12:01)\relax }}{63}{table.caption.91}}
\newlabel{Jota12-01-barchar}{{3.11}{63}{Gráfico de barras en estado de relajación (12:01)\relax }{table.caption.91}{}}
\@writefile{toc}{\contentsline {subsection}{\numberline {3.4.2}Usuario 2}{63}{subsection.3.4.2}}
\@writefile{toc}{\contentsline {subsubsection}{Primera toma de datos del Usuario 2}{63}{section*.92}}
\@writefile{lof}{\contentsline {figure}{\numberline {3.13}{\ignorespaces Ondas cerebrales en estado de relajaci\IeC {\'o}n (12:17)\relax }}{63}{figure.caption.93}}
\newlabel{alvaro12-17-plot}{{3.13}{63}{Ondas cerebrales en estado de relajación (12:17)\relax }{figure.caption.93}{}}
\@writefile{lot}{\contentsline {table}{\numberline {3.12}{\ignorespaces Gr\IeC {\'a}fico de barras en estado de relajaci\IeC {\'o}n (12:17)\relax }}{64}{table.caption.94}}
\newlabel{alvaro12-17-barchar}{{3.12}{64}{Gráfico de barras en estado de relajación (12:17)\relax }{table.caption.94}{}}
\@writefile{toc}{\contentsline {subsubsection}{Segunda toma de datos del Usuario 2}{64}{section*.95}}
\@writefile{lof}{\contentsline {figure}{\numberline {3.14}{\ignorespaces Ondas cerebrales en estado de relajaci\IeC {\'o}n (12:19)\relax }}{64}{figure.caption.96}}
\newlabel{alvaro12-19-plot}{{3.14}{64}{Ondas cerebrales en estado de relajación (12:19)\relax }{figure.caption.96}{}}
\@writefile{lot}{\contentsline {table}{\numberline {3.13}{\ignorespaces Gr\IeC {\'a}fico de barras en estado de relajaci\IeC {\'o}n (12:19)\relax }}{65}{table.caption.97}}
\newlabel{alvaro12-19-barchar}{{3.13}{65}{Gráfico de barras en estado de relajación (12:19)\relax }{table.caption.97}{}}
\@writefile{toc}{\contentsline {subsubsection}{Tercera toma de datos del Usuario 2}{65}{section*.98}}
\@writefile{lof}{\contentsline {figure}{\numberline {3.15}{\ignorespaces Ondas cerebrales en estado de relajaci\IeC {\'o}n (12:20)\relax }}{65}{figure.caption.99}}
\newlabel{alvaro12-20-plot}{{3.15}{65}{Ondas cerebrales en estado de relajación (12:20)\relax }{figure.caption.99}{}}
\@writefile{lot}{\contentsline {table}{\numberline {3.14}{\ignorespaces Gr\IeC {\'a}fico de barras en estado de relajaci\IeC {\'o}n (12:20)\relax }}{66}{table.caption.100}}
\newlabel{alvaro12-20-barchar}{{3.14}{66}{Gráfico de barras en estado de relajación (12:20)\relax }{table.caption.100}{}}
\@writefile{toc}{\contentsline {section}{\numberline {3.5}Conclusiones}{66}{section.3.5}}
\@writefile{toc}{\contentsline {subsection}{\numberline {3.5.1}Prueba de ejercicio matem\IeC {\'a}tico}{66}{subsection.3.5.1}}
\@writefile{lot}{\contentsline {table}{\numberline {3.15}{\ignorespaces Gr\IeC {\'a}fico comparativo entre usuarios de las pruebas de ejercicios matem\IeC {\'a}ticos\relax }}{67}{table.caption.101}}
\newlabel{P_ejercicio_comparacion}{{3.15}{67}{Gráfico comparativo entre usuarios de las pruebas de ejercicios matemáticos\relax }{table.caption.101}{}}
\@writefile{toc}{\contentsline {subsection}{\numberline {3.5.2}M\IeC {\'u}sica estridente}{67}{subsection.3.5.2}}
\@writefile{lot}{\contentsline {table}{\numberline {3.16}{\ignorespaces Gr\IeC {\'a}fico comparativo entre usuarios, m\IeC {\'u}sica estridente\relax }}{68}{table.caption.102}}
\newlabel{M_estridente_comparacion}{{3.16}{68}{Gráfico comparativo entre usuarios, música estridente\relax }{table.caption.102}{}}
\@writefile{toc}{\contentsline {subsection}{\numberline {3.5.3}M\IeC {\'u}sica relajante}{68}{subsection.3.5.3}}
\@writefile{lot}{\contentsline {table}{\numberline {3.17}{\ignorespaces Gr\IeC {\'a}fico comparativo entre usuarios, m\IeC {\'u}sica relajante\relax }}{69}{table.caption.103}}
\newlabel{M_relajante_comparacion}{{3.17}{69}{Gráfico comparativo entre usuarios, música relajante\relax }{table.caption.103}{}}
\@writefile{toc}{\contentsline {subsection}{\numberline {3.5.4}Conclusi\IeC {\'o}n}{69}{subsection.3.5.4}}
\@writefile{toc}{\contentsline {chapter}{\numberline {4}Conclusiones}{71}{chapter.4}}
\@writefile{lof}{\addvspace {10\p@ }}
\@writefile{lot}{\addvspace {10\p@ }}
\newlabel{cap:conclusiones}{{4}{71}{Conclusiones}{chapter.4}{}}
\@writefile{toc}{\contentsline {section}{\numberline {4.1}Implementaci\IeC {\'o}n y coste}{72}{section.4.1}}
\@writefile{toc}{\contentsline {section}{\numberline {4.2}Trabajos futuros}{72}{section.4.2}}
\bibstyle{plain}
\bibdata{memoria}
\bibcite{openbci}{1}
\bibcite{Waves}{2}
\bibcite{digikey}{3}
\bibcite{fritzing}{4}
\bibcite{arduino}{5}
\bibcite{mindwave}{6}
\bibcite{jlcpcb}{7}
\bibcite{python.org}{8}
\bibcite{benarroch_1999}{9}
\bibcite{diamond_elson_scheibel_2014}{10}
\bibcite{eeg}{11}
\bibcite{experimental_brain_computer_interface}{12}
\bibcite{Tecinasbasicaseeg}{13}
\bibcite{control-cerebral-interfases}{14}
\@writefile{toc}{\contentsline {chapter}{Bibliograf\IeC {\'\i }a}{75}{section.4.2}}
\bibcite{Transformada-Fourier}{15}
\bibcite{cerebro-ejecutivo}{16}
\bibcite{google-sites}{17}
\bibcite{homan}{18}
\bibcite{instructablesEEG2017}{19}
\bibcite{instructables-2017}{20}
\bibcite{lifeder-2019}{21}
\bibcite{matlab-spectrogram}{22}
\bibcite{moyes-jiang}{23}
\bibcite{EEG-signal-classification}{24}
\bibcite{pwelchs}{25}
\bibcite{lobulotemporal}{26}
\bibcite{ruiz}{27}
\bibcite{enrique}{28}
\bibcite{pjrc-teensy}{29}
\newlabel{Esquema_PDF}{{4.2}{79}{Trabajos futuros}{chapter*.104}{}}
\newlabel{Kicad_pdf}{{4.2}{80}{Trabajos futuros}{chapter*.104}{}}
\newlabel{PCB_pdf}{{4.2}{88}{Trabajos futuros}{chapter*.104}{}}
\@writefile{toc}{\contentsline {chapter}{\numberline {A}Reacondicionamiento de la se\IeC {\~n}al}{89}{appendix.Alph1}}
\@writefile{lof}{\addvspace {10\p@ }}
\@writefile{lot}{\addvspace {10\p@ }}
\newlabel{aped. Calculos}{{A}{89}{Reacondicionamiento de la señal}{appendix.Alph1}{}}
\@writefile{toc}{\contentsline {section}{\numberline {A.1}Filtro paso alto}{90}{section.Alph1.1}}
\@writefile{lof}{\contentsline {figure}{\numberline {A.1}{\ignorespaces Filtro PasoAlto pasivo\relax }}{90}{figure.caption.105}}
\newlabel{Filtro_paso_alto}{{A.1}{90}{Filtro PasoAlto pasivo\relax }{figure.caption.105}{}}
\@writefile{lot}{\contentsline {table}{\numberline {A.1}{\ignorespaces F\IeC {\'o}rmulas para c\IeC {\'a}lculo frecuencia de corte 0.075 Hz\relax }}{90}{table.caption.106}}
\newlabel{Formulas_frecuencia_corte_0.05}{{A.1}{90}{Fórmulas para cálculo frecuencia de corte 0.075 Hz\relax }{table.caption.106}{}}
\@writefile{toc}{\contentsline {section}{\numberline {A.2}Filtro paso bajo activo}{91}{section.Alph1.2}}
\@writefile{lof}{\contentsline {figure}{\numberline {A.2}{\ignorespaces Filtro PasoBajo activo\relax }}{91}{figure.caption.107}}
\newlabel{Filtro_paso_bajo_activo}{{A.2}{91}{Filtro PasoBajo activo\relax }{figure.caption.107}{}}
\@writefile{lot}{\contentsline {table}{\numberline {A.2}{\ignorespaces F\IeC {\'o}rmulas para c\IeC {\'a}lculo frecuencia de corte 60 Hz\relax }}{91}{table.caption.108}}
\newlabel{Formulas_frecuencia_corte_60}{{A.2}{91}{Fórmulas para cálculo frecuencia de corte 60 Hz\relax }{table.caption.108}{}}
\@writefile{lot}{\contentsline {table}{\numberline {A.3}{\ignorespaces F\IeC {\'o}rmulas para c\IeC {\'a}lculo de ganancia del amplificador\relax }}{92}{table.caption.109}}
\newlabel{Formula_ganancia_amplificador}{{A.3}{92}{Fórmulas para cálculo de ganancia del amplificador\relax }{table.caption.109}{}}
\@writefile{toc}{\contentsline {section}{\numberline {A.3}Filtro paso bajo pasivo}{92}{section.Alph1.3}}
\@writefile{lof}{\contentsline {figure}{\numberline {A.3}{\ignorespaces Filtro PasoBajo pasivo\relax }}{92}{figure.caption.110}}
\newlabel{Filtro_paso_bajo_pasivo}{{A.3}{92}{Filtro PasoBajo pasivo\relax }{figure.caption.110}{}}
\@writefile{lot}{\contentsline {table}{\numberline {A.4}{\ignorespaces F\IeC {\'o}rmulas para c\IeC {\'a}lculo frecuencia de corte 25 Hz\relax }}{93}{table.caption.111}}
\newlabel{Formulas_frecuencia_corte_25}{{A.4}{93}{Fórmulas para cálculo frecuencia de corte 25 Hz\relax }{table.caption.111}{}}
\@writefile{toc}{\contentsline {section}{\numberline {A.4}Gr\IeC {\'a}fica filtro paso alto pasivo}{93}{section.Alph1.4}}
\@writefile{lof}{\contentsline {figure}{\numberline {A.4}{\ignorespaces Gr\IeC {\'a}fico Bode Filtro PasoAlto\relax }}{93}{figure.caption.112}}
\newlabel{G_B_F_A}{{A.4}{93}{Gráfico Bode Filtro PasoAlto\relax }{figure.caption.112}{}}
\@writefile{toc}{\contentsline {section}{\numberline {A.5}Gr\IeC {\'a}fica filtro paso bajo activo}{93}{section.Alph1.5}}
\@writefile{lof}{\contentsline {figure}{\numberline {A.5}{\ignorespaces Gr\IeC {\'a}fico Bode Filtro PasoBajo activo\relax }}{94}{figure.caption.113}}
\newlabel{G_B_F_B_a}{{A.5}{94}{Gráfico Bode Filtro PasoBajo activo\relax }{figure.caption.113}{}}
\@writefile{toc}{\contentsline {section}{\numberline {A.6}Gr\IeC {\'a}fica filtro paso bajo pasivo}{94}{section.Alph1.6}}
\@writefile{lof}{\contentsline {figure}{\numberline {A.6}{\ignorespaces Gr\IeC {\'a}fico Bode Filtro PasoBajo\relax }}{94}{figure.caption.114}}
\newlabel{G_B_F_pasobajo}{{A.6}{94}{Gráfico Bode Filtro PasoBajo\relax }{figure.caption.114}{}}
\@writefile{toc}{\contentsline {section}{\numberline {A.7}Gr\IeC {\'a}fica filtro paso banda}{95}{section.Alph1.7}}
\@writefile{lof}{\contentsline {figure}{\numberline {A.7}{\ignorespaces Gr\IeC {\'a}fico Bode Filtro PasoBanda\relax }}{95}{figure.caption.115}}
\newlabel{G_B_F_P_B}{{A.7}{95}{Gráfico Bode Filtro PasoBanda\relax }{figure.caption.115}{}}
\@writefile{toc}{\contentsline {chapter}{\numberline {B}C\IeC {\'o}digo Matlab}{97}{appendix.Alph2}}
\@writefile{lof}{\addvspace {10\p@ }}
\@writefile{lot}{\addvspace {10\p@ }}
\@writefile{toc}{\contentsline {section}{\numberline {B.1}C\IeC {\'a}lculo de frecuencias}{97}{section.Alph2.1}}
\newlabel{M_calculo_frecuencias}{{B.1}{97}{Cálculo de frecuencias}{section.Alph2.1}{}}
\@writefile{lol}{\contentsline {lstlisting}{code/Matlab/calculo\textunderscore frecuencias.m}{97}{lstlisting.Alph2.-4}}
\@writefile{toc}{\contentsline {section}{\numberline {B.2}Ejecuci\IeC {\'o}n tiempo real}{98}{section.Alph2.2}}
\newlabel{M_ejecucion_tiempo_real}{{B.2}{98}{Ejecución tiempo real}{section.Alph2.2}{}}
\@writefile{lol}{\contentsline {lstlisting}{code/Matlab/ejecucion\textunderscore time\textunderscore real.m}{98}{lstlisting.Alph2.-5}}
\@writefile{toc}{\contentsline {section}{\numberline {B.3}Estudio de datos}{99}{section.Alph2.3}}
\newlabel{M_estudio_datos}{{B.3}{99}{Estudio de datos}{section.Alph2.3}{}}
\@writefile{lol}{\contentsline {lstlisting}{code/Matlab/Estudio\textunderscore datos.m}{99}{lstlisting.Alph2.-6}}
\@writefile{toc}{\contentsline {section}{\numberline {B.4}FFT}{102}{section.Alph2.4}}
\newlabel{M_FFT}{{B.4}{102}{FFT}{section.Alph2.4}{}}
\@writefile{lol}{\contentsline {lstlisting}{code/Matlab/FFT\textunderscore code.m}{102}{lstlisting.Alph2.-7}}
\@writefile{toc}{\contentsline {section}{\numberline {B.5}Recolecci\IeC {\'o}n de datos}{103}{section.Alph2.5}}
\newlabel{M_recoleccion_datos}{{B.5}{103}{Recolección de datos}{section.Alph2.5}{}}
\@writefile{lol}{\contentsline {lstlisting}{code/Matlab/Recoleccion\textunderscore datos.m}{103}{lstlisting.Alph2.-8}}
\@writefile{toc}{\contentsline {section}{\numberline {B.6}Recolecci\IeC {\'o}n de datos por minuto}{105}{section.Alph2.6}}
\newlabel{M_recoleccion_per_min}{{B.6}{105}{Recolección de datos por minuto}{section.Alph2.6}{}}
\@writefile{lol}{\contentsline {lstlisting}{code/Matlab/Recoleccion\textunderscore datos\textunderscore permin.m}{105}{lstlisting.Alph2.-9}}
\@writefile{toc}{\contentsline {section}{\numberline {B.7}Comprobaci\IeC {\'o}n del serial}{106}{section.Alph2.7}}
\newlabel{M_serial_test}{{B.7}{106}{Comprobación del serial}{section.Alph2.7}{}}
\@writefile{lol}{\contentsline {lstlisting}{code/Matlab/serial\textunderscore test.m}{106}{lstlisting.Alph2.-10}}
\@writefile{toc}{\contentsline {chapter}{\numberline {C}C\IeC {\'o}digo en Python}{109}{appendix.Alph3}}
\@writefile{lof}{\addvspace {10\p@ }}
\@writefile{lot}{\addvspace {10\p@ }}
\newlabel{codigo_python_apend}{{C}{109}{Código en Python}{appendix.Alph3}{}}
\@writefile{toc}{\contentsline {section}{\numberline {C.1}Main.py}{109}{section.Alph3.1}}
\@writefile{lol}{\contentsline {lstlisting}{code/Python/main.py}{109}{lstlisting.Alph3.-11}}
\@writefile{toc}{\contentsline {section}{\numberline {C.2}Get\_data.py}{113}{section.Alph3.2}}
\@writefile{lol}{\contentsline {lstlisting}{code/Python/Get\textunderscore data.py}{113}{lstlisting.Alph3.-12}}
\@writefile{toc}{\contentsline {section}{\numberline {C.3}Frequencies}{114}{section.Alph3.3}}
\@writefile{lol}{\contentsline {lstlisting}{code/Python/Frequencies.py}{114}{lstlisting.Alph3.-13}}
\@writefile{toc}{\contentsline {chapter}{\numberline {D}C\IeC {\'o}digo en Teensy}{117}{appendix.Alph4}}
\@writefile{lof}{\addvspace {10\p@ }}
\@writefile{lot}{\addvspace {10\p@ }}
\newlabel{codigo_teensy_apend}{{D}{117}{Código en Teensy}{appendix.Alph4}{}}
\@writefile{lol}{\contentsline {lstlisting}{code/arduino/EEG\textunderscore analogread\textunderscore fft\textunderscore 4chans.ino}{117}{lstlisting.Alph4.-14}}
