\relax 
\providecommand\hyper@newdestlabel[2]{}
\catcode `"\active 
\catcode `<\active 
\catcode `>\active 
\@nameuse{es@quoting}
\providecommand\HyperFirstAtBeginDocument{\AtBeginDocument}
\HyperFirstAtBeginDocument{\ifx\hyper@anchor\@undefined
\global\let\oldcontentsline\contentsline
\gdef\contentsline#1#2#3#4{\oldcontentsline{#1}{#2}{#3}}
\global\let\oldnewlabel\newlabel
\gdef\newlabel#1#2{\newlabelxx{#1}#2}
\gdef\newlabelxx#1#2#3#4#5#6{\oldnewlabel{#1}{{#2}{#3}}}
\AtEndDocument{\ifx\hyper@anchor\@undefined
\let\contentsline\oldcontentsline
\let\newlabel\oldnewlabel
\fi}
\fi}
\global\let\hyper@last\relax 
\gdef\HyperFirstAtBeginDocument#1{#1}
\providecommand\HyField@AuxAddToFields[1]{}
\providecommand\HyField@AuxAddToCoFields[2]{}
\babel@aux{spanish}{}
\@writefile{toc}{\contentsline {chapter}{\numberline {1}Migra\IeC {\~n}a}{5}{chapter.1}}
\@writefile{lof}{\addvspace {10\p@ }}
\@writefile{lot}{\addvspace {10\p@ }}
\@writefile{lof}{\contentsline {figure}{\numberline {1.1}{\ignorespaces Mapa cerebral con ondas r\IeC {\'a}pidas\relax }}{5}{figure.caption.4}}
\providecommand*\caption@xref[2]{\@setref\relax\@undefined{#1}}
\newlabel{M_C}{{1.1}{5}{Mapa cerebral con ondas rápidas\relax }{figure.caption.4}{}}
\citation{migrania}
\citation{tfg}
\@writefile{lof}{\contentsline {figure}{\numberline {1.2}{\ignorespaces Mapa cerebral con ondas lentas\relax }}{6}{figure.caption.5}}
\newlabel{M_C2}{{1.2}{6}{Mapa cerebral con ondas lentas\relax }{figure.caption.5}{}}
\@writefile{lof}{\contentsline {figure}{\numberline {1.3}{\ignorespaces L\IeC {\'o}bulos cerebrales\relax }}{6}{figure.caption.6}}
\newlabel{lobulos}{{1.3}{6}{Lóbulos cerebrales\relax }{figure.caption.6}{}}
\@writefile{toc}{\contentsline {chapter}{\numberline {2}Componentes}{8}{chapter.2}}
\@writefile{lof}{\addvspace {10\p@ }}
\@writefile{lot}{\addvspace {10\p@ }}
\@writefile{toc}{\contentsline {section}{\numberline {2.1}Sensores}{8}{section.2.1}}
\@writefile{lof}{\contentsline {figure}{\numberline {2.1}{\ignorespaces Disposici\IeC {\'o}n de los Electrodos\relax }}{8}{figure.caption.7}}
\newlabel{P_EEG}{{2.1}{8}{Disposición de los Electrodos\relax }{figure.caption.7}{}}
\@writefile{toc}{\contentsline {subsection}{\numberline {2.1.1}OpenBCI EEG Headband Kit}{9}{subsection.2.1.1}}
\@writefile{lof}{\contentsline {figure}{\numberline {2.2}{\ignorespaces HeadBand Kit EEG\relax }}{9}{figure.caption.8}}
\newlabel{HBK}{{2.2}{9}{HeadBand Kit EEG\relax }{figure.caption.8}{}}
\@writefile{toc}{\contentsline {subsection}{\numberline {2.1.2}EMG/ECG Snap Electrode Cables}{9}{subsection.2.1.2}}
\@writefile{lof}{\contentsline {figure}{\numberline {2.3}{\ignorespaces Electrodes\relax }}{10}{figure.caption.9}}
\newlabel{electrodes}{{2.3}{10}{Electrodes\relax }{figure.caption.9}{}}
\@writefile{toc}{\contentsline {section}{\numberline {2.2}Placa de desarrollo}{10}{section.2.2}}
\@writefile{toc}{\contentsline {subsection}{\numberline {2.2.1}Teensy 3.6}{10}{subsection.2.2.1}}
\@writefile{lot}{\contentsline {table}{\numberline {2.1}{\ignorespaces Tabla de caracter\IeC {\'\i }sticas\relax }}{11}{table.caption.10}}
\newlabel{caract}{{2.1}{11}{Tabla de características\relax }{table.caption.10}{}}
\citation{eeg}
\@writefile{lof}{\contentsline {figure}{\numberline {2.4}{\ignorespaces Teensy 3.6\relax }}{12}{figure.caption.11}}
\newlabel{teensy}{{2.4}{12}{Teensy 3.6\relax }{figure.caption.11}{}}
\@writefile{toc}{\contentsline {subsection}{\numberline {2.2.2}Teensy 3 - Bluetooth LE 4.0 Module}{12}{subsection.2.2.2}}
\@writefile{lof}{\contentsline {figure}{\numberline {2.5}{\ignorespaces Teensy 3 Bluetooth\relax }}{12}{figure.caption.12}}
\newlabel{teensyB}{{2.5}{12}{Teensy 3 Bluetooth\relax }{figure.caption.12}{}}
\@writefile{toc}{\contentsline {section}{\numberline {2.3}Circuito adaptador}{13}{section.2.3}}
\@writefile{lof}{\contentsline {figure}{\numberline {2.6}{\ignorespaces Esquema gr\IeC {\'a}fico del sistema\relax }}{13}{figure.caption.13}}
\newlabel{Esquema_TFG}{{2.6}{13}{Esquema gráfico del sistema\relax }{figure.caption.13}{}}
\@writefile{toc}{\contentsline {subsection}{\numberline {2.3.1}Circuito amplificador}{14}{subsection.2.3.1}}
\@writefile{lof}{\contentsline {figure}{\numberline {2.7}{\ignorespaces Circuito adaptador\relax }}{14}{figure.caption.14}}
\newlabel{CA}{{2.7}{14}{Circuito adaptador\relax }{figure.caption.14}{}}
\newlabel{fig:Osci}{{2.8a}{15}{Osciloscopio\relax }{figure.caption.15}{}}
\newlabel{sub@fig:Osci}{{a}{15}{Osciloscopio\relax }{figure.caption.15}{}}
\newlabel{fig:Mult}{{2.8b}{15}{Multimetro\relax }{figure.caption.15}{}}
\newlabel{sub@fig:Mult}{{b}{15}{Multimetro\relax }{figure.caption.15}{}}
\@writefile{lof}{\contentsline {figure}{\numberline {2.8}{\ignorespaces Simulaci\IeC {\'o}n\relax }}{15}{figure.caption.15}}
\newlabel{fig:sim}{{2.8}{15}{Simulación\relax }{figure.caption.15}{}}
\@writefile{lot}{\contentsline {table}{\numberline {2.2}{\ignorespaces Tabla de componentes\relax }}{15}{table.caption.16}}
\newlabel{componentes}{{2.2}{15}{Tabla de componentes\relax }{table.caption.16}{}}
\@writefile{toc}{\contentsline {chapter}{\numberline {3}Presupuesto}{16}{chapter.3}}
\@writefile{lof}{\addvspace {10\p@ }}
\@writefile{lot}{\addvspace {10\p@ }}
\@writefile{toc}{\contentsline {chapter}{\numberline {4}Anexo}{17}{chapter.4}}
\@writefile{lof}{\addvspace {10\p@ }}
\@writefile{lot}{\addvspace {10\p@ }}
\bibstyle{plain}
\bibdata{memoria_cas}
\bibcite{eeg}{1}
\bibcite{migrania}{2}
\bibcite{tfg}{3}
