\relax 
\providecommand\hyper@newdestlabel[2]{}
\catcode `"\active 
\catcode `<\active 
\catcode `>\active 
\@nameuse{es@quoting}
\providecommand\HyperFirstAtBeginDocument{\AtBeginDocument}
\HyperFirstAtBeginDocument{\ifx\hyper@anchor\@undefined
\global\let\oldcontentsline\contentsline
\gdef\contentsline#1#2#3#4{\oldcontentsline{#1}{#2}{#3}}
\global\let\oldnewlabel\newlabel
\gdef\newlabel#1#2{\newlabelxx{#1}#2}
\gdef\newlabelxx#1#2#3#4#5#6{\oldnewlabel{#1}{{#2}{#3}}}
\AtEndDocument{\ifx\hyper@anchor\@undefined
\let\contentsline\oldcontentsline
\let\newlabel\oldnewlabel
\fi}
\fi}
\global\let\hyper@last\relax 
\gdef\HyperFirstAtBeginDocument#1{#1}
\providecommand\HyField@AuxAddToFields[1]{}
\providecommand\HyField@AuxAddToCoFields[2]{}
\babel@aux{spanish}{}
\citation{lifeder-2019}
\citation{control-cerebral-interfases}
\citation{Waves}
\citation{migrania}
\citation{migrania}
\citation{instructables-2017}
\citation{cefaleaymigrania}
\citation{eeg}
\citation{instructablesEEG2017}
\citation{experimental_brain_computer_interface}
\citation{google-sites}
\citation{ruiz}
\@writefile{toc}{\contentsline {chapter}{\numberline {1}Introducci\IeC {\'o}n}{9}{chapter.1}}
\@writefile{lof}{\addvspace {10\p@ }}
\@writefile{lot}{\addvspace {10\p@ }}
\@writefile{toc}{\contentsline {section}{\numberline {1.1}Motivaci\IeC {\'o}n}{9}{section.1.1}}
\@writefile{toc}{\contentsline {section}{\numberline {1.2}Estado del arte}{9}{section.1.2}}
\citation{arduino}
\citation{pjrc-teensy}
\citation{cerebro-ejecutivo}
\citation{diamond_elson_scheibel_2014}
\citation{lobulotemporal}
\@writefile{toc}{\contentsline {chapter}{\numberline {2}Conocimientos previos de Neurolog\IeC {\'\i }a}{11}{chapter.2}}
\@writefile{lof}{\addvspace {10\p@ }}
\@writefile{lot}{\addvspace {10\p@ }}
\newlabel{cap:dos}{{2}{11}{Conocimientos previos de Neurología}{chapter.2}{}}
\@writefile{toc}{\contentsline {section}{\numberline {2.1}El cerebro humano}{11}{section.2.1}}
\@writefile{lof}{\contentsline {figure}{\numberline {2.1}{\ignorespaces Mapa cerebral\relax }}{11}{figure.caption.4}}
\providecommand*\caption@xref[2]{\@setref\relax\@undefined{#1}}
\newlabel{Mapa_cerebral}{{2.1}{11}{Mapa cerebral\relax }{figure.caption.4}{}}
\citation{benarroch_1999}
\citation{lifeder-2019}
\citation{lifeder-2019}
\citation{Tecinasbasicaseeg}
\citation{homan}
\@writefile{lof}{\contentsline {figure}{\numberline {2.2}{\ignorespaces Funciones del cerebro humano \cite  {lifeder-2019}\relax }}{12}{figure.caption.5}}
\newlabel{Funciones_cerebro}{{2.2}{12}{Funciones del cerebro humano \cite {lifeder-2019}\relax }{figure.caption.5}{}}
\@writefile{toc}{\contentsline {section}{\numberline {2.2}Electroencefalograma}{12}{section.2.2}}
\citation{control-cerebral-interfases}
\citation{control-cerebral-interfases}
\@writefile{toc}{\contentsline {subsection}{\numberline {2.2.1}Posicionamiento de los electrodos}{13}{subsection.2.2.1}}
\@writefile{lof}{\contentsline {figure}{\numberline {2.3}{\ignorespaces \textit  {Sistema internacional 10-20}\relax }}{13}{figure.caption.6}}
\newlabel{s_I_10-20}{{2.3}{13}{\textit {Sistema internacional 10-20}\relax }{figure.caption.6}{}}
\@writefile{toc}{\contentsline {subsection}{\numberline {2.2.2}Configuraci\IeC {\'o}n y montaje de electrodos}{13}{subsection.2.2.2}}
\@writefile{lof}{\contentsline {figure}{\numberline {2.4}{\ignorespaces \textit  {Configuraciones de electrodos} \cite  {control-cerebral-interfases}\relax }}{13}{figure.caption.7}}
\newlabel{Configuracion_elecrodos}{{2.4}{13}{\textit {Configuraciones de electrodos} \cite {control-cerebral-interfases}\relax }{figure.caption.7}{}}
\citation{enrique}
\citation{EEG-signal-classification}
\@writefile{toc}{\contentsline {subsection}{\numberline {2.2.3}Ondas cerebrales}{14}{subsection.2.2.3}}
\@writefile{lot}{\contentsline {table}{\numberline {2.1}{\ignorespaces Grupos de frecuencias de la se\IeC {\~n}al EEG\relax }}{14}{table.caption.8}}
\newlabel{Bandas}{{2.1}{14}{Grupos de frecuencias de la señal EEG\relax }{table.caption.8}{}}
\@writefile{toc}{\contentsline {subsubsection}{Ondas Delta}{14}{section*.9}}
\citation{Waves}
\citation{Waves}
\@writefile{lof}{\contentsline {figure}{\numberline {2.5}{\ignorespaces \textit  {Ondas Delta}\relax }}{15}{figure.caption.10}}
\newlabel{Delta_waves}{{2.5}{15}{\textit {Ondas Delta}\relax }{figure.caption.10}{}}
\@writefile{toc}{\contentsline {subsubsection}{Ondas Theta}{15}{section*.11}}
\@writefile{lof}{\contentsline {figure}{\numberline {2.6}{\ignorespaces \textit  {Ondas Theta}\relax }}{15}{figure.caption.12}}
\newlabel{Theta_waves}{{2.6}{15}{\textit {Ondas Theta}\relax }{figure.caption.12}{}}
\@writefile{toc}{\contentsline {subsubsection}{Ondas Alpha}{15}{section*.13}}
\@writefile{lof}{\contentsline {figure}{\numberline {2.7}{\ignorespaces Ondas cerebrales\cite  {Waves}\relax }}{15}{figure.caption.14}}
\newlabel{waves}{{2.7}{15}{Ondas cerebrales\cite {Waves}\relax }{figure.caption.14}{}}
\@writefile{toc}{\contentsline {subsubsection}{Ondas Beta}{15}{section*.15}}
\citation{cefaleaymigrania}
\citation{cefaleaymigrania}
\@writefile{toc}{\contentsline {subsubsection}{Ondas Gamma}{16}{section*.16}}
\@writefile{toc}{\contentsline {section}{\numberline {2.3}Migra\IeC {\~n}a}{16}{section.2.3}}
\@writefile{lot}{\contentsline {table}{\numberline {2.2}{\ignorespaces Factores de la migra\IeC {\~n}a \cite  {cefaleaymigrania}\relax }}{16}{table.caption.17}}
\newlabel{Factores_migraine}{{2.2}{16}{Factores de la migraña \cite {cefaleaymigrania}\relax }{table.caption.17}{}}
\citation{migrania}
\citation{migrania}
\citation{migrania}
\citation{migrania}
\citation{migrania}
\@writefile{toc}{\contentsline {subsection}{\numberline {2.3.1}Anomal\IeC {\'\i }as frecuentes}{17}{subsection.2.3.1}}
\@writefile{lof}{\contentsline {figure}{\numberline {2.8}{\ignorespaces Mapa cerebral con ondas r\IeC {\'a}pidas.\cite  {migrania}\relax }}{17}{figure.caption.18}}
\newlabel{M_C}{{2.8}{17}{Mapa cerebral con ondas rápidas.\cite {migrania}\relax }{figure.caption.18}{}}
\@writefile{lof}{\contentsline {figure}{\numberline {2.9}{\ignorespaces Mapa cerebral con ondas lentas.\cite  {migrania}\relax }}{17}{figure.caption.19}}
\newlabel{M_C2}{{2.9}{17}{Mapa cerebral con ondas lentas.\cite {migrania}\relax }{figure.caption.19}{}}
\@writefile{toc}{\contentsline {chapter}{\numberline {3}Memoria descriptiva}{18}{chapter.3}}
\@writefile{lof}{\addvspace {10\p@ }}
\@writefile{lot}{\addvspace {10\p@ }}
\newlabel{cap:tres}{{3}{18}{Memoria descriptiva}{chapter.3}{}}
\@writefile{toc}{\contentsline {section}{\numberline {3.1}Hardware}{18}{section.3.1}}
\@writefile{toc}{\contentsline {subsection}{\numberline {3.1.1}Sensores}{18}{subsection.3.1.1}}
\@writefile{lof}{\contentsline {figure}{\numberline {3.1}{\ignorespaces \textit  {Disposici\IeC {\'o}n de los electrodos}\relax }}{19}{figure.caption.20}}
\newlabel{P_EEG}{{3.1}{19}{\textit {Disposición de los electrodos}\relax }{figure.caption.20}{}}
\@writefile{toc}{\contentsline {subsubsection}{OpenBCI EEG Headband Kit}{19}{section*.21}}
\@writefile{lof}{\contentsline {figure}{\numberline {3.2}{\ignorespaces \textit  {HeadBand Kit EEG}\relax }}{19}{figure.caption.22}}
\newlabel{HBK}{{3.2}{19}{\textit {HeadBand Kit EEG}\relax }{figure.caption.22}{}}
\@writefile{toc}{\contentsline {subsubsection}{EMG/ECG Snap Electrode Cables}{20}{section*.23}}
\@writefile{lof}{\contentsline {figure}{\numberline {3.3}{\ignorespaces Electrodos\relax }}{20}{figure.caption.24}}
\newlabel{electrodes}{{3.3}{20}{Electrodos\relax }{figure.caption.24}{}}
\@writefile{toc}{\contentsline {subsection}{\numberline {3.1.2}Placa de desarrollo}{20}{subsection.3.1.2}}
\@writefile{lof}{\contentsline {figure}{\numberline {3.4}{\ignorespaces Teensy 3.6\relax }}{20}{figure.caption.25}}
\newlabel{teensy}{{3.4}{20}{Teensy 3.6\relax }{figure.caption.25}{}}
\@writefile{toc}{\contentsline {subsubsection}{Teensy 3.6}{21}{section*.26}}
\@writefile{lot}{\contentsline {table}{\numberline {3.1}{\ignorespaces Tabla de caracter\IeC {\'\i }sticas \textit  {Teensy 3.6}\relax }}{21}{table.caption.27}}
\newlabel{caract}{{3.1}{21}{Tabla de características \textit {Teensy 3.6}\relax }{table.caption.27}{}}
\citation{eeg}
\@writefile{toc}{\contentsline {subsection}{\numberline {3.1.3}Teensy 3 - Bluetooth LE 4.0 Module}{22}{subsection.3.1.3}}
\@writefile{lof}{\contentsline {figure}{\numberline {3.5}{\ignorespaces Teensy 3 Bluetooth\relax }}{22}{figure.caption.28}}
\newlabel{teensyB}{{3.5}{22}{Teensy 3 Bluetooth\relax }{figure.caption.28}{}}
\@writefile{toc}{\contentsline {section}{\numberline {3.2}Esquem\IeC {\'a}tico}{22}{section.3.2}}
\@writefile{lof}{\contentsline {figure}{\numberline {3.6}{\ignorespaces Esquema gr\IeC {\'a}fico del sistema\relax }}{23}{figure.caption.29}}
\newlabel{Esquema_TFG}{{3.6}{23}{Esquema gráfico del sistema\relax }{figure.caption.29}{}}
\@writefile{lot}{\contentsline {table}{\numberline {3.2}{\ignorespaces Tabla de componentes\relax }}{23}{table.caption.30}}
\newlabel{componentes}{{3.2}{23}{Tabla de componentes\relax }{table.caption.30}{}}
\@writefile{toc}{\contentsline {subsection}{\numberline {3.2.1}Circuito amplificador}{23}{subsection.3.2.1}}
\@writefile{lof}{\contentsline {figure}{\numberline {3.7}{\ignorespaces Circuito adaptador\relax }}{24}{figure.caption.31}}
\newlabel{CA}{{3.7}{24}{Circuito adaptador\relax }{figure.caption.31}{}}
\@writefile{toc}{\contentsline {section}{\numberline {3.3}Simulaci\IeC {\'o}n}{24}{section.3.3}}
\citation{fritzing}
\newlabel{fig:Osci}{{3.8a}{25}{Osciloscopio\relax }{figure.caption.32}{}}
\newlabel{sub@fig:Osci}{{a}{25}{Osciloscopio\relax }{figure.caption.32}{}}
\newlabel{fig:Mult}{{3.8b}{25}{Multímetro\relax }{figure.caption.32}{}}
\newlabel{sub@fig:Mult}{{b}{25}{Multímetro\relax }{figure.caption.32}{}}
\@writefile{lof}{\contentsline {figure}{\numberline {3.8}{\ignorespaces Simulaci\IeC {\'o}n\relax }}{25}{figure.caption.32}}
\newlabel{fig:sim}{{3.8}{25}{Simulación\relax }{figure.caption.32}{}}
\@writefile{toc}{\contentsline {section}{\numberline {3.4}Protoboard}{25}{section.3.4}}
\@writefile{lof}{\contentsline {figure}{\numberline {3.9}{\ignorespaces Dise\IeC {\~n}o de circuito \textit  {Fritzing}\relax }}{26}{figure.caption.33}}
\newlabel{fritzing}{{3.9}{26}{Diseño de circuito \textit {Fritzing}\relax }{figure.caption.33}{}}
\newlabel{fig:vistacerca}{{3.10a}{26}{Protoboard\relax }{figure.caption.34}{}}
\newlabel{sub@fig:vistacerca}{{a}{26}{Protoboard\relax }{figure.caption.34}{}}
\newlabel{fig:vistaarriba}{{3.10b}{26}{Protoboard vista desde arriba\relax }{figure.caption.34}{}}
\newlabel{sub@fig:vistaarriba}{{b}{26}{Protoboard vista desde arriba\relax }{figure.caption.34}{}}
\@writefile{lof}{\contentsline {figure}{\numberline {3.10}{\ignorespaces Circuito en \textit  {protoboard}\relax }}{26}{figure.caption.34}}
\newlabel{fig:protoboard}{{3.10}{26}{Circuito en \textit {protoboard}\relax }{figure.caption.34}{}}
\citation{instructables-2017}
\citation{instructables-2017}
\citation{instructables-2017}
\@writefile{toc}{\contentsline {section}{\numberline {3.5}Osciloscopio virtual}{27}{section.3.5}}
\@writefile{lof}{\contentsline {figure}{\numberline {3.11}{\ignorespaces Osciloscopio en \textit  {Processing}\cite  {instructables-2017}\relax }}{27}{figure.caption.35}}
\newlabel{OSPro}{{3.11}{27}{Osciloscopio en \textit {Processing}\cite {instructables-2017}\relax }{figure.caption.35}{}}
\citation{Transformada-Fourier}
\@writefile{toc}{\contentsline {section}{\numberline {3.6}Transformada de Fourier}{28}{section.3.6}}
\@writefile{toc}{\contentsline {subsection}{\numberline {3.6.1}Short-Time Fourier Transform}{28}{subsection.3.6.1}}
\citation{matlab-spectrogram}
\@writefile{lof}{\contentsline {figure}{\numberline {3.12}{\ignorespaces Se\IeC {\~n}al resultante de ejemplo\relax }}{29}{figure.caption.36}}
\newlabel{S_Resultante_ejemplo}{{3.12}{29}{Señal resultante de ejemplo\relax }{figure.caption.36}{}}
\@writefile{lof}{\contentsline {figure}{\numberline {3.13}{\ignorespaces Ventana de la se\IeC {\~n}al resultante de ejemplo\relax }}{29}{figure.caption.37}}
\newlabel{S_Resultante_ejemplo_ventana}{{3.13}{29}{Ventana de la señal resultante de ejemplo\relax }{figure.caption.37}{}}
\@writefile{lol}{\contentsline {lstlisting}{./Code/Matlab/Estudio\textunderscore datos.m}{29}{lstlisting.3.-1}}
\@writefile{lot}{\contentsline {table}{\numberline {3.3}{\ignorespaces C\IeC {\'o}digo STFT en Matlab\relax }}{29}{table.caption.38}}
\newlabel{Matlab_code_spect}{{3.3}{29}{Código STFT en Matlab\relax }{table.caption.38}{}}
\@writefile{lof}{\contentsline {figure}{\numberline {3.14}{\ignorespaces Resultado del espectrograma\relax }}{30}{figure.caption.39}}
\newlabel{Resultado_ejemplo}{{3.14}{30}{Resultado del espectrograma\relax }{figure.caption.39}{}}
\@writefile{toc}{\contentsline {subsection}{\numberline {3.6.2}Fast Fourier Transform}{30}{subsection.3.6.2}}
\citation{pwelchs}
\@writefile{lof}{\contentsline {figure}{\numberline {3.15}{\ignorespaces Ejemplo de demostraci\IeC {\'o}n de la t\IeC {\'e}cnica \textit  {FFT}\relax }}{31}{figure.caption.40}}
\newlabel{Ejemplo_FFT}{{3.15}{31}{Ejemplo de demostración de la técnica \textit {FFT}\relax }{figure.caption.40}{}}
\@writefile{toc}{\contentsline {section}{\numberline {3.7}Estudio con Matlab}{31}{section.3.7}}
\citation{moyes-jiang}
\citation{python.org}
\@writefile{lof}{\contentsline {figure}{\numberline {3.16}{\ignorespaces Resultado de funci\IeC {\'o}n \textit  {spectrogram}\relax }}{32}{figure.caption.41}}
\newlabel{pwelch_result}{{3.16}{32}{Resultado de función \textit {spectrogram}\relax }{figure.caption.41}{}}
\@writefile{toc}{\contentsline {section}{\numberline {3.8}Aplicaci\IeC {\'o}n Python}{32}{section.3.8}}
\@writefile{toc}{\contentsline {subsection}{\numberline {3.8.1}Funcionamiento}{33}{subsection.3.8.1}}
\@writefile{lof}{\contentsline {figure}{\numberline {3.17}{\ignorespaces Diagrama entidad relaci\IeC {\'o}n.\relax }}{33}{figure.caption.42}}
\newlabel{E_R}{{3.17}{33}{Diagrama entidad relación.\relax }{figure.caption.42}{}}
\@writefile{toc}{\contentsline {subsubsection}{Get\_data}{34}{section*.43}}
\@writefile{lol}{\contentsline {lstlisting}{code/Python/get\textunderscore data.py}{34}{lstlisting.3.-2}}
\@writefile{lot}{\contentsline {table}{\numberline {3.4}{\ignorespaces Cabecera aplicaci\IeC {\'o}n (Get\_data).\relax }}{34}{table.caption.44}}
\newlabel{cabecera_get_data}{{3.4}{34}{Cabecera aplicación (Get\_data).\relax }{table.caption.44}{}}
\@writefile{lol}{\contentsline {lstlisting}{code/Python/get\textunderscore data.py}{34}{lstlisting.3.-3}}
\@writefile{lot}{\contentsline {table}{\numberline {3.5}{\ignorespaces Funci\IeC {\'o}n (Get\_data).\relax }}{34}{table.caption.45}}
\newlabel{metodo_get_data}{{3.5}{34}{Función (Get\_data).\relax }{table.caption.45}{}}
\@writefile{toc}{\contentsline {subsubsection}{Frequencies}{35}{section*.46}}
\@writefile{lol}{\contentsline {lstlisting}{code/Python/Frequencies.py}{35}{lstlisting.3.-4}}
\@writefile{lot}{\contentsline {table}{\numberline {3.6}{\ignorespaces Cabecera (Frequencies).\relax }}{35}{table.caption.47}}
\newlabel{Frequencies_cabecera}{{3.6}{35}{Cabecera (Frequencies).\relax }{table.caption.47}{}}
\citation{meier-2017}
\@writefile{toc}{\contentsline {subsubsection}{Main}{36}{section*.48}}
\@writefile{lol}{\contentsline {lstlisting}{code/Python/main.py}{37}{lstlisting.3.-5}}
\@writefile{lot}{\contentsline {table}{\numberline {3.7}{\ignorespaces Librer\IeC {\'\i }as de aplicaci\IeC {\'o}n (Main).\relax }}{37}{table.caption.49}}
\newlabel{librerias_main}{{3.7}{37}{Librerías de aplicación (Main).\relax }{table.caption.49}{}}
\@writefile{lol}{\contentsline {lstlisting}{code/Python/main.py}{37}{lstlisting.3.-6}}
\@writefile{lot}{\contentsline {table}{\numberline {3.8}{\ignorespaces Diagrama de la se\IeC {\~n}al (Main).\relax }}{37}{table.caption.50}}
\newlabel{primer_parte_main}{{3.8}{37}{Diagrama de la señal (Main).\relax }{table.caption.50}{}}
\@writefile{lol}{\contentsline {lstlisting}{code/Python/main.py}{38}{lstlisting.3.-7}}
\@writefile{lot}{\contentsline {table}{\numberline {3.9}{\ignorespaces Diagrama de barras de la se\IeC {\~n}al (Main).\relax }}{38}{table.caption.51}}
\newlabel{segunda_parte_main}{{3.9}{38}{Diagrama de barras de la señal (Main).\relax }{table.caption.51}{}}
\@writefile{lof}{\contentsline {figure}{\numberline {3.18}{\ignorespaces Aplicaci\IeC {\'o}n de lectura de se\IeC {\~n}al EEG.\relax }}{38}{figure.caption.52}}
\newlabel{Python_app}{{3.18}{38}{Aplicación de lectura de señal EEG.\relax }{figure.caption.52}{}}
\citation{arduino}
\citation{pjrc-teensy}
\@writefile{toc}{\contentsline {section}{\numberline {3.9}C\IeC {\'o}digo Teensy}{39}{section.3.9}}
\@writefile{lof}{\contentsline {figure}{\numberline {3.19}{\ignorespaces Teensy bootloader\relax }}{39}{figure.caption.53}}
\newlabel{Teensy_bootloader}{{3.19}{39}{Teensy bootloader\relax }{figure.caption.53}{}}
\@writefile{lof}{\contentsline {figure}{\numberline {3.20}{\ignorespaces IDE Arduino con la configuraci\IeC {\'o}n de Teensy\relax }}{39}{figure.caption.54}}
\newlabel{Teensy_duino}{{3.20}{39}{IDE Arduino con la configuración de Teensy\relax }{figure.caption.54}{}}
\@writefile{lol}{\contentsline {lstlisting}{code/Arduino/EEG\textunderscore analogread\textunderscore fft\textunderscore 4chans.ino}{40}{lstlisting.3.-8}}
\@writefile{lot}{\contentsline {table}{\numberline {3.10}{\ignorespaces Librer\IeC {\'\i }a arduino.\relax }}{40}{table.caption.55}}
\newlabel{libreria_arduino}{{3.10}{40}{Librería arduino.\relax }{table.caption.55}{}}
\@writefile{toc}{\contentsline {subsection}{\numberline {3.9.1}Variables}{40}{subsection.3.9.1}}
\@writefile{toc}{\contentsline {subsection}{\numberline {3.9.2}Recolecci\IeC {\'o}n datos}{41}{subsection.3.9.2}}
\@writefile{toc}{\contentsline {subsubsection}{Llamada a la funci\IeC {\'o}n}{41}{section*.56}}
\@writefile{lol}{\contentsline {lstlisting}{code/Arduino/EEG\textunderscore analogread\textunderscore fft\textunderscore 4chans.ino}{41}{lstlisting.3.-9}}
\@writefile{lot}{\contentsline {table}{\numberline {3.11}{\ignorespaces Obtenci\IeC {\'o}n de datos.\relax }}{41}{table.caption.57}}
\newlabel{Obtencion_datos_arduino}{{3.11}{41}{Obtención de datos.\relax }{table.caption.57}{}}
\@writefile{toc}{\contentsline {subsubsection}{C\IeC {\'a}lculos}{41}{section*.58}}
\@writefile{lol}{\contentsline {lstlisting}{code/Arduino/EEG\textunderscore analogread\textunderscore fft\textunderscore 4chans.ino}{42}{lstlisting.3.-10}}
\@writefile{lot}{\contentsline {table}{\numberline {3.12}{\ignorespaces Obtenci\IeC {\'o}n de datos.\relax }}{42}{table.caption.59}}
\newlabel{Obtencion_datos_dos_arduino}{{3.12}{42}{Obtención de datos.\relax }{table.caption.59}{}}
\@writefile{toc}{\contentsline {subsubsection}{Elecci\IeC {\'o}n del canal}{42}{section*.60}}
\@writefile{lol}{\contentsline {lstlisting}{code/Arduino/EEG\textunderscore analogread\textunderscore fft\textunderscore 4chans.ino}{42}{lstlisting.3.-11}}
\@writefile{lot}{\contentsline {table}{\numberline {3.13}{\ignorespaces Obtenci\IeC {\'o}n de datos en cada uno de los canales.\relax }}{42}{table.caption.61}}
\newlabel{canales_arduino}{{3.13}{42}{Obtención de datos en cada uno de los canales.\relax }{table.caption.61}{}}
\@writefile{toc}{\contentsline {subsection}{\numberline {3.9.3}FFT}{43}{subsection.3.9.3}}
\@writefile{lol}{\contentsline {lstlisting}{code/Arduino/EEG\textunderscore analogread\textunderscore fft\textunderscore 4chans.ino}{43}{lstlisting.3.-12}}
\@writefile{lot}{\contentsline {table}{\numberline {3.14}{\ignorespaces Fast Fourier Transform.\relax }}{43}{table.caption.62}}
\newlabel{fft_arduino}{{3.14}{43}{Fast Fourier Transform.\relax }{table.caption.62}{}}
\@writefile{toc}{\contentsline {subsection}{\numberline {3.9.4}Subfrecuencias}{43}{subsection.3.9.4}}
\@writefile{lol}{\contentsline {lstlisting}{code/Arduino/EEG\textunderscore analogread\textunderscore fft\textunderscore 4chans.ino}{44}{lstlisting.3.-13}}
\@writefile{lot}{\contentsline {table}{\numberline {3.15}{\ignorespaces Divisi\IeC {\'o}n en grupos de frecuencias.\relax }}{44}{table.caption.63}}
\newlabel{subfrequencies}{{3.15}{44}{División en grupos de frecuencias.\relax }{table.caption.63}{}}
\@writefile{lol}{\contentsline {lstlisting}{code/Arduino/EEG\textunderscore analogread\textunderscore fft\textunderscore 4chans.ino}{44}{lstlisting.3.-14}}
\@writefile{lot}{\contentsline {table}{\numberline {3.16}{\ignorespaces Media aritm\IeC {\'e}tica de grupos de frecuencias.\relax }}{44}{table.caption.64}}
\newlabel{median}{{3.16}{44}{Media aritmética de grupos de frecuencias.\relax }{table.caption.64}{}}
\@writefile{toc}{\contentsline {chapter}{\numberline {4}Experimentaci\IeC {\'o}n}{45}{chapter.4}}
\@writefile{lof}{\addvspace {10\p@ }}
\@writefile{lot}{\addvspace {10\p@ }}
\newlabel{cap:cuatro}{{4}{45}{Experimentación}{chapter.4}{}}
\@writefile{toc}{\contentsline {section}{\numberline {4.1}Dise\IeC {\~n}o y construcci\IeC {\'o}n de placa}{45}{section.4.1}}
\@writefile{toc}{\contentsline {subsection}{\numberline {4.1.1}Kicad}{45}{subsection.4.1.1}}
\@writefile{lof}{\contentsline {figure}{\numberline {4.1}{\ignorespaces Circuito en Kicad.\relax }}{45}{figure.caption.65}}
\newlabel{circuito_kicad}{{4.1}{45}{Circuito en Kicad.\relax }{figure.caption.65}{}}
\@writefile{lof}{\contentsline {figure}{\numberline {4.2}{\ignorespaces PCI en Kicad.\relax }}{46}{figure.caption.66}}
\newlabel{PCI_kicad}{{4.2}{46}{PCI en Kicad.\relax }{figure.caption.66}{}}
\@writefile{toc}{\contentsline {subsubsection}{Impresi\IeC {\'o}n}{46}{section*.67}}
\citation{jlcpcb}
\@writefile{lof}{\contentsline {figure}{\numberline {4.3}{\ignorespaces Paso de la impresi\IeC {\'o}n de la PCI\relax }}{47}{figure.caption.68}}
\newlabel{impresion_PCI}{{4.3}{47}{Paso de la impresión de la PCI\relax }{figure.caption.68}{}}
\@writefile{lof}{\contentsline {figure}{\numberline {4.4}{\ignorespaces Paso de la impresi\IeC {\'o}n de la PCI\relax }}{47}{figure.caption.69}}
\newlabel{PCI_finished}{{4.4}{47}{Paso de la impresión de la PCI\relax }{figure.caption.69}{}}
\@writefile{lof}{\contentsline {figure}{\numberline {4.5}{\ignorespaces Paso de la impresi\IeC {\'o}n de la PCI\relax }}{48}{figure.caption.70}}
\newlabel{PCI_finished}{{4.5}{48}{Paso de la impresión de la PCI\relax }{figure.caption.70}{}}
\@writefile{toc}{\contentsline {subsection}{\numberline {4.1.2}Error de impresi\IeC {\'o}n}{48}{subsection.4.1.2}}
\@writefile{lof}{\contentsline {figure}{\numberline {4.6}{\ignorespaces Error paliado\relax }}{48}{figure.caption.71}}
\newlabel{Error}{{4.6}{48}{Error paliado\relax }{figure.caption.71}{}}
\@writefile{toc}{\contentsline {section}{\numberline {4.2}Obtenci\IeC {\'o}n de datos}{49}{section.4.2}}
\@writefile{toc}{\contentsline {section}{\numberline {4.3}Pruebas de ejercicios}{49}{section.4.3}}
\@writefile{toc}{\contentsline {subsection}{\numberline {4.3.1}Usuario 1}{49}{subsection.4.3.1}}
\@writefile{toc}{\contentsline {subsubsection}{11:46}{50}{section*.72}}
\@writefile{lof}{\contentsline {figure}{\numberline {4.7}{\ignorespaces Ondas cerebrales en estado de activaci\IeC {\'o}n (Toma 1)\relax }}{50}{figure.caption.73}}
\newlabel{Jota11-46-plot}{{4.7}{50}{Ondas cerebrales en estado de activación (Toma 1)\relax }{figure.caption.73}{}}
\@writefile{lot}{\contentsline {table}{\numberline {4.1}{\ignorespaces Gr\IeC {\'a}fico de barras en estado de activaci\IeC {\'o}n (Toma 1)\relax }}{50}{table.caption.74}}
\newlabel{Jota11-46-barchar}{{4.1}{50}{Gráfico de barras en estado de activación (Toma 1)\relax }{table.caption.74}{}}
\@writefile{toc}{\contentsline {subsubsection}{11:48}{51}{section*.75}}
\@writefile{lof}{\contentsline {figure}{\numberline {4.8}{\ignorespaces Ondas cerebrales en estado de activaci\IeC {\'o}n (Toma 2)\relax }}{51}{figure.caption.76}}
\newlabel{Jota11-48-plot}{{4.8}{51}{Ondas cerebrales en estado de activación (Toma 2)\relax }{figure.caption.76}{}}
\@writefile{lot}{\contentsline {table}{\numberline {4.2}{\ignorespaces Gr\IeC {\'a}fico de barras en estado de activaci\IeC {\'o}n (Toma 2)\relax }}{51}{table.caption.77}}
\newlabel{Jota11-48-barchar}{{4.2}{51}{Gráfico de barras en estado de activación (Toma 2)\relax }{table.caption.77}{}}
\@writefile{toc}{\contentsline {subsection}{\numberline {4.3.2}Usuario 2}{52}{subsection.4.3.2}}
\@writefile{toc}{\contentsline {subsubsection}{12:08}{52}{section*.78}}
\@writefile{lof}{\contentsline {figure}{\numberline {4.9}{\ignorespaces Ondas cerebrales en estado de activaci\IeC {\'o}n (Toma 1)\relax }}{52}{figure.caption.79}}
\newlabel{alvaro12-08-plot}{{4.9}{52}{Ondas cerebrales en estado de activación (Toma 1)\relax }{figure.caption.79}{}}
\@writefile{lot}{\contentsline {table}{\numberline {4.3}{\ignorespaces Gr\IeC {\'a}fico de barras en estado de activaci\IeC {\'o}n (Toma 1)\relax }}{53}{table.caption.80}}
\newlabel{alvaro12-08-barchar}{{4.3}{53}{Gráfico de barras en estado de activación (Toma 1)\relax }{table.caption.80}{}}
\@writefile{toc}{\contentsline {subsubsection}{12:10}{53}{section*.81}}
\@writefile{lof}{\contentsline {figure}{\numberline {4.10}{\ignorespaces Ondas cerebrales en estado de activaci\IeC {\'o}n (Toma 2)\relax }}{53}{figure.caption.82}}
\newlabel{alvaro12-10-plot}{{4.10}{53}{Ondas cerebrales en estado de activación (Toma 2)\relax }{figure.caption.82}{}}
\@writefile{lot}{\contentsline {table}{\numberline {4.4}{\ignorespaces Gr\IeC {\'a}fico de barras en estado de activaci\IeC {\'o}n (Toma 2)\relax }}{54}{table.caption.83}}
\newlabel{alvaro12-10-barchar}{{4.4}{54}{Gráfico de barras en estado de activación (Toma 2)\relax }{table.caption.83}{}}
\@writefile{toc}{\contentsline {section}{\numberline {4.4}M\IeC {\'u}sica estridente}{54}{section.4.4}}
\@writefile{toc}{\contentsline {subsection}{\numberline {4.4.1}Usuario 1}{54}{subsection.4.4.1}}
\@writefile{toc}{\contentsline {subsubsection}{11:51}{54}{section*.84}}
\@writefile{lof}{\contentsline {figure}{\numberline {4.11}{\ignorespaces Ondas cerebrales en estado de escucha (Toma 1)\relax }}{55}{figure.caption.85}}
\newlabel{Jota11-51-plot}{{4.11}{55}{Ondas cerebrales en estado de escucha (Toma 1)\relax }{figure.caption.85}{}}
\@writefile{lot}{\contentsline {table}{\numberline {4.5}{\ignorespaces Gr\IeC {\'a}fico de barras en estado de escucha (Toma 1)\relax }}{55}{table.caption.86}}
\newlabel{Jota11-51-barchar}{{4.5}{55}{Gráfico de barras en estado de escucha (Toma 1)\relax }{table.caption.86}{}}
\@writefile{toc}{\contentsline {subsubsection}{11:53}{56}{section*.87}}
\@writefile{lof}{\contentsline {figure}{\numberline {4.12}{\ignorespaces Ondas cerebrales en estado de escucha (Toma 2)\relax }}{56}{figure.caption.88}}
\newlabel{Jota11-53-plot}{{4.12}{56}{Ondas cerebrales en estado de escucha (Toma 2)\relax }{figure.caption.88}{}}
\@writefile{lot}{\contentsline {table}{\numberline {4.6}{\ignorespaces Gr\IeC {\'a}fico de barras en estado de escucha (Toma 2)\relax }}{56}{table.caption.89}}
\newlabel{Jota11-53-barchar}{{4.6}{56}{Gráfico de barras en estado de escucha (Toma 2)\relax }{table.caption.89}{}}
\@writefile{toc}{\contentsline {subsubsection}{11:55}{57}{section*.90}}
\@writefile{lof}{\contentsline {figure}{\numberline {4.13}{\ignorespaces Ondas cerebrales en estado de escucha (Toma 3)\relax }}{57}{figure.caption.91}}
\newlabel{Jota11-55-plot}{{4.13}{57}{Ondas cerebrales en estado de escucha (Toma 3)\relax }{figure.caption.91}{}}
\@writefile{lof}{\contentsline {figure}{\numberline {4.14}{\ignorespaces Frecuencias en estado escucha (Toma 3)[Ampliada]\relax }}{57}{figure.caption.92}}
\newlabel{Jota11-55_2-stem}{{4.14}{57}{Frecuencias en estado escucha (Toma 3)[Ampliada]\relax }{figure.caption.92}{}}
\@writefile{lot}{\contentsline {table}{\numberline {4.7}{\ignorespaces Gr\IeC {\'a}fico de barras en estado de escucha (Toma 3)\relax }}{58}{table.caption.93}}
\newlabel{Jota11-55-barchar}{{4.7}{58}{Gráfico de barras en estado de escucha (Toma 3)\relax }{table.caption.93}{}}
\@writefile{toc}{\contentsline {subsection}{\numberline {4.4.2}Usuario 2}{58}{subsection.4.4.2}}
\@writefile{toc}{\contentsline {subsubsection}{12:13}{59}{section*.94}}
\@writefile{lof}{\contentsline {figure}{\numberline {4.15}{\ignorespaces Ondas cerebrales en estado de escucha (Toma 1)\relax }}{59}{figure.caption.95}}
\newlabel{alvaro12-13-plot}{{4.15}{59}{Ondas cerebrales en estado de escucha (Toma 1)\relax }{figure.caption.95}{}}
\@writefile{lot}{\contentsline {table}{\numberline {4.8}{\ignorespaces Gr\IeC {\'a}fico de barras en estado de escucha (Toma 1)\relax }}{59}{table.caption.96}}
\newlabel{alvaro12-13-barchar}{{4.8}{59}{Gráfico de barras en estado de escucha (Toma 1)\relax }{table.caption.96}{}}
\@writefile{toc}{\contentsline {subsubsection}{12:14}{60}{section*.97}}
\@writefile{lof}{\contentsline {figure}{\numberline {4.16}{\ignorespaces Ondas cerebrales en estado de escucha (Toma 2)\relax }}{60}{figure.caption.98}}
\newlabel{alvaro12-14-plot}{{4.16}{60}{Ondas cerebrales en estado de escucha (Toma 2)\relax }{figure.caption.98}{}}
\@writefile{lot}{\contentsline {table}{\numberline {4.9}{\ignorespaces Gr\IeC {\'a}fico de barras en estado de escucha (Toma 2)\relax }}{61}{table.caption.99}}
\newlabel{alvaro12-14-barchar}{{4.9}{61}{Gráfico de barras en estado de escucha (Toma 2)\relax }{table.caption.99}{}}
\@writefile{toc}{\contentsline {subsubsection}{12:16}{61}{section*.100}}
\@writefile{lof}{\contentsline {figure}{\numberline {4.17}{\ignorespaces Ondas cerebrales en estado de escucha (Toma 3)\relax }}{61}{figure.caption.101}}
\newlabel{alvaro12-16-plot}{{4.17}{61}{Ondas cerebrales en estado de escucha (Toma 3)\relax }{figure.caption.101}{}}
\@writefile{lot}{\contentsline {table}{\numberline {4.10}{\ignorespaces Gr\IeC {\'a}fico de barras en estado de escucha (Toma 3)\relax }}{62}{table.caption.102}}
\newlabel{alvaro12-16-barchar}{{4.10}{62}{Gráfico de barras en estado de escucha (Toma 3)\relax }{table.caption.102}{}}
\@writefile{toc}{\contentsline {section}{\numberline {4.5}M\IeC {\'u}sica relajante}{62}{section.4.5}}
\@writefile{toc}{\contentsline {subsection}{\numberline {4.5.1}Usuario 1}{62}{subsection.4.5.1}}
\@writefile{toc}{\contentsline {subsubsection}{11:58}{63}{section*.103}}
\@writefile{lof}{\contentsline {figure}{\numberline {4.18}{\ignorespaces Ondas cerebrales en estado de relajaci\IeC {\'o}n (Toma 1)\relax }}{63}{figure.caption.104}}
\newlabel{Jota11-58-plot}{{4.18}{63}{Ondas cerebrales en estado de relajación (Toma 1)\relax }{figure.caption.104}{}}
\@writefile{lot}{\contentsline {table}{\numberline {4.11}{\ignorespaces Gr\IeC {\'a}fico de barras en estado de relajaci\IeC {\'o}n (Toma 1)\relax }}{63}{table.caption.105}}
\newlabel{Jota11-58-barchar}{{4.11}{63}{Gráfico de barras en estado de relajación (Toma 1)\relax }{table.caption.105}{}}
\@writefile{toc}{\contentsline {subsubsection}{11:59}{63}{section*.106}}
\@writefile{lof}{\contentsline {figure}{\numberline {4.19}{\ignorespaces Ondas cerebrales en estado de relajaci\IeC {\'o}n (Toma 2)\relax }}{64}{figure.caption.107}}
\newlabel{Jota11-59-plot}{{4.19}{64}{Ondas cerebrales en estado de relajación (Toma 2)\relax }{figure.caption.107}{}}
\@writefile{lot}{\contentsline {table}{\numberline {4.12}{\ignorespaces Gr\IeC {\'a}fico de barras en estado de relajaci\IeC {\'o}n (Toma 2)\relax }}{64}{table.caption.108}}
\newlabel{Jota11-59-barchar}{{4.12}{64}{Gráfico de barras en estado de relajación (Toma 2)\relax }{table.caption.108}{}}
\@writefile{toc}{\contentsline {subsubsection}{12:01}{65}{section*.109}}
\@writefile{lof}{\contentsline {figure}{\numberline {4.20}{\ignorespaces Ondas cerebrales en estado de relajaci\IeC {\'o}n (Toma 3)\relax }}{65}{figure.caption.110}}
\newlabel{Jota12-01-plot}{{4.20}{65}{Ondas cerebrales en estado de relajación (Toma 3)\relax }{figure.caption.110}{}}
\@writefile{lot}{\contentsline {table}{\numberline {4.13}{\ignorespaces Gr\IeC {\'a}fico de barras en estado de relajaci\IeC {\'o}n (Toma 3)\relax }}{65}{table.caption.111}}
\newlabel{Jota12-01-barchar}{{4.13}{65}{Gráfico de barras en estado de relajación (Toma 3)\relax }{table.caption.111}{}}
\@writefile{toc}{\contentsline {subsection}{\numberline {4.5.2}Usuario 2}{66}{subsection.4.5.2}}
\@writefile{toc}{\contentsline {subsubsection}{12:17}{66}{section*.112}}
\@writefile{lof}{\contentsline {figure}{\numberline {4.21}{\ignorespaces Ondas cerebrales en estado de relajaci\IeC {\'o}n (Toma 1)\relax }}{66}{figure.caption.113}}
\newlabel{alvaro12-17-plot}{{4.21}{66}{Ondas cerebrales en estado de relajación (Toma 1)\relax }{figure.caption.113}{}}
\@writefile{lot}{\contentsline {table}{\numberline {4.14}{\ignorespaces Gr\IeC {\'a}fico de barras en estado de relajaci\IeC {\'o}n (Toma 1)\relax }}{67}{table.caption.114}}
\newlabel{alvaro12-17-barchar}{{4.14}{67}{Gráfico de barras en estado de relajación (Toma 1)\relax }{table.caption.114}{}}
\@writefile{toc}{\contentsline {subsubsection}{12:19}{67}{section*.115}}
\@writefile{lof}{\contentsline {figure}{\numberline {4.22}{\ignorespaces Ondas cerebrales en estado de relajaci\IeC {\'o}n (Toma 2)\relax }}{67}{figure.caption.116}}
\newlabel{alvaro12-19-plot}{{4.22}{67}{Ondas cerebrales en estado de relajación (Toma 2)\relax }{figure.caption.116}{}}
\@writefile{lot}{\contentsline {table}{\numberline {4.15}{\ignorespaces Gr\IeC {\'a}fico de barras en estado de relajaci\IeC {\'o}n (Toma 2)\relax }}{68}{table.caption.117}}
\newlabel{alvaro12-19-barchar}{{4.15}{68}{Gráfico de barras en estado de relajación (Toma 2)\relax }{table.caption.117}{}}
\@writefile{toc}{\contentsline {subsubsection}{12:20}{68}{section*.118}}
\@writefile{lof}{\contentsline {figure}{\numberline {4.23}{\ignorespaces Ondas cerebrales en estado de relajaci\IeC {\'o}n (Toma 3)\relax }}{68}{figure.caption.119}}
\newlabel{alvaro12-20-plot}{{4.23}{68}{Ondas cerebrales en estado de relajación (Toma 3)\relax }{figure.caption.119}{}}
\@writefile{lot}{\contentsline {table}{\numberline {4.16}{\ignorespaces Gr\IeC {\'a}fico de barras en estado de relajaci\IeC {\'o}n (Toma 3)\relax }}{69}{table.caption.120}}
\newlabel{alvaro12-20-barchar}{{4.16}{69}{Gráfico de barras en estado de relajación (Toma 3)\relax }{table.caption.120}{}}
\@writefile{toc}{\contentsline {section}{\numberline {4.6}Conclusiones}{69}{section.4.6}}
\@writefile{toc}{\contentsline {subsection}{\numberline {4.6.1}Prueba de ejercicio}{69}{subsection.4.6.1}}
\@writefile{lot}{\contentsline {table}{\numberline {4.17}{\ignorespaces Gr\IeC {\'a}fico comparativo entre usuarios, prueba de ejercicios\relax }}{70}{table.caption.121}}
\newlabel{P_ejercicio_comparacion}{{4.17}{70}{Gráfico comparativo entre usuarios, prueba de ejercicios\relax }{table.caption.121}{}}
\@writefile{toc}{\contentsline {subsection}{\numberline {4.6.2}M\IeC {\'u}sica estridente}{70}{subsection.4.6.2}}
\@writefile{lot}{\contentsline {table}{\numberline {4.18}{\ignorespaces Gr\IeC {\'a}fico comparativo entre usuarios, m\IeC {\'u}sica estridente\relax }}{71}{table.caption.122}}
\newlabel{M_estridente_comparacion}{{4.18}{71}{Gráfico comparativo entre usuarios, música estridente\relax }{table.caption.122}{}}
\@writefile{toc}{\contentsline {subsection}{\numberline {4.6.3}M\IeC {\'u}sica relajante}{71}{subsection.4.6.3}}
\@writefile{lot}{\contentsline {table}{\numberline {4.19}{\ignorespaces Gr\IeC {\'a}fico comparativo entre usuarios, m\IeC {\'u}sica relajante\relax }}{72}{table.caption.123}}
\newlabel{M_relajante_comparacion}{{4.19}{72}{Gráfico comparativo entre usuarios, música relajante\relax }{table.caption.123}{}}
\@writefile{toc}{\contentsline {subsection}{\numberline {4.6.4}Conclusi\IeC {\'o}n}{72}{subsection.4.6.4}}
\bibstyle{plain}
\bibdata{memoria}
\@writefile{toc}{\contentsline {chapter}{\numberline {5}Conclusiones}{73}{chapter.5}}
\@writefile{lof}{\addvspace {10\p@ }}
\@writefile{lot}{\addvspace {10\p@ }}
\newlabel{cap:conclusiones}{{5}{73}{Conclusiones}{chapter.5}{}}
\@writefile{toc}{\contentsline {section}{\numberline {5.1}Mejoras}{73}{section.5.1}}
\bibcite{Waves}{1}
\bibcite{fritzing}{2}
\bibcite{arduino}{3}
\bibcite{python.org}{4}
\bibcite{cefaleaymigrania}{5}
\bibcite{benarroch_1999}{6}
\bibcite{diamond_elson_scheibel_2014}{7}
\bibcite{eeg}{8}
\bibcite{experimental_brain_computer_interface}{9}
\bibcite{Tecinasbasicaseeg}{10}
\bibcite{control-cerebral-interfases}{11}
\bibcite{Transformada-Fourier}{12}
\bibcite{cerebro-ejecutivo}{13}
\bibcite{google-sites}{14}
\bibcite{homan}{15}
\bibcite{instructablesEEG2017}{16}
\bibcite{instructables-2017}{17}
\bibcite{lifeder-2019}{18}
\bibcite{matlab-spectrogram}{19}
\bibcite{meier-2017}{20}
\bibcite{moyes-jiang}{21}
\bibcite{migrania}{22}
\bibcite{EEG-signal-classification}{23}
\bibcite{pwelchs}{24}
\bibcite{lobulotemporal}{25}
\bibcite{ruiz}{26}
\bibcite{enrique}{27}
\bibcite{pjrc-teensy}{28}
\newlabel{Esquema_PDF}{{5.1}{78}{Mejoras}{chapter*.124}{}}
\newlabel{Kicad_pdf}{{5.1}{79}{Mejoras}{chapter*.124}{}}
\newlabel{PCI_pdf}{{5.1}{87}{Mejoras}{chapter*.124}{}}
\@writefile{toc}{\contentsline {chapter}{\numberline {A}C\IeC {\'o}digo Matlab}{87}{appendix.Alph1}}
\@writefile{lof}{\addvspace {10\p@ }}
\@writefile{lot}{\addvspace {10\p@ }}
\@writefile{toc}{\contentsline {section}{\numberline {A.1}C\IeC {\'a}lculo de frecuencias}{87}{section.Alph1.1}}
\newlabel{M_calculo_frecuencias}{{A.1}{87}{Cálculo de frecuencias}{section.Alph1.1}{}}
\@writefile{lol}{\contentsline {lstlisting}{code/Matlab/calculo\textunderscore frecuencias.m}{87}{lstlisting.Alph1.-15}}
\@writefile{toc}{\contentsline {section}{\numberline {A.2}Ejecuci\IeC {\'o}n tiempo real}{88}{section.Alph1.2}}
\newlabel{M_ejecucion_tiempo_real}{{A.2}{88}{Ejecución tiempo real}{section.Alph1.2}{}}
\@writefile{lol}{\contentsline {lstlisting}{code/Matlab/ejecucion\textunderscore time\textunderscore real.m}{88}{lstlisting.Alph1.-16}}
\@writefile{toc}{\contentsline {section}{\numberline {A.3}Estudio de datos}{89}{section.Alph1.3}}
\newlabel{M_estudio_datos}{{A.3}{89}{Estudio de datos}{section.Alph1.3}{}}
\@writefile{lol}{\contentsline {lstlisting}{code/Matlab/Estudio\textunderscore datos.m}{89}{lstlisting.Alph1.-17}}
\@writefile{toc}{\contentsline {section}{\numberline {A.4}FFT}{92}{section.Alph1.4}}
\newlabel{M_FFT}{{A.4}{92}{FFT}{section.Alph1.4}{}}
\@writefile{lol}{\contentsline {lstlisting}{code/Matlab/FFT\textunderscore code.m}{92}{lstlisting.Alph1.-18}}
\@writefile{toc}{\contentsline {section}{\numberline {A.5}Recolecci\IeC {\'o}n de de datos}{93}{section.Alph1.5}}
\newlabel{M_recoleccion_datos}{{A.5}{93}{Recolección de de datos}{section.Alph1.5}{}}
\@writefile{lol}{\contentsline {lstlisting}{code/Matlab/Recoleccion\textunderscore datos.m}{93}{lstlisting.Alph1.-19}}
\@writefile{toc}{\contentsline {section}{\numberline {A.6}Recolecci\IeC {\'o}n de datos por minuto}{95}{section.Alph1.6}}
\newlabel{M_recoleccion_per_min}{{A.6}{95}{Recolección de datos por minuto}{section.Alph1.6}{}}
\@writefile{lol}{\contentsline {lstlisting}{code/Matlab/Recoleccion\textunderscore datos\textunderscore permin.m}{95}{lstlisting.Alph1.-20}}
\@writefile{toc}{\contentsline {section}{\numberline {A.7}Comprobaci\IeC {\'o}n del serial}{97}{section.Alph1.7}}
\newlabel{M_serial_test}{{A.7}{97}{Comprobación del serial}{section.Alph1.7}{}}
\@writefile{lol}{\contentsline {lstlisting}{code/Matlab/serial\textunderscore test.m}{97}{lstlisting.Alph1.-21}}
\@writefile{toc}{\contentsline {chapter}{\numberline {B}C\IeC {\'o}digo en Python}{98}{appendix.Alph2}}
\@writefile{lof}{\addvspace {10\p@ }}
\@writefile{lot}{\addvspace {10\p@ }}
\newlabel{codigo_python_apend}{{B}{98}{Código en Python}{appendix.Alph2}{}}
\@writefile{toc}{\contentsline {section}{\numberline {B.1}Main.py}{98}{section.Alph2.1}}
\@writefile{lol}{\contentsline {lstlisting}{code/Python/main.py}{98}{lstlisting.Alph2.-22}}
\@writefile{toc}{\contentsline {section}{\numberline {B.2}Get\_data.py}{102}{section.Alph2.2}}
\@writefile{lol}{\contentsline {lstlisting}{code/Python/Get\textunderscore data.py}{102}{lstlisting.Alph2.-23}}
\@writefile{toc}{\contentsline {section}{\numberline {B.3}Frequencies}{103}{section.Alph2.3}}
\@writefile{lol}{\contentsline {lstlisting}{code/Python/Frequencies.py}{103}{lstlisting.Alph2.-24}}
\@writefile{toc}{\contentsline {chapter}{\numberline {C}C\IeC {\'o}digo en Teensy}{105}{appendix.Alph3}}
\@writefile{lof}{\addvspace {10\p@ }}
\@writefile{lot}{\addvspace {10\p@ }}
\newlabel{codigo_teensy_apend}{{C}{105}{Código en Teensy}{appendix.Alph3}{}}
\@writefile{lol}{\contentsline {lstlisting}{code/arduino/EEG\textunderscore analogread\textunderscore fft\textunderscore 4chans.ino}{105}{lstlisting.Alph3.-25}}
\@writefile{toc}{\contentsline {chapter}{\numberline {D}Reacondicionamiento de la se\IeC {\~n}al}{109}{appendix.Alph4}}
\@writefile{lof}{\addvspace {10\p@ }}
\@writefile{lot}{\addvspace {10\p@ }}
\newlabel{aped. Calculos}{{D}{109}{Reacondicionamiento de la señal}{appendix.Alph4}{}}
\@writefile{toc}{\contentsline {section}{\numberline {D.1}Filtro paso alto}{110}{section.Alph4.1}}
\@writefile{lof}{\contentsline {figure}{\numberline {D.1}{\ignorespaces Filtro paso alto pasivo\relax }}{110}{figure.caption.125}}
\newlabel{Filtro_paso_alto}{{D.1}{110}{Filtro paso alto pasivo\relax }{figure.caption.125}{}}
\@writefile{lot}{\contentsline {table}{\numberline {D.1}{\ignorespaces F\IeC {\'o}rmulas para c\IeC {\'a}lculo frecuencia de corte 0.75Hz\relax }}{110}{table.caption.126}}
\newlabel{Formulas_frecuencia_corte_0.05}{{D.1}{110}{Fórmulas para cálculo frecuencia de corte 0.75Hz\relax }{table.caption.126}{}}
\@writefile{toc}{\contentsline {section}{\numberline {D.2}Filtro paso bajo activo}{111}{section.Alph4.2}}
\@writefile{lof}{\contentsline {figure}{\numberline {D.2}{\ignorespaces Filtro paso bajo activo\relax }}{111}{figure.caption.127}}
\newlabel{Filtro_paso_bajo_activo}{{D.2}{111}{Filtro paso bajo activo\relax }{figure.caption.127}{}}
\@writefile{lot}{\contentsline {table}{\numberline {D.2}{\ignorespaces F\IeC {\'o}rmulas para c\IeC {\'a}lculo frecuencia de corte 60Hz\relax }}{111}{table.caption.128}}
\newlabel{Formulas_frecuencia_corte_60}{{D.2}{111}{Fórmulas para cálculo frecuencia de corte 60Hz\relax }{table.caption.128}{}}
\@writefile{lot}{\contentsline {table}{\numberline {D.3}{\ignorespaces F\IeC {\'o}rmulas para c\IeC {\'a}lculo de ganancia amplificador\relax }}{112}{table.caption.129}}
\newlabel{Formula_ganancia_amplificador}{{D.3}{112}{Fórmulas para cálculo de ganancia amplificador\relax }{table.caption.129}{}}
\@writefile{toc}{\contentsline {section}{\numberline {D.3}Filtro paso bajo pasivo}{112}{section.Alph4.3}}
\@writefile{lof}{\contentsline {figure}{\numberline {D.3}{\ignorespaces Filtro paso bajo pasivo\relax }}{112}{figure.caption.130}}
\newlabel{Filtro_paso_bajo_pasivo}{{D.3}{112}{Filtro paso bajo pasivo\relax }{figure.caption.130}{}}
\@writefile{lot}{\contentsline {table}{\numberline {D.4}{\ignorespaces F\IeC {\'o}rmulas para c\IeC {\'a}lculo frecuencia de corte 25Hz\relax }}{113}{table.caption.131}}
\newlabel{Formulas_frecuencia_corte_25}{{D.4}{113}{Fórmulas para cálculo frecuencia de corte 25Hz\relax }{table.caption.131}{}}
\@writefile{toc}{\contentsline {section}{\numberline {D.4}Gr\IeC {\'a}fica filtro paso alto pasivo}{113}{section.Alph4.4}}
\@writefile{lof}{\contentsline {figure}{\numberline {D.4}{\ignorespaces Gr\IeC {\'a}fico Bode Filtro paso Alto\relax }}{113}{figure.caption.132}}
\newlabel{G_B_F_A}{{D.4}{113}{Gráfico Bode Filtro paso Alto\relax }{figure.caption.132}{}}
\@writefile{toc}{\contentsline {section}{\numberline {D.5}Gr\IeC {\'a}fica filtro paso bajo activo}{113}{section.Alph4.5}}
\@writefile{lof}{\contentsline {figure}{\numberline {D.5}{\ignorespaces Gr\IeC {\'a}fico Bode Filtro paso bajo\relax }}{114}{figure.caption.133}}
\newlabel{G_B_F_B_a}{{D.5}{114}{Gráfico Bode Filtro paso bajo\relax }{figure.caption.133}{}}
\@writefile{toc}{\contentsline {section}{\numberline {D.6}Gr\IeC {\'a}fica filtro paso bajo pasivo}{114}{section.Alph4.6}}
\@writefile{lof}{\contentsline {figure}{\numberline {D.6}{\ignorespaces Gr\IeC {\'a}fico Bode Filtro paso Bajo\relax }}{115}{figure.caption.134}}
\newlabel{G_B_F_B_p}{{D.6}{115}{Gráfico Bode Filtro paso Bajo\relax }{figure.caption.134}{}}
\@writefile{toc}{\contentsline {section}{\numberline {D.7}Gr\IeC {\'a}fica filtro paso banda}{115}{section.Alph4.7}}
\@writefile{lof}{\contentsline {figure}{\numberline {D.7}{\ignorespaces Gr\IeC {\'a}fico Bode Filtro paso Banda\relax }}{116}{figure.caption.135}}
\newlabel{G_B_F_P_B}{{D.7}{116}{Gráfico Bode Filtro paso Banda\relax }{figure.caption.135}{}}
