%!PS-Adobe-3.0 EPSF-3.0
%%Creator: (MATLAB, The Mathworks, Inc. Version 8.5.0.197613 \(R2015a\). Operating System: Windows 8)
%%Title: (C:/Users/aleja/Desktop/TFG/Documentaci\363n/Obtenci\363n de datos/matlab_plot/stems/jota11-48.eps)
%%CreationDate: 2019-05-21T23:56:18
%%Pages: (atend)
%%BoundingBox: 0 0 420 315
%%LanguageLevel: 2
%%EndComments
%%BeginProlog
%%BeginResource: procset (Apache XML Graphics Std ProcSet) 1.2 0
%%Version: 1.2 0
%%Copyright: (Copyright 2001-2003,2010 The Apache Software Foundation. License terms: http://www.apache.org/licenses/LICENSE-2.0)
/bd{bind def}bind def
/ld{load def}bd
/GR/grestore ld
/M/moveto ld
/LJ/setlinejoin ld
/C/curveto ld
/f/fill ld
/LW/setlinewidth ld
/GC/setgray ld
/t/show ld
/N/newpath ld
/CT/concat ld
/cp/closepath ld
/S/stroke ld
/L/lineto ld
/CC/setcmykcolor ld
/A/ashow ld
/GS/gsave ld
/RC/setrgbcolor ld
/RM/rmoveto ld
/ML/setmiterlimit ld
/re {4 2 roll M
1 index 0 rlineto
0 exch rlineto
neg 0 rlineto
cp } bd
/_ctm matrix def
/_tm matrix def
/BT { _ctm currentmatrix pop matrix _tm copy pop 0 0 moveto } bd
/ET { _ctm setmatrix } bd
/iTm { _ctm setmatrix _tm concat } bd
/Tm { _tm astore pop iTm 0 0 moveto } bd
/ux 0.0 def
/uy 0.0 def
/F {
  /Tp exch def
  /Tf exch def
  Tf findfont Tp scalefont setfont
  /cf Tf def  /cs Tp def
} bd
/ULS {currentpoint /uy exch def /ux exch def} bd
/ULE {
  /Tcx currentpoint pop def
  gsave
  newpath
  cf findfont cs scalefont dup
  /FontMatrix get 0 get /Ts exch def /FontInfo get dup
  /UnderlinePosition get Ts mul /To exch def
  /UnderlineThickness get Ts mul /Tt exch def
  ux uy To add moveto  Tcx uy To add lineto
  Tt setlinewidth stroke
  grestore
} bd
/OLE {
  /Tcx currentpoint pop def
  gsave
  newpath
  cf findfont cs scalefont dup
  /FontMatrix get 0 get /Ts exch def /FontInfo get dup
  /UnderlinePosition get Ts mul /To exch def
  /UnderlineThickness get Ts mul /Tt exch def
  ux uy To add cs add moveto Tcx uy To add cs add lineto
  Tt setlinewidth stroke
  grestore
} bd
/SOE {
  /Tcx currentpoint pop def
  gsave
  newpath
  cf findfont cs scalefont dup
  /FontMatrix get 0 get /Ts exch def /FontInfo get dup
  /UnderlinePosition get Ts mul /To exch def
  /UnderlineThickness get Ts mul /Tt exch def
  ux uy To add cs 10 mul 26 idiv add moveto Tcx uy To add cs 10 mul 26 idiv add lineto
  Tt setlinewidth stroke
  grestore
} bd
/QT {
/Y22 exch store
/X22 exch store
/Y21 exch store
/X21 exch store
currentpoint
/Y21 load 2 mul add 3 div exch
/X21 load 2 mul add 3 div exch
/X21 load 2 mul /X22 load add 3 div
/Y21 load 2 mul /Y22 load add 3 div
/X22 load /Y22 load curveto
} bd
/SSPD {
dup length /d exch dict def
{
/v exch def
/k exch def
currentpagedevice k known {
/cpdv currentpagedevice k get def
v cpdv ne {
/upd false def
/nullv v type /nulltype eq def
/nullcpdv cpdv type /nulltype eq def
nullv nullcpdv or
{
/upd true def
} {
/sametype v type cpdv type eq def
sametype {
v type /arraytype eq {
/vlen v length def
/cpdvlen cpdv length def
vlen cpdvlen eq {
0 1 vlen 1 sub {
/i exch def
/obj v i get def
/cpdobj cpdv i get def
obj cpdobj ne {
/upd true def
exit
} if
} for
} {
/upd true def
} ifelse
} {
v type /dicttype eq {
v {
/dv exch def
/dk exch def
/cpddv cpdv dk get def
dv cpddv ne {
/upd true def
exit
} if
} forall
} {
/upd true def
} ifelse
} ifelse
} if
} ifelse
upd true eq {
d k v put
} if
} if
} if
} forall
d length 0 gt {
d setpagedevice
} if
} bd
%%EndResource
%%BeginResource: procset (Apache XML Graphics EPS ProcSet) 1.0 0
%%Version: 1.0 0
%%Copyright: (Copyright 2002-2003 The Apache Software Foundation. License terms: http://www.apache.org/licenses/LICENSE-2.0)
/BeginEPSF { %def
/b4_Inc_state save def         % Save state for cleanup
/dict_count countdictstack def % Count objects on dict stack
/op_count count 1 sub def      % Count objects on operand stack
userdict begin                 % Push userdict on dict stack
/showpage { } def              % Redefine showpage, { } = null proc
0 setgray 0 setlinecap         % Prepare graphics state
1 setlinewidth 0 setlinejoin
10 setmiterlimit [ ] 0 setdash newpath
/languagelevel where           % If level not equal to 1 then
{pop languagelevel             % set strokeadjust and
1 ne                           % overprint to their defaults.
{false setstrokeadjust false setoverprint
} if
} if
} bd
/EndEPSF { %def
count op_count sub {pop} repeat            % Clean up stacks
countdictstack dict_count sub {end} repeat
b4_Inc_state restore
} bd
%%EndResource
%FOPBeginFontDict
%%IncludeResource: font Courier-Bold
%%IncludeResource: font Helvetica
%%IncludeResource: font Courier-BoldOblique
%%IncludeResource: font Courier-Oblique
%%IncludeResource: font Times-Roman
%%IncludeResource: font Helvetica-BoldOblique
%%IncludeResource: font Helvetica-Bold
%%IncludeResource: font Helvetica-Oblique
%%IncludeResource: font Times-BoldItalic
%%IncludeResource: font Courier
%%IncludeResource: font Times-Italic
%%IncludeResource: font Times-Bold
%%IncludeResource: font Symbol
%%IncludeResource: font ZapfDingbats
%FOPEndFontDict
%%BeginResource: encoding WinAnsiEncoding
/WinAnsiEncoding [
/.notdef /.notdef /.notdef /.notdef /.notdef
/.notdef /.notdef /.notdef /.notdef /.notdef
/.notdef /.notdef /.notdef /.notdef /.notdef
/.notdef /.notdef /.notdef /.notdef /.notdef
/.notdef /.notdef /.notdef /.notdef /.notdef
/.notdef /.notdef /.notdef /.notdef /.notdef
/.notdef /.notdef /space /exclam /quotedbl
/numbersign /dollar /percent /ampersand /quotesingle
/parenleft /parenright /asterisk /plus /comma
/hyphen /period /slash /zero /one
/two /three /four /five /six
/seven /eight /nine /colon /semicolon
/less /equal /greater /question /at
/A /B /C /D /E
/F /G /H /I /J
/K /L /M /N /O
/P /Q /R /S /T
/U /V /W /X /Y
/Z /bracketleft /backslash /bracketright /asciicircum
/underscore /quoteleft /a /b /c
/d /e /f /g /h
/i /j /k /l /m
/n /o /p /q /r
/s /t /u /v /w
/x /y /z /braceleft /bar
/braceright /asciitilde /bullet /Euro /bullet
/quotesinglbase /florin /quotedblbase /ellipsis /dagger
/daggerdbl /circumflex /perthousand /Scaron /guilsinglleft
/OE /bullet /Zcaron /bullet /bullet
/quoteleft /quoteright /quotedblleft /quotedblright /bullet
/endash /emdash /asciitilde /trademark /scaron
/guilsinglright /oe /bullet /zcaron /Ydieresis
/space /exclamdown /cent /sterling /currency
/yen /brokenbar /section /dieresis /copyright
/ordfeminine /guillemotleft /logicalnot /sfthyphen /registered
/macron /degree /plusminus /twosuperior /threesuperior
/acute /mu /paragraph /middot /cedilla
/onesuperior /ordmasculine /guillemotright /onequarter /onehalf
/threequarters /questiondown /Agrave /Aacute /Acircumflex
/Atilde /Adieresis /Aring /AE /Ccedilla
/Egrave /Eacute /Ecircumflex /Edieresis /Igrave
/Iacute /Icircumflex /Idieresis /Eth /Ntilde
/Ograve /Oacute /Ocircumflex /Otilde /Odieresis
/multiply /Oslash /Ugrave /Uacute /Ucircumflex
/Udieresis /Yacute /Thorn /germandbls /agrave
/aacute /acircumflex /atilde /adieresis /aring
/ae /ccedilla /egrave /eacute /ecircumflex
/edieresis /igrave /iacute /icircumflex /idieresis
/eth /ntilde /ograve /oacute /ocircumflex
/otilde /odieresis /divide /oslash /ugrave
/uacute /ucircumflex /udieresis /yacute /thorn
/ydieresis
] def
%%EndResource
%FOPBeginFontReencode
/Courier-Bold findfont
dup length dict begin
  {1 index /FID ne {def} {pop pop} ifelse} forall
  /Encoding WinAnsiEncoding def
  currentdict
end
/Courier-Bold exch definefont pop
/Helvetica findfont
dup length dict begin
  {1 index /FID ne {def} {pop pop} ifelse} forall
  /Encoding WinAnsiEncoding def
  currentdict
end
/Helvetica exch definefont pop
/Courier-BoldOblique findfont
dup length dict begin
  {1 index /FID ne {def} {pop pop} ifelse} forall
  /Encoding WinAnsiEncoding def
  currentdict
end
/Courier-BoldOblique exch definefont pop
/Courier-Oblique findfont
dup length dict begin
  {1 index /FID ne {def} {pop pop} ifelse} forall
  /Encoding WinAnsiEncoding def
  currentdict
end
/Courier-Oblique exch definefont pop
/Times-Roman findfont
dup length dict begin
  {1 index /FID ne {def} {pop pop} ifelse} forall
  /Encoding WinAnsiEncoding def
  currentdict
end
/Times-Roman exch definefont pop
/Helvetica-BoldOblique findfont
dup length dict begin
  {1 index /FID ne {def} {pop pop} ifelse} forall
  /Encoding WinAnsiEncoding def
  currentdict
end
/Helvetica-BoldOblique exch definefont pop
/Helvetica-Bold findfont
dup length dict begin
  {1 index /FID ne {def} {pop pop} ifelse} forall
  /Encoding WinAnsiEncoding def
  currentdict
end
/Helvetica-Bold exch definefont pop
/Helvetica-Oblique findfont
dup length dict begin
  {1 index /FID ne {def} {pop pop} ifelse} forall
  /Encoding WinAnsiEncoding def
  currentdict
end
/Helvetica-Oblique exch definefont pop
/Times-BoldItalic findfont
dup length dict begin
  {1 index /FID ne {def} {pop pop} ifelse} forall
  /Encoding WinAnsiEncoding def
  currentdict
end
/Times-BoldItalic exch definefont pop
/Courier findfont
dup length dict begin
  {1 index /FID ne {def} {pop pop} ifelse} forall
  /Encoding WinAnsiEncoding def
  currentdict
end
/Courier exch definefont pop
/Times-Italic findfont
dup length dict begin
  {1 index /FID ne {def} {pop pop} ifelse} forall
  /Encoding WinAnsiEncoding def
  currentdict
end
/Times-Italic exch definefont pop
/Times-Bold findfont
dup length dict begin
  {1 index /FID ne {def} {pop pop} ifelse} forall
  /Encoding WinAnsiEncoding def
  currentdict
end
/Times-Bold exch definefont pop
%FOPEndFontReencode
%%EndProlog
%%Page: 1 1
%%PageBoundingBox: 0 0 420 315
%%BeginPageSetup
[1 0 0 -1 0 315] CT
%%EndPageSetup
GS
[0.75 0 0 0.75 0 0] CT
1 GC
N
0 0 560 420 re
f
GR
GS
[0.75 0 0 0.75 0 0] CT
1 GC
N
0 0 560 420 re
f
GR
GS
[0.75 0 0 0.75 0 0] CT
1 GC
N
73 374 M
507 374 L
507 31 L
73 31 L
cp
f
GR
GS
[0.75 0 0 0.75 217.50016 298.24999] CT
0.149 GC
/Helvetica 15 F
GS
[1 0 0 1 0 0] CT
-52 16 moveto 
1 -1 scale
(Frequency \(Hz\)) t 
GR
GR
GS
[0.75 0 0 0.75 0 0] CT
0.149 GC
2 setlinecap
10.0 ML
N
73 374 M
507 374 L
S
GR
GS
[0.75 0 0 0.75 0 0] CT
0.149 GC
2 setlinecap
10.0 ML
N
73 31 M
507 31 L
S
GR
GS
[0.75 0 0 0.75 0 0] CT
0.149 GC
2 setlinecap
10.0 ML
N
73 374 M
73 369.66 L
S
GR
GS
[0.75 0 0 0.75 0 0] CT
0.149 GC
2 setlinecap
10.0 ML
N
116.4 374 M
116.4 369.66 L
S
GR
GS
[0.75 0 0 0.75 0 0] CT
0.149 GC
2 setlinecap
10.0 ML
N
159.8 374 M
159.8 369.66 L
S
GR
GS
[0.75 0 0 0.75 0 0] CT
0.149 GC
2 setlinecap
10.0 ML
N
203.2 374 M
203.2 369.66 L
S
GR
GS
[0.75 0 0 0.75 0 0] CT
0.149 GC
2 setlinecap
10.0 ML
N
246.6 374 M
246.6 369.66 L
S
GR
GS
[0.75 0 0 0.75 0 0] CT
0.149 GC
2 setlinecap
10.0 ML
N
290 374 M
290 369.66 L
S
GR
GS
[0.75 0 0 0.75 0 0] CT
0.149 GC
2 setlinecap
10.0 ML
N
333.4 374 M
333.4 369.66 L
S
GR
GS
[0.75 0 0 0.75 0 0] CT
0.149 GC
2 setlinecap
10.0 ML
N
376.8 374 M
376.8 369.66 L
S
GR
GS
[0.75 0 0 0.75 0 0] CT
0.149 GC
2 setlinecap
10.0 ML
N
420.2 374 M
420.2 369.66 L
S
GR
GS
[0.75 0 0 0.75 0 0] CT
0.149 GC
2 setlinecap
10.0 ML
N
463.6 374 M
463.6 369.66 L
S
GR
GS
[0.75 0 0 0.75 0 0] CT
0.149 GC
2 setlinecap
10.0 ML
N
507 374 M
507 369.66 L
S
GR
GS
[0.75 0 0 0.75 0 0] CT
0.149 GC
2 setlinecap
10.0 ML
N
73 31 M
73 35.34 L
S
GR
GS
[0.75 0 0 0.75 0 0] CT
0.149 GC
2 setlinecap
10.0 ML
N
116.4 31 M
116.4 35.34 L
S
GR
GS
[0.75 0 0 0.75 0 0] CT
0.149 GC
2 setlinecap
10.0 ML
N
159.8 31 M
159.8 35.34 L
S
GR
GS
[0.75 0 0 0.75 0 0] CT
0.149 GC
2 setlinecap
10.0 ML
N
203.2 31 M
203.2 35.34 L
S
GR
GS
[0.75 0 0 0.75 0 0] CT
0.149 GC
2 setlinecap
10.0 ML
N
246.6 31 M
246.6 35.34 L
S
GR
GS
[0.75 0 0 0.75 0 0] CT
0.149 GC
2 setlinecap
10.0 ML
N
290 31 M
290 35.34 L
S
GR
GS
[0.75 0 0 0.75 0 0] CT
0.149 GC
2 setlinecap
10.0 ML
N
333.4 31 M
333.4 35.34 L
S
GR
GS
[0.75 0 0 0.75 0 0] CT
0.149 GC
2 setlinecap
10.0 ML
N
376.8 31 M
376.8 35.34 L
S
GR
GS
[0.75 0 0 0.75 0 0] CT
0.149 GC
2 setlinecap
10.0 ML
N
420.2 31 M
420.2 35.34 L
S
GR
GS
[0.75 0 0 0.75 0 0] CT
0.149 GC
2 setlinecap
10.0 ML
N
463.6 31 M
463.6 35.34 L
S
GR
GS
[0.75 0 0 0.75 0 0] CT
0.149 GC
2 setlinecap
10.0 ML
N
507 31 M
507 35.34 L
S
GR
GS
[0.75 0 0 0.75 54.75 284.50001] CT
0.149 GC
/Helvetica 13 F
GS
[1 0 0 1 0 0] CT
-4 14 moveto 
1 -1 scale
(0) t 
GR
GR
GS
[0.75 0 0 0.75 87.3 284.50001] CT
0.149 GC
/Helvetica 13 F
GS
[1 0 0 1 0 0] CT
-7.5 14 moveto 
1 -1 scale
(10) t 
GR
GR
GS
[0.75 0 0 0.75 119.85 284.50001] CT
0.149 GC
/Helvetica 13 F
GS
[1 0 0 1 0 0] CT
-7.5 14 moveto 
1 -1 scale
(20) t 
GR
GR
GS
[0.75 0 0 0.75 152.4 284.50001] CT
0.149 GC
/Helvetica 13 F
GS
[1 0 0 1 0 0] CT
-7.5 14 moveto 
1 -1 scale
(30) t 
GR
GR
GS
[0.75 0 0 0.75 184.95 284.50001] CT
0.149 GC
/Helvetica 13 F
GS
[1 0 0 1 0 0] CT
-7.5 14 moveto 
1 -1 scale
(40) t 
GR
GR
GS
[0.75 0 0 0.75 217.5 284.50001] CT
0.149 GC
/Helvetica 13 F
GS
[1 0 0 1 0 0] CT
-7.5 14 moveto 
1 -1 scale
(50) t 
GR
GR
GS
[0.75 0 0 0.75 250.05 284.50001] CT
0.149 GC
/Helvetica 13 F
GS
[1 0 0 1 0 0] CT
-7.5 14 moveto 
1 -1 scale
(60) t 
GR
GR
GS
[0.75 0 0 0.75 282.59999 284.50001] CT
0.149 GC
/Helvetica 13 F
GS
[1 0 0 1 0 0] CT
-7.5 14 moveto 
1 -1 scale
(70) t 
GR
GR
GS
[0.75 0 0 0.75 315.15001 284.50001] CT
0.149 GC
/Helvetica 13 F
GS
[1 0 0 1 0 0] CT
-7.5 14 moveto 
1 -1 scale
(80) t 
GR
GR
GS
[0.75 0 0 0.75 347.7 284.50001] CT
0.149 GC
/Helvetica 13 F
GS
[1 0 0 1 0 0] CT
-7.5 14 moveto 
1 -1 scale
(90) t 
GR
GR
GS
[0.75 0 0 0.75 380.25 284.50001] CT
0.149 GC
/Helvetica 13 F
GS
[1 0 0 1 0 0] CT
-11 14 moveto 
1 -1 scale
(100) t 
GR
GR
GS
[0 -0.75 0.75 0 33.5 151.87487] CT
0.149 GC
/Helvetica 15 F
GS
[1 0 0 1 0 0] CT
-61.5 -4 moveto 
1 -1 scale
(|P\(f\)| MAgnitud dB) t 
GR
GR
GS
[0.75 0 0 0.75 0 0] CT
0.149 GC
2 setlinecap
10.0 ML
N
73 374 M
73 31 L
S
GR
GS
[0.75 0 0 0.75 0 0] CT
0.149 GC
2 setlinecap
10.0 ML
N
507 374 M
507 31 L
S
GR
GS
[0.75 0 0 0.75 0 0] CT
0.149 GC
2 setlinecap
10.0 ML
N
73 374 M
77.34 374 L
S
GR
GS
[0.75 0 0 0.75 0 0] CT
0.149 GC
2 setlinecap
10.0 ML
N
73 339.7 M
77.34 339.7 L
S
GR
GS
[0.75 0 0 0.75 0 0] CT
0.149 GC
2 setlinecap
10.0 ML
N
73 305.4 M
77.34 305.4 L
S
GR
GS
[0.75 0 0 0.75 0 0] CT
0.149 GC
2 setlinecap
10.0 ML
N
73 271.1 M
77.34 271.1 L
S
GR
GS
[0.75 0 0 0.75 0 0] CT
0.149 GC
2 setlinecap
10.0 ML
N
73 236.8 M
77.34 236.8 L
S
GR
GS
[0.75 0 0 0.75 0 0] CT
0.149 GC
2 setlinecap
10.0 ML
N
73 202.5 M
77.34 202.5 L
S
GR
GS
[0.75 0 0 0.75 0 0] CT
0.149 GC
2 setlinecap
10.0 ML
N
73 168.2 M
77.34 168.2 L
S
GR
GS
[0.75 0 0 0.75 0 0] CT
0.149 GC
2 setlinecap
10.0 ML
N
73 133.9 M
77.34 133.9 L
S
GR
GS
[0.75 0 0 0.75 0 0] CT
0.149 GC
2 setlinecap
10.0 ML
N
73 99.6 M
77.34 99.6 L
S
GR
GS
[0.75 0 0 0.75 0 0] CT
0.149 GC
2 setlinecap
10.0 ML
N
73 65.3 M
77.34 65.3 L
S
GR
GS
[0.75 0 0 0.75 0 0] CT
0.149 GC
2 setlinecap
10.0 ML
N
73 31 M
77.34 31 L
S
GR
GS
[0.75 0 0 0.75 0 0] CT
0.149 GC
2 setlinecap
10.0 ML
N
507 374 M
502.66 374 L
S
GR
GS
[0.75 0 0 0.75 0 0] CT
0.149 GC
2 setlinecap
10.0 ML
N
507 339.7 M
502.66 339.7 L
S
GR
GS
[0.75 0 0 0.75 0 0] CT
0.149 GC
2 setlinecap
10.0 ML
N
507 305.4 M
502.66 305.4 L
S
GR
GS
[0.75 0 0 0.75 0 0] CT
0.149 GC
2 setlinecap
10.0 ML
N
507 271.1 M
502.66 271.1 L
S
GR
GS
[0.75 0 0 0.75 0 0] CT
0.149 GC
2 setlinecap
10.0 ML
N
507 236.8 M
502.66 236.8 L
S
GR
GS
[0.75 0 0 0.75 0 0] CT
0.149 GC
2 setlinecap
10.0 ML
N
507 202.5 M
502.66 202.5 L
S
GR
GS
[0.75 0 0 0.75 0 0] CT
0.149 GC
2 setlinecap
10.0 ML
N
507 168.2 M
502.66 168.2 L
S
GR
GS
[0.75 0 0 0.75 0 0] CT
0.149 GC
2 setlinecap
10.0 ML
N
507 133.9 M
502.66 133.9 L
S
GR
GS
[0.75 0 0 0.75 0 0] CT
0.149 GC
2 setlinecap
10.0 ML
N
507 99.6 M
502.66 99.6 L
S
GR
GS
[0.75 0 0 0.75 0 0] CT
0.149 GC
2 setlinecap
10.0 ML
N
507 65.3 M
502.66 65.3 L
S
GR
GS
[0.75 0 0 0.75 0 0] CT
0.149 GC
2 setlinecap
10.0 ML
N
507 31 M
502.66 31 L
S
GR
GS
[0.75 0 0 0.75 50.75 280.5] CT
0.149 GC
/Helvetica 13 F
GS
[1 0 0 1 0 0] CT
-8 5.5 moveto 
1 -1 scale
(0) t 
GR
GR
GS
[0.75 0 0 0.75 50.75 254.77501] CT
0.149 GC
/Helvetica 13 F
GS
[1 0 0 1 0 0] CT
-19 5.5 moveto 
1 -1 scale
(0.2) t 
GR
GR
GS
[0.75 0 0 0.75 50.75 229.05] CT
0.149 GC
/Helvetica 13 F
GS
[1 0 0 1 0 0] CT
-19 5.5 moveto 
1 -1 scale
(0.4) t 
GR
GR
GS
[0.75 0 0 0.75 50.75 203.325] CT
0.149 GC
/Helvetica 13 F
GS
[1 0 0 1 0 0] CT
-19 5.5 moveto 
1 -1 scale
(0.6) t 
GR
GR
GS
[0.75 0 0 0.75 50.75 177.6] CT
0.149 GC
/Helvetica 13 F
GS
[1 0 0 1 0 0] CT
-19 5.5 moveto 
1 -1 scale
(0.8) t 
GR
GR
GS
[0.75 0 0 0.75 50.75 151.875] CT
0.149 GC
/Helvetica 13 F
GS
[1 0 0 1 0 0] CT
-8 5.5 moveto 
1 -1 scale
(1) t 
GR
GR
GS
[0.75 0 0 0.75 50.75 126.15] CT
0.149 GC
/Helvetica 13 F
GS
[1 0 0 1 0 0] CT
-19 5.5 moveto 
1 -1 scale
(1.2) t 
GR
GR
GS
[0.75 0 0 0.75 50.75 100.42501] CT
0.149 GC
/Helvetica 13 F
GS
[1 0 0 1 0 0] CT
-19 5.5 moveto 
1 -1 scale
(1.4) t 
GR
GR
GS
[0.75 0 0 0.75 50.75 74.7] CT
0.149 GC
/Helvetica 13 F
GS
[1 0 0 1 0 0] CT
-19 5.5 moveto 
1 -1 scale
(1.6) t 
GR
GR
GS
[0.75 0 0 0.75 50.75 48.97501] CT
0.149 GC
/Helvetica 13 F
GS
[1 0 0 1 0 0] CT
-19 5.5 moveto 
1 -1 scale
(1.8) t 
GR
GR
GS
[0.75 0 0 0.75 50.75 23.25] CT
0.149 GC
/Helvetica 13 F
GS
[1 0 0 1 0 0] CT
-8 5.5 moveto 
1 -1 scale
(2) t 
GR
GR
GS
[0.75 0 0 0.75 0 0] CT
0 0.447 0.741 RC
2 setlinecap
10.0 ML
N
79.5 95.5 M
78.736 93.149 L
76.736 91.696 L
74.264 91.696 L
72.264 93.149 L
71.5 95.5 L
72.264 97.851 L
74.264 99.304 L
76.736 99.304 L
78.736 97.851 L
79.5 95.5 L
S
GR
GS
[0.75 0 0 0.75 0 0] CT
0 0.447 0.741 RC
2 setlinecap
10.0 ML
N
82.5 205.5 M
81.736 203.149 L
79.736 201.696 L
77.264 201.696 L
75.264 203.149 L
74.5 205.5 L
75.264 207.851 L
77.264 209.304 L
79.736 209.304 L
81.736 207.851 L
82.5 205.5 L
S
GR
GS
[0.75 0 0 0.75 0 0] CT
0 0.447 0.741 RC
2 setlinecap
10.0 ML
N
85.5 345.5 M
84.736 343.149 L
82.736 341.696 L
80.264 341.696 L
78.264 343.149 L
77.5 345.5 L
78.264 347.851 L
80.264 349.304 L
82.736 349.304 L
84.736 347.851 L
85.5 345.5 L
S
GR
GS
[0.75 0 0 0.75 0 0] CT
0 0.447 0.741 RC
2 setlinecap
10.0 ML
N
88.5 351.5 M
87.736 349.149 L
85.736 347.696 L
83.264 347.696 L
81.264 349.149 L
80.5 351.5 L
81.264 353.851 L
83.264 355.304 L
85.736 355.304 L
87.736 353.851 L
88.5 351.5 L
S
GR
GS
[0.75 0 0 0.75 0 0] CT
0 0.447 0.741 RC
2 setlinecap
10.0 ML
N
91.5 324.5 M
90.736 322.149 L
88.736 320.696 L
86.264 320.696 L
84.264 322.149 L
83.5 324.5 L
84.264 326.851 L
86.264 328.304 L
88.736 328.304 L
90.736 326.851 L
91.5 324.5 L
S
GR
GS
[0.75 0 0 0.75 0 0] CT
0 0.447 0.741 RC
2 setlinecap
10.0 ML
N
94.5 238.5 M
93.736 236.149 L
91.736 234.696 L
89.264 234.696 L
87.264 236.149 L
86.5 238.5 L
87.264 240.851 L
89.264 242.304 L
91.736 242.304 L
93.736 240.851 L
94.5 238.5 L
S
GR
GS
[0.75 0 0 0.75 0 0] CT
0 0.447 0.741 RC
2 setlinecap
10.0 ML
N
97.5 202.5 M
96.736 200.149 L
94.736 198.696 L
92.264 198.696 L
90.264 200.149 L
89.5 202.5 L
90.264 204.851 L
92.264 206.304 L
94.736 206.304 L
96.736 204.851 L
97.5 202.5 L
S
GR
GS
[0.75 0 0 0.75 0 0] CT
0 0.447 0.741 RC
2 setlinecap
10.0 ML
N
100.5 337.5 M
99.736 335.149 L
97.736 333.696 L
95.264 333.696 L
93.264 335.149 L
92.5 337.5 L
93.264 339.851 L
95.264 341.304 L
97.736 341.304 L
99.736 339.851 L
100.5 337.5 L
S
GR
GS
[0.75 0 0 0.75 0 0] CT
0 0.447 0.741 RC
2 setlinecap
10.0 ML
N
103.5 305.5 M
102.736 303.149 L
100.736 301.696 L
98.264 301.696 L
96.264 303.149 L
95.5 305.5 L
96.264 307.851 L
98.264 309.304 L
100.736 309.304 L
102.736 307.851 L
103.5 305.5 L
S
GR
GS
[0.75 0 0 0.75 0 0] CT
0 0.447 0.741 RC
2 setlinecap
10.0 ML
N
106.5 285.5 M
105.736 283.149 L
103.736 281.696 L
101.264 281.696 L
99.264 283.149 L
98.5 285.5 L
99.264 287.851 L
101.264 289.304 L
103.736 289.304 L
105.736 287.851 L
106.5 285.5 L
S
GR
GS
[0.75 0 0 0.75 0 0] CT
0 0.447 0.741 RC
2 setlinecap
10.0 ML
N
110.5 315.5 M
109.736 313.149 L
107.736 311.696 L
105.264 311.696 L
103.264 313.149 L
102.5 315.5 L
103.264 317.851 L
105.264 319.304 L
107.736 319.304 L
109.736 317.851 L
110.5 315.5 L
S
GR
GS
[0.75 0 0 0.75 0 0] CT
0 0.447 0.741 RC
2 setlinecap
10.0 ML
N
113.5 356.5 M
112.736 354.149 L
110.736 352.696 L
108.264 352.696 L
106.264 354.149 L
105.5 356.5 L
106.264 358.851 L
108.264 360.304 L
110.736 360.304 L
112.736 358.851 L
113.5 356.5 L
S
GR
GS
[0.75 0 0 0.75 0 0] CT
0 0.447 0.741 RC
2 setlinecap
10.0 ML
N
116.5 252.5 M
115.736 250.149 L
113.736 248.696 L
111.264 248.696 L
109.264 250.149 L
108.5 252.5 L
109.264 254.851 L
111.264 256.304 L
113.736 256.304 L
115.736 254.851 L
116.5 252.5 L
S
GR
GS
[0.75 0 0 0.75 0 0] CT
0 0.447 0.741 RC
2 setlinecap
10.0 ML
N
119.5 276.5 M
118.736 274.149 L
116.736 272.696 L
114.264 272.696 L
112.264 274.149 L
111.5 276.5 L
112.264 278.851 L
114.264 280.304 L
116.736 280.304 L
118.736 278.851 L
119.5 276.5 L
S
GR
GS
[0.75 0 0 0.75 0 0] CT
0 0.447 0.741 RC
2 setlinecap
10.0 ML
N
122.5 303.5 M
121.736 301.149 L
119.736 299.696 L
117.264 299.696 L
115.264 301.149 L
114.5 303.5 L
115.264 305.851 L
117.264 307.304 L
119.736 307.304 L
121.736 305.851 L
122.5 303.5 L
S
GR
GS
[0.75 0 0 0.75 0 0] CT
0 0.447 0.741 RC
2 setlinecap
10.0 ML
N
125.5 332.5 M
124.736 330.149 L
122.736 328.696 L
120.264 328.696 L
118.264 330.149 L
117.5 332.5 L
118.264 334.851 L
120.264 336.304 L
122.736 336.304 L
124.736 334.851 L
125.5 332.5 L
S
GR
GS
[0.75 0 0 0.75 0 0] CT
0 0.447 0.741 RC
2 setlinecap
10.0 ML
N
128.5 352.5 M
127.736 350.149 L
125.736 348.696 L
123.264 348.696 L
121.264 350.149 L
120.5 352.5 L
121.264 354.851 L
123.264 356.304 L
125.736 356.304 L
127.736 354.851 L
128.5 352.5 L
S
GR
GS
[0.75 0 0 0.75 0 0] CT
0 0.447 0.741 RC
2 setlinecap
10.0 ML
N
131.5 350.5 M
130.736 348.149 L
128.736 346.696 L
126.264 346.696 L
124.264 348.149 L
123.5 350.5 L
124.264 352.851 L
126.264 354.304 L
128.736 354.304 L
130.736 352.851 L
131.5 350.5 L
S
GR
GS
[0.75 0 0 0.75 0 0] CT
0 0.447 0.741 RC
2 setlinecap
10.0 ML
N
134.5 353.5 M
133.736 351.149 L
131.736 349.696 L
129.264 349.696 L
127.264 351.149 L
126.5 353.5 L
127.264 355.851 L
129.264 357.304 L
131.736 357.304 L
133.736 355.851 L
134.5 353.5 L
S
GR
GS
[0.75 0 0 0.75 0 0] CT
0 0.447 0.741 RC
2 setlinecap
10.0 ML
N
137.5 331.5 M
136.736 329.149 L
134.736 327.696 L
132.264 327.696 L
130.264 329.149 L
129.5 331.5 L
130.264 333.851 L
132.264 335.304 L
134.736 335.304 L
136.736 333.851 L
137.5 331.5 L
S
GR
GS
[0.75 0 0 0.75 0 0] CT
0 0.447 0.741 RC
2 setlinecap
10.0 ML
N
140.5 326.5 M
139.736 324.149 L
137.736 322.696 L
135.264 322.696 L
133.264 324.149 L
132.5 326.5 L
133.264 328.851 L
135.264 330.304 L
137.736 330.304 L
139.736 328.851 L
140.5 326.5 L
S
GR
GS
[0.75 0 0 0.75 0 0] CT
0 0.447 0.741 RC
2 setlinecap
10.0 ML
N
143.5 339.5 M
142.736 337.149 L
140.736 335.696 L
138.264 335.696 L
136.264 337.149 L
135.5 339.5 L
136.264 341.851 L
138.264 343.304 L
140.736 343.304 L
142.736 341.851 L
143.5 339.5 L
S
GR
GS
[0.75 0 0 0.75 0 0] CT
0 0.447 0.741 RC
2 setlinecap
10.0 ML
N
146.5 309.5 M
145.736 307.149 L
143.736 305.696 L
141.264 305.696 L
139.264 307.149 L
138.5 309.5 L
139.264 311.851 L
141.264 313.304 L
143.736 313.304 L
145.736 311.851 L
146.5 309.5 L
S
GR
GS
[0.75 0 0 0.75 0 0] CT
0 0.447 0.741 RC
2 setlinecap
10.0 ML
N
149.5 363.5 M
148.736 361.149 L
146.736 359.696 L
144.264 359.696 L
142.264 361.149 L
141.5 363.5 L
142.264 365.851 L
144.264 367.304 L
146.736 367.304 L
148.736 365.851 L
149.5 363.5 L
S
GR
GS
[0.75 0 0 0.75 0 0] CT
0 0.447 0.741 RC
2 setlinecap
10.0 ML
N
153.5 319.5 M
152.736 317.149 L
150.736 315.696 L
148.264 315.696 L
146.264 317.149 L
145.5 319.5 L
146.264 321.851 L
148.264 323.304 L
150.736 323.304 L
152.736 321.851 L
153.5 319.5 L
S
GR
GS
[0.75 0 0 0.75 0 0] CT
0 0.447 0.741 RC
2 setlinecap
10.0 ML
N
156.5 345.5 M
155.736 343.149 L
153.736 341.696 L
151.264 341.696 L
149.264 343.149 L
148.5 345.5 L
149.264 347.851 L
151.264 349.304 L
153.736 349.304 L
155.736 347.851 L
156.5 345.5 L
S
GR
GS
[0.75 0 0 0.75 0 0] CT
0 0.447 0.741 RC
2 setlinecap
10.0 ML
N
159.5 338.5 M
158.736 336.149 L
156.736 334.696 L
154.264 334.696 L
152.264 336.149 L
151.5 338.5 L
152.264 340.851 L
154.264 342.304 L
156.736 342.304 L
158.736 340.851 L
159.5 338.5 L
S
GR
GS
[0.75 0 0 0.75 0 0] CT
0 0.447 0.741 RC
2 setlinecap
10.0 ML
N
162.5 353.5 M
161.736 351.149 L
159.736 349.696 L
157.264 349.696 L
155.264 351.149 L
154.5 353.5 L
155.264 355.851 L
157.264 357.304 L
159.736 357.304 L
161.736 355.851 L
162.5 353.5 L
S
GR
GS
[0.75 0 0 0.75 0 0] CT
0 0.447 0.741 RC
2 setlinecap
10.0 ML
N
165.5 305.5 M
164.736 303.149 L
162.736 301.696 L
160.264 301.696 L
158.264 303.149 L
157.5 305.5 L
158.264 307.851 L
160.264 309.304 L
162.736 309.304 L
164.736 307.851 L
165.5 305.5 L
S
GR
GS
[0.75 0 0 0.75 0 0] CT
0 0.447 0.741 RC
2 setlinecap
10.0 ML
N
168.5 352.5 M
167.736 350.149 L
165.736 348.696 L
163.264 348.696 L
161.264 350.149 L
160.5 352.5 L
161.264 354.851 L
163.264 356.304 L
165.736 356.304 L
167.736 354.851 L
168.5 352.5 L
S
GR
GS
[0.75 0 0 0.75 0 0] CT
0 0.447 0.741 RC
2 setlinecap
10.0 ML
N
171.5 252.5 M
170.736 250.149 L
168.736 248.696 L
166.264 248.696 L
164.264 250.149 L
163.5 252.5 L
164.264 254.851 L
166.264 256.304 L
168.736 256.304 L
170.736 254.851 L
171.5 252.5 L
S
GR
GS
[0.75 0 0 0.75 0 0] CT
0 0.447 0.741 RC
2 setlinecap
10.0 ML
N
174.5 57.5 M
173.736 55.149 L
171.736 53.696 L
169.264 53.696 L
167.264 55.149 L
166.5 57.5 L
167.264 59.851 L
169.264 61.304 L
171.736 61.304 L
173.736 59.851 L
174.5 57.5 L
S
GR
GS
[0.75 0 0 0.75 0 0] CT
0 0.447 0.741 RC
2 setlinecap
10.0 ML
N
177.5 232.5 M
176.736 230.149 L
174.736 228.696 L
172.264 228.696 L
170.264 230.149 L
169.5 232.5 L
170.264 234.851 L
172.264 236.304 L
174.736 236.304 L
176.736 234.851 L
177.5 232.5 L
S
GR
GS
[0.75 0 0 0.75 0 0] CT
0 0.447 0.741 RC
2 setlinecap
10.0 ML
N
180.5 261.5 M
179.736 259.149 L
177.736 257.696 L
175.264 257.696 L
173.264 259.149 L
172.5 261.5 L
173.264 263.851 L
175.264 265.304 L
177.736 265.304 L
179.736 263.851 L
180.5 261.5 L
S
GR
GS
[0.75 0 0 0.75 0 0] CT
0 0.447 0.741 RC
2 setlinecap
10.0 ML
N
183.5 276.5 M
182.736 274.149 L
180.736 272.696 L
178.264 272.696 L
176.264 274.149 L
175.5 276.5 L
176.264 278.851 L
178.264 280.304 L
180.736 280.304 L
182.736 278.851 L
183.5 276.5 L
S
GR
GS
[0.75 0 0 0.75 0 0] CT
0 0.447 0.741 RC
2 setlinecap
10.0 ML
N
186.5 346.5 M
185.736 344.149 L
183.736 342.696 L
181.264 342.696 L
179.264 344.149 L
178.5 346.5 L
179.264 348.851 L
181.264 350.304 L
183.736 350.304 L
185.736 348.851 L
186.5 346.5 L
S
GR
GS
[0.75 0 0 0.75 0 0] CT
0 0.447 0.741 RC
2 setlinecap
10.0 ML
N
189.5 351.5 M
188.736 349.149 L
186.736 347.696 L
184.264 347.696 L
182.264 349.149 L
181.5 351.5 L
182.264 353.851 L
184.264 355.304 L
186.736 355.304 L
188.736 353.851 L
189.5 351.5 L
S
GR
GS
[0.75 0 0 0.75 0 0] CT
0 0.447 0.741 RC
2 setlinecap
10.0 ML
N
192.5 360.5 M
191.736 358.149 L
189.736 356.696 L
187.264 356.696 L
185.264 358.149 L
184.5 360.5 L
185.264 362.851 L
187.264 364.304 L
189.736 364.304 L
191.736 362.851 L
192.5 360.5 L
S
GR
GS
[0.75 0 0 0.75 0 0] CT
0 0.447 0.741 RC
2 setlinecap
10.0 ML
N
196.5 334.5 M
195.736 332.149 L
193.736 330.696 L
191.264 330.696 L
189.264 332.149 L
188.5 334.5 L
189.264 336.851 L
191.264 338.304 L
193.736 338.304 L
195.736 336.851 L
196.5 334.5 L
S
GR
GS
[0.75 0 0 0.75 0 0] CT
0 0.447 0.741 RC
2 setlinecap
10.0 ML
N
199.5 344.5 M
198.736 342.149 L
196.736 340.696 L
194.264 340.696 L
192.264 342.149 L
191.5 344.5 L
192.264 346.851 L
194.264 348.304 L
196.736 348.304 L
198.736 346.851 L
199.5 344.5 L
S
GR
GS
[0.75 0 0 0.75 0 0] CT
0 0.447 0.741 RC
2 setlinecap
10.0 ML
N
202.5 288.5 M
201.736 286.149 L
199.736 284.696 L
197.264 284.696 L
195.264 286.149 L
194.5 288.5 L
195.264 290.851 L
197.264 292.304 L
199.736 292.304 L
201.736 290.851 L
202.5 288.5 L
S
GR
GS
[0.75 0 0 0.75 0 0] CT
0 0.447 0.741 RC
2 setlinecap
10.0 ML
N
205.5 338.5 M
204.736 336.149 L
202.736 334.696 L
200.264 334.696 L
198.264 336.149 L
197.5 338.5 L
198.264 340.851 L
200.264 342.304 L
202.736 342.304 L
204.736 340.851 L
205.5 338.5 L
S
GR
GS
[0.75 0 0 0.75 0 0] CT
0 0.447 0.741 RC
2 setlinecap
10.0 ML
N
208.5 330.5 M
207.736 328.149 L
205.736 326.696 L
203.264 326.696 L
201.264 328.149 L
200.5 330.5 L
201.264 332.851 L
203.264 334.304 L
205.736 334.304 L
207.736 332.851 L
208.5 330.5 L
S
GR
GS
[0.75 0 0 0.75 0 0] CT
0 0.447 0.741 RC
2 setlinecap
10.0 ML
N
211.5 302.5 M
210.736 300.149 L
208.736 298.696 L
206.264 298.696 L
204.264 300.149 L
203.5 302.5 L
204.264 304.851 L
206.264 306.304 L
208.736 306.304 L
210.736 304.851 L
211.5 302.5 L
S
GR
GS
[0.75 0 0 0.75 0 0] CT
0 0.447 0.741 RC
2 setlinecap
10.0 ML
N
214.5 353.5 M
213.736 351.149 L
211.736 349.696 L
209.264 349.696 L
207.264 351.149 L
206.5 353.5 L
207.264 355.851 L
209.264 357.304 L
211.736 357.304 L
213.736 355.851 L
214.5 353.5 L
S
GR
GS
[0.75 0 0 0.75 0 0] CT
0 0.447 0.741 RC
2 setlinecap
10.0 ML
N
217.5 334.5 M
216.736 332.149 L
214.736 330.696 L
212.264 330.696 L
210.264 332.149 L
209.5 334.5 L
210.264 336.851 L
212.264 338.304 L
214.736 338.304 L
216.736 336.851 L
217.5 334.5 L
S
GR
GS
[0.75 0 0 0.75 0 0] CT
0 0.447 0.741 RC
2 setlinecap
10.0 ML
N
220.5 353.5 M
219.736 351.149 L
217.736 349.696 L
215.264 349.696 L
213.264 351.149 L
212.5 353.5 L
213.264 355.851 L
215.264 357.304 L
217.736 357.304 L
219.736 355.851 L
220.5 353.5 L
S
GR
GS
[0.75 0 0 0.75 0 0] CT
0 0.447 0.741 RC
2 setlinecap
10.0 ML
N
223.5 351.5 M
222.736 349.149 L
220.736 347.696 L
218.264 347.696 L
216.264 349.149 L
215.5 351.5 L
216.264 353.851 L
218.264 355.304 L
220.736 355.304 L
222.736 353.851 L
223.5 351.5 L
S
GR
GS
[0.75 0 0 0.75 0 0] CT
0 0.447 0.741 RC
2 setlinecap
10.0 ML
N
226.5 335.5 M
225.736 333.149 L
223.736 331.696 L
221.264 331.696 L
219.264 333.149 L
218.5 335.5 L
219.264 337.851 L
221.264 339.304 L
223.736 339.304 L
225.736 337.851 L
226.5 335.5 L
S
GR
GS
[0.75 0 0 0.75 0 0] CT
0 0.447 0.741 RC
2 setlinecap
10.0 ML
N
229.5 342.5 M
228.736 340.149 L
226.736 338.696 L
224.264 338.696 L
222.264 340.149 L
221.5 342.5 L
222.264 344.851 L
224.264 346.304 L
226.736 346.304 L
228.736 344.851 L
229.5 342.5 L
S
GR
GS
[0.75 0 0 0.75 0 0] CT
0 0.447 0.741 RC
2 setlinecap
10.0 ML
N
232.5 348.5 M
231.736 346.149 L
229.736 344.696 L
227.264 344.696 L
225.264 346.149 L
224.5 348.5 L
225.264 350.851 L
227.264 352.304 L
229.736 352.304 L
231.736 350.851 L
232.5 348.5 L
S
GR
GS
[0.75 0 0 0.75 0 0] CT
0 0.447 0.741 RC
2 setlinecap
10.0 ML
N
236.5 344.5 M
235.736 342.149 L
233.736 340.696 L
231.264 340.696 L
229.264 342.149 L
228.5 344.5 L
229.264 346.851 L
231.264 348.304 L
233.736 348.304 L
235.736 346.851 L
236.5 344.5 L
S
GR
GS
[0.75 0 0 0.75 0 0] CT
0 0.447 0.741 RC
2 setlinecap
10.0 ML
N
239.5 362.5 M
238.736 360.149 L
236.736 358.696 L
234.264 358.696 L
232.264 360.149 L
231.5 362.5 L
232.264 364.851 L
234.264 366.304 L
236.736 366.304 L
238.736 364.851 L
239.5 362.5 L
S
GR
GS
[0.75 0 0 0.75 0 0] CT
0 0.447 0.741 RC
2 setlinecap
10.0 ML
N
242.5 352.5 M
241.736 350.149 L
239.736 348.696 L
237.264 348.696 L
235.264 350.149 L
234.5 352.5 L
235.264 354.851 L
237.264 356.304 L
239.736 356.304 L
241.736 354.851 L
242.5 352.5 L
S
GR
GS
[0.75 0 0 0.75 0 0] CT
0 0.447 0.741 RC
2 setlinecap
10.0 ML
N
245.5 303.5 M
244.736 301.149 L
242.736 299.696 L
240.264 299.696 L
238.264 301.149 L
237.5 303.5 L
238.264 305.851 L
240.264 307.304 L
242.736 307.304 L
244.736 305.851 L
245.5 303.5 L
S
GR
GS
[0.75 0 0 0.75 0 0] CT
0 0.447 0.741 RC
2 setlinecap
10.0 ML
N
248.5 298.5 M
247.736 296.149 L
245.736 294.696 L
243.264 294.696 L
241.264 296.149 L
240.5 298.5 L
241.264 300.851 L
243.264 302.304 L
245.736 302.304 L
247.736 300.851 L
248.5 298.5 L
S
GR
GS
[0.75 0 0 0.75 0 0] CT
0 0.447 0.741 RC
2 setlinecap
10.0 ML
N
251.5 349.5 M
250.736 347.149 L
248.736 345.696 L
246.264 345.696 L
244.264 347.149 L
243.5 349.5 L
244.264 351.851 L
246.264 353.304 L
248.736 353.304 L
250.736 351.851 L
251.5 349.5 L
S
GR
GS
[0.75 0 0 0.75 0 0] CT
0 0.447 0.741 RC
2 setlinecap
10.0 ML
N
254.5 336.5 M
253.736 334.149 L
251.736 332.696 L
249.264 332.696 L
247.264 334.149 L
246.5 336.5 L
247.264 338.851 L
249.264 340.304 L
251.736 340.304 L
253.736 338.851 L
254.5 336.5 L
S
GR
GS
[0.75 0 0 0.75 0 0] CT
0 0.447 0.741 RC
2 setlinecap
10.0 ML
N
257.5 347.5 M
256.736 345.149 L
254.736 343.696 L
252.264 343.696 L
250.264 345.149 L
249.5 347.5 L
250.264 349.851 L
252.264 351.304 L
254.736 351.304 L
256.736 349.851 L
257.5 347.5 L
S
GR
GS
[0.75 0 0 0.75 0 0] CT
0 0.447 0.741 RC
2 setlinecap
10.0 ML
N
260.5 336.5 M
259.736 334.149 L
257.736 332.696 L
255.264 332.696 L
253.264 334.149 L
252.5 336.5 L
253.264 338.851 L
255.264 340.304 L
257.736 340.304 L
259.736 338.851 L
260.5 336.5 L
S
GR
GS
[0.75 0 0 0.75 0 0] CT
0 0.447 0.741 RC
2 setlinecap
10.0 ML
N
263.5 370.5 M
262.736 368.149 L
260.736 366.696 L
258.264 366.696 L
256.264 368.149 L
255.5 370.5 L
256.264 372.851 L
258.264 374.304 L
260.736 374.304 L
262.736 372.851 L
263.5 370.5 L
S
GR
GS
[0.75 0 0 0.75 0 0] CT
0 0.447 0.741 RC
2 setlinecap
10.0 ML
N
266.5 352.5 M
265.736 350.149 L
263.736 348.696 L
261.264 348.696 L
259.264 350.149 L
258.5 352.5 L
259.264 354.851 L
261.264 356.304 L
263.736 356.304 L
265.736 354.851 L
266.5 352.5 L
S
GR
GS
[0.75 0 0 0.75 0 0] CT
0 0.447 0.741 RC
2 setlinecap
10.0 ML
N
269.5 327.5 M
268.736 325.149 L
266.736 323.696 L
264.264 323.696 L
262.264 325.149 L
261.5 327.5 L
262.264 329.851 L
264.264 331.304 L
266.736 331.304 L
268.736 329.851 L
269.5 327.5 L
S
GR
GS
[0.75 0 0 0.75 0 0] CT
0 0.447 0.741 RC
2 setlinecap
10.0 ML
N
272.5 325.5 M
271.736 323.149 L
269.736 321.696 L
267.264 321.696 L
265.264 323.149 L
264.5 325.5 L
265.264 327.851 L
267.264 329.304 L
269.736 329.304 L
271.736 327.851 L
272.5 325.5 L
S
GR
GS
[0.75 0 0 0.75 0 0] CT
0 0.447 0.741 RC
2 setlinecap
10.0 ML
N
275.5 338.5 M
274.736 336.149 L
272.736 334.696 L
270.264 334.696 L
268.264 336.149 L
267.5 338.5 L
268.264 340.851 L
270.264 342.304 L
272.736 342.304 L
274.736 340.851 L
275.5 338.5 L
S
GR
GS
[0.75 0 0 0.75 0 0] CT
0 0.447 0.741 RC
2 setlinecap
10.0 ML
N
279.5 329.5 M
278.736 327.149 L
276.736 325.696 L
274.264 325.696 L
272.264 327.149 L
271.5 329.5 L
272.264 331.851 L
274.264 333.304 L
276.736 333.304 L
278.736 331.851 L
279.5 329.5 L
S
GR
GS
[0.75 0 0 0.75 0 0] CT
0 0.447 0.741 RC
2 setlinecap
10.0 ML
N
282.5 361.5 M
281.736 359.149 L
279.736 357.696 L
277.264 357.696 L
275.264 359.149 L
274.5 361.5 L
275.264 363.851 L
277.264 365.304 L
279.736 365.304 L
281.736 363.851 L
282.5 361.5 L
S
GR
GS
[0.75 0 0 0.75 0 0] CT
0 0.447 0.741 RC
2 setlinecap
10.0 ML
N
285.5 346.5 M
284.736 344.149 L
282.736 342.696 L
280.264 342.696 L
278.264 344.149 L
277.5 346.5 L
278.264 348.851 L
280.264 350.304 L
282.736 350.304 L
284.736 348.851 L
285.5 346.5 L
S
GR
GS
[0.75 0 0 0.75 0 0] CT
0 0.447 0.741 RC
2 setlinecap
10.0 ML
N
288.5 310.5 M
287.736 308.149 L
285.736 306.696 L
283.264 306.696 L
281.264 308.149 L
280.5 310.5 L
281.264 312.851 L
283.264 314.304 L
285.736 314.304 L
287.736 312.851 L
288.5 310.5 L
S
GR
GS
[0.75 0 0 0.75 0 0] CT
0 0.447 0.741 RC
2 setlinecap
10.0 ML
N
291.5 349.5 M
290.736 347.149 L
288.736 345.696 L
286.264 345.696 L
284.264 347.149 L
283.5 349.5 L
284.264 351.851 L
286.264 353.304 L
288.736 353.304 L
290.736 351.851 L
291.5 349.5 L
S
GR
GS
[0.75 0 0 0.75 0 0] CT
0 0.447 0.741 RC
2 setlinecap
10.0 ML
N
294.5 355.5 M
293.736 353.149 L
291.736 351.696 L
289.264 351.696 L
287.264 353.149 L
286.5 355.5 L
287.264 357.851 L
289.264 359.304 L
291.736 359.304 L
293.736 357.851 L
294.5 355.5 L
S
GR
GS
[0.75 0 0 0.75 0 0] CT
0 0.447 0.741 RC
2 setlinecap
10.0 ML
N
297.5 342.5 M
296.736 340.149 L
294.736 338.696 L
292.264 338.696 L
290.264 340.149 L
289.5 342.5 L
290.264 344.851 L
292.264 346.304 L
294.736 346.304 L
296.736 344.851 L
297.5 342.5 L
S
GR
GS
[0.75 0 0 0.75 0 0] CT
0 0.447 0.741 RC
2 setlinecap
10.0 ML
N
300.5 306.5 M
299.736 304.149 L
297.736 302.696 L
295.264 302.696 L
293.264 304.149 L
292.5 306.5 L
293.264 308.851 L
295.264 310.304 L
297.736 310.304 L
299.736 308.851 L
300.5 306.5 L
S
GR
GS
[0.75 0 0 0.75 0 0] CT
0 0.447 0.741 RC
2 setlinecap
10.0 ML
N
303.5 327.5 M
302.736 325.149 L
300.736 323.696 L
298.264 323.696 L
296.264 325.149 L
295.5 327.5 L
296.264 329.851 L
298.264 331.304 L
300.736 331.304 L
302.736 329.851 L
303.5 327.5 L
S
GR
GS
[0.75 0 0 0.75 0 0] CT
0 0.447 0.741 RC
2 setlinecap
10.0 ML
N
306.5 321.5 M
305.736 319.149 L
303.736 317.696 L
301.264 317.696 L
299.264 319.149 L
298.5 321.5 L
299.264 323.851 L
301.264 325.304 L
303.736 325.304 L
305.736 323.851 L
306.5 321.5 L
S
GR
GS
[0.75 0 0 0.75 0 0] CT
0 0.447 0.741 RC
2 setlinecap
10.0 ML
N
309.5 336.5 M
308.736 334.149 L
306.736 332.696 L
304.264 332.696 L
302.264 334.149 L
301.5 336.5 L
302.264 338.851 L
304.264 340.304 L
306.736 340.304 L
308.736 338.851 L
309.5 336.5 L
S
GR
GS
[0.75 0 0 0.75 0 0] CT
0 0.447 0.741 RC
2 setlinecap
10.0 ML
N
312.5 317.5 M
311.736 315.149 L
309.736 313.696 L
307.264 313.696 L
305.264 315.149 L
304.5 317.5 L
305.264 319.851 L
307.264 321.304 L
309.736 321.304 L
311.736 319.851 L
312.5 317.5 L
S
GR
GS
[0.75 0 0 0.75 0 0] CT
0 0.447 0.741 RC
2 setlinecap
10.0 ML
N
315.5 368.5 M
314.736 366.149 L
312.736 364.696 L
310.264 364.696 L
308.264 366.149 L
307.5 368.5 L
308.264 370.851 L
310.264 372.304 L
312.736 372.304 L
314.736 370.851 L
315.5 368.5 L
S
GR
GS
[0.75 0 0 0.75 0 0] CT
0 0.447 0.741 RC
2 setlinecap
10.0 ML
N
318.5 345.5 M
317.736 343.149 L
315.736 341.696 L
313.264 341.696 L
311.264 343.149 L
310.5 345.5 L
311.264 347.851 L
313.264 349.304 L
315.736 349.304 L
317.736 347.851 L
318.5 345.5 L
S
GR
GS
[0.75 0 0 0.75 0 0] CT
0 0.447 0.741 RC
2 setlinecap
10.0 ML
N
322.5 336.5 M
321.736 334.149 L
319.736 332.696 L
317.264 332.696 L
315.264 334.149 L
314.5 336.5 L
315.264 338.851 L
317.264 340.304 L
319.736 340.304 L
321.736 338.851 L
322.5 336.5 L
S
GR
GS
[0.75 0 0 0.75 0 0] CT
0 0.447 0.741 RC
2 setlinecap
10.0 ML
N
325.5 322.5 M
324.736 320.149 L
322.736 318.696 L
320.264 318.696 L
318.264 320.149 L
317.5 322.5 L
318.264 324.851 L
320.264 326.304 L
322.736 326.304 L
324.736 324.851 L
325.5 322.5 L
S
GR
GS
[0.75 0 0 0.75 0 0] CT
0 0.447 0.741 RC
2 setlinecap
10.0 ML
N
328.5 343.5 M
327.736 341.149 L
325.736 339.696 L
323.264 339.696 L
321.264 341.149 L
320.5 343.5 L
321.264 345.851 L
323.264 347.304 L
325.736 347.304 L
327.736 345.851 L
328.5 343.5 L
S
GR
GS
[0.75 0 0 0.75 0 0] CT
0 0.447 0.741 RC
2 setlinecap
10.0 ML
N
331.5 332.5 M
330.736 330.149 L
328.736 328.696 L
326.264 328.696 L
324.264 330.149 L
323.5 332.5 L
324.264 334.851 L
326.264 336.304 L
328.736 336.304 L
330.736 334.851 L
331.5 332.5 L
S
GR
GS
[0.75 0 0 0.75 0 0] CT
0 0.447 0.741 RC
2 setlinecap
10.0 ML
N
334.5 319.5 M
333.736 317.149 L
331.736 315.696 L
329.264 315.696 L
327.264 317.149 L
326.5 319.5 L
327.264 321.851 L
329.264 323.304 L
331.736 323.304 L
333.736 321.851 L
334.5 319.5 L
S
GR
GS
[0.75 0 0 0.75 0 0] CT
0 0.447 0.741 RC
2 setlinecap
10.0 ML
N
337.5 273.5 M
336.736 271.149 L
334.736 269.696 L
332.264 269.696 L
330.264 271.149 L
329.5 273.5 L
330.264 275.851 L
332.264 277.304 L
334.736 277.304 L
336.736 275.851 L
337.5 273.5 L
S
GR
GS
[0.75 0 0 0.75 0 0] CT
0 0.447 0.741 RC
2 setlinecap
10.0 ML
N
340.5 276.5 M
339.736 274.149 L
337.736 272.696 L
335.264 272.696 L
333.264 274.149 L
332.5 276.5 L
333.264 278.851 L
335.264 280.304 L
337.736 280.304 L
339.736 278.851 L
340.5 276.5 L
S
GR
GS
[0.75 0 0 0.75 0 0] CT
0 0.447 0.741 RC
2 setlinecap
10.0 ML
N
343.5 301.5 M
342.736 299.149 L
340.736 297.696 L
338.264 297.696 L
336.264 299.149 L
335.5 301.5 L
336.264 303.851 L
338.264 305.304 L
340.736 305.304 L
342.736 303.851 L
343.5 301.5 L
S
GR
GS
[0.75 0 0 0.75 0 0] CT
0 0.447 0.741 RC
2 setlinecap
10.0 ML
N
346.5 337.5 M
345.736 335.149 L
343.736 333.696 L
341.264 333.696 L
339.264 335.149 L
338.5 337.5 L
339.264 339.851 L
341.264 341.304 L
343.736 341.304 L
345.736 339.851 L
346.5 337.5 L
S
GR
GS
[0.75 0 0 0.75 0 0] CT
0 0.447 0.741 RC
2 setlinecap
10.0 ML
N
349.5 319.5 M
348.736 317.149 L
346.736 315.696 L
344.264 315.696 L
342.264 317.149 L
341.5 319.5 L
342.264 321.851 L
344.264 323.304 L
346.736 323.304 L
348.736 321.851 L
349.5 319.5 L
S
GR
GS
[0.75 0 0 0.75 0 0] CT
0 0.447 0.741 RC
2 setlinecap
10.0 ML
N
352.5 295.5 M
351.736 293.149 L
349.736 291.696 L
347.264 291.696 L
345.264 293.149 L
344.5 295.5 L
345.264 297.851 L
347.264 299.304 L
349.736 299.304 L
351.736 297.851 L
352.5 295.5 L
S
GR
GS
[0.75 0 0 0.75 0 0] CT
0 0.447 0.741 RC
2 setlinecap
10.0 ML
N
355.5 324.5 M
354.736 322.149 L
352.736 320.696 L
350.264 320.696 L
348.264 322.149 L
347.5 324.5 L
348.264 326.851 L
350.264 328.304 L
352.736 328.304 L
354.736 326.851 L
355.5 324.5 L
S
GR
GS
[0.75 0 0 0.75 0 0] CT
0 0.447 0.741 RC
2 setlinecap
10.0 ML
N
358.5 358.5 M
357.736 356.149 L
355.736 354.696 L
353.264 354.696 L
351.264 356.149 L
350.5 358.5 L
351.264 360.851 L
353.264 362.304 L
355.736 362.304 L
357.736 360.851 L
358.5 358.5 L
S
GR
GS
[0.75 0 0 0.75 0 0] CT
0 0.447 0.741 RC
2 setlinecap
10.0 ML
N
361.5 325.5 M
360.736 323.149 L
358.736 321.696 L
356.264 321.696 L
354.264 323.149 L
353.5 325.5 L
354.264 327.851 L
356.264 329.304 L
358.736 329.304 L
360.736 327.851 L
361.5 325.5 L
S
GR
GS
[0.75 0 0 0.75 0 0] CT
0 0.447 0.741 RC
2 setlinecap
10.0 ML
N
365.5 336.5 M
364.736 334.149 L
362.736 332.696 L
360.264 332.696 L
358.264 334.149 L
357.5 336.5 L
358.264 338.851 L
360.264 340.304 L
362.736 340.304 L
364.736 338.851 L
365.5 336.5 L
S
GR
GS
[0.75 0 0 0.75 0 0] CT
0 0.447 0.741 RC
2 setlinecap
10.0 ML
N
368.5 319.5 M
367.736 317.149 L
365.736 315.696 L
363.264 315.696 L
361.264 317.149 L
360.5 319.5 L
361.264 321.851 L
363.264 323.304 L
365.736 323.304 L
367.736 321.851 L
368.5 319.5 L
S
GR
GS
[0.75 0 0 0.75 0 0] CT
0 0.447 0.741 RC
2 setlinecap
10.0 ML
N
371.5 357.5 M
370.736 355.149 L
368.736 353.696 L
366.264 353.696 L
364.264 355.149 L
363.5 357.5 L
364.264 359.851 L
366.264 361.304 L
368.736 361.304 L
370.736 359.851 L
371.5 357.5 L
S
GR
GS
[0.75 0 0 0.75 0 0] CT
0 0.447 0.741 RC
2 setlinecap
10.0 ML
N
374.5 310.5 M
373.736 308.149 L
371.736 306.696 L
369.264 306.696 L
367.264 308.149 L
366.5 310.5 L
367.264 312.851 L
369.264 314.304 L
371.736 314.304 L
373.736 312.851 L
374.5 310.5 L
S
GR
GS
[0.75 0 0 0.75 0 0] CT
0 0.447 0.741 RC
2 setlinecap
10.0 ML
N
377.5 356.5 M
376.736 354.149 L
374.736 352.696 L
372.264 352.696 L
370.264 354.149 L
369.5 356.5 L
370.264 358.851 L
372.264 360.304 L
374.736 360.304 L
376.736 358.851 L
377.5 356.5 L
S
GR
GS
[0.75 0 0 0.75 0 0] CT
0 0.447 0.741 RC
2 setlinecap
10.0 ML
N
380.5 305.5 M
379.736 303.149 L
377.736 301.696 L
375.264 301.696 L
373.264 303.149 L
372.5 305.5 L
373.264 307.851 L
375.264 309.304 L
377.736 309.304 L
379.736 307.851 L
380.5 305.5 L
S
GR
GS
[0.75 0 0 0.75 0 0] CT
0 0.447 0.741 RC
2 setlinecap
10.0 ML
N
383.5 327.5 M
382.736 325.149 L
380.736 323.696 L
378.264 323.696 L
376.264 325.149 L
375.5 327.5 L
376.264 329.851 L
378.264 331.304 L
380.736 331.304 L
382.736 329.851 L
383.5 327.5 L
S
GR
GS
[0.75 0 0 0.75 0 0] CT
0 0.447 0.741 RC
2 setlinecap
10.0 ML
N
386.5 351.5 M
385.736 349.149 L
383.736 347.696 L
381.264 347.696 L
379.264 349.149 L
378.5 351.5 L
379.264 353.851 L
381.264 355.304 L
383.736 355.304 L
385.736 353.851 L
386.5 351.5 L
S
GR
GS
[0.75 0 0 0.75 0 0] CT
0 0.447 0.741 RC
2 setlinecap
10.0 ML
N
389.5 321.5 M
388.736 319.149 L
386.736 317.696 L
384.264 317.696 L
382.264 319.149 L
381.5 321.5 L
382.264 323.851 L
384.264 325.304 L
386.736 325.304 L
388.736 323.851 L
389.5 321.5 L
S
GR
GS
[0.75 0 0 0.75 0 0] CT
0 0.447 0.741 RC
2 setlinecap
10.0 ML
N
392.5 315.5 M
391.736 313.149 L
389.736 311.696 L
387.264 311.696 L
385.264 313.149 L
384.5 315.5 L
385.264 317.851 L
387.264 319.304 L
389.736 319.304 L
391.736 317.851 L
392.5 315.5 L
S
GR
GS
[0.75 0 0 0.75 0 0] CT
0 0.447 0.741 RC
2 setlinecap
10.0 ML
N
395.5 337.5 M
394.736 335.149 L
392.736 333.696 L
390.264 333.696 L
388.264 335.149 L
387.5 337.5 L
388.264 339.851 L
390.264 341.304 L
392.736 341.304 L
394.736 339.851 L
395.5 337.5 L
S
GR
GS
[0.75 0 0 0.75 0 0] CT
0 0.447 0.741 RC
2 setlinecap
10.0 ML
N
398.5 329.5 M
397.736 327.149 L
395.736 325.696 L
393.264 325.696 L
391.264 327.149 L
390.5 329.5 L
391.264 331.851 L
393.264 333.304 L
395.736 333.304 L
397.736 331.851 L
398.5 329.5 L
S
GR
GS
[0.75 0 0 0.75 0 0] CT
0 0.447 0.741 RC
2 setlinecap
10.0 ML
N
401.5 338.5 M
400.736 336.149 L
398.736 334.696 L
396.264 334.696 L
394.264 336.149 L
393.5 338.5 L
394.264 340.851 L
396.264 342.304 L
398.736 342.304 L
400.736 340.851 L
401.5 338.5 L
S
GR
GS
[0.75 0 0 0.75 0 0] CT
0 0.447 0.741 RC
2 setlinecap
10.0 ML
N
404.5 346.5 M
403.736 344.149 L
401.736 342.696 L
399.264 342.696 L
397.264 344.149 L
396.5 346.5 L
397.264 348.851 L
399.264 350.304 L
401.736 350.304 L
403.736 348.851 L
404.5 346.5 L
S
GR
GS
[0.75 0 0 0.75 0 0] CT
0 0.447 0.741 RC
2 setlinecap
10.0 ML
N
408.5 318.5 M
407.736 316.149 L
405.736 314.696 L
403.264 314.696 L
401.264 316.149 L
400.5 318.5 L
401.264 320.851 L
403.264 322.304 L
405.736 322.304 L
407.736 320.851 L
408.5 318.5 L
S
GR
GS
[0.75 0 0 0.75 0 0] CT
0 0.447 0.741 RC
2 setlinecap
10.0 ML
N
411.5 328.5 M
410.736 326.149 L
408.736 324.696 L
406.264 324.696 L
404.264 326.149 L
403.5 328.5 L
404.264 330.851 L
406.264 332.304 L
408.736 332.304 L
410.736 330.851 L
411.5 328.5 L
S
GR
GS
[0.75 0 0 0.75 0 0] CT
0 0.447 0.741 RC
2 setlinecap
10.0 ML
N
414.5 335.5 M
413.736 333.149 L
411.736 331.696 L
409.264 331.696 L
407.264 333.149 L
406.5 335.5 L
407.264 337.851 L
409.264 339.304 L
411.736 339.304 L
413.736 337.851 L
414.5 335.5 L
S
GR
GS
[0.75 0 0 0.75 0 0] CT
0 0.447 0.741 RC
2 setlinecap
10.0 ML
N
417.5 336.5 M
416.736 334.149 L
414.736 332.696 L
412.264 332.696 L
410.264 334.149 L
409.5 336.5 L
410.264 338.851 L
412.264 340.304 L
414.736 340.304 L
416.736 338.851 L
417.5 336.5 L
S
GR
GS
[0.75 0 0 0.75 0 0] CT
0 0.447 0.741 RC
2 setlinecap
10.0 ML
N
420.5 367.5 M
419.736 365.149 L
417.736 363.696 L
415.264 363.696 L
413.264 365.149 L
412.5 367.5 L
413.264 369.851 L
415.264 371.304 L
417.736 371.304 L
419.736 369.851 L
420.5 367.5 L
S
GR
GS
[0.75 0 0 0.75 0 0] CT
0 0.447 0.741 RC
2 setlinecap
10.0 ML
N
423.5 332.5 M
422.736 330.149 L
420.736 328.696 L
418.264 328.696 L
416.264 330.149 L
415.5 332.5 L
416.264 334.851 L
418.264 336.304 L
420.736 336.304 L
422.736 334.851 L
423.5 332.5 L
S
GR
GS
[0.75 0 0 0.75 0 0] CT
0 0.447 0.741 RC
2 setlinecap
10.0 ML
N
426.5 352.5 M
425.736 350.149 L
423.736 348.696 L
421.264 348.696 L
419.264 350.149 L
418.5 352.5 L
419.264 354.851 L
421.264 356.304 L
423.736 356.304 L
425.736 354.851 L
426.5 352.5 L
S
GR
GS
[0.75 0 0 0.75 0 0] CT
0 0.447 0.741 RC
2 setlinecap
10.0 ML
N
429.5 337.5 M
428.736 335.149 L
426.736 333.696 L
424.264 333.696 L
422.264 335.149 L
421.5 337.5 L
422.264 339.851 L
424.264 341.304 L
426.736 341.304 L
428.736 339.851 L
429.5 337.5 L
S
GR
GS
[0.75 0 0 0.75 0 0] CT
0 0.447 0.741 RC
2 setlinecap
10.0 ML
N
432.5 321.5 M
431.736 319.149 L
429.736 317.696 L
427.264 317.696 L
425.264 319.149 L
424.5 321.5 L
425.264 323.851 L
427.264 325.304 L
429.736 325.304 L
431.736 323.851 L
432.5 321.5 L
S
GR
GS
[0.75 0 0 0.75 0 0] CT
0 0.447 0.741 RC
2 setlinecap
10.0 ML
N
435.5 348.5 M
434.736 346.149 L
432.736 344.696 L
430.264 344.696 L
428.264 346.149 L
427.5 348.5 L
428.264 350.851 L
430.264 352.304 L
432.736 352.304 L
434.736 350.851 L
435.5 348.5 L
S
GR
GS
[0.75 0 0 0.75 0 0] CT
0 0.447 0.741 RC
2 setlinecap
10.0 ML
N
438.5 334.5 M
437.736 332.149 L
435.736 330.696 L
433.264 330.696 L
431.264 332.149 L
430.5 334.5 L
431.264 336.851 L
433.264 338.304 L
435.736 338.304 L
437.736 336.851 L
438.5 334.5 L
S
GR
GS
[0.75 0 0 0.75 0 0] CT
0 0.447 0.741 RC
2 setlinecap
10.0 ML
N
441.5 351.5 M
440.736 349.149 L
438.736 347.696 L
436.264 347.696 L
434.264 349.149 L
433.5 351.5 L
434.264 353.851 L
436.264 355.304 L
438.736 355.304 L
440.736 353.851 L
441.5 351.5 L
S
GR
GS
[0.75 0 0 0.75 0 0] CT
0 0.447 0.741 RC
2 setlinecap
10.0 ML
N
444.5 341.5 M
443.736 339.149 L
441.736 337.696 L
439.264 337.696 L
437.264 339.149 L
436.5 341.5 L
437.264 343.851 L
439.264 345.304 L
441.736 345.304 L
443.736 343.851 L
444.5 341.5 L
S
GR
GS
[0.75 0 0 0.75 0 0] CT
0 0.447 0.741 RC
2 setlinecap
10.0 ML
N
448.5 322.5 M
447.736 320.149 L
445.736 318.696 L
443.264 318.696 L
441.264 320.149 L
440.5 322.5 L
441.264 324.851 L
443.264 326.304 L
445.736 326.304 L
447.736 324.851 L
448.5 322.5 L
S
GR
GS
[0.75 0 0 0.75 0 0] CT
0 0.447 0.741 RC
2 setlinecap
10.0 ML
N
451.5 362.5 M
450.736 360.149 L
448.736 358.696 L
446.264 358.696 L
444.264 360.149 L
443.5 362.5 L
444.264 364.851 L
446.264 366.304 L
448.736 366.304 L
450.736 364.851 L
451.5 362.5 L
S
GR
GS
[0.75 0 0 0.75 0 0] CT
0 0.447 0.741 RC
2 setlinecap
10.0 ML
N
454.5 365.5 M
453.736 363.149 L
451.736 361.696 L
449.264 361.696 L
447.264 363.149 L
446.5 365.5 L
447.264 367.851 L
449.264 369.304 L
451.736 369.304 L
453.736 367.851 L
454.5 365.5 L
S
GR
GS
[0.75 0 0 0.75 0 0] CT
0 0.447 0.741 RC
2 setlinecap
10.0 ML
N
457.5 330.5 M
456.736 328.149 L
454.736 326.696 L
452.264 326.696 L
450.264 328.149 L
449.5 330.5 L
450.264 332.851 L
452.264 334.304 L
454.736 334.304 L
456.736 332.851 L
457.5 330.5 L
S
GR
GS
[0.75 0 0 0.75 0 0] CT
0 0.447 0.741 RC
2 setlinecap
10.0 ML
N
460.5 356.5 M
459.736 354.149 L
457.736 352.696 L
455.264 352.696 L
453.264 354.149 L
452.5 356.5 L
453.264 358.851 L
455.264 360.304 L
457.736 360.304 L
459.736 358.851 L
460.5 356.5 L
S
GR
GS
[0.75 0 0 0.75 0 0] CT
0 0.447 0.741 RC
2 setlinecap
10.0 ML
N
463.5 343.5 M
462.736 341.149 L
460.736 339.696 L
458.264 339.696 L
456.264 341.149 L
455.5 343.5 L
456.264 345.851 L
458.264 347.304 L
460.736 347.304 L
462.736 345.851 L
463.5 343.5 L
S
GR
GS
[0.75 0 0 0.75 0 0] CT
0 0.447 0.741 RC
2 setlinecap
10.0 ML
N
466.5 355.5 M
465.736 353.149 L
463.736 351.696 L
461.264 351.696 L
459.264 353.149 L
458.5 355.5 L
459.264 357.851 L
461.264 359.304 L
463.736 359.304 L
465.736 357.851 L
466.5 355.5 L
S
GR
GS
[0.75 0 0 0.75 0 0] CT
0 0.447 0.741 RC
2 setlinecap
10.0 ML
N
469.5 352.5 M
468.736 350.149 L
466.736 348.696 L
464.264 348.696 L
462.264 350.149 L
461.5 352.5 L
462.264 354.851 L
464.264 356.304 L
466.736 356.304 L
468.736 354.851 L
469.5 352.5 L
S
GR
GS
[0.75 0 0 0.75 0 0] CT
0 0.447 0.741 RC
2 setlinecap
10.0 ML
N
472.5 318.5 M
471.736 316.149 L
469.736 314.696 L
467.264 314.696 L
465.264 316.149 L
464.5 318.5 L
465.264 320.851 L
467.264 322.304 L
469.736 322.304 L
471.736 320.851 L
472.5 318.5 L
S
GR
GS
[0.75 0 0 0.75 0 0] CT
0 0.447 0.741 RC
2 setlinecap
10.0 ML
N
475.5 341.5 M
474.736 339.149 L
472.736 337.696 L
470.264 337.696 L
468.264 339.149 L
467.5 341.5 L
468.264 343.851 L
470.264 345.304 L
472.736 345.304 L
474.736 343.851 L
475.5 341.5 L
S
GR
GS
[0.75 0 0 0.75 0 0] CT
0 0.447 0.741 RC
2 setlinecap
10.0 ML
N
478.5 361.5 M
477.736 359.149 L
475.736 357.696 L
473.264 357.696 L
471.264 359.149 L
470.5 361.5 L
471.264 363.851 L
473.264 365.304 L
475.736 365.304 L
477.736 363.851 L
478.5 361.5 L
S
GR
GS
[0.75 0 0 0.75 0 0] CT
0 0.447 0.741 RC
2 setlinecap
10.0 ML
N
481.5 335.5 M
480.736 333.149 L
478.736 331.696 L
476.264 331.696 L
474.264 333.149 L
473.5 335.5 L
474.264 337.851 L
476.264 339.304 L
478.736 339.304 L
480.736 337.851 L
481.5 335.5 L
S
GR
GS
[0.75 0 0 0.75 0 0] CT
0 0.447 0.741 RC
2 setlinecap
10.0 ML
N
484.5 330.5 M
483.736 328.149 L
481.736 326.696 L
479.264 326.696 L
477.264 328.149 L
476.5 330.5 L
477.264 332.851 L
479.264 334.304 L
481.736 334.304 L
483.736 332.851 L
484.5 330.5 L
S
GR
GS
[0.75 0 0 0.75 0 0] CT
0 0.447 0.741 RC
2 setlinecap
10.0 ML
N
487.5 329.5 M
486.736 327.149 L
484.736 325.696 L
482.264 325.696 L
480.264 327.149 L
479.5 329.5 L
480.264 331.851 L
482.264 333.304 L
484.736 333.304 L
486.736 331.851 L
487.5 329.5 L
S
GR
GS
[0.75 0 0 0.75 0 0] CT
0 0.447 0.741 RC
2 setlinecap
10.0 ML
N
491.5 327.5 M
490.736 325.149 L
488.736 323.696 L
486.264 323.696 L
484.264 325.149 L
483.5 327.5 L
484.264 329.851 L
486.264 331.304 L
488.736 331.304 L
490.736 329.851 L
491.5 327.5 L
S
GR
GS
[0.75 0 0 0.75 0 0] CT
0 0.447 0.741 RC
2 setlinecap
10.0 ML
N
494.5 370.5 M
493.736 368.149 L
491.736 366.696 L
489.264 366.696 L
487.264 368.149 L
486.5 370.5 L
487.264 372.851 L
489.264 374.304 L
491.736 374.304 L
493.736 372.851 L
494.5 370.5 L
S
GR
GS
[0.75 0 0 0.75 0 0] CT
0 0.447 0.741 RC
2 setlinecap
10.0 ML
N
497.5 328.5 M
496.736 326.149 L
494.736 324.696 L
492.264 324.696 L
490.264 326.149 L
489.5 328.5 L
490.264 330.851 L
492.264 332.304 L
494.736 332.304 L
496.736 330.851 L
497.5 328.5 L
S
GR
GS
[0.75 0 0 0.75 0 0] CT
0 0.447 0.741 RC
2 setlinecap
10.0 ML
N
500.5 359.5 M
499.736 357.149 L
497.736 355.696 L
495.264 355.696 L
493.264 357.149 L
492.5 359.5 L
493.264 361.851 L
495.264 363.304 L
497.736 363.304 L
499.736 361.851 L
500.5 359.5 L
S
GR
GS
[0.75 0 0 0.75 0 0] CT
0 0.447 0.741 RC
2 setlinecap
10.0 ML
N
503.5 338.5 M
502.736 336.149 L
500.736 334.696 L
498.264 334.696 L
496.264 336.149 L
495.5 338.5 L
496.264 340.851 L
498.264 342.304 L
500.736 342.304 L
502.736 340.851 L
503.5 338.5 L
S
GR
GS
[0.75 0 0 0.75 0 0] CT
0 0.447 0.741 RC
2 setlinecap
10.0 ML
N
506.5 321.5 M
505.736 319.149 L
503.736 317.696 L
501.264 317.696 L
499.264 319.149 L
498.5 321.5 L
499.264 323.851 L
501.264 325.304 L
503.736 325.304 L
505.736 323.851 L
506.5 321.5 L
S
GR
GS
[0.75 0 0 0.75 0 0] CT
0 0.447 0.741 RC
2 setlinecap
10.0 ML
N
509.5 347.5 M
508.736 345.149 L
506.736 343.696 L
504.264 343.696 L
502.264 345.149 L
501.5 347.5 L
502.264 349.851 L
504.264 351.304 L
506.736 351.304 L
508.736 349.851 L
509.5 347.5 L
S
GR
GS
[0.75 0 0 0.75 0 0] CT
0 0.447 0.741 RC
2 setlinecap
10.0 ML
N
75.304 374 M
75.304 95.838 L
S
GR
GS
[0.75 0 0 0.75 0 0] CT
0 0.447 0.741 RC
2 setlinecap
10.0 ML
N
78.377 374 M
78.377 205.778 L
S
GR
GS
[0.75 0 0 0.75 0 0] CT
0 0.447 0.741 RC
2 setlinecap
10.0 ML
N
81.45 374 M
81.45 345.616 L
S
GR
GS
[0.75 0 0 0.75 0 0] CT
0 0.447 0.741 RC
2 setlinecap
10.0 ML
N
84.522 374 M
84.522 351.337 L
S
GR
GS
[0.75 0 0 0.75 0 0] CT
0 0.447 0.741 RC
2 setlinecap
10.0 ML
N
87.595 374 M
87.595 324.456 L
S
GR
GS
[0.75 0 0 0.75 0 0] CT
0 0.447 0.741 RC
2 setlinecap
10.0 ML
N
90.667 374 M
90.667 238.384 L
S
GR
GS
[0.75 0 0 0.75 0 0] CT
0 0.447 0.741 RC
2 setlinecap
10.0 ML
N
93.74 374 M
93.74 202.139 L
S
GR
GS
[0.75 0 0 0.75 0 0] CT
0 0.447 0.741 RC
2 setlinecap
10.0 ML
N
96.812 374 M
96.812 337.031 L
S
GR
GS
[0.75 0 0 0.75 0 0] CT
0 0.447 0.741 RC
2 setlinecap
10.0 ML
N
99.885 374 M
99.885 305.761 L
S
GR
GS
[0.75 0 0 0.75 0 0] CT
0 0.447 0.741 RC
2 setlinecap
10.0 ML
N
102.958 374 M
102.958 285.192 L
S
GR
GS
[0.75 0 0 0.75 0 0] CT
0 0.447 0.741 RC
2 setlinecap
10.0 ML
N
106.03 374 M
106.03 315.365 L
S
GR
GS
[0.75 0 0 0.75 0 0] CT
0 0.447 0.741 RC
2 setlinecap
10.0 ML
N
109.103 374 M
109.103 356.847 L
S
GR
GS
[0.75 0 0 0.75 0 0] CT
0 0.447 0.741 RC
2 setlinecap
10.0 ML
N
112.175 374 M
112.175 252.316 L
S
GR
GS
[0.75 0 0 0.75 0 0] CT
0 0.447 0.741 RC
2 setlinecap
10.0 ML
N
115.248 374 M
115.248 276.475 L
S
GR
GS
[0.75 0 0 0.75 0 0] CT
0 0.447 0.741 RC
2 setlinecap
10.0 ML
N
118.32 374 M
118.32 303.009 L
S
GR
GS
[0.75 0 0 0.75 0 0] CT
0 0.447 0.741 RC
2 setlinecap
10.0 ML
N
121.393 374 M
121.393 332.063 L
S
GR
GS
[0.75 0 0 0.75 0 0] CT
0 0.447 0.741 RC
2 setlinecap
10.0 ML
N
124.465 374 M
124.465 352.505 L
S
GR
GS
[0.75 0 0 0.75 0 0] CT
0 0.447 0.741 RC
2 setlinecap
10.0 ML
N
127.538 374 M
127.538 350.191 L
S
GR
GS
[0.75 0 0 0.75 0 0] CT
0 0.447 0.741 RC
2 setlinecap
10.0 ML
N
130.611 374 M
130.611 353.255 L
S
GR
GS
[0.75 0 0 0.75 0 0] CT
0 0.447 0.741 RC
2 setlinecap
10.0 ML
N
133.683 374 M
133.683 331.809 L
S
GR
GS
[0.75 0 0 0.75 0 0] CT
0 0.447 0.741 RC
2 setlinecap
10.0 ML
N
136.756 374 M
136.756 326.912 L
S
GR
GS
[0.75 0 0 0.75 0 0] CT
0 0.447 0.741 RC
2 setlinecap
10.0 ML
N
139.828 374 M
139.828 339.653 L
S
GR
GS
[0.75 0 0 0.75 0 0] CT
0 0.447 0.741 RC
2 setlinecap
10.0 ML
N
142.901 374 M
142.901 309.131 L
S
GR
GS
[0.75 0 0 0.75 0 0] CT
0 0.447 0.741 RC
2 setlinecap
10.0 ML
N
145.973 374 M
145.973 363.384 L
S
GR
GS
[0.75 0 0 0.75 0 0] CT
0 0.447 0.741 RC
2 setlinecap
10.0 ML
N
149.046 374 M
149.046 319.018 L
S
GR
GS
[0.75 0 0 0.75 0 0] CT
0 0.447 0.741 RC
2 setlinecap
10.0 ML
N
152.119 374 M
152.119 345.647 L
S
GR
GS
[0.75 0 0 0.75 0 0] CT
0 0.447 0.741 RC
2 setlinecap
10.0 ML
N
155.191 374 M
155.191 338.368 L
S
GR
GS
[0.75 0 0 0.75 0 0] CT
0 0.447 0.741 RC
2 setlinecap
10.0 ML
N
158.264 374 M
158.264 353.067 L
S
GR
GS
[0.75 0 0 0.75 0 0] CT
0 0.447 0.741 RC
2 setlinecap
10.0 ML
N
161.336 374 M
161.336 305.748 L
S
GR
GS
[0.75 0 0 0.75 0 0] CT
0 0.447 0.741 RC
2 setlinecap
10.0 ML
N
164.409 374 M
164.409 352.367 L
S
GR
GS
[0.75 0 0 0.75 0 0] CT
0 0.447 0.741 RC
2 setlinecap
10.0 ML
N
167.481 374 M
167.481 252.608 L
S
GR
GS
[0.75 0 0 0.75 0 0] CT
0 0.447 0.741 RC
2 setlinecap
10.0 ML
N
170.554 374 M
170.554 57.975 L
S
GR
GS
[0.75 0 0 0.75 0 0] CT
0 0.447 0.741 RC
2 setlinecap
10.0 ML
N
173.627 374 M
173.627 232.361 L
S
GR
GS
[0.75 0 0 0.75 0 0] CT
0 0.447 0.741 RC
2 setlinecap
10.0 ML
N
176.699 374 M
176.699 261.523 L
S
GR
GS
[0.75 0 0 0.75 0 0] CT
0 0.447 0.741 RC
2 setlinecap
10.0 ML
N
179.772 374 M
179.772 276.719 L
S
GR
GS
[0.75 0 0 0.75 0 0] CT
0 0.447 0.741 RC
2 setlinecap
10.0 ML
N
182.844 374 M
182.844 346.707 L
S
GR
GS
[0.75 0 0 0.75 0 0] CT
0 0.447 0.741 RC
2 setlinecap
10.0 ML
N
185.917 374 M
185.917 351.567 L
S
GR
GS
[0.75 0 0 0.75 0 0] CT
0 0.447 0.741 RC
2 setlinecap
10.0 ML
N
188.989 374 M
188.989 360.374 L
S
GR
GS
[0.75 0 0 0.75 0 0] CT
0 0.447 0.741 RC
2 setlinecap
10.0 ML
N
192.062 374 M
192.062 334.491 L
S
GR
GS
[0.75 0 0 0.75 0 0] CT
0 0.447 0.741 RC
2 setlinecap
10.0 ML
N
195.135 374 M
195.135 344.537 L
S
GR
GS
[0.75 0 0 0.75 0 0] CT
0 0.447 0.741 RC
2 setlinecap
10.0 ML
N
198.207 374 M
198.207 288.524 L
S
GR
GS
[0.75 0 0 0.75 0 0] CT
0 0.447 0.741 RC
2 setlinecap
10.0 ML
N
201.28 374 M
201.28 338.84 L
S
GR
GS
[0.75 0 0 0.75 0 0] CT
0 0.447 0.741 RC
2 setlinecap
10.0 ML
N
204.352 374 M
204.352 330.897 L
S
GR
GS
[0.75 0 0 0.75 0 0] CT
0 0.447 0.741 RC
2 setlinecap
10.0 ML
N
207.425 374 M
207.425 302.262 L
S
GR
GS
[0.75 0 0 0.75 0 0] CT
0 0.447 0.741 RC
2 setlinecap
10.0 ML
N
210.497 374 M
210.497 353.379 L
S
GR
GS
[0.75 0 0 0.75 0 0] CT
0 0.447 0.741 RC
2 setlinecap
10.0 ML
N
213.57 374 M
213.57 334.542 L
S
GR
GS
[0.75 0 0 0.75 0 0] CT
0 0.447 0.741 RC
2 setlinecap
10.0 ML
N
216.642 374 M
216.642 353.342 L
S
GR
GS
[0.75 0 0 0.75 0 0] CT
0 0.447 0.741 RC
2 setlinecap
10.0 ML
N
219.715 374 M
219.715 351.203 L
S
GR
GS
[0.75 0 0 0.75 0 0] CT
0 0.447 0.741 RC
2 setlinecap
10.0 ML
N
222.788 374 M
222.788 335.88 L
S
GR
GS
[0.75 0 0 0.75 0 0] CT
0 0.447 0.741 RC
2 setlinecap
10.0 ML
N
225.86 374 M
225.86 342.623 L
S
GR
GS
[0.75 0 0 0.75 0 0] CT
0 0.447 0.741 RC
2 setlinecap
10.0 ML
N
228.933 374 M
228.933 348.795 L
S
GR
GS
[0.75 0 0 0.75 0 0] CT
0 0.447 0.741 RC
2 setlinecap
10.0 ML
N
232.005 374 M
232.005 344.058 L
S
GR
GS
[0.75 0 0 0.75 0 0] CT
0 0.447 0.741 RC
2 setlinecap
10.0 ML
N
235.078 374 M
235.078 362.364 L
S
GR
GS
[0.75 0 0 0.75 0 0] CT
0 0.447 0.741 RC
2 setlinecap
10.0 ML
N
238.15 374 M
238.15 352.728 L
S
GR
GS
[0.75 0 0 0.75 0 0] CT
0 0.447 0.741 RC
2 setlinecap
10.0 ML
N
241.223 374 M
241.223 303.668 L
S
GR
GS
[0.75 0 0 0.75 0 0] CT
0 0.447 0.741 RC
2 setlinecap
10.0 ML
N
244.296 374 M
244.296 298.294 L
S
GR
GS
[0.75 0 0 0.75 0 0] CT
0 0.447 0.741 RC
2 setlinecap
10.0 ML
N
247.368 374 M
247.368 349.708 L
S
GR
GS
[0.75 0 0 0.75 0 0] CT
0 0.447 0.741 RC
2 setlinecap
10.0 ML
N
250.441 374 M
250.441 336.342 L
S
GR
GS
[0.75 0 0 0.75 0 0] CT
0 0.447 0.741 RC
2 setlinecap
10.0 ML
N
253.513 374 M
253.513 347.426 L
S
GR
GS
[0.75 0 0 0.75 0 0] CT
0 0.447 0.741 RC
2 setlinecap
10.0 ML
N
256.586 374 M
256.586 336.537 L
S
GR
GS
[0.75 0 0 0.75 0 0] CT
0 0.447 0.741 RC
2 setlinecap
10.0 ML
N
259.658 374 M
259.658 370.505 L
S
GR
GS
[0.75 0 0 0.75 0 0] CT
0 0.447 0.741 RC
2 setlinecap
10.0 ML
N
262.731 374 M
262.731 352.845 L
S
GR
GS
[0.75 0 0 0.75 0 0] CT
0 0.447 0.741 RC
2 setlinecap
10.0 ML
N
265.804 374 M
265.804 327.414 L
S
GR
GS
[0.75 0 0 0.75 0 0] CT
0 0.447 0.741 RC
2 setlinecap
10.0 ML
N
268.876 374 M
268.876 325.283 L
S
GR
GS
[0.75 0 0 0.75 0 0] CT
0 0.447 0.741 RC
2 setlinecap
10.0 ML
N
271.949 374 M
271.949 338.802 L
S
GR
GS
[0.75 0 0 0.75 0 0] CT
0 0.447 0.741 RC
2 setlinecap
10.0 ML
N
275.021 374 M
275.021 329.402 L
S
GR
GS
[0.75 0 0 0.75 0 0] CT
0 0.447 0.741 RC
2 setlinecap
10.0 ML
N
278.094 374 M
278.094 361.71 L
S
GR
GS
[0.75 0 0 0.75 0 0] CT
0 0.447 0.741 RC
2 setlinecap
10.0 ML
N
281.166 374 M
281.166 346.468 L
S
GR
GS
[0.75 0 0 0.75 0 0] CT
0 0.447 0.741 RC
2 setlinecap
10.0 ML
N
284.239 374 M
284.239 310.353 L
S
GR
GS
[0.75 0 0 0.75 0 0] CT
0 0.447 0.741 RC
2 setlinecap
10.0 ML
N
287.311 374 M
287.311 349.044 L
S
GR
GS
[0.75 0 0 0.75 0 0] CT
0 0.447 0.741 RC
2 setlinecap
10.0 ML
N
290.384 374 M
290.384 355.123 L
S
GR
GS
[0.75 0 0 0.75 0 0] CT
0 0.447 0.741 RC
2 setlinecap
10.0 ML
N
293.457 374 M
293.457 342.134 L
S
GR
GS
[0.75 0 0 0.75 0 0] CT
0 0.447 0.741 RC
2 setlinecap
10.0 ML
N
296.529 374 M
296.529 306.235 L
S
GR
GS
[0.75 0 0 0.75 0 0] CT
0 0.447 0.741 RC
2 setlinecap
10.0 ML
N
299.602 374 M
299.602 327.475 L
S
GR
GS
[0.75 0 0 0.75 0 0] CT
0 0.447 0.741 RC
2 setlinecap
10.0 ML
N
302.674 374 M
302.674 321.955 L
S
GR
GS
[0.75 0 0 0.75 0 0] CT
0 0.447 0.741 RC
2 setlinecap
10.0 ML
N
305.747 374 M
305.747 336.253 L
S
GR
GS
[0.75 0 0 0.75 0 0] CT
0 0.447 0.741 RC
2 setlinecap
10.0 ML
N
308.819 374 M
308.819 317.601 L
S
GR
GS
[0.75 0 0 0.75 0 0] CT
0 0.447 0.741 RC
2 setlinecap
10.0 ML
N
311.892 374 M
311.892 368.902 L
S
GR
GS
[0.75 0 0 0.75 0 0] CT
0 0.447 0.741 RC
2 setlinecap
10.0 ML
N
314.965 374 M
314.965 345.132 L
S
GR
GS
[0.75 0 0 0.75 0 0] CT
0 0.447 0.741 RC
2 setlinecap
10.0 ML
N
318.037 374 M
318.037 336.684 L
S
GR
GS
[0.75 0 0 0.75 0 0] CT
0 0.447 0.741 RC
2 setlinecap
10.0 ML
N
321.11 374 M
321.11 322.399 L
S
GR
GS
[0.75 0 0 0.75 0 0] CT
0 0.447 0.741 RC
2 setlinecap
10.0 ML
N
324.182 374 M
324.182 343.482 L
S
GR
GS
[0.75 0 0 0.75 0 0] CT
0 0.447 0.741 RC
2 setlinecap
10.0 ML
N
327.255 374 M
327.255 332.481 L
S
GR
GS
[0.75 0 0 0.75 0 0] CT
0 0.447 0.741 RC
2 setlinecap
10.0 ML
N
330.327 374 M
330.327 319.959 L
S
GR
GS
[0.75 0 0 0.75 0 0] CT
0 0.447 0.741 RC
2 setlinecap
10.0 ML
N
333.4 374 M
333.4 273.259 L
S
GR
GS
[0.75 0 0 0.75 0 0] CT
0 0.447 0.741 RC
2 setlinecap
10.0 ML
N
336.473 374 M
336.473 276.64 L
S
GR
GS
[0.75 0 0 0.75 0 0] CT
0 0.447 0.741 RC
2 setlinecap
10.0 ML
N
339.545 374 M
339.545 301.64 L
S
GR
GS
[0.75 0 0 0.75 0 0] CT
0 0.447 0.741 RC
2 setlinecap
10.0 ML
N
342.618 374 M
342.618 337.646 L
S
GR
GS
[0.75 0 0 0.75 0 0] CT
0 0.447 0.741 RC
2 setlinecap
10.0 ML
N
345.69 374 M
345.69 319.097 L
S
GR
GS
[0.75 0 0 0.75 0 0] CT
0 0.447 0.741 RC
2 setlinecap
10.0 ML
N
348.763 374 M
348.763 295.631 L
S
GR
GS
[0.75 0 0 0.75 0 0] CT
0 0.447 0.741 RC
2 setlinecap
10.0 ML
N
351.835 374 M
351.835 324.388 L
S
GR
GS
[0.75 0 0 0.75 0 0] CT
0 0.447 0.741 RC
2 setlinecap
10.0 ML
N
354.908 374 M
354.908 358.675 L
S
GR
GS
[0.75 0 0 0.75 0 0] CT
0 0.447 0.741 RC
2 setlinecap
10.0 ML
N
357.981 374 M
357.981 325.638 L
S
GR
GS
[0.75 0 0 0.75 0 0] CT
0 0.447 0.741 RC
2 setlinecap
10.0 ML
N
361.053 374 M
361.053 336.804 L
S
GR
GS
[0.75 0 0 0.75 0 0] CT
0 0.447 0.741 RC
2 setlinecap
10.0 ML
N
364.126 374 M
364.126 319.047 L
S
GR
GS
[0.75 0 0 0.75 0 0] CT
0 0.447 0.741 RC
2 setlinecap
10.0 ML
N
367.198 374 M
367.198 357.818 L
S
GR
GS
[0.75 0 0 0.75 0 0] CT
0 0.447 0.741 RC
2 setlinecap
10.0 ML
N
370.271 374 M
370.271 310.195 L
S
GR
GS
[0.75 0 0 0.75 0 0] CT
0 0.447 0.741 RC
2 setlinecap
10.0 ML
N
373.343 374 M
373.343 356.103 L
S
GR
GS
[0.75 0 0 0.75 0 0] CT
0 0.447 0.741 RC
2 setlinecap
10.0 ML
N
376.416 374 M
376.416 305.758 L
S
GR
GS
[0.75 0 0 0.75 0 0] CT
0 0.447 0.741 RC
2 setlinecap
10.0 ML
N
379.488 374 M
379.488 327.852 L
S
GR
GS
[0.75 0 0 0.75 0 0] CT
0 0.447 0.741 RC
2 setlinecap
10.0 ML
N
382.561 374 M
382.561 351.823 L
S
GR
GS
[0.75 0 0 0.75 0 0] CT
0 0.447 0.741 RC
2 setlinecap
10.0 ML
N
385.634 374 M
385.634 321.705 L
S
GR
GS
[0.75 0 0 0.75 0 0] CT
0 0.447 0.741 RC
2 setlinecap
10.0 ML
N
388.706 374 M
388.706 315.398 L
S
GR
GS
[0.75 0 0 0.75 0 0] CT
0 0.447 0.741 RC
2 setlinecap
10.0 ML
N
391.779 374 M
391.779 337.241 L
S
GR
GS
[0.75 0 0 0.75 0 0] CT
0 0.447 0.741 RC
2 setlinecap
10.0 ML
N
394.851 374 M
394.851 329.394 L
S
GR
GS
[0.75 0 0 0.75 0 0] CT
0 0.447 0.741 RC
2 setlinecap
10.0 ML
N
397.924 374 M
397.924 338.418 L
S
GR
GS
[0.75 0 0 0.75 0 0] CT
0 0.447 0.741 RC
2 setlinecap
10.0 ML
N
400.996 374 M
400.996 346.238 L
S
GR
GS
[0.75 0 0 0.75 0 0] CT
0 0.447 0.741 RC
2 setlinecap
10.0 ML
N
404.069 374 M
404.069 318.221 L
S
GR
GS
[0.75 0 0 0.75 0 0] CT
0 0.447 0.741 RC
2 setlinecap
10.0 ML
N
407.142 374 M
407.142 328.661 L
S
GR
GS
[0.75 0 0 0.75 0 0] CT
0 0.447 0.741 RC
2 setlinecap
10.0 ML
N
410.214 374 M
410.214 335.959 L
S
GR
GS
[0.75 0 0 0.75 0 0] CT
0 0.447 0.741 RC
2 setlinecap
10.0 ML
N
413.287 374 M
413.287 336.762 L
S
GR
GS
[0.75 0 0 0.75 0 0] CT
0 0.447 0.741 RC
2 setlinecap
10.0 ML
N
416.359 374 M
416.359 367.518 L
S
GR
GS
[0.75 0 0 0.75 0 0] CT
0 0.447 0.741 RC
2 setlinecap
10.0 ML
N
419.432 374 M
419.432 332.052 L
S
GR
GS
[0.75 0 0 0.75 0 0] CT
0 0.447 0.741 RC
2 setlinecap
10.0 ML
N
422.504 374 M
422.504 352.414 L
S
GR
GS
[0.75 0 0 0.75 0 0] CT
0 0.447 0.741 RC
2 setlinecap
10.0 ML
N
425.577 374 M
425.577 337.179 L
S
GR
GS
[0.75 0 0 0.75 0 0] CT
0 0.447 0.741 RC
2 setlinecap
10.0 ML
N
428.65 374 M
428.65 321.164 L
S
GR
GS
[0.75 0 0 0.75 0 0] CT
0 0.447 0.741 RC
2 setlinecap
10.0 ML
N
431.722 374 M
431.722 348.464 L
S
GR
GS
[0.75 0 0 0.75 0 0] CT
0 0.447 0.741 RC
2 setlinecap
10.0 ML
N
434.795 374 M
434.795 334.573 L
S
GR
GS
[0.75 0 0 0.75 0 0] CT
0 0.447 0.741 RC
2 setlinecap
10.0 ML
N
437.867 374 M
437.867 351.659 L
S
GR
GS
[0.75 0 0 0.75 0 0] CT
0 0.447 0.741 RC
2 setlinecap
10.0 ML
N
440.94 374 M
440.94 341.304 L
S
GR
GS
[0.75 0 0 0.75 0 0] CT
0 0.447 0.741 RC
2 setlinecap
10.0 ML
N
444.012 374 M
444.012 322.481 L
S
GR
GS
[0.75 0 0 0.75 0 0] CT
0 0.447 0.741 RC
2 setlinecap
10.0 ML
N
447.085 374 M
447.085 362.718 L
S
GR
GS
[0.75 0 0 0.75 0 0] CT
0 0.447 0.741 RC
2 setlinecap
10.0 ML
N
450.158 374 M
450.158 365.878 L
S
GR
GS
[0.75 0 0 0.75 0 0] CT
0 0.447 0.741 RC
2 setlinecap
10.0 ML
N
453.23 374 M
453.23 330.216 L
S
GR
GS
[0.75 0 0 0.75 0 0] CT
0 0.447 0.741 RC
2 setlinecap
10.0 ML
N
456.303 374 M
456.303 356.773 L
S
GR
GS
[0.75 0 0 0.75 0 0] CT
0 0.447 0.741 RC
2 setlinecap
10.0 ML
N
459.375 374 M
459.375 343.233 L
S
GR
GS
[0.75 0 0 0.75 0 0] CT
0 0.447 0.741 RC
2 setlinecap
10.0 ML
N
462.448 374 M
462.448 355.345 L
S
GR
GS
[0.75 0 0 0.75 0 0] CT
0 0.447 0.741 RC
2 setlinecap
10.0 ML
N
465.52 374 M
465.52 352.091 L
S
GR
GS
[0.75 0 0 0.75 0 0] CT
0 0.447 0.741 RC
2 setlinecap
10.0 ML
N
468.593 374 M
468.593 318.99 L
S
GR
GS
[0.75 0 0 0.75 0 0] CT
0 0.447 0.741 RC
2 setlinecap
10.0 ML
N
471.665 374 M
471.665 341.004 L
S
GR
GS
[0.75 0 0 0.75 0 0] CT
0 0.447 0.741 RC
2 setlinecap
10.0 ML
N
474.738 374 M
474.738 361.592 L
S
GR
GS
[0.75 0 0 0.75 0 0] CT
0 0.447 0.741 RC
2 setlinecap
10.0 ML
N
477.811 374 M
477.811 335.594 L
S
GR
GS
[0.75 0 0 0.75 0 0] CT
0 0.447 0.741 RC
2 setlinecap
10.0 ML
N
480.883 374 M
480.883 330.876 L
S
GR
GS
[0.75 0 0 0.75 0 0] CT
0 0.447 0.741 RC
2 setlinecap
10.0 ML
N
483.956 374 M
483.956 329.553 L
S
GR
GS
[0.75 0 0 0.75 0 0] CT
0 0.447 0.741 RC
2 setlinecap
10.0 ML
N
487.028 374 M
487.028 327.335 L
S
GR
GS
[0.75 0 0 0.75 0 0] CT
0 0.447 0.741 RC
2 setlinecap
10.0 ML
N
490.101 374 M
490.101 370.284 L
S
GR
GS
[0.75 0 0 0.75 0 0] CT
0 0.447 0.741 RC
2 setlinecap
10.0 ML
N
493.173 374 M
493.173 328.485 L
S
GR
GS
[0.75 0 0 0.75 0 0] CT
0 0.447 0.741 RC
2 setlinecap
10.0 ML
N
496.246 374 M
496.246 359.283 L
S
GR
GS
[0.75 0 0 0.75 0 0] CT
0 0.447 0.741 RC
2 setlinecap
10.0 ML
N
499.319 374 M
499.319 338.484 L
S
GR
GS
[0.75 0 0 0.75 0 0] CT
0 0.447 0.741 RC
2 setlinecap
10.0 ML
N
502.391 374 M
502.391 321.589 L
S
GR
GS
[0.75 0 0 0.75 0 0] CT
0 0.447 0.741 RC
2 setlinecap
10.0 ML
N
505.464 374 M
505.464 347.334 L
S
GR
GS
[0.75 0 0 0.75 217.50021 21.18749] CT
/Helvetica-Bold 15 F
GS
[1 0 0 1 0 0] CT
-144 -4 moveto 
1 -1 scale
(Single-Sided Amplitude Spectrum of y\(t\)) t 
GR
GR
GS
[0.75 0 0 0.75 0 0] CT
0.149 GC
2 setlinecap
10.0 ML
N
73 374 M
507 374 L
S
GR
%%Trailer
%%Pages: 1
%%EOF
