\relax 
\providecommand\hyper@newdestlabel[2]{}
\catcode `"\active 
\catcode `<\active 
\catcode `>\active 
\@nameuse{es@quoting}
\providecommand\HyperFirstAtBeginDocument{\AtBeginDocument}
\HyperFirstAtBeginDocument{\ifx\hyper@anchor\@undefined
\global\let\oldcontentsline\contentsline
\gdef\contentsline#1#2#3#4{\oldcontentsline{#1}{#2}{#3}}
\global\let\oldnewlabel\newlabel
\gdef\newlabel#1#2{\newlabelxx{#1}#2}
\gdef\newlabelxx#1#2#3#4#5#6{\oldnewlabel{#1}{{#2}{#3}}}
\AtEndDocument{\ifx\hyper@anchor\@undefined
\let\contentsline\oldcontentsline
\let\newlabel\oldnewlabel
\fi}
\fi}
\global\let\hyper@last\relax 
\gdef\HyperFirstAtBeginDocument#1{#1}
\providecommand\HyField@AuxAddToFields[1]{}
\providecommand\HyField@AuxAddToCoFields[2]{}
\babel@aux{spanish}{}
\citation{lifeder-2019}
\citation{control-cerebral-interfases}
\citation{Waves}
\citation{migrania}
\citation{migrania}
\citation{instructables-2017}
\citation{cefaleaymigrania}
\citation{eeg}
\citation{mindwave}
\@writefile{toc}{\contentsline {chapter}{\numberline {1}Introducci\IeC {\'o}n}{9}{chapter.1}}
\@writefile{lof}{\addvspace {10\p@ }}
\@writefile{lot}{\addvspace {10\p@ }}
\@writefile{toc}{\contentsline {section}{\numberline {1.1}Motivaci\IeC {\'o}n}{9}{section.1.1}}
\@writefile{toc}{\contentsline {section}{\numberline {1.2}Estado del arte}{9}{section.1.2}}
\@writefile{lof}{\contentsline {figure}{\numberline {1.1}{\ignorespaces Electroencefalograma\relax }}{9}{figure.caption.4}}
\providecommand*\caption@xref[2]{\@setref\relax\@undefined{#1}}
\newlabel{electroencefalogram}{{1.1}{9}{Electroencefalograma\relax }{figure.caption.4}{}}
\citation{instructablesEEG2017}
\citation{experimental_brain_computer_interface}
\citation{google-sites}
\citation{ruiz}
\citation{arduino}
\citation{pjrc-teensy}
\@writefile{lof}{\contentsline {figure}{\numberline {1.2}{\ignorespaces Proyecto Mindwave\relax }}{10}{figure.caption.5}}
\newlabel{mindwave}{{1.2}{10}{Proyecto Mindwave\relax }{figure.caption.5}{}}
\citation{cerebro-ejecutivo}
\citation{diamond_elson_scheibel_2014}
\citation{lobulotemporal}
\@writefile{toc}{\contentsline {chapter}{\numberline {2}Conocimientos previos de Neurolog\IeC {\'\i }a}{11}{chapter.2}}
\@writefile{lof}{\addvspace {10\p@ }}
\@writefile{lot}{\addvspace {10\p@ }}
\newlabel{cap:dos}{{2}{11}{Conocimientos previos de Neurología}{chapter.2}{}}
\@writefile{toc}{\contentsline {section}{\numberline {2.1}El cerebro humano}{11}{section.2.1}}
\@writefile{lof}{\contentsline {figure}{\numberline {2.1}{\ignorespaces Mapa cerebral\relax }}{11}{figure.caption.6}}
\newlabel{Mapa_cerebral}{{2.1}{11}{Mapa cerebral\relax }{figure.caption.6}{}}
\citation{benarroch_1999}
\citation{lifeder-2019}
\citation{lifeder-2019}
\citation{Tecinasbasicaseeg}
\citation{homan}
\@writefile{lof}{\contentsline {figure}{\numberline {2.2}{\ignorespaces Funciones del cerebro humano \cite  {lifeder-2019}\relax }}{12}{figure.caption.7}}
\newlabel{Funciones_cerebro}{{2.2}{12}{Funciones del cerebro humano \cite {lifeder-2019}\relax }{figure.caption.7}{}}
\@writefile{toc}{\contentsline {section}{\numberline {2.2}Electroencefalograma}{12}{section.2.2}}
\citation{control-cerebral-interfases}
\citation{control-cerebral-interfases}
\@writefile{toc}{\contentsline {subsection}{\numberline {2.2.1}Posicionamiento de los electrodos}{13}{subsection.2.2.1}}
\@writefile{lof}{\contentsline {figure}{\numberline {2.3}{\ignorespaces \textit  {Sistema internacional 10-20}\relax }}{13}{figure.caption.8}}
\newlabel{s_I_10-20}{{2.3}{13}{\textit {Sistema internacional 10-20}\relax }{figure.caption.8}{}}
\@writefile{toc}{\contentsline {subsection}{\numberline {2.2.2}Configuraci\IeC {\'o}n y montaje de electrodos}{13}{subsection.2.2.2}}
\@writefile{lof}{\contentsline {figure}{\numberline {2.4}{\ignorespaces \textit  {Configuraciones de electrodos} \cite  {control-cerebral-interfases}\relax }}{13}{figure.caption.9}}
\newlabel{Configuracion_elecrodos}{{2.4}{13}{\textit {Configuraciones de electrodos} \cite {control-cerebral-interfases}\relax }{figure.caption.9}{}}
\citation{enrique}
\citation{EEG-signal-classification}
\@writefile{toc}{\contentsline {subsection}{\numberline {2.2.3}Ondas cerebrales}{14}{subsection.2.2.3}}
\@writefile{lot}{\contentsline {table}{\numberline {2.1}{\ignorespaces Grupos de frecuencias de la se\IeC {\~n}al EEG\relax }}{14}{table.caption.10}}
\newlabel{Bandas}{{2.1}{14}{Grupos de frecuencias de la señal EEG\relax }{table.caption.10}{}}
\@writefile{toc}{\contentsline {subsubsection}{Ondas Delta}{14}{section*.11}}
\citation{Waves}
\citation{Waves}
\@writefile{lof}{\contentsline {figure}{\numberline {2.5}{\ignorespaces \textit  {Ondas Delta}\relax }}{15}{figure.caption.12}}
\newlabel{Delta_waves}{{2.5}{15}{\textit {Ondas Delta}\relax }{figure.caption.12}{}}
\@writefile{toc}{\contentsline {subsubsection}{Ondas Theta}{15}{section*.13}}
\@writefile{lof}{\contentsline {figure}{\numberline {2.6}{\ignorespaces \textit  {Ondas Theta}\relax }}{15}{figure.caption.14}}
\newlabel{Theta_waves}{{2.6}{15}{\textit {Ondas Theta}\relax }{figure.caption.14}{}}
\@writefile{toc}{\contentsline {subsubsection}{Ondas Alpha}{15}{section*.15}}
\@writefile{lof}{\contentsline {figure}{\numberline {2.7}{\ignorespaces Ondas cerebrales\cite  {Waves}\relax }}{15}{figure.caption.16}}
\newlabel{waves}{{2.7}{15}{Ondas cerebrales\cite {Waves}\relax }{figure.caption.16}{}}
\@writefile{toc}{\contentsline {subsubsection}{Ondas Beta}{15}{section*.17}}
\citation{cefaleaymigrania}
\citation{cefaleaymigrania}
\citation{cefaleaymigrania}
\@writefile{toc}{\contentsline {subsubsection}{Ondas Gamma}{16}{section*.18}}
\@writefile{toc}{\contentsline {section}{\numberline {2.3}Migra\IeC {\~n}a}{16}{section.2.3}}
\@writefile{lot}{\contentsline {table}{\numberline {2.2}{\ignorespaces Factores de la migra\IeC {\~n}a \cite  {cefaleaymigrania}\relax }}{16}{table.caption.19}}
\newlabel{Factores_migraine}{{2.2}{16}{Factores de la migraña \cite {cefaleaymigrania}\relax }{table.caption.19}{}}
\citation{migrania}
\citation{migrania}
\citation{migrania}
\citation{migrania}
\citation{migrania}
\@writefile{toc}{\contentsline {subsection}{\numberline {2.3.1}Anomal\IeC {\'\i }as frecuentes}{17}{subsection.2.3.1}}
\@writefile{lof}{\contentsline {figure}{\numberline {2.8}{\ignorespaces Mapa cerebral con ondas r\IeC {\'a}pidas.\cite  {migrania}\relax }}{17}{figure.caption.20}}
\newlabel{M_C}{{2.8}{17}{Mapa cerebral con ondas rápidas.\cite {migrania}\relax }{figure.caption.20}{}}
\@writefile{lof}{\contentsline {figure}{\numberline {2.9}{\ignorespaces Mapa cerebral con ondas lentas.\cite  {migrania}\relax }}{17}{figure.caption.21}}
\newlabel{M_C2}{{2.9}{17}{Mapa cerebral con ondas lentas.\cite {migrania}\relax }{figure.caption.21}{}}
\@writefile{toc}{\contentsline {chapter}{\numberline {3}Memoria descriptiva}{18}{chapter.3}}
\@writefile{lof}{\addvspace {10\p@ }}
\@writefile{lot}{\addvspace {10\p@ }}
\newlabel{cap:tres}{{3}{18}{Memoria descriptiva}{chapter.3}{}}
\@writefile{toc}{\contentsline {section}{\numberline {3.1}Hardware}{18}{section.3.1}}
\@writefile{toc}{\contentsline {subsection}{\numberline {3.1.1}Sensores}{18}{subsection.3.1.1}}
\@writefile{lof}{\contentsline {figure}{\numberline {3.1}{\ignorespaces \textit  {Disposici\IeC {\'o}n de los electrodos}\relax }}{19}{figure.caption.22}}
\newlabel{P_EEG}{{3.1}{19}{\textit {Disposición de los electrodos}\relax }{figure.caption.22}{}}
\@writefile{toc}{\contentsline {subsubsection}{OpenBCI EEG Headband Kit}{19}{section*.23}}
\@writefile{lof}{\contentsline {figure}{\numberline {3.2}{\ignorespaces \textit  {HeadBand Kit EEG}\relax }}{19}{figure.caption.24}}
\newlabel{HBK}{{3.2}{19}{\textit {HeadBand Kit EEG}\relax }{figure.caption.24}{}}
\@writefile{toc}{\contentsline {subsubsection}{EMG/ECG Snap Electrode Cables}{20}{section*.25}}
\@writefile{lof}{\contentsline {figure}{\numberline {3.3}{\ignorespaces Electrodos\relax }}{20}{figure.caption.26}}
\newlabel{electrodes}{{3.3}{20}{Electrodos\relax }{figure.caption.26}{}}
\@writefile{toc}{\contentsline {subsection}{\numberline {3.1.2}Placa de desarrollo}{20}{subsection.3.1.2}}
\@writefile{lof}{\contentsline {figure}{\numberline {3.4}{\ignorespaces Teensy 3.6\relax }}{20}{figure.caption.27}}
\newlabel{teensy}{{3.4}{20}{Teensy 3.6\relax }{figure.caption.27}{}}
\@writefile{toc}{\contentsline {subsubsection}{Teensy 3.6}{21}{section*.28}}
\@writefile{lot}{\contentsline {table}{\numberline {3.1}{\ignorespaces Tabla de caracter\IeC {\'\i }sticas \textit  {Teensy 3.6}\relax }}{21}{table.caption.29}}
\newlabel{caract}{{3.1}{21}{Tabla de características \textit {Teensy 3.6}\relax }{table.caption.29}{}}
\citation{eeg}
\@writefile{toc}{\contentsline {subsection}{\numberline {3.1.3}Teensy 3 - Bluetooth LE 4.0 Module}{22}{subsection.3.1.3}}
\@writefile{lof}{\contentsline {figure}{\numberline {3.5}{\ignorespaces Teensy 3 Bluetooth\relax }}{22}{figure.caption.30}}
\newlabel{teensyB}{{3.5}{22}{Teensy 3 Bluetooth\relax }{figure.caption.30}{}}
\@writefile{toc}{\contentsline {section}{\numberline {3.2}Esquem\IeC {\'a}tico}{22}{section.3.2}}
\@writefile{lof}{\contentsline {figure}{\numberline {3.6}{\ignorespaces Esquema gr\IeC {\'a}fico del sistema\relax }}{23}{figure.caption.31}}
\newlabel{Esquema_TFG}{{3.6}{23}{Esquema gráfico del sistema\relax }{figure.caption.31}{}}
\@writefile{lot}{\contentsline {table}{\numberline {3.2}{\ignorespaces Tabla de componentes\relax }}{23}{table.caption.32}}
\newlabel{componentes}{{3.2}{23}{Tabla de componentes\relax }{table.caption.32}{}}
\@writefile{toc}{\contentsline {subsection}{\numberline {3.2.1}Circuito amplificador}{24}{subsection.3.2.1}}
\@writefile{lof}{\contentsline {figure}{\numberline {3.7}{\ignorespaces Circuito adaptador\relax }}{24}{figure.caption.33}}
\newlabel{CA}{{3.7}{24}{Circuito adaptador\relax }{figure.caption.33}{}}
\citation{fritzing}
\@writefile{toc}{\contentsline {section}{\numberline {3.3}Simulaci\IeC {\'o}n}{25}{section.3.3}}
\newlabel{fig:Osci}{{3.8a}{25}{Osciloscopio\relax }{figure.caption.34}{}}
\newlabel{sub@fig:Osci}{{a}{25}{Osciloscopio\relax }{figure.caption.34}{}}
\newlabel{fig:Mult}{{3.8b}{25}{Multímetro\relax }{figure.caption.34}{}}
\newlabel{sub@fig:Mult}{{b}{25}{Multímetro\relax }{figure.caption.34}{}}
\@writefile{lof}{\contentsline {figure}{\numberline {3.8}{\ignorespaces Simulaci\IeC {\'o}n\relax }}{25}{figure.caption.34}}
\newlabel{fig:sim}{{3.8}{25}{Simulación\relax }{figure.caption.34}{}}
\@writefile{toc}{\contentsline {section}{\numberline {3.4}Protoboard}{25}{section.3.4}}
\@writefile{lof}{\contentsline {figure}{\numberline {3.9}{\ignorespaces Dise\IeC {\~n}o de circuito \textit  {Fritzing}\relax }}{26}{figure.caption.35}}
\newlabel{fritzing}{{3.9}{26}{Diseño de circuito \textit {Fritzing}\relax }{figure.caption.35}{}}
\newlabel{fig:vistacerca}{{3.10a}{26}{Protoboard\relax }{figure.caption.36}{}}
\newlabel{sub@fig:vistacerca}{{a}{26}{Protoboard\relax }{figure.caption.36}{}}
\newlabel{fig:vistaarriba}{{3.10b}{26}{Protoboard vista desde arriba\relax }{figure.caption.36}{}}
\newlabel{sub@fig:vistaarriba}{{b}{26}{Protoboard vista desde arriba\relax }{figure.caption.36}{}}
\@writefile{lof}{\contentsline {figure}{\numberline {3.10}{\ignorespaces Circuito en \textit  {protoboard}\relax }}{26}{figure.caption.36}}
\newlabel{fig:protoboard}{{3.10}{26}{Circuito en \textit {protoboard}\relax }{figure.caption.36}{}}
\citation{instructables-2017}
\citation{instructables-2017}
\citation{instructables-2017}
\@writefile{toc}{\contentsline {section}{\numberline {3.5}Osciloscopio virtual}{27}{section.3.5}}
\@writefile{lof}{\contentsline {figure}{\numberline {3.11}{\ignorespaces Osciloscopio en \textit  {Processing}\cite  {instructables-2017}\relax }}{27}{figure.caption.37}}
\newlabel{OSPro}{{3.11}{27}{Osciloscopio en \textit {Processing}\cite {instructables-2017}\relax }{figure.caption.37}{}}
\citation{Transformada-Fourier}
\@writefile{toc}{\contentsline {section}{\numberline {3.6}Transformada de Fourier}{28}{section.3.6}}
\@writefile{toc}{\contentsline {subsection}{\numberline {3.6.1}Short-Time Fourier Transform}{28}{subsection.3.6.1}}
\citation{matlab-spectrogram}
\@writefile{lof}{\contentsline {figure}{\numberline {3.12}{\ignorespaces Se\IeC {\~n}al resultante de ejemplo\relax }}{29}{figure.caption.38}}
\newlabel{S_Resultante_ejemplo}{{3.12}{29}{Señal resultante de ejemplo\relax }{figure.caption.38}{}}
\@writefile{lof}{\contentsline {figure}{\numberline {3.13}{\ignorespaces Ventana de la se\IeC {\~n}al resultante de ejemplo\relax }}{29}{figure.caption.39}}
\newlabel{S_Resultante_ejemplo_ventana}{{3.13}{29}{Ventana de la señal resultante de ejemplo\relax }{figure.caption.39}{}}
\@writefile{lol}{\contentsline {lstlisting}{./Code/Matlab/Estudio\textunderscore datos.m}{30}{lstlisting.3.-1}}
\@writefile{lot}{\contentsline {table}{\numberline {3.3}{\ignorespaces C\IeC {\'o}digo STFT en Matlab\relax }}{30}{table.caption.40}}
\newlabel{Matlab_code_spect}{{3.3}{30}{Código STFT en Matlab\relax }{table.caption.40}{}}
\@writefile{lof}{\contentsline {figure}{\numberline {3.14}{\ignorespaces Resultado del espectrograma\relax }}{30}{figure.caption.41}}
\newlabel{Resultado_ejemplo}{{3.14}{30}{Resultado del espectrograma\relax }{figure.caption.41}{}}
\@writefile{toc}{\contentsline {subsection}{\numberline {3.6.2}Fast Fourier Transform}{30}{subsection.3.6.2}}
\citation{matlab-spectrogram}
\@writefile{lof}{\contentsline {figure}{\numberline {3.15}{\ignorespaces Ejemplo de demostraci\IeC {\'o}n de la t\IeC {\'e}cnica \textit  {FFT}\relax }}{31}{figure.caption.42}}
\newlabel{Ejemplo_FFT}{{3.15}{31}{Ejemplo de demostración de la técnica \textit {FFT}\relax }{figure.caption.42}{}}
\@writefile{toc}{\contentsline {section}{\numberline {3.7}Estudio con Matlab}{31}{section.3.7}}
\citation{pwelchs}
\citation{moyes-jiang}
\citation{python.org}
\@writefile{lof}{\contentsline {figure}{\numberline {3.16}{\ignorespaces Resultado de funci\IeC {\'o}n \textit  {spectrogram}\relax }}{32}{figure.caption.43}}
\newlabel{pwelch_result}{{3.16}{32}{Resultado de función \textit {spectrogram}\relax }{figure.caption.43}{}}
\@writefile{toc}{\contentsline {section}{\numberline {3.8}Aplicaci\IeC {\'o}n Python}{32}{section.3.8}}
\@writefile{toc}{\contentsline {subsection}{\numberline {3.8.1}Funcionamiento}{33}{subsection.3.8.1}}
\@writefile{lof}{\contentsline {figure}{\numberline {3.17}{\ignorespaces Diagrama entidad-relaci\IeC {\'o}n.\relax }}{33}{figure.caption.44}}
\newlabel{E_R}{{3.17}{33}{Diagrama entidad-relación.\relax }{figure.caption.44}{}}
\@writefile{toc}{\contentsline {subsubsection}{Get\_data}{34}{section*.45}}
\@writefile{lol}{\contentsline {lstlisting}{code/Python/get\textunderscore data.py}{34}{lstlisting.3.-2}}
\@writefile{lot}{\contentsline {table}{\numberline {3.4}{\ignorespaces Cabecera aplicaci\IeC {\'o}n (Get\_data).\relax }}{34}{table.caption.46}}
\newlabel{cabecera_get_data}{{3.4}{34}{Cabecera aplicación (Get\_data).\relax }{table.caption.46}{}}
\@writefile{lol}{\contentsline {lstlisting}{code/Python/get\textunderscore data.py}{34}{lstlisting.3.-3}}
\@writefile{lot}{\contentsline {table}{\numberline {3.5}{\ignorespaces Funci\IeC {\'o}n (Get\_data).\relax }}{34}{table.caption.47}}
\newlabel{metodo_get_data}{{3.5}{34}{Función (Get\_data).\relax }{table.caption.47}{}}
\@writefile{toc}{\contentsline {subsubsection}{Frequencies}{35}{section*.48}}
\@writefile{lol}{\contentsline {lstlisting}{code/Python/Frequencies.py}{35}{lstlisting.3.-4}}
\@writefile{lot}{\contentsline {table}{\numberline {3.6}{\ignorespaces Cabecera (Frequencies).\relax }}{35}{table.caption.49}}
\newlabel{Frequencies_cabecera}{{3.6}{35}{Cabecera (Frequencies).\relax }{table.caption.49}{}}
\citation{meier-2017}
\@writefile{toc}{\contentsline {subsubsection}{Main}{36}{section*.50}}
\@writefile{lol}{\contentsline {lstlisting}{code/Python/main.py}{37}{lstlisting.3.-5}}
\@writefile{lot}{\contentsline {table}{\numberline {3.7}{\ignorespaces Librer\IeC {\'\i }as de aplicaci\IeC {\'o}n (Main).\relax }}{37}{table.caption.51}}
\newlabel{librerias_main}{{3.7}{37}{Librerías de aplicación (Main).\relax }{table.caption.51}{}}
\@writefile{lol}{\contentsline {lstlisting}{code/Python/main.py}{37}{lstlisting.3.-6}}
\@writefile{lot}{\contentsline {table}{\numberline {3.8}{\ignorespaces Diagrama de la se\IeC {\~n}al (Main).\relax }}{37}{table.caption.52}}
\newlabel{primer_parte_main}{{3.8}{37}{Diagrama de la señal (Main).\relax }{table.caption.52}{}}
\@writefile{lol}{\contentsline {lstlisting}{code/Python/main.py}{38}{lstlisting.3.-7}}
\@writefile{lot}{\contentsline {table}{\numberline {3.9}{\ignorespaces Diagrama de barras de la se\IeC {\~n}al (Main).\relax }}{38}{table.caption.53}}
\newlabel{segunda_parte_main}{{3.9}{38}{Diagrama de barras de la señal (Main).\relax }{table.caption.53}{}}
\@writefile{lof}{\contentsline {figure}{\numberline {3.18}{\ignorespaces Aplicaci\IeC {\'o}n de lectura de se\IeC {\~n}al EEG.\relax }}{38}{figure.caption.54}}
\newlabel{Python_app}{{3.18}{38}{Aplicación de lectura de señal EEG.\relax }{figure.caption.54}{}}
\citation{arduino}
\citation{pjrc-teensy}
\@writefile{toc}{\contentsline {section}{\numberline {3.9}C\IeC {\'o}digo Teensy}{39}{section.3.9}}
\@writefile{lof}{\contentsline {figure}{\numberline {3.19}{\ignorespaces Teensy bootloader\relax }}{39}{figure.caption.55}}
\newlabel{Teensy_bootloader}{{3.19}{39}{Teensy bootloader\relax }{figure.caption.55}{}}
\@writefile{lof}{\contentsline {figure}{\numberline {3.20}{\ignorespaces IDE Arduino con la configuraci\IeC {\'o}n de Teensy\relax }}{39}{figure.caption.56}}
\newlabel{Teensy_duino}{{3.20}{39}{IDE Arduino con la configuración de Teensy\relax }{figure.caption.56}{}}
\@writefile{lol}{\contentsline {lstlisting}{code/Arduino/EEG\textunderscore analogread\textunderscore fft\textunderscore 4chans.ino}{40}{lstlisting.3.-8}}
\@writefile{lot}{\contentsline {table}{\numberline {3.10}{\ignorespaces Librer\IeC {\'\i }a arduino.\relax }}{40}{table.caption.57}}
\newlabel{libreria_arduino}{{3.10}{40}{Librería arduino.\relax }{table.caption.57}{}}
\@writefile{toc}{\contentsline {subsection}{\numberline {3.9.1}Variables}{40}{subsection.3.9.1}}
\@writefile{toc}{\contentsline {subsection}{\numberline {3.9.2}Recolecci\IeC {\'o}n datos}{41}{subsection.3.9.2}}
\@writefile{toc}{\contentsline {subsubsection}{Llamada a la funci\IeC {\'o}n}{41}{section*.58}}
\@writefile{lol}{\contentsline {lstlisting}{code/Arduino/EEG\textunderscore analogread\textunderscore fft\textunderscore 4chans.ino}{41}{lstlisting.3.-9}}
\@writefile{lot}{\contentsline {table}{\numberline {3.11}{\ignorespaces Obtenci\IeC {\'o}n de datos, llamada a funci\IeC {\'o}n.\relax }}{41}{table.caption.59}}
\newlabel{Obtencion_datos_arduino}{{3.11}{41}{Obtención de datos, llamada a función.\relax }{table.caption.59}{}}
\@writefile{toc}{\contentsline {subsubsection}{C\IeC {\'a}lculos}{41}{section*.60}}
\@writefile{lol}{\contentsline {lstlisting}{code/Arduino/EEG\textunderscore analogread\textunderscore fft\textunderscore 4chans.ino}{42}{lstlisting.3.-10}}
\@writefile{lot}{\contentsline {table}{\numberline {3.12}{\ignorespaces Obtenci\IeC {\'o}n de datos.\relax }}{42}{table.caption.61}}
\newlabel{Obtencion_datos_dos_arduino}{{3.12}{42}{Obtención de datos.\relax }{table.caption.61}{}}
\@writefile{toc}{\contentsline {subsubsection}{Elecci\IeC {\'o}n del canal}{42}{section*.62}}
\@writefile{lol}{\contentsline {lstlisting}{code/Arduino/EEG\textunderscore analogread\textunderscore fft\textunderscore 4chans.ino}{42}{lstlisting.3.-11}}
\@writefile{lot}{\contentsline {table}{\numberline {3.13}{\ignorespaces Obtenci\IeC {\'o}n de datos en cada uno de los canales.\relax }}{42}{table.caption.63}}
\newlabel{canales_arduino}{{3.13}{42}{Obtención de datos en cada uno de los canales.\relax }{table.caption.63}{}}
\@writefile{toc}{\contentsline {subsection}{\numberline {3.9.3}FFT}{43}{subsection.3.9.3}}
\@writefile{lol}{\contentsline {lstlisting}{code/Arduino/EEG\textunderscore analogread\textunderscore fft\textunderscore 4chans.ino}{43}{lstlisting.3.-12}}
\@writefile{lot}{\contentsline {table}{\numberline {3.14}{\ignorespaces Fast Fourier Transform.\relax }}{43}{table.caption.64}}
\newlabel{fft_arduino}{{3.14}{43}{Fast Fourier Transform.\relax }{table.caption.64}{}}
\@writefile{toc}{\contentsline {subsection}{\numberline {3.9.4}Subfrecuencias}{43}{subsection.3.9.4}}
\@writefile{lol}{\contentsline {lstlisting}{code/Arduino/EEG\textunderscore analogread\textunderscore fft\textunderscore 4chans.ino}{43}{lstlisting.3.-13}}
\@writefile{lot}{\contentsline {table}{\numberline {3.15}{\ignorespaces Divisi\IeC {\'o}n en grupos de frecuencias.\relax }}{43}{table.caption.65}}
\newlabel{subfrequencies}{{3.15}{43}{División en grupos de frecuencias.\relax }{table.caption.65}{}}
\@writefile{toc}{\contentsline {chapter}{\numberline {4}Experimentaci\IeC {\'o}n}{44}{chapter.4}}
\@writefile{lof}{\addvspace {10\p@ }}
\@writefile{lot}{\addvspace {10\p@ }}
\newlabel{cap:cuatro}{{4}{44}{Experimentación}{chapter.4}{}}
\@writefile{toc}{\contentsline {section}{\numberline {4.1}Dise\IeC {\~n}o y construcci\IeC {\'o}n de placa}{44}{section.4.1}}
\@writefile{toc}{\contentsline {subsection}{\numberline {4.1.1}Kicad}{44}{subsection.4.1.1}}
\@writefile{lof}{\contentsline {figure}{\numberline {4.1}{\ignorespaces Circuito en Kicad.\relax }}{44}{figure.caption.66}}
\newlabel{circuito_kicad}{{4.1}{44}{Circuito en Kicad.\relax }{figure.caption.66}{}}
\@writefile{lof}{\contentsline {figure}{\numberline {4.2}{\ignorespaces PCI en Kicad.\relax }}{45}{figure.caption.67}}
\newlabel{PCI_kicad}{{4.2}{45}{PCI en Kicad.\relax }{figure.caption.67}{}}
\@writefile{toc}{\contentsline {subsubsection}{Impresi\IeC {\'o}n}{45}{section*.68}}
\citation{jlcpcb}
\@writefile{lof}{\contentsline {figure}{\numberline {4.3}{\ignorespaces Etapas para la impresi\IeC {\'o}n de la PCI\relax }}{46}{figure.caption.69}}
\newlabel{impresion_PCI}{{4.3}{46}{Etapas para la impresión de la PCI\relax }{figure.caption.69}{}}
\@writefile{lof}{\contentsline {figure}{\numberline {4.4}{\ignorespaces Etapas finales para la impresi\IeC {\'o}n de la PCI\relax }}{46}{figure.caption.70}}
\newlabel{PCI_finished}{{4.4}{46}{Etapas finales para la impresión de la PCI\relax }{figure.caption.70}{}}
\@writefile{lof}{\contentsline {figure}{\numberline {4.5}{\ignorespaces Soldadura de la PCI\relax }}{47}{figure.caption.71}}
\newlabel{PCI_solder}{{4.5}{47}{Soldadura de la PCI\relax }{figure.caption.71}{}}
\@writefile{toc}{\contentsline {subsection}{\numberline {4.1.2}Error de impresi\IeC {\'o}n}{47}{subsection.4.1.2}}
\@writefile{lof}{\contentsline {figure}{\numberline {4.6}{\ignorespaces Error paliado\relax }}{47}{figure.caption.72}}
\newlabel{Error}{{4.6}{47}{Error paliado\relax }{figure.caption.72}{}}
\@writefile{toc}{\contentsline {section}{\numberline {4.2}Obtenci\IeC {\'o}n de datos}{48}{section.4.2}}
\@writefile{toc}{\contentsline {section}{\numberline {4.3}Pruebas de ejercicios}{48}{section.4.3}}
\@writefile{toc}{\contentsline {subsection}{\numberline {4.3.1}Usuario 1}{48}{subsection.4.3.1}}
\@writefile{toc}{\contentsline {subsubsection}{Hora de la medida: 11:46}{49}{section*.73}}
\@writefile{lof}{\contentsline {figure}{\numberline {4.7}{\ignorespaces Ondas cerebrales en estado de activaci\IeC {\'o}n (Toma 1)\relax }}{49}{figure.caption.74}}
\newlabel{Jota11-46-plot}{{4.7}{49}{Ondas cerebrales en estado de activación (Toma 1)\relax }{figure.caption.74}{}}
\@writefile{lot}{\contentsline {table}{\numberline {4.1}{\ignorespaces Gr\IeC {\'a}fico de barras en estado de activaci\IeC {\'o}n (Toma 1)\relax }}{49}{table.caption.75}}
\newlabel{Jota11-46-barchar}{{4.1}{49}{Gráfico de barras en estado de activación (Toma 1)\relax }{table.caption.75}{}}
\@writefile{toc}{\contentsline {subsubsection}{Hora de la medida: 11:48}{50}{section*.76}}
\@writefile{lof}{\contentsline {figure}{\numberline {4.8}{\ignorespaces Ondas cerebrales en estado de activaci\IeC {\'o}n (Toma 2)\relax }}{50}{figure.caption.77}}
\newlabel{Jota11-48-plot}{{4.8}{50}{Ondas cerebrales en estado de activación (Toma 2)\relax }{figure.caption.77}{}}
\@writefile{lot}{\contentsline {table}{\numberline {4.2}{\ignorespaces Gr\IeC {\'a}fico de barras en estado de activaci\IeC {\'o}n (Toma 2)\relax }}{50}{table.caption.78}}
\newlabel{Jota11-48-barchar}{{4.2}{50}{Gráfico de barras en estado de activación (Toma 2)\relax }{table.caption.78}{}}
\@writefile{toc}{\contentsline {subsection}{\numberline {4.3.2}Usuario 2}{51}{subsection.4.3.2}}
\@writefile{toc}{\contentsline {subsubsection}{Hora de la medida: 12:08}{51}{section*.79}}
\@writefile{lof}{\contentsline {figure}{\numberline {4.9}{\ignorespaces Ondas cerebrales en estado de activaci\IeC {\'o}n (Toma 1)\relax }}{51}{figure.caption.80}}
\newlabel{alvaro12-08-plot}{{4.9}{51}{Ondas cerebrales en estado de activación (Toma 1)\relax }{figure.caption.80}{}}
\@writefile{lot}{\contentsline {table}{\numberline {4.3}{\ignorespaces Gr\IeC {\'a}fico de barras en estado de activaci\IeC {\'o}n (Toma 1)\relax }}{52}{table.caption.81}}
\newlabel{alvaro12-08-barchar}{{4.3}{52}{Gráfico de barras en estado de activación (Toma 1)\relax }{table.caption.81}{}}
\@writefile{toc}{\contentsline {subsubsection}{Hora de la medida: 12:10}{52}{section*.82}}
\@writefile{lof}{\contentsline {figure}{\numberline {4.10}{\ignorespaces Ondas cerebrales en estado de activaci\IeC {\'o}n (Toma 2)\relax }}{52}{figure.caption.83}}
\newlabel{alvaro12-10-plot}{{4.10}{52}{Ondas cerebrales en estado de activación (Toma 2)\relax }{figure.caption.83}{}}
\@writefile{lot}{\contentsline {table}{\numberline {4.4}{\ignorespaces Gr\IeC {\'a}fico de barras en estado de activaci\IeC {\'o}n (Toma 2)\relax }}{53}{table.caption.84}}
\newlabel{alvaro12-10-barchar}{{4.4}{53}{Gráfico de barras en estado de activación (Toma 2)\relax }{table.caption.84}{}}
\@writefile{toc}{\contentsline {section}{\numberline {4.4}M\IeC {\'u}sica estridente}{53}{section.4.4}}
\@writefile{toc}{\contentsline {subsection}{\numberline {4.4.1}Usuario 1}{53}{subsection.4.4.1}}
\@writefile{toc}{\contentsline {subsubsection}{Hora de la medida: 11:51}{53}{section*.85}}
\@writefile{lof}{\contentsline {figure}{\numberline {4.11}{\ignorespaces Ondas cerebrales en estado de escucha (Toma 1)\relax }}{54}{figure.caption.86}}
\newlabel{Jota11-51-plot}{{4.11}{54}{Ondas cerebrales en estado de escucha (Toma 1)\relax }{figure.caption.86}{}}
\@writefile{lot}{\contentsline {table}{\numberline {4.5}{\ignorespaces Gr\IeC {\'a}fico de barras en estado de escucha (Toma 1)\relax }}{54}{table.caption.87}}
\newlabel{Jota11-51-barchar}{{4.5}{54}{Gráfico de barras en estado de escucha (Toma 1)\relax }{table.caption.87}{}}
\@writefile{toc}{\contentsline {subsubsection}{Hora de la medida: 11:53}{55}{section*.88}}
\@writefile{lof}{\contentsline {figure}{\numberline {4.12}{\ignorespaces Ondas cerebrales en estado de escucha (Toma 2)\relax }}{55}{figure.caption.89}}
\newlabel{Jota11-53-plot}{{4.12}{55}{Ondas cerebrales en estado de escucha (Toma 2)\relax }{figure.caption.89}{}}
\@writefile{lot}{\contentsline {table}{\numberline {4.6}{\ignorespaces Gr\IeC {\'a}fico de barras en estado de escucha (Toma 2)\relax }}{55}{table.caption.90}}
\newlabel{Jota11-53-barchar}{{4.6}{55}{Gráfico de barras en estado de escucha (Toma 2)\relax }{table.caption.90}{}}
\@writefile{toc}{\contentsline {subsubsection}{Hora de la medida: 11:55}{56}{section*.91}}
\@writefile{lof}{\contentsline {figure}{\numberline {4.13}{\ignorespaces Ondas cerebrales en estado de escucha (Toma 3)\relax }}{56}{figure.caption.92}}
\newlabel{Jota11-55-plot}{{4.13}{56}{Ondas cerebrales en estado de escucha (Toma 3)\relax }{figure.caption.92}{}}
\@writefile{lof}{\contentsline {figure}{\numberline {4.14}{\ignorespaces Frecuencias en estado escucha (Toma 3)[Ampliada]\relax }}{56}{figure.caption.93}}
\newlabel{Jota11-55_2-stem}{{4.14}{56}{Frecuencias en estado escucha (Toma 3)[Ampliada]\relax }{figure.caption.93}{}}
\@writefile{lot}{\contentsline {table}{\numberline {4.7}{\ignorespaces Gr\IeC {\'a}fico de barras en estado de escucha (Toma 3)\relax }}{57}{table.caption.94}}
\newlabel{Jota11-55-barchar}{{4.7}{57}{Gráfico de barras en estado de escucha (Toma 3)\relax }{table.caption.94}{}}
\@writefile{toc}{\contentsline {subsection}{\numberline {4.4.2}Usuario 2}{57}{subsection.4.4.2}}
\@writefile{toc}{\contentsline {subsubsection}{Hora de la medida: 12:13}{58}{section*.95}}
\@writefile{lof}{\contentsline {figure}{\numberline {4.15}{\ignorespaces Ondas cerebrales en estado de escucha (Toma 1)\relax }}{58}{figure.caption.96}}
\newlabel{alvaro12-13-plot}{{4.15}{58}{Ondas cerebrales en estado de escucha (Toma 1)\relax }{figure.caption.96}{}}
\@writefile{lot}{\contentsline {table}{\numberline {4.8}{\ignorespaces Gr\IeC {\'a}fico de barras en estado de escucha (Toma 1)\relax }}{58}{table.caption.97}}
\newlabel{alvaro12-13-barchar}{{4.8}{58}{Gráfico de barras en estado de escucha (Toma 1)\relax }{table.caption.97}{}}
\@writefile{toc}{\contentsline {subsubsection}{Hora de la medida: 12:14}{59}{section*.98}}
\@writefile{lof}{\contentsline {figure}{\numberline {4.16}{\ignorespaces Ondas cerebrales en estado de escucha (Toma 2)\relax }}{59}{figure.caption.99}}
\newlabel{alvaro12-14-plot}{{4.16}{59}{Ondas cerebrales en estado de escucha (Toma 2)\relax }{figure.caption.99}{}}
\@writefile{lot}{\contentsline {table}{\numberline {4.9}{\ignorespaces Gr\IeC {\'a}fico de barras en estado de escucha (Toma 2)\relax }}{59}{table.caption.100}}
\newlabel{alvaro12-14-barchar}{{4.9}{59}{Gráfico de barras en estado de escucha (Toma 2)\relax }{table.caption.100}{}}
\@writefile{toc}{\contentsline {subsubsection}{Hora de la medida: 12:16}{60}{section*.101}}
\@writefile{lof}{\contentsline {figure}{\numberline {4.17}{\ignorespaces Ondas cerebrales en estado de escucha (Toma 3)\relax }}{60}{figure.caption.102}}
\newlabel{alvaro12-16-plot}{{4.17}{60}{Ondas cerebrales en estado de escucha (Toma 3)\relax }{figure.caption.102}{}}
\@writefile{lot}{\contentsline {table}{\numberline {4.10}{\ignorespaces Gr\IeC {\'a}fico de barras en estado de escucha (Toma 3)\relax }}{60}{table.caption.103}}
\newlabel{alvaro12-16-barchar}{{4.10}{60}{Gráfico de barras en estado de escucha (Toma 3)\relax }{table.caption.103}{}}
\@writefile{toc}{\contentsline {section}{\numberline {4.5}M\IeC {\'u}sica relajante}{61}{section.4.5}}
\@writefile{toc}{\contentsline {subsection}{\numberline {4.5.1}Usuario 1}{61}{subsection.4.5.1}}
\@writefile{toc}{\contentsline {subsubsection}{Hora de la medida: 11:58}{61}{section*.104}}
\@writefile{lof}{\contentsline {figure}{\numberline {4.18}{\ignorespaces Ondas cerebrales en estado de relajaci\IeC {\'o}n (Toma 1)\relax }}{61}{figure.caption.105}}
\newlabel{Jota11-58-plot}{{4.18}{61}{Ondas cerebrales en estado de relajación (Toma 1)\relax }{figure.caption.105}{}}
\@writefile{lot}{\contentsline {table}{\numberline {4.11}{\ignorespaces Gr\IeC {\'a}fico de barras en estado de relajaci\IeC {\'o}n (Toma 1)\relax }}{62}{table.caption.106}}
\newlabel{Jota11-58-barchar}{{4.11}{62}{Gráfico de barras en estado de relajación (Toma 1)\relax }{table.caption.106}{}}
\@writefile{toc}{\contentsline {subsubsection}{Hora de la medida: 11:59}{62}{section*.107}}
\@writefile{lof}{\contentsline {figure}{\numberline {4.19}{\ignorespaces Ondas cerebrales en estado de relajaci\IeC {\'o}n (Toma 2)\relax }}{62}{figure.caption.108}}
\newlabel{Jota11-59-plot}{{4.19}{62}{Ondas cerebrales en estado de relajación (Toma 2)\relax }{figure.caption.108}{}}
\@writefile{lot}{\contentsline {table}{\numberline {4.12}{\ignorespaces Gr\IeC {\'a}fico de barras en estado de relajaci\IeC {\'o}n (Toma 2)\relax }}{63}{table.caption.109}}
\newlabel{Jota11-59-barchar}{{4.12}{63}{Gráfico de barras en estado de relajación (Toma 2)\relax }{table.caption.109}{}}
\@writefile{toc}{\contentsline {subsubsection}{Hora de la medida: 12:01}{63}{section*.110}}
\@writefile{lof}{\contentsline {figure}{\numberline {4.20}{\ignorespaces Ondas cerebrales en estado de relajaci\IeC {\'o}n (Toma 3)\relax }}{63}{figure.caption.111}}
\newlabel{Jota12-01-plot}{{4.20}{63}{Ondas cerebrales en estado de relajación (Toma 3)\relax }{figure.caption.111}{}}
\@writefile{lot}{\contentsline {table}{\numberline {4.13}{\ignorespaces Gr\IeC {\'a}fico de barras en estado de relajaci\IeC {\'o}n (Toma 3)\relax }}{64}{table.caption.112}}
\newlabel{Jota12-01-barchar}{{4.13}{64}{Gráfico de barras en estado de relajación (Toma 3)\relax }{table.caption.112}{}}
\@writefile{toc}{\contentsline {subsection}{\numberline {4.5.2}Usuario 2}{64}{subsection.4.5.2}}
\@writefile{toc}{\contentsline {subsubsection}{Hora de la medida: 12:17}{64}{section*.113}}
\@writefile{lof}{\contentsline {figure}{\numberline {4.21}{\ignorespaces Ondas cerebrales en estado de relajaci\IeC {\'o}n (Toma 1)\relax }}{64}{figure.caption.114}}
\newlabel{alvaro12-17-plot}{{4.21}{64}{Ondas cerebrales en estado de relajación (Toma 1)\relax }{figure.caption.114}{}}
\@writefile{lot}{\contentsline {table}{\numberline {4.14}{\ignorespaces Gr\IeC {\'a}fico de barras en estado de relajaci\IeC {\'o}n (Toma 1)\relax }}{65}{table.caption.115}}
\newlabel{alvaro12-17-barchar}{{4.14}{65}{Gráfico de barras en estado de relajación (Toma 1)\relax }{table.caption.115}{}}
\@writefile{toc}{\contentsline {subsubsection}{Hora de la medida: 12:19}{65}{section*.116}}
\@writefile{lof}{\contentsline {figure}{\numberline {4.22}{\ignorespaces Ondas cerebrales en estado de relajaci\IeC {\'o}n (Toma 2)\relax }}{65}{figure.caption.117}}
\newlabel{alvaro12-19-plot}{{4.22}{65}{Ondas cerebrales en estado de relajación (Toma 2)\relax }{figure.caption.117}{}}
\@writefile{lot}{\contentsline {table}{\numberline {4.15}{\ignorespaces Gr\IeC {\'a}fico de barras en estado de relajaci\IeC {\'o}n (Toma 2)\relax }}{66}{table.caption.118}}
\newlabel{alvaro12-19-barchar}{{4.15}{66}{Gráfico de barras en estado de relajación (Toma 2)\relax }{table.caption.118}{}}
\@writefile{toc}{\contentsline {subsubsection}{Hora de la medida: 12:20}{66}{section*.119}}
\@writefile{lof}{\contentsline {figure}{\numberline {4.23}{\ignorespaces Ondas cerebrales en estado de relajaci\IeC {\'o}n (Toma 3)\relax }}{66}{figure.caption.120}}
\newlabel{alvaro12-20-plot}{{4.23}{66}{Ondas cerebrales en estado de relajación (Toma 3)\relax }{figure.caption.120}{}}
\@writefile{lot}{\contentsline {table}{\numberline {4.16}{\ignorespaces Gr\IeC {\'a}fico de barras en estado de relajaci\IeC {\'o}n (Toma 3)\relax }}{67}{table.caption.121}}
\newlabel{alvaro12-20-barchar}{{4.16}{67}{Gráfico de barras en estado de relajación (Toma 3)\relax }{table.caption.121}{}}
\@writefile{toc}{\contentsline {section}{\numberline {4.6}Conclusiones}{67}{section.4.6}}
\@writefile{toc}{\contentsline {subsection}{\numberline {4.6.1}Prueba de ejercicio}{67}{subsection.4.6.1}}
\@writefile{lot}{\contentsline {table}{\numberline {4.17}{\ignorespaces Gr\IeC {\'a}fico comparativo entre usuarios, prueba de ejercicios\relax }}{68}{table.caption.122}}
\newlabel{P_ejercicio_comparacion}{{4.17}{68}{Gráfico comparativo entre usuarios, prueba de ejercicios\relax }{table.caption.122}{}}
\@writefile{toc}{\contentsline {subsection}{\numberline {4.6.2}M\IeC {\'u}sica estridente}{68}{subsection.4.6.2}}
\@writefile{lot}{\contentsline {table}{\numberline {4.18}{\ignorespaces Gr\IeC {\'a}fico comparativo entre usuarios, m\IeC {\'u}sica estridente\relax }}{69}{table.caption.123}}
\newlabel{M_estridente_comparacion}{{4.18}{69}{Gráfico comparativo entre usuarios, música estridente\relax }{table.caption.123}{}}
\@writefile{toc}{\contentsline {subsection}{\numberline {4.6.3}M\IeC {\'u}sica relajante}{69}{subsection.4.6.3}}
\@writefile{lot}{\contentsline {table}{\numberline {4.19}{\ignorespaces Gr\IeC {\'a}fico comparativo entre usuarios, m\IeC {\'u}sica relajante\relax }}{70}{table.caption.124}}
\newlabel{M_relajante_comparacion}{{4.19}{70}{Gráfico comparativo entre usuarios, música relajante\relax }{table.caption.124}{}}
\@writefile{toc}{\contentsline {subsection}{\numberline {4.6.4}Conclusi\IeC {\'o}n}{70}{subsection.4.6.4}}
\@writefile{toc}{\contentsline {chapter}{\numberline {5}Conclusiones}{71}{chapter.5}}
\@writefile{lof}{\addvspace {10\p@ }}
\@writefile{lot}{\addvspace {10\p@ }}
\newlabel{cap:conclusiones}{{5}{71}{Conclusiones}{chapter.5}{}}
\@writefile{toc}{\contentsline {section}{\numberline {5.1}Mejoras}{71}{section.5.1}}
\bibstyle{plain}
\bibdata{memoria}
\bibcite{Waves}{1}
\bibcite{fritzing}{2}
\bibcite{arduino}{3}
\bibcite{mindwave}{4}
\bibcite{jlcpcb}{5}
\bibcite{python.org}{6}
\bibcite{cefaleaymigrania}{7}
\bibcite{benarroch_1999}{8}
\bibcite{diamond_elson_scheibel_2014}{9}
\bibcite{eeg}{10}
\bibcite{experimental_brain_computer_interface}{11}
\bibcite{Tecinasbasicaseeg}{12}
\bibcite{control-cerebral-interfases}{13}
\@writefile{toc}{\contentsline {chapter}{Bibliograf\IeC {\'\i }a}{72}{section.5.1}}
\bibcite{Transformada-Fourier}{14}
\bibcite{cerebro-ejecutivo}{15}
\bibcite{google-sites}{16}
\bibcite{homan}{17}
\bibcite{instructablesEEG2017}{18}
\bibcite{instructables-2017}{19}
\bibcite{lifeder-2019}{20}
\bibcite{matlab-spectrogram}{21}
\bibcite{meier-2017}{22}
\bibcite{moyes-jiang}{23}
\bibcite{migrania}{24}
\bibcite{EEG-signal-classification}{25}
\bibcite{pwelchs}{26}
\bibcite{lobulotemporal}{27}
\bibcite{ruiz}{28}
\bibcite{enrique}{29}
\bibcite{pjrc-teensy}{30}
\newlabel{Esquema_PDF}{{5.1}{76}{Mejoras}{chapter*.125}{}}
\newlabel{Kicad_pdf}{{5.1}{77}{Mejoras}{chapter*.125}{}}
\newlabel{PCI_pdf}{{5.1}{85}{Mejoras}{chapter*.125}{}}
\@writefile{toc}{\contentsline {chapter}{\numberline {A}C\IeC {\'o}digo Matlab}{85}{appendix.Alph1}}
\@writefile{lof}{\addvspace {10\p@ }}
\@writefile{lot}{\addvspace {10\p@ }}
\@writefile{toc}{\contentsline {section}{\numberline {A.1}C\IeC {\'a}lculo de frecuencias}{85}{section.Alph1.1}}
\newlabel{M_calculo_frecuencias}{{A.1}{85}{Cálculo de frecuencias}{section.Alph1.1}{}}
\@writefile{lol}{\contentsline {lstlisting}{code/Matlab/calculo\textunderscore frecuencias.m}{85}{lstlisting.Alph1.-14}}
\@writefile{toc}{\contentsline {section}{\numberline {A.2}Ejecuci\IeC {\'o}n tiempo real}{86}{section.Alph1.2}}
\newlabel{M_ejecucion_tiempo_real}{{A.2}{86}{Ejecución tiempo real}{section.Alph1.2}{}}
\@writefile{lol}{\contentsline {lstlisting}{code/Matlab/ejecucion\textunderscore time\textunderscore real.m}{86}{lstlisting.Alph1.-15}}
\@writefile{toc}{\contentsline {section}{\numberline {A.3}Estudio de datos}{87}{section.Alph1.3}}
\newlabel{M_estudio_datos}{{A.3}{87}{Estudio de datos}{section.Alph1.3}{}}
\@writefile{lol}{\contentsline {lstlisting}{code/Matlab/Estudio\textunderscore datos.m}{87}{lstlisting.Alph1.-16}}
\@writefile{toc}{\contentsline {section}{\numberline {A.4}FFT}{90}{section.Alph1.4}}
\newlabel{M_FFT}{{A.4}{90}{FFT}{section.Alph1.4}{}}
\@writefile{lol}{\contentsline {lstlisting}{code/Matlab/FFT\textunderscore code.m}{90}{lstlisting.Alph1.-17}}
\@writefile{toc}{\contentsline {section}{\numberline {A.5}Recolecci\IeC {\'o}n de datos}{91}{section.Alph1.5}}
\newlabel{M_recoleccion_datos}{{A.5}{91}{Recolección de datos}{section.Alph1.5}{}}
\@writefile{lol}{\contentsline {lstlisting}{code/Matlab/Recoleccion\textunderscore datos.m}{91}{lstlisting.Alph1.-18}}
\@writefile{toc}{\contentsline {section}{\numberline {A.6}Recolecci\IeC {\'o}n de datos por minuto}{93}{section.Alph1.6}}
\newlabel{M_recoleccion_per_min}{{A.6}{93}{Recolección de datos por minuto}{section.Alph1.6}{}}
\@writefile{lol}{\contentsline {lstlisting}{code/Matlab/Recoleccion\textunderscore datos\textunderscore permin.m}{93}{lstlisting.Alph1.-19}}
\@writefile{toc}{\contentsline {section}{\numberline {A.7}Comprobaci\IeC {\'o}n del serial}{95}{section.Alph1.7}}
\newlabel{M_serial_test}{{A.7}{95}{Comprobación del serial}{section.Alph1.7}{}}
\@writefile{lol}{\contentsline {lstlisting}{code/Matlab/serial\textunderscore test.m}{95}{lstlisting.Alph1.-20}}
\@writefile{toc}{\contentsline {chapter}{\numberline {B}C\IeC {\'o}digo en Python}{96}{appendix.Alph2}}
\@writefile{lof}{\addvspace {10\p@ }}
\@writefile{lot}{\addvspace {10\p@ }}
\newlabel{codigo_python_apend}{{B}{96}{Código en Python}{appendix.Alph2}{}}
\@writefile{toc}{\contentsline {section}{\numberline {B.1}Main.py}{96}{section.Alph2.1}}
\@writefile{lol}{\contentsline {lstlisting}{code/Python/main.py}{96}{lstlisting.Alph2.-21}}
\@writefile{toc}{\contentsline {section}{\numberline {B.2}Get\_data.py}{100}{section.Alph2.2}}
\@writefile{lol}{\contentsline {lstlisting}{code/Python/Get\textunderscore data.py}{100}{lstlisting.Alph2.-22}}
\@writefile{toc}{\contentsline {section}{\numberline {B.3}Frequencies}{101}{section.Alph2.3}}
\@writefile{lol}{\contentsline {lstlisting}{code/Python/Frequencies.py}{101}{lstlisting.Alph2.-23}}
\@writefile{toc}{\contentsline {chapter}{\numberline {C}C\IeC {\'o}digo en Teensy}{103}{appendix.Alph3}}
\@writefile{lof}{\addvspace {10\p@ }}
\@writefile{lot}{\addvspace {10\p@ }}
\newlabel{codigo_teensy_apend}{{C}{103}{Código en Teensy}{appendix.Alph3}{}}
\@writefile{lol}{\contentsline {lstlisting}{code/arduino/EEG\textunderscore analogread\textunderscore fft\textunderscore 4chans.ino}{103}{lstlisting.Alph3.-24}}
\@writefile{toc}{\contentsline {chapter}{\numberline {D}Reacondicionamiento}{108}{appendix.Alph4}}
\@writefile{lof}{\addvspace {10\p@ }}
\@writefile{lot}{\addvspace {10\p@ }}
\newlabel{aped. Calculos}{{D}{108}{Reacondicionamiento}{appendix.Alph4}{}}
\@writefile{toc}{\contentsline {section}{\numberline {D.1}Filtro paso alto}{109}{section.Alph4.1}}
\@writefile{lof}{\contentsline {figure}{\numberline {D.1}{\ignorespaces Filtro PasoAlto pasivo\relax }}{109}{figure.caption.126}}
\newlabel{Filtro_paso_alto}{{D.1}{109}{Filtro PasoAlto pasivo\relax }{figure.caption.126}{}}
\@writefile{lot}{\contentsline {table}{\numberline {D.1}{\ignorespaces F\IeC {\'o}rmulas para c\IeC {\'a}lculo frecuencia de corte 0.075 Hz\relax }}{109}{table.caption.127}}
\newlabel{Formulas_frecuencia_corte_0.05}{{D.1}{109}{Fórmulas para cálculo frecuencia de corte 0.075 Hz\relax }{table.caption.127}{}}
\@writefile{toc}{\contentsline {section}{\numberline {D.2}Filtro paso bajo activo}{110}{section.Alph4.2}}
\@writefile{lof}{\contentsline {figure}{\numberline {D.2}{\ignorespaces Filtro PasoBajo activo\relax }}{110}{figure.caption.128}}
\newlabel{Filtro_paso_bajo_activo}{{D.2}{110}{Filtro PasoBajo activo\relax }{figure.caption.128}{}}
\@writefile{lot}{\contentsline {table}{\numberline {D.2}{\ignorespaces F\IeC {\'o}rmulas para c\IeC {\'a}lculo frecuencia de corte 60 Hz\relax }}{110}{table.caption.129}}
\newlabel{Formulas_frecuencia_corte_60}{{D.2}{110}{Fórmulas para cálculo frecuencia de corte 60 Hz\relax }{table.caption.129}{}}
\@writefile{lot}{\contentsline {table}{\numberline {D.3}{\ignorespaces F\IeC {\'o}rmulas para c\IeC {\'a}lculo de ganancia del amplificador\relax }}{111}{table.caption.130}}
\newlabel{Formula_ganancia_amplificador}{{D.3}{111}{Fórmulas para cálculo de ganancia del amplificador\relax }{table.caption.130}{}}
\@writefile{toc}{\contentsline {section}{\numberline {D.3}Filtro paso bajo pasivo}{111}{section.Alph4.3}}
\@writefile{lof}{\contentsline {figure}{\numberline {D.3}{\ignorespaces Filtro PasoBajo pasivo\relax }}{111}{figure.caption.131}}
\newlabel{Filtro_paso_bajo_pasivo}{{D.3}{111}{Filtro PasoBajo pasivo\relax }{figure.caption.131}{}}
\@writefile{lot}{\contentsline {table}{\numberline {D.4}{\ignorespaces F\IeC {\'o}rmulas para c\IeC {\'a}lculo frecuencia de corte 25 Hz\relax }}{112}{table.caption.132}}
\newlabel{Formulas_frecuencia_corte_25}{{D.4}{112}{Fórmulas para cálculo frecuencia de corte 25 Hz\relax }{table.caption.132}{}}
\@writefile{toc}{\contentsline {section}{\numberline {D.4}Gr\IeC {\'a}fica filtro paso alto pasivo}{112}{section.Alph4.4}}
\@writefile{lof}{\contentsline {figure}{\numberline {D.4}{\ignorespaces Gr\IeC {\'a}fico Bode Filtro PasoAlto\relax }}{112}{figure.caption.133}}
\newlabel{G_B_F_A}{{D.4}{112}{Gráfico Bode Filtro PasoAlto\relax }{figure.caption.133}{}}
\@writefile{toc}{\contentsline {section}{\numberline {D.5}Gr\IeC {\'a}fica filtro paso bajo activo}{112}{section.Alph4.5}}
\@writefile{lof}{\contentsline {figure}{\numberline {D.5}{\ignorespaces Gr\IeC {\'a}fico Bode Filtro PasoBajo activo\relax }}{113}{figure.caption.134}}
\newlabel{G_B_F_B_a}{{D.5}{113}{Gráfico Bode Filtro PasoBajo activo\relax }{figure.caption.134}{}}
\@writefile{toc}{\contentsline {section}{\numberline {D.6}Gr\IeC {\'a}fica filtro paso bajo pasivo}{113}{section.Alph4.6}}
\@writefile{lof}{\contentsline {figure}{\numberline {D.6}{\ignorespaces Gr\IeC {\'a}fico Bode Filtro PasoBajo\relax }}{113}{figure.caption.135}}
\newlabel{G_B_F_B_p}{{D.6}{113}{Gráfico Bode Filtro PasoBajo\relax }{figure.caption.135}{}}
\@writefile{toc}{\contentsline {section}{\numberline {D.7}Gr\IeC {\'a}fica filtro paso banda}{114}{section.Alph4.7}}
\@writefile{lof}{\contentsline {figure}{\numberline {D.7}{\ignorespaces Gr\IeC {\'a}fico Bode Filtro PasoBanda\relax }}{114}{figure.caption.136}}
\newlabel{G_B_F_P_B}{{D.7}{114}{Gráfico Bode Filtro PasoBanda\relax }{figure.caption.136}{}}
